%YAML 1.1
%TAG !u! tag:unity3d.com,2011:
--- !u!1 &3891546719498756976
GameObject:
  m_ObjectHideFlags: 0
  m_CorrespondingSourceObject: {fileID: 0}
  m_PrefabInstance: {fileID: 0}
  m_PrefabAsset: {fileID: 0}
  serializedVersion: 6
  m_Component:
  - component: {fileID: 431340088666726945}
  - component: {fileID: 1571690710827574565}
  - component: {fileID: 6926263362402580748}
  - component: {fileID: 7801363751762188586}
  m_Layer: 5
  m_Name: BubbleFront
  m_TagString: Untagged
  m_Icon: {fileID: 0}
  m_NavMeshLayer: 0
  m_StaticEditorFlags: 0
  m_IsActive: 1
--- !u!224 &431340088666726945
RectTransform:
  m_ObjectHideFlags: 0
  m_CorrespondingSourceObject: {fileID: 0}
  m_PrefabInstance: {fileID: 0}
  m_PrefabAsset: {fileID: 0}
  m_GameObject: {fileID: 3891546719498756976}
  m_LocalRotation: {x: 0, y: 0, z: 0, w: 1}
  m_LocalPosition: {x: 0, y: 0, z: 0}
  m_LocalScale: {x: 1, y: 1, z: 1}
  m_Children: []
  m_Father: {fileID: 0}
  m_RootOrder: 0
  m_LocalEulerAnglesHint: {x: 0, y: 0, z: 0}
  m_AnchorMin: {x: 0.5, y: 0.5}
  m_AnchorMax: {x: 0.5, y: 0.5}
  m_AnchoredPosition: {x: 34, y: -20.54}
  m_SizeDelta: {x: 32, y: 32}
  m_Pivot: {x: 0.5, y: 0.5}
--- !u!222 &1571690710827574565
CanvasRenderer:
  m_ObjectHideFlags: 0
  m_CorrespondingSourceObject: {fileID: 0}
  m_PrefabInstance: {fileID: 0}
  m_PrefabAsset: {fileID: 0}
  m_GameObject: {fileID: 3891546719498756976}
  m_CullTransparentMesh: 0
--- !u!114 &6926263362402580748
MonoBehaviour:
  m_ObjectHideFlags: 0
  m_CorrespondingSourceObject: {fileID: 0}
  m_PrefabInstance: {fileID: 0}
  m_PrefabAsset: {fileID: 0}
  m_GameObject: {fileID: 3891546719498756976}
  m_Enabled: 1
  m_EditorHideFlags: 0
  m_Script: {fileID: 11500000, guid: fe87c0e1cc204ed48ad3b37840f39efc, type: 3}
  m_Name: 
  m_EditorClassIdentifier: 
  m_Material: {fileID: 0}
  m_Color: {r: 1, g: 1, b: 1, a: 1}
  m_RaycastTarget: 1
  m_OnCullStateChanged:
    m_PersistentCalls:
      m_Calls: []
  m_Sprite: {fileID: 8162573274955954345, guid: f1619fb7ec36142da8fa465f3446322d,
    type: 3}
  m_Type: 0
  m_PreserveAspect: 0
  m_FillCenter: 1
  m_FillMethod: 4
  m_FillAmount: 1
  m_FillClockwise: 1
  m_FillOrigin: 0
  m_UseSpriteMesh: 0
  m_PixelsPerUnitMultiplier: 1
--- !u!114 &7801363751762188586
MonoBehaviour:
  m_ObjectHideFlags: 0
  m_CorrespondingSourceObject: {fileID: 0}
  m_PrefabInstance: {fileID: 0}
  m_PrefabAsset: {fileID: 0}
  m_GameObject: {fileID: 3891546719498756976}
  m_Enabled: 1
  m_EditorHideFlags: 0
  m_Script: {fileID: 11500000, guid: 88fb3ea51bb752b49abd5037a4f40f6a, type: 3}
  m_Name: 
  m_EditorClassIdentifier: 
  playing: 0
  paused: 0
  timer: 0
  animIdx: -1
  currentIdx: 0
  speedRatio: 1
  playFrom: 0
  overrideTimeScale: 0
  timeScaleOverride: 0
  list:
  - animationName: idle
    animation:
      speedRatio: 1
      loop: 0
      frameToLoop: 0
      frameDatas:
      - sprite: {fileID: -5867137365410865700, guid: 51b251997283e48d19aeb12350f49fd5,
          type: 3}
        time: 0.06
        eventEnabled: 0
        eventName: 
      - sprite: {fileID: 8158085839729693254, guid: 51b251997283e48d19aeb12350f49fd5,
          type: 3}
        time: 0.06
        eventEnabled: 0
        eventName: 
      - sprite: {fileID: -8671199907333505935, guid: 51b251997283e48d19aeb12350f49fd5,
          type: 3}
        time: 0.06
        eventEnabled: 0
        eventName: 
      - sprite: {fileID: 3290176943756408227, guid: 51b251997283e48d19aeb12350f49fd5,
          type: 3}
        time: 0.06
        eventEnabled: 0
        eventName: 
      - sprite: {fileID: -919371128129715007, guid: 51b251997283e48d19aeb12350f49fd5,
          type: 3}
        time: 0.06
        eventEnabled: 0
        eventName: 
      - sprite: {fileID: -8380254972091669420, guid: 51b251997283e48d19aeb12350f49fd5,
          type: 3}
        time: 0.06
        eventEnabled: 0
        eventName: 
      - sprite: {fileID: 7359554963949448486, guid: 51b251997283e48d19aeb12350f49fd5,
          type: 3}
        time: 0.06
        eventEnabled: 0
        eventName: 
      - sprite: {fileID: -3098122548104299747, guid: 51b251997283e48d19aeb12350f49fd5,
          type: 3}
        time: 0.06
        eventEnabled: 0
        eventName: 
      - sprite: {fileID: -5867137365410865700, guid: 51b251997283e48d19aeb12350f49fd5,
          type: 3}
        time: 0.06
        eventEnabled: 0
        eventName: 
      - sprite: {fileID: 8158085839729693254, guid: 51b251997283e48d19aeb12350f49fd5,
          type: 3}
        time: 0.06
        eventEnabled: 0
        eventName: 
      - sprite: {fileID: -8671199907333505935, guid: 51b251997283e48d19aeb12350f49fd5,
          type: 3}
        time: 0.06
        eventEnabled: 0
        eventName: 
      - sprite: {fileID: 3290176943756408227, guid: 51b251997283e48d19aeb12350f49fd5,
          type: 3}
        time: 0.06
        eventEnabled: 0
        eventName: 
      - sprite: {fileID: -919371128129715007, guid: 51b251997283e48d19aeb12350f49fd5,
          type: 3}
        time: 0.06
        eventEnabled: 0
        eventName: 
      - sprite: {fileID: -8380254972091669420, guid: 51b251997283e48d19aeb12350f49fd5,
          type: 3}
        time: 0.06
        eventEnabled: 0
        eventName: 
      - sprite: {fileID: 7359554963949448486, guid: 51b251997283e48d19aeb12350f49fd5,
          type: 3}
        time: 0.06
        eventEnabled: 0
        eventName: 
      - sprite: {fileID: -3098122548104299747, guid: 51b251997283e48d19aeb12350f49fd5,
          type: 3}
        time: 0.06
        eventEnabled: 0
        eventName: 
      - sprite: {fileID: -5867137365410865700, guid: 51b251997283e48d19aeb12350f49fd5,
          type: 3}
        time: 0.06
        eventEnabled: 0
        eventName: 
      - sprite: {fileID: 8158085839729693254, guid: 51b251997283e48d19aeb12350f49fd5,
          type: 3}
        time: 0.06
        eventEnabled: 0
        eventName: 
      - sprite: {fileID: -8671199907333505935, guid: 51b251997283e48d19aeb12350f49fd5,
          type: 3}
        time: 0.06
        eventEnabled: 0
        eventName: 
      - sprite: {fileID: 3290176943756408227, guid: 51b251997283e48d19aeb12350f49fd5,
          type: 3}
        time: 0.06
        eventEnabled: 0
        eventName: 
      - sprite: {fileID: -919371128129715007, guid: 51b251997283e48d19aeb12350f49fd5,
          type: 3}
        time: 0.06
        eventEnabled: 0
        eventName: 
      - sprite: {fileID: -8380254972091669420, guid: 51b251997283e48d19aeb12350f49fd5,
          type: 3}
        time: 0.06
        eventEnabled: 0
        eventName: 
      - sprite: {fileID: 7359554963949448486, guid: 51b251997283e48d19aeb12350f49fd5,
          type: 3}
        time: 0.06
        eventEnabled: 0
        eventName: 
      - sprite: {fileID: -3098122548104299747, guid: 51b251997283e48d19aeb12350f49fd5,
          type: 3}
        time: 0.06
        eventEnabled: 0
        eventName: 
      - sprite: {fileID: -5867137365410865700, guid: 51b251997283e48d19aeb12350f49fd5,
          type: 3}
        time: 0.06
        eventEnabled: 0
        eventName: 
      - sprite: {fileID: 8158085839729693254, guid: 51b251997283e48d19aeb12350f49fd5,
          type: 3}
        time: 0.06
        eventEnabled: 0
        eventName: 
      - sprite: {fileID: -8671199907333505935, guid: 51b251997283e48d19aeb12350f49fd5,
          type: 3}
        time: 0.06
        eventEnabled: 0
        eventName: 
      - sprite: {fileID: 3290176943756408227, guid: 51b251997283e48d19aeb12350f49fd5,
          type: 3}
        time: 0.06
        eventEnabled: 0
        eventName: 
      - sprite: {fileID: -919371128129715007, guid: 51b251997283e48d19aeb12350f49fd5,
          type: 3}
        time: 0.06
        eventEnabled: 0
        eventName: 
      - sprite: {fileID: -8380254972091669420, guid: 51b251997283e48d19aeb12350f49fd5,
          type: 3}
        time: 0.06
        eventEnabled: 0
        eventName: 
      - sprite: {fileID: 7359554963949448486, guid: 51b251997283e48d19aeb12350f49fd5,
          type: 3}
        time: 0.06
        eventEnabled: 0
        eventName: 
      - sprite: {fileID: -3098122548104299747, guid: 51b251997283e48d19aeb12350f49fd5,
          type: 3}
        time: 0.06
        eventEnabled: 0
        eventName: 
      - sprite: {fileID: -3420587077664430520, guid: 51b251997283e48d19aeb12350f49fd5,
          type: 3}
        time: 0.06
        eventEnabled: 0
        eventName: 
      - sprite: {fileID: -6641462672915542244, guid: 51b251997283e48d19aeb12350f49fd5,
          type: 3}
        time: 0.06
        eventEnabled: 0
        eventName: 
      - sprite: {fileID: 1759435052035534157, guid: 51b251997283e48d19aeb12350f49fd5,
          type: 3}
        time: 0.06
        eventEnabled: 0
        eventName: 
      - sprite: {fileID: -5212851397979837831, guid: 51b251997283e48d19aeb12350f49fd5,
          type: 3}
        time: 0.06
        eventEnabled: 0
        eventName: 
      - sprite: {fileID: 3717871622430045429, guid: 51b251997283e48d19aeb12350f49fd5,
          type: 3}
        time: 0.06
        eventEnabled: 0
        eventName: 
      - sprite: {fileID: 3468202048195248129, guid: 51b251997283e48d19aeb12350f49fd5,
          type: 3}
        time: 0.06
        eventEnabled: 0
        eventName: 
      - sprite: {fileID: -3756550087550267526, guid: 51b251997283e48d19aeb12350f49fd5,
          type: 3}
        time: 0.06
        eventEnabled: 0
        eventName: 
      - sprite: {fileID: -410409275206548338, guid: 51b251997283e48d19aeb12350f49fd5,
          type: 3}
        time: 0.06
        eventEnabled: 0
        eventName: 
      name: idle
      selectedIndex: 32
      newFramesTime: 0.08
      setFramesTime: 0.06
    file: {fileID: 11400000, guid: e2041590dbd554cb7b9f2886d3acb8df, type: 2}
  animationAsset: {fileID: 11400000, guid: e2041590dbd554cb7b9f2886d3acb8df, type: 2}
  mode: 0
