%YAML 1.1
%TAG !u! tag:unity3d.com,2011:
--- !u!114 &11400000
MonoBehaviour:
  m_ObjectHideFlags: 0
  m_CorrespondingSourceObject: {fileID: 0}
  m_PrefabInstance: {fileID: 0}
  m_PrefabAsset: {fileID: 0}
  m_GameObject: {fileID: 0}
  m_Enabled: 1
  m_EditorHideFlags: 0
  m_Script: {fileID: 11500000, guid: 660a23572952a6e43b0cd44370bef593, type: 3}
  m_Name: GlobalAppearancesValues
  m_EditorClassIdentifier: 
  effectValues:
    sizeDuration: 0.3
    sizeAmplitude: 2
    fadeDuration: 0.1
    verticalExpandDuration: 0.3
    verticalFromBottom: 0
    horizontalExpandDuration: 0.3
    horizontalExpandStart: 0
    diagonalExpandDuration: 0.3
    diagonalFromBttmLeft: 0
    offsetDir: {x: 0, y: -1}
    offsetDuration: 0.1
    offsetAmplitude: 0.25
    rotationDuration: 0.3
    rotationStartAngle: 180
