%YAML 1.1
%TAG !u! tag:unity3d.com,2011:
--- !u!114 &11400000
MonoBehaviour:
  m_ObjectHideFlags: 0
  m_CorrespondingSourceObject: {fileID: 0}
  m_PrefabInstance: {fileID: 0}
  m_PrefabAsset: {fileID: 0}
  m_GameObject: {fileID: 0}
  m_Enabled: 1
  m_EditorHideFlags: 0
  m_Script: {fileID: 11500000, guid: 84a92b25f83d49b9bc132d206b370281, type: 3}
  m_Name: card-keyword-tags_256x256
  m_EditorClassIdentifier: 
  hashCode: 1661094731
  material: {fileID: 2760636091280210404}
  materialHashCode: 0
  m_Version: 1.1.0
  m_FaceInfo:
    m_FaceIndex: 0
    m_FamilyName: 
    m_StyleName: 
    m_PointSize: 0
    m_Scale: 0
    m_LineHeight: 0
    m_AscentLine: 0
    m_CapLine: 0
    m_MeanLine: 0
    m_Baseline: 0
    m_DescentLine: 0
    m_SuperscriptOffset: 0
    m_SuperscriptSize: 0
    m_SubscriptOffset: 0
    m_SubscriptSize: 0
    m_UnderlineOffset: 0
    m_UnderlineThickness: 0
    m_StrikethroughOffset: 0
    m_StrikethroughThickness: 0
    m_TabWidth: 0
  spriteSheet: {fileID: 2800000, guid: 7b1258f13a3ec43069a8b582ec1d39aa, type: 3}
  m_SpriteCharacterTable:
  - m_ElementType: 2
    m_Unicode: 65534
    m_GlyphIndex: 0
    m_Scale: 1
    m_Name: card-keyword-tags_256x256_0
    m_HashCode: 750932804
  - m_ElementType: 2
    m_Unicode: 65534
    m_GlyphIndex: 1
    m_Scale: 1
    m_Name: card-keyword-tags_256x256_1
    m_HashCode: 750932805
  - m_ElementType: 2
    m_Unicode: 65534
    m_GlyphIndex: 2
    m_Scale: 1
    m_Name: card-keyword-tags_256x256_2
    m_HashCode: 750932806
  - m_ElementType: 2
    m_Unicode: 65534
    m_GlyphIndex: 3
    m_Scale: 1
    m_Name: card-keyword-tags_256x256_3
    m_HashCode: 750932807
  - m_ElementType: 2
    m_Unicode: 65534
    m_GlyphIndex: 4
    m_Scale: 1
    m_Name: card-keyword-tags_256x256_4
    m_HashCode: 750932800
  - m_ElementType: 2
    m_Unicode: 65534
    m_GlyphIndex: 5
    m_Scale: 1
    m_Name: card-keyword-tags_256x256_5
    m_HashCode: 750932801
  - m_ElementType: 2
    m_Unicode: 65534
    m_GlyphIndex: 6
    m_Scale: 1
    m_Name: card-keyword-tags_256x256_6
    m_HashCode: 750932802
  - m_ElementType: 2
    m_Unicode: 65534
    m_GlyphIndex: 7
    m_Scale: 1
    m_Name: card-keyword-tags_256x256_7
    m_HashCode: 750932803
  - m_ElementType: 2
    m_Unicode: 65534
    m_GlyphIndex: 8
    m_Scale: 1
    m_Name: card-keyword-tags_256x256_8
    m_HashCode: 750932812
  - m_ElementType: 2
    m_Unicode: 65534
    m_GlyphIndex: 9
    m_Scale: 1
    m_Name: card-keyword-tags_256x256_9
    m_HashCode: 750932813
  - m_ElementType: 2
    m_Unicode: 65534
    m_GlyphIndex: 10
    m_Scale: 1
    m_Name: card-keyword-tags_256x256_10
    m_HashCode: -989021227
  - m_ElementType: 2
    m_Unicode: 65534
    m_GlyphIndex: 11
    m_Scale: 1
    m_Name: card-keyword-tags_256x256_11
    m_HashCode: -989021228
  - m_ElementType: 2
    m_Unicode: 65534
    m_GlyphIndex: 12
    m_Scale: 1
    m_Name: card-keyword-tags_256x256_12
    m_HashCode: -989021225
  - m_ElementType: 2
    m_Unicode: 65534
    m_GlyphIndex: 13
    m_Scale: 1
    m_Name: card-keyword-tags_256x256_13
    m_HashCode: -989021226
  - m_ElementType: 2
    m_Unicode: 65534
    m_GlyphIndex: 14
    m_Scale: 1
    m_Name: card-keyword-tags_256x256_14
    m_HashCode: -989021231
  - m_ElementType: 2
    m_Unicode: 65534
    m_GlyphIndex: 15
    m_Scale: 1
    m_Name: card-keyword-tags_256x256_15
    m_HashCode: -989021232
  - m_ElementType: 2
    m_Unicode: 65534
    m_GlyphIndex: 16
    m_Scale: 1
    m_Name: card-keyword-tags_256x256_16
    m_HashCode: -989021229
  - m_ElementType: 2
    m_Unicode: 65534
    m_GlyphIndex: 17
    m_Scale: 1
    m_Name: card-keyword-tags_256x256_17
    m_HashCode: -989021230
  - m_ElementType: 2
    m_Unicode: 65534
    m_GlyphIndex: 18
    m_Scale: 1
    m_Name: card-keyword-tags_256x256_18
    m_HashCode: -989021219
  - m_ElementType: 2
    m_Unicode: 65534
    m_GlyphIndex: 19
    m_Scale: 1
    m_Name: card-keyword-tags_256x256_19
    m_HashCode: -989021220
  - m_ElementType: 2
    m_Unicode: 65534
    m_GlyphIndex: 20
    m_Scale: 1
    m_Name: card-keyword-tags_256x256_20
    m_HashCode: -989021130
  - m_ElementType: 2
    m_Unicode: 65534
    m_GlyphIndex: 21
    m_Scale: 1
    m_Name: card-keyword-tags_256x256_21
    m_HashCode: -989021129
  - m_ElementType: 2
    m_Unicode: 65534
    m_GlyphIndex: 22
    m_Scale: 1
    m_Name: card-keyword-tags_256x256_22
    m_HashCode: -989021132
  - m_ElementType: 2
    m_Unicode: 65534
    m_GlyphIndex: 23
    m_Scale: 1
    m_Name: card-keyword-tags_256x256_23
    m_HashCode: -989021131
  - m_ElementType: 2
    m_Unicode: 65534
    m_GlyphIndex: 24
    m_Scale: 1
    m_Name: card-keyword-tags_256x256_24
    m_HashCode: -989021134
  - m_ElementType: 2
    m_Unicode: 65534
    m_GlyphIndex: 25
    m_Scale: 1
    m_Name: card-keyword-tags_256x256_25
    m_HashCode: -989021133
  - m_ElementType: 2
    m_Unicode: 65534
    m_GlyphIndex: 26
    m_Scale: 1
    m_Name: card-keyword-tags_256x256_26
    m_HashCode: -989021136
  - m_ElementType: 2
    m_Unicode: 65534
    m_GlyphIndex: 27
    m_Scale: 1
    m_Name: card-keyword-tags_256x256_27
    m_HashCode: -989021135
  - m_ElementType: 2
    m_Unicode: 65534
    m_GlyphIndex: 28
    m_Scale: 1
    m_Name: card-keyword-tags_256x256_28
    m_HashCode: -989021122
  - m_ElementType: 2
    m_Unicode: 65534
    m_GlyphIndex: 29
    m_Scale: 1
    m_Name: card-keyword-tags_256x256_29
    m_HashCode: -989021121
  - m_ElementType: 2
    m_Unicode: 65534
    m_GlyphIndex: 30
    m_Scale: 1
    m_Name: card-keyword-tags_256x256_30
    m_HashCode: -989021161
  - m_ElementType: 2
    m_Unicode: 65534
    m_GlyphIndex: 31
    m_Scale: 1
    m_Name: card-keyword-tags_256x256_31
    m_HashCode: -989021162
  - m_ElementType: 2
    m_Unicode: 65534
    m_GlyphIndex: 32
    m_Scale: 1
    m_Name: card-keyword-tags_256x256_32
    m_HashCode: -989021163
  - m_ElementType: 2
    m_Unicode: 65534
    m_GlyphIndex: 33
    m_Scale: 1
    m_Name: card-keyword-tags_256x256_33
    m_HashCode: -989021164
  - m_ElementType: 2
    m_Unicode: 65534
    m_GlyphIndex: 34
    m_Scale: 1
    m_Name: card-keyword-tags_256x256_34
    m_HashCode: -989021165
  - m_ElementType: 2
    m_Unicode: 65534
    m_GlyphIndex: 35
    m_Scale: 1
    m_Name: card-keyword-tags_256x256_35
    m_HashCode: -989021166
  - m_ElementType: 2
    m_Unicode: 65534
    m_GlyphIndex: 36
    m_Scale: 1
    m_Name: card-keyword-tags_256x256_36
    m_HashCode: -989021167
  - m_ElementType: 2
    m_Unicode: 65534
    m_GlyphIndex: 37
    m_Scale: 1
    m_Name: card-keyword-tags_256x256_37
    m_HashCode: -989021168
  - m_ElementType: 2
    m_Unicode: 65534
    m_GlyphIndex: 38
    m_Scale: 1
    m_Name: card-keyword-tags_256x256_38
    m_HashCode: -989021153
  - m_ElementType: 2
    m_Unicode: 65534
    m_GlyphIndex: 39
    m_Scale: 1
    m_Name: card-keyword-tags_256x256_39
    m_HashCode: -989021154
  - m_ElementType: 2
    m_Unicode: 65534
    m_GlyphIndex: 40
    m_Scale: 1
    m_Name: card-keyword-tags_256x256_40
    m_HashCode: -989021328
  - m_ElementType: 2
    m_Unicode: 65534
    m_GlyphIndex: 41
    m_Scale: 1
    m_Name: card-keyword-tags_256x256_41
    m_HashCode: -989021327
  - m_ElementType: 2
    m_Unicode: 65534
    m_GlyphIndex: 42
    m_Scale: 1
    m_Name: card-keyword-tags_256x256_42
    m_HashCode: -989021326
  - m_ElementType: 2
    m_Unicode: 65534
    m_GlyphIndex: 43
    m_Scale: 1
    m_Name: card-keyword-tags_256x256_43
    m_HashCode: -989021325
  - m_ElementType: 2
    m_Unicode: 65534
    m_GlyphIndex: 44
    m_Scale: 1
    m_Name: card-keyword-tags_256x256_44
    m_HashCode: -989021324
  - m_ElementType: 2
    m_Unicode: 65534
    m_GlyphIndex: 45
    m_Scale: 1
    m_Name: card-keyword-tags_256x256_45
    m_HashCode: -989021323
  - m_ElementType: 2
    m_Unicode: 65534
    m_GlyphIndex: 46
    m_Scale: 1
    m_Name: card-keyword-tags_256x256_46
    m_HashCode: -989021322
  - m_ElementType: 2
    m_Unicode: 65534
    m_GlyphIndex: 47
    m_Scale: 1
    m_Name: card-keyword-tags_256x256_47
    m_HashCode: -989021321
  - m_ElementType: 2
    m_Unicode: 65534
    m_GlyphIndex: 48
    m_Scale: 1
    m_Name: card-keyword-tags_256x256_48
    m_HashCode: -989021320
  - m_ElementType: 2
    m_Unicode: 65534
    m_GlyphIndex: 49
    m_Scale: 1
    m_Name: card-keyword-tags_256x256_49
    m_HashCode: -989021319
  m_SpriteGlyphTable:
  - m_Index: 0
    m_Metrics:
      m_Width: 36
      m_Height: 8
      m_HorizontalBearingX: 0
      m_HorizontalBearingY: 6
      m_HorizontalAdvance: 36
    m_GlyphRect:
      m_X: 0
      m_Y: 247
      m_Width: 36
      m_Height: 8
    m_Scale: 0.5
    m_AtlasIndex: 0
    sprite: {fileID: 7011255648188419001, guid: 7b1258f13a3ec43069a8b582ec1d39aa,
      type: 3}
  - m_Index: 1
    m_Metrics:
      m_Width: 68
      m_Height: 8
      m_HorizontalBearingX: 0
      m_HorizontalBearingY: 6
      m_HorizontalAdvance: 68
    m_GlyphRect:
      m_X: 53
      m_Y: 247
      m_Width: 68
      m_Height: 8
    m_Scale: 0.5
    m_AtlasIndex: 0
    sprite: {fileID: 4906612454703927647, guid: 7b1258f13a3ec43069a8b582ec1d39aa,
      type: 3}
  - m_Index: 2
    m_Metrics:
      m_Width: 33
      m_Height: 8
      m_HorizontalBearingX: 0
      m_HorizontalBearingY: 6
      m_HorizontalAdvance: 33
    m_GlyphRect:
      m_X: 0
      m_Y: 238
      m_Width: 33
      m_Height: 8
    m_Scale: 0.5
    m_AtlasIndex: 0
    sprite: {fileID: -4852434268673945953, guid: 7b1258f13a3ec43069a8b582ec1d39aa,
      type: 3}
  - m_Index: 3
    m_Metrics:
      m_Width: 30
      m_Height: 8
      m_HorizontalBearingX: 0
      m_HorizontalBearingY: 6
      m_HorizontalAdvance: 30
    m_GlyphRect:
      m_X: 53
      m_Y: 238
      m_Width: 30
      m_Height: 8
    m_Scale: 0.5
    m_AtlasIndex: 0
    sprite: {fileID: 3596983753426086170, guid: 7b1258f13a3ec43069a8b582ec1d39aa,
      type: 3}
  - m_Index: 4
    m_Metrics:
      m_Width: 52
      m_Height: 8
      m_HorizontalBearingX: 0
      m_HorizontalBearingY: 6
      m_HorizontalAdvance: 52
    m_GlyphRect:
      m_X: 0
      m_Y: 229
      m_Width: 52
      m_Height: 8
    m_Scale: 0.5
    m_AtlasIndex: 0
    sprite: {fileID: -5391420547067366228, guid: 7b1258f13a3ec43069a8b582ec1d39aa,
      type: 3}
  - m_Index: 5
    m_Metrics:
      m_Width: 36
      m_Height: 8
      m_HorizontalBearingX: 0
      m_HorizontalBearingY: 6
      m_HorizontalAdvance: 36
    m_GlyphRect:
      m_X: 53
      m_Y: 229
      m_Width: 36
      m_Height: 8
    m_Scale: 0.5
    m_AtlasIndex: 0
    sprite: {fileID: 9136407418967633589, guid: 7b1258f13a3ec43069a8b582ec1d39aa,
      type: 3}
  - m_Index: 6
    m_Metrics:
      m_Width: 41
      m_Height: 8
      m_HorizontalBearingX: 0
      m_HorizontalBearingY: 6
      m_HorizontalAdvance: 41
    m_GlyphRect:
      m_X: 0
      m_Y: 220
      m_Width: 41
      m_Height: 8
    m_Scale: 0.5
    m_AtlasIndex: 0
    sprite: {fileID: 4402090907803365881, guid: 7b1258f13a3ec43069a8b582ec1d39aa,
      type: 3}
  - m_Index: 7
    m_Metrics:
      m_Width: 58
      m_Height: 8
      m_HorizontalBearingX: 0
      m_HorizontalBearingY: 6
      m_HorizontalAdvance: 58
    m_GlyphRect:
      m_X: 53
      m_Y: 220
      m_Width: 58
      m_Height: 8
    m_Scale: 0.5
    m_AtlasIndex: 0
    sprite: {fileID: -1870712939038887429, guid: 7b1258f13a3ec43069a8b582ec1d39aa,
      type: 3}
  - m_Index: 8
    m_Metrics:
      m_Width: 48
      m_Height: 8
      m_HorizontalBearingX: 0
      m_HorizontalBearingY: 6
      m_HorizontalAdvance: 48
    m_GlyphRect:
      m_X: 0
      m_Y: 211
      m_Width: 48
      m_Height: 8
    m_Scale: 0.5
    m_AtlasIndex: 0
    sprite: {fileID: 1273393220373889280, guid: 7b1258f13a3ec43069a8b582ec1d39aa,
      type: 3}
  - m_Index: 9
    m_Metrics:
      m_Width: 43
      m_Height: 8
      m_HorizontalBearingX: 0
      m_HorizontalBearingY: 6
      m_HorizontalAdvance: 43
    m_GlyphRect:
      m_X: 0
      m_Y: 202
      m_Width: 43
      m_Height: 8
    m_Scale: 0.5
    m_AtlasIndex: 0
    sprite: {fileID: -5285036293658399313, guid: 7b1258f13a3ec43069a8b582ec1d39aa,
      type: 3}
  - m_Index: 10
    m_Metrics:
      m_Width: 44
      m_Height: 8
      m_HorizontalBearingX: 0
      m_HorizontalBearingY: 6
      m_HorizontalAdvance: 44
    m_GlyphRect:
      m_X: 68
      m_Y: 202
      m_Width: 44
      m_Height: 8
    m_Scale: 0.5
    m_AtlasIndex: 0
    sprite: {fileID: -4934058119785096423, guid: 7b1258f13a3ec43069a8b582ec1d39aa,
      type: 3}
  - m_Index: 11
    m_Metrics:
      m_Width: 54
      m_Height: 8
      m_HorizontalBearingX: 0
      m_HorizontalBearingY: 6
      m_HorizontalAdvance: 54
    m_GlyphRect:
      m_X: 134
      m_Y: 202
      m_Width: 54
      m_Height: 8
    m_Scale: 0.5
    m_AtlasIndex: 0
    sprite: {fileID: 5399157249835815424, guid: 7b1258f13a3ec43069a8b582ec1d39aa,
      type: 3}
  - m_Index: 12
    m_Metrics:
      m_Width: 61
      m_Height: 8
      m_HorizontalBearingX: 0
      m_HorizontalBearingY: 6
      m_HorizontalAdvance: 61
    m_GlyphRect:
      m_X: 0
      m_Y: 193
      m_Width: 61
      m_Height: 8
    m_Scale: 0.5
    m_AtlasIndex: 0
    sprite: {fileID: -1760205237064317881, guid: 7b1258f13a3ec43069a8b582ec1d39aa,
      type: 3}
  - m_Index: 13
    m_Metrics:
      m_Width: 33
      m_Height: 8
      m_HorizontalBearingX: 0
      m_HorizontalBearingY: 6
      m_HorizontalAdvance: 33
    m_GlyphRect:
      m_X: 68
      m_Y: 193
      m_Width: 33
      m_Height: 8
    m_Scale: 0.5
    m_AtlasIndex: 0
    sprite: {fileID: -3320060670281721900, guid: 7b1258f13a3ec43069a8b582ec1d39aa,
      type: 3}
  - m_Index: 14
    m_Metrics:
      m_Width: 40
      m_Height: 8
      m_HorizontalBearingX: 0
      m_HorizontalBearingY: 6
      m_HorizontalAdvance: 40
    m_GlyphRect:
      m_X: 134
      m_Y: 193
      m_Width: 40
      m_Height: 8
    m_Scale: 0.5
    m_AtlasIndex: 0
    sprite: {fileID: 4324255551492083976, guid: 7b1258f13a3ec43069a8b582ec1d39aa,
      type: 3}
  - m_Index: 15
    m_Metrics:
      m_Width: 56
      m_Height: 8
      m_HorizontalBearingX: 0
      m_HorizontalBearingY: 6
      m_HorizontalAdvance: 56
    m_GlyphRect:
      m_X: 0
      m_Y: 184
      m_Width: 56
      m_Height: 8
    m_Scale: 0.5
    m_AtlasIndex: 0
    sprite: {fileID: -608812284453989833, guid: 7b1258f13a3ec43069a8b582ec1d39aa,
      type: 3}
  - m_Index: 16
    m_Metrics:
      m_Width: 37
      m_Height: 8
      m_HorizontalBearingX: 0
      m_HorizontalBearingY: 6
      m_HorizontalAdvance: 37
    m_GlyphRect:
      m_X: 68
      m_Y: 184
      m_Width: 37
      m_Height: 8
    m_Scale: 0.5
    m_AtlasIndex: 0
    sprite: {fileID: 6495488808336945350, guid: 7b1258f13a3ec43069a8b582ec1d39aa,
      type: 3}
  - m_Index: 17
    m_Metrics:
      m_Width: 40
      m_Height: 8
      m_HorizontalBearingX: 0
      m_HorizontalBearingY: 6
      m_HorizontalAdvance: 40
    m_GlyphRect:
      m_X: 134
      m_Y: 184
      m_Width: 40
      m_Height: 8
    m_Scale: 0.5
    m_AtlasIndex: 0
    sprite: {fileID: 2940071271821107031, guid: 7b1258f13a3ec43069a8b582ec1d39aa,
      type: 3}
  - m_Index: 18
    m_Metrics:
      m_Width: 67
      m_Height: 8
      m_HorizontalBearingX: 0
      m_HorizontalBearingY: 6
      m_HorizontalAdvance: 67
    m_GlyphRect:
      m_X: 0
      m_Y: 175
      m_Width: 67
      m_Height: 8
    m_Scale: 0.5
    m_AtlasIndex: 0
    sprite: {fileID: -6675563813752041109, guid: 7b1258f13a3ec43069a8b582ec1d39aa,
      type: 3}
  - m_Index: 19
    m_Metrics:
      m_Width: 56
      m_Height: 8
      m_HorizontalBearingX: 0
      m_HorizontalBearingY: 6
      m_HorizontalAdvance: 56
    m_GlyphRect:
      m_X: 68
      m_Y: 175
      m_Width: 56
      m_Height: 8
    m_Scale: 0.5
    m_AtlasIndex: 0
    sprite: {fileID: -7732460380873060645, guid: 7b1258f13a3ec43069a8b582ec1d39aa,
      type: 3}
  - m_Index: 20
    m_Metrics:
      m_Width: 33
      m_Height: 8
      m_HorizontalBearingX: 0
      m_HorizontalBearingY: 6
      m_HorizontalAdvance: 32
    m_GlyphRect:
      m_X: 134
      m_Y: 175
      m_Width: 33
      m_Height: 8
    m_Scale: 0.5
    m_AtlasIndex: 0
    sprite: {fileID: -142629595445967646, guid: 7b1258f13a3ec43069a8b582ec1d39aa,
      type: 3}
  - m_Index: 21
    m_Metrics:
      m_Width: 37
      m_Height: 8
      m_HorizontalBearingX: 0
      m_HorizontalBearingY: 6
      m_HorizontalAdvance: 37
    m_GlyphRect:
      m_X: 0
      m_Y: 166
      m_Width: 37
      m_Height: 8
    m_Scale: 0.5
    m_AtlasIndex: 0
    sprite: {fileID: 7945027240180557629, guid: 7b1258f13a3ec43069a8b582ec1d39aa,
      type: 3}
  - m_Index: 22
    m_Metrics:
      m_Width: 33
      m_Height: 8
      m_HorizontalBearingX: 0
      m_HorizontalBearingY: 6
      m_HorizontalAdvance: 33
    m_GlyphRect:
      m_X: 68
      m_Y: 166
      m_Width: 33
      m_Height: 8
    m_Scale: 0.5
    m_AtlasIndex: 0
    sprite: {fileID: -9127196224106862093, guid: 7b1258f13a3ec43069a8b582ec1d39aa,
      type: 3}
  - m_Index: 23
    m_Metrics:
      m_Width: 47
      m_Height: 8
      m_HorizontalBearingX: 0
      m_HorizontalBearingY: 6
      m_HorizontalAdvance: 47
    m_GlyphRect:
      m_X: 134
      m_Y: 166
      m_Width: 47
      m_Height: 8
    m_Scale: 0.5
    m_AtlasIndex: 0
    sprite: {fileID: -7711408389261520996, guid: 7b1258f13a3ec43069a8b582ec1d39aa,
      type: 3}
  - m_Index: 24
    m_Metrics:
      m_Width: 46
      m_Height: 10
      m_HorizontalBearingX: 0
      m_HorizontalBearingY: 7
      m_HorizontalAdvance: 46
    m_GlyphRect:
      m_X: 0
      m_Y: 155
      m_Width: 46
      m_Height: 10
    m_Scale: 0.625
    m_AtlasIndex: 0
    sprite: {fileID: 8092532622965149025, guid: 7b1258f13a3ec43069a8b582ec1d39aa,
      type: 3}
  - m_Index: 25
    m_Metrics:
      m_Width: 51
      m_Height: 10
      m_HorizontalBearingX: 0
      m_HorizontalBearingY: 7
      m_HorizontalAdvance: 51
    m_GlyphRect:
      m_X: 0
      m_Y: 145
      m_Width: 51
      m_Height: 10
    m_Scale: 0.625
    m_AtlasIndex: 0
    sprite: {fileID: 6819058569514340951, guid: 7b1258f13a3ec43069a8b582ec1d39aa,
      type: 3}
  - m_Index: 26
    m_Metrics:
      m_Width: 51
      m_Height: 10
      m_HorizontalBearingX: 0
      m_HorizontalBearingY: 7
      m_HorizontalAdvance: 51
    m_GlyphRect:
      m_X: 0
      m_Y: 135
      m_Width: 51
      m_Height: 10
    m_Scale: 0.625
    m_AtlasIndex: 0
    sprite: {fileID: 7867905413650899343, guid: 7b1258f13a3ec43069a8b582ec1d39aa,
      type: 3}
  - m_Index: 27
    m_Metrics:
      m_Width: 42
      m_Height: 8
      m_HorizontalBearingX: 0
      m_HorizontalBearingY: 6
      m_HorizontalAdvance: 42
    m_GlyphRect:
      m_X: 68
      m_Y: 157
      m_Width: 42
      m_Height: 8
    m_Scale: 0.5
    m_AtlasIndex: 0
    sprite: {fileID: 5730395741798518608, guid: 7b1258f13a3ec43069a8b582ec1d39aa,
      type: 3}
  - m_Index: 28
    m_Metrics:
      m_Width: 28
      m_Height: 8
      m_HorizontalBearingX: 0
      m_HorizontalBearingY: 6
      m_HorizontalAdvance: 28
    m_GlyphRect:
      m_X: 68
      m_Y: 148
      m_Width: 28
      m_Height: 8
    m_Scale: 0.5
    m_AtlasIndex: 0
    sprite: {fileID: 837337525722199874, guid: 7b1258f13a3ec43069a8b582ec1d39aa, type: 3}
  - m_Index: 29
    m_Metrics:
      m_Width: 30
      m_Height: 8
      m_HorizontalBearingX: 0
      m_HorizontalBearingY: 6
      m_HorizontalAdvance: 30
    m_GlyphRect:
      m_X: 68
      m_Y: 139
      m_Width: 29
      m_Height: 8
    m_Scale: 0.5
    m_AtlasIndex: 0
    sprite: {fileID: 451448912843496212, guid: 7b1258f13a3ec43069a8b582ec1d39aa, type: 3}
  - m_Index: 30
    m_Metrics:
      m_Width: 28
      m_Height: 8
      m_HorizontalBearingX: 0
      m_HorizontalBearingY: 6
      m_HorizontalAdvance: 28
    m_GlyphRect:
      m_X: 0
      m_Y: 126
      m_Width: 28
      m_Height: 8
    m_Scale: 0.5
    m_AtlasIndex: 0
    sprite: {fileID: -3024569767489376924, guid: 7b1258f13a3ec43069a8b582ec1d39aa,
      type: 3}
  - m_Index: 31
    m_Metrics:
      m_Width: 54
      m_Height: 8
      m_HorizontalBearingX: 0
      m_HorizontalBearingY: 6
      m_HorizontalAdvance: 54
    m_GlyphRect:
      m_X: 134
      m_Y: 157
      m_Width: 54
      m_Height: 8
    m_Scale: 0.5
    m_AtlasIndex: 0
    sprite: {fileID: -4291006189405235850, guid: 7b1258f13a3ec43069a8b582ec1d39aa,
      type: 3}
  - m_Index: 32
    m_Metrics:
      m_Width: 50
      m_Height: 8
      m_HorizontalBearingX: 0
      m_HorizontalBearingY: 6
      m_HorizontalAdvance: 49
    m_GlyphRect:
      m_X: 53
      m_Y: 126
      m_Width: 50
      m_Height: 8
    m_Scale: 0.5
    m_AtlasIndex: 0
    sprite: {fileID: -2029380776205716033, guid: 7b1258f13a3ec43069a8b582ec1d39aa,
      type: 3}
  - m_Index: 33
    m_Metrics:
      m_Width: 33
      m_Height: 8
      m_HorizontalBearingX: 0
      m_HorizontalBearingY: 6
      m_HorizontalAdvance: 32
    m_GlyphRect:
      m_X: 0
      m_Y: 117
      m_Width: 33
      m_Height: 8
    m_Scale: 0.5
    m_AtlasIndex: 0
    sprite: {fileID: -6848328161876048528, guid: 7b1258f13a3ec43069a8b582ec1d39aa,
      type: 3}
  - m_Index: 34
    m_Metrics:
      m_Width: 33
      m_Height: 8
      m_HorizontalBearingX: 0
      m_HorizontalBearingY: 6
      m_HorizontalAdvance: 32
    m_GlyphRect:
      m_X: 0
      m_Y: 108
      m_Width: 33
      m_Height: 8
    m_Scale: 0.5
    m_AtlasIndex: 0
    sprite: {fileID: 3240793768110094959, guid: 7b1258f13a3ec43069a8b582ec1d39aa,
      type: 3}
  - m_Index: 35
    m_Metrics:
      m_Width: 44
      m_Height: 8
      m_HorizontalBearingX: 0
      m_HorizontalBearingY: 6
      m_HorizontalAdvance: 43
    m_GlyphRect:
      m_X: 0
      m_Y: 99
      m_Width: 44
      m_Height: 8
    m_Scale: 0.5
    m_AtlasIndex: 0
    sprite: {fileID: -5069068484088473087, guid: 7b1258f13a3ec43069a8b582ec1d39aa,
      type: 3}
  - m_Index: 36
    m_Metrics:
      m_Width: 40
      m_Height: 8
      m_HorizontalBearingX: 0
      m_HorizontalBearingY: 6
      m_HorizontalAdvance: 39
    m_GlyphRect:
      m_X: 0
      m_Y: 90
      m_Width: 40
      m_Height: 8
    m_Scale: 0.5
    m_AtlasIndex: 0
    sprite: {fileID: -7920717366315302386, guid: 7b1258f13a3ec43069a8b582ec1d39aa,
      type: 3}
  - m_Index: 37
    m_Metrics:
      m_Width: 25
      m_Height: 8
      m_HorizontalBearingX: 0
      m_HorizontalBearingY: 6
      m_HorizontalAdvance: 25
    m_GlyphRect:
      m_X: 134
      m_Y: 148
      m_Width: 25
      m_Height: 8
    m_Scale: 0.5
    m_AtlasIndex: 0
    sprite: {fileID: 2631791239449137679, guid: 7b1258f13a3ec43069a8b582ec1d39aa,
      type: 3}
  - m_Index: 38
    m_Metrics:
      m_Width: 27
      m_Height: 8
      m_HorizontalBearingX: 0
      m_HorizontalBearingY: 6
      m_HorizontalAdvance: 26
    m_GlyphRect:
      m_X: 134
      m_Y: 139
      m_Width: 27
      m_Height: 8
    m_Scale: 0.5
    m_AtlasIndex: 0
    sprite: {fileID: 510333923471163980, guid: 7b1258f13a3ec43069a8b582ec1d39aa, type: 3}
  - m_Index: 39
    m_Metrics:
      m_Width: 34
      m_Height: 8
      m_HorizontalBearingX: 0
      m_HorizontalBearingY: 6
      m_HorizontalAdvance: 33
    m_GlyphRect:
      m_X: 134
      m_Y: 130
      m_Width: 34
      m_Height: 8
    m_Scale: 0.5
    m_AtlasIndex: 0
    sprite: {fileID: 5877182369596793645, guid: 7b1258f13a3ec43069a8b582ec1d39aa,
      type: 3}
  - m_Index: 40
    m_Metrics:
      m_Width: 65
      m_Height: 8
      m_HorizontalBearingX: 0
      m_HorizontalBearingY: 6
      m_HorizontalAdvance: 64
    m_GlyphRect:
      m_X: 134
      m_Y: 121
      m_Width: 65
      m_Height: 8
    m_Scale: 0.5
    m_AtlasIndex: 0
    sprite: {fileID: -5868715904453027620, guid: 7b1258f13a3ec43069a8b582ec1d39aa,
      type: 3}
  - m_Index: 41
    m_Metrics:
      m_Width: 43
      m_Height: 8
      m_HorizontalBearingX: 0
      m_HorizontalBearingY: 6
      m_HorizontalAdvance: 42
    m_GlyphRect:
      m_X: 53
      m_Y: 211
      m_Width: 43
      m_Height: 8
    m_Scale: 0.5
    m_AtlasIndex: 0
    sprite: {fileID: 3197282359044922058, guid: 7b1258f13a3ec43069a8b582ec1d39aa,
      type: 3}
  - m_Index: 42
    m_Metrics:
      m_Width: 64
      m_Height: 8
      m_HorizontalBearingX: 0
      m_HorizontalBearingY: 6
      m_HorizontalAdvance: 63
    m_GlyphRect:
      m_X: 122
      m_Y: 247
      m_Width: 64
      m_Height: 8
    m_Scale: 0.5
    m_AtlasIndex: 0
    sprite: {fileID: -1651412620247742012, guid: 7b1258f13a3ec43069a8b582ec1d39aa,
      type: 3}
  - m_Index: 43
    m_Metrics:
      m_Width: 89
      m_Height: 8
      m_HorizontalBearingX: 0
      m_HorizontalBearingY: 6
      m_HorizontalAdvance: 88
    m_GlyphRect:
      m_X: 134
      m_Y: 112
      m_Width: 89
      m_Height: 8
    m_Scale: 0.5
    m_AtlasIndex: 0
    sprite: {fileID: -2774896194037390955, guid: 7b1258f13a3ec43069a8b582ec1d39aa,
      type: 3}
  - m_Index: 44
    m_Metrics:
      m_Width: 54
      m_Height: 8
      m_HorizontalBearingX: 0
      m_HorizontalBearingY: 6
      m_HorizontalAdvance: 53
    m_GlyphRect:
      m_X: 134
      m_Y: 103
      m_Width: 54
      m_Height: 8
    m_Scale: 0.5
    m_AtlasIndex: 0
    sprite: {fileID: -2836408418821488586, guid: 7b1258f13a3ec43069a8b582ec1d39aa,
      type: 3}
  - m_Index: 45
    m_Metrics:
      m_Width: 49
      m_Height: 8
      m_HorizontalBearingX: 0
      m_HorizontalBearingY: 6
      m_HorizontalAdvance: 48
    m_GlyphRect:
      m_X: 101
      m_Y: 211
      m_Width: 49
      m_Height: 8
    m_Scale: 0.5
    m_AtlasIndex: 0
    sprite: {fileID: -2696329809280910480, guid: 7b1258f13a3ec43069a8b582ec1d39aa,
      type: 3}
  - m_Index: 46
    m_Metrics:
      m_Width: 41
      m_Height: 8
      m_HorizontalBearingX: 0
      m_HorizontalBearingY: 6
      m_HorizontalAdvance: 40
    m_GlyphRect:
      m_X: 134
      m_Y: 94
      m_Width: 41
      m_Height: 8
    m_Scale: 0.5
    m_AtlasIndex: 0
    sprite: {fileID: 6872794216875543648, guid: 7b1258f13a3ec43069a8b582ec1d39aa,
      type: 3}
  - m_Index: 47
    m_Metrics:
      m_Width: 51
      m_Height: 8
      m_HorizontalBearingX: 0
      m_HorizontalBearingY: 6
      m_HorizontalAdvance: 50
    m_GlyphRect:
      m_X: 134
      m_Y: 85
      m_Width: 51
      m_Height: 8
    m_Scale: 0.5
    m_AtlasIndex: 0
    sprite: {fileID: -6121141538395350087, guid: 7b1258f13a3ec43069a8b582ec1d39aa,
      type: 3}
  - m_Index: 48
    m_Metrics:
      m_Width: 66
      m_Height: 8
      m_HorizontalBearingX: 0
      m_HorizontalBearingY: 6
      m_HorizontalAdvance: 65
    m_GlyphRect:
      m_X: 134
      m_Y: 76
      m_Width: 66
      m_Height: 8
    m_Scale: 0.5
    m_AtlasIndex: 0
    sprite: {fileID: 7207656490317334905, guid: 7b1258f13a3ec43069a8b582ec1d39aa,
      type: 3}
  - m_Index: 49
    m_Metrics:
      m_Width: 40
      m_Height: 8
      m_HorizontalBearingX: 0
      m_HorizontalBearingY: 6
      m_HorizontalAdvance: 39
    m_GlyphRect:
      m_X: 134
      m_Y: 67
      m_Width: 40
      m_Height: 8
    m_Scale: 0.5
    m_AtlasIndex: 0
    sprite: {fileID: -9056050218257933172, guid: 7b1258f13a3ec43069a8b582ec1d39aa,
      type: 3}
  spriteInfoList: []
  fallbackSpriteAssets: []
--- !u!21 &2760636091280210404
Material:
  serializedVersion: 6
  m_ObjectHideFlags: 1
  m_CorrespondingSourceObject: {fileID: 0}
  m_PrefabInstance: {fileID: 0}
  m_PrefabAsset: {fileID: 0}
  m_Name: TextMeshPro/Sprite
  m_Shader: {fileID: 4800000, guid: cf81c85f95fe47e1a27f6ae460cf182c, type: 3}
  m_ShaderKeywords: 
  m_LightmapFlags: 4
  m_EnableInstancingVariants: 0
  m_DoubleSidedGI: 0
  m_CustomRenderQueue: -1
  stringTagMap: {}
  disabledShaderPasses: []
  m_SavedProperties:
    serializedVersion: 3
    m_TexEnvs:
    - _MainTex:
        m_Texture: {fileID: 2800000, guid: 7b1258f13a3ec43069a8b582ec1d39aa, type: 3}
        m_Scale: {x: 1, y: 1}
        m_Offset: {x: 0, y: 0}
    m_Floats:
    - _ColorMask: 15
    - _Stencil: 0
    - _StencilComp: 8
    - _StencilOp: 0
    - _StencilReadMask: 255
    - _StencilWriteMask: 255
    - _UseUIAlphaClip: 0
    m_Colors:
    - _ClipRect: {r: -32767, g: -32767, b: 32767, a: 32767}
    - _Color: {r: 1, g: 1, b: 1, a: 1}
  m_BuildTextureStacks: []
