%YAML 1.1
%TAG !u! tag:unity3d.com,2011:
--- !u!114 &11400000
MonoBehaviour:
  m_ObjectHideFlags: 0
  m_CorrespondingSourceObject: {fileID: 0}
  m_PrefabInstance: {fileID: 0}
  m_PrefabAsset: {fileID: 0}
  m_GameObject: {fileID: 0}
  m_Enabled: 1
  m_EditorHideFlags: 0
  m_Script: {fileID: 11500000, guid: 34404cb99b59bb543805a55e3c469d61, type: 3}
  m_Name: atk-up
  m_EditorClassIdentifier: 
  editorConfirmations: 1
  animations:
  - speedRatio: 1
    loop: 1
    frameToLoop: 0
    frameDatas:
    - sprite: {fileID: -4255409837299177450, guid: 1472bcd42096b49e2b76b6bb7128a5ed,
        type: 3}
      time: 0.06
      eventEnabled: 0
      eventName: 
    - sprite: {fileID: -2752499515019559190, guid: 1472bcd42096b49e2b76b6bb7128a5ed,
        type: 3}
      time: 0.24
      eventEnabled: 0
      eventName: 
    - sprite: {fileID: -3586942504197020858, guid: 1472bcd42096b49e2b76b6bb7128a5ed,
        type: 3}
      time: 0.06
      eventEnabled: 0
      eventName: 
    - sprite: {fileID: -795036176723432385, guid: 1472bcd42096b49e2b76b6bb7128a5ed,
        type: 3}
      time: 0.06
      eventEnabled: 0
      eventName: 
    - sprite: {fileID: -6213462585648468543, guid: 1472bcd42096b49e2b76b6bb7128a5ed,
        type: 3}
      time: 0.24
      eventEnabled: 0
      eventName: 
    name: idle-arcane
    selectedIndex: 4
    newFramesTime: 0.05
    setFramesTime: 0.1
  - speedRatio: 1
    loop: 1
    frameToLoop: 0
    frameDatas:
    - sprite: {fileID: 3933350124270095183, guid: 95ec97bd49ad942778d59426f96266b0,
        type: 3}
      time: 0.06
      eventEnabled: 0
      eventName: 
    - sprite: {fileID: -7588968091837217199, guid: 95ec97bd49ad942778d59426f96266b0,
        type: 3}
      time: 0.24
      eventEnabled: 0
      eventName: 
    - sprite: {fileID: 1809224024172290403, guid: 95ec97bd49ad942778d59426f96266b0,
        type: 3}
      time: 0.06
      eventEnabled: 0
      eventName: 
    - sprite: {fileID: 5936058921736385228, guid: 95ec97bd49ad942778d59426f96266b0,
        type: 3}
      time: 0.06
      eventEnabled: 0
      eventName: 
    - sprite: {fileID: 5187768012025427690, guid: 95ec97bd49ad942778d59426f96266b0,
        type: 3}
      time: 0.24
      eventEnabled: 0
      eventName: 
    name: idle-melee
    selectedIndex: 0
    newFramesTime: 0.05
    setFramesTime: 0.1
  - speedRatio: 1
    loop: 1
    frameToLoop: 0
    frameDatas:
    - sprite: {fileID: 2989741656012139721, guid: d33ed475ac833453891e6f8a24d7b665,
        type: 3}
      time: 0.06
      eventEnabled: 0
      eventName: 
    - sprite: {fileID: -6670196317486137202, guid: d33ed475ac833453891e6f8a24d7b665,
        type: 3}
      time: 0.24
      eventEnabled: 0
      eventName: 
    - sprite: {fileID: 6364441744172115716, guid: d33ed475ac833453891e6f8a24d7b665,
        type: 3}
      time: 0.06
      eventEnabled: 0
      eventName: 
    - sprite: {fileID: 202815584636434460, guid: d33ed475ac833453891e6f8a24d7b665,
        type: 3}
      time: 0.06
      eventEnabled: 0
      eventName: 
    - sprite: {fileID: -65793922467692462, guid: d33ed475ac833453891e6f8a24d7b665,
        type: 3}
      time: 0.24
      eventEnabled: 0
      eventName: 
    name: idle-ranged
    selectedIndex: 0
    newFramesTime: 0.05
    setFramesTime: 0.1
  - speedRatio: 1
    loop: 0
    frameToLoop: 0
    frameDatas:
    - sprite: {fileID: 8747218793141051800, guid: 55ae427fba2744bfea185ebc32ac59d4,
        type: 3}
      time: 0.04
      eventEnabled: 0
      eventName: 
    - sprite: {fileID: -2199872165117874009, guid: 55ae427fba2744bfea185ebc32ac59d4,
        type: 3}
      time: 0.04
      eventEnabled: 0
      eventName: 
    - sprite: {fileID: -6258102063200629919, guid: 55ae427fba2744bfea185ebc32ac59d4,
        type: 3}
      time: 0.04
      eventEnabled: 0
      eventName: 
    - sprite: {fileID: -568152780113455196, guid: 55ae427fba2744bfea185ebc32ac59d4,
        type: 3}
      time: 0.04
      eventEnabled: 0
      eventName: 
    - sprite: {fileID: -5044892130726455961, guid: 55ae427fba2744bfea185ebc32ac59d4,
        type: 3}
      time: 0.04
      eventEnabled: 0
      eventName: 
    - sprite: {fileID: 21300000, guid: fd49ac06ab59f472699a83cd9ae6e5e3, type: 3}
      time: 0.05
      eventEnabled: 0
      eventName: 
    name: line-burst
    selectedIndex: 5
    newFramesTime: 0.05
    setFramesTime: 0.1
  - speedRatio: 1
    loop: 0
    frameToLoop: 0
    frameDatas:
    - sprite: {fileID: 3447556282523290140, guid: 4a018cf1f365a4adeb0c92f33f275fb2,
        type: 3}
      time: 0.04
      eventEnabled: 0
      eventName: 
    - sprite: {fileID: -546817922234494330, guid: 4a018cf1f365a4adeb0c92f33f275fb2,
        type: 3}
      time: 0.04
      eventEnabled: 0
      eventName: 
    - sprite: {fileID: -613264306590309872, guid: 4a018cf1f365a4adeb0c92f33f275fb2,
        type: 3}
      time: 0.04
      eventEnabled: 0
      eventName: 
    - sprite: {fileID: -4158761652583086700, guid: 4a018cf1f365a4adeb0c92f33f275fb2,
        type: 3}
      time: 0.04
      eventEnabled: 0
      eventName: 
    - sprite: {fileID: 1483443961087891436, guid: 4a018cf1f365a4adeb0c92f33f275fb2,
        type: 3}
      time: 0.04
      eventEnabled: 0
      eventName: 
    - sprite: {fileID: 21300000, guid: fd49ac06ab59f472699a83cd9ae6e5e3, type: 3}
      time: 0.05
      eventEnabled: 0
      eventName: 
    name: number-burst
    selectedIndex: 5
    newFramesTime: 0.05
    setFramesTime: 0.1
