%YAML 1.1
%TAG !u! tag:unity3d.com,2011:
--- !u!114 &11400000
MonoBehaviour:
  m_ObjectHideFlags: 0
  m_CorrespondingSourceObject: {fileID: 0}
  m_PrefabInstance: {fileID: 0}
  m_PrefabAsset: {fileID: 0}
  m_GameObject: {fileID: 0}
  m_Enabled: 1
  m_EditorHideFlags: 0
  m_Script: {fileID: 11500000, guid: 34404cb99b59bb543805a55e3c469d61, type: 3}
  m_Name: attack-type-icon-overlay
  m_EditorClassIdentifier: 
  editorConfirmations: 1
  animations:
  - speedRatio: 1
    loop: 1
    frameToLoop: 0
    frameDatas:
    - sprite: {fileID: 21300000, guid: 3df39d213e87845c8a0e289b56db6149, type: 3}
      time: 0.06
      eventEnabled: 0
      eventName: 
    name: arcane
    selectedIndex: 0
    newFramesTime: 0.05
    setFramesTime: 0.1
  - speedRatio: 1
    loop: 1
    frameToLoop: 0
    frameDatas:
    - sprite: {fileID: 21300000, guid: 8b2cb8139678f4fb694d258b016b6e01, type: 3}
      time: 0.06
      eventEnabled: 0
      eventName: 
    name: melee
    selectedIndex: 0
    newFramesTime: 0.05
    setFramesTime: 0.1
  - speedRatio: 1
    loop: 1
    frameToLoop: 0
    frameDatas:
    - sprite: {fileID: 21300000, guid: b0ad3880d3df84187b184fcfaf6bb1f0, type: 3}
      time: 0.06
      eventEnabled: 0
      eventName: 
    name: ranged
    selectedIndex: 0
    newFramesTime: 0.05
    setFramesTime: 0.1
