%YAML 1.1
%TAG !u! tag:unity3d.com,2011:
--- !u!114 &11400000
MonoBehaviour:
  m_ObjectHideFlags: 0
  m_CorrespondingSourceObject: {fileID: 0}
  m_PrefabInstance: {fileID: 0}
  m_PrefabAsset: {fileID: 0}
  m_GameObject: {fileID: 0}
  m_Enabled: 1
  m_EditorHideFlags: 0
  m_Script: {fileID: 11500000, guid: 34404cb99b59bb543805a55e3c469d61, type: 3}
  m_Name: battlecry
  m_EditorClassIdentifier: 
  editorConfirmations: 1
  animations:
  - speedRatio: 1
    loop: 0
    frameToLoop: 0
    frameDatas:
    - sprite: {fileID: -7379280767363737887, guid: b25bb084b778e46c2ad166e931259ed0,
        type: 3}
      time: 0.04
      eventEnabled: 0
      eventName: 
    - sprite: {fileID: 6212227264308959261, guid: b25bb084b778e46c2ad166e931259ed0,
        type: 3}
      time: 0.04
      eventEnabled: 0
      eventName: 
    - sprite: {fileID: -4322623550524437169, guid: b25bb084b778e46c2ad166e931259ed0,
        type: 3}
      time: 0.04
      eventEnabled: 0
      eventName: 
    - sprite: {fileID: 8520391432153712385, guid: b25bb084b778e46c2ad166e931259ed0,
        type: 3}
      time: 0.04
      eventEnabled: 0
      eventName: 
    - sprite: {fileID: 5697993458348181476, guid: b25bb084b778e46c2ad166e931259ed0,
        type: 3}
      time: 0.04
      eventEnabled: 0
      eventName: 
    - sprite: {fileID: -6843421444865273617, guid: b25bb084b778e46c2ad166e931259ed0,
        type: 3}
      time: 0.04
      eventEnabled: 0
      eventName: 
    - sprite: {fileID: -7700972279690830579, guid: b25bb084b778e46c2ad166e931259ed0,
        type: 3}
      time: 0.04
      eventEnabled: 0
      eventName: 
    - sprite: {fileID: 2192409782139117443, guid: b25bb084b778e46c2ad166e931259ed0,
        type: 3}
      time: 0.04
      eventEnabled: 0
      eventName: 
    - sprite: {fileID: 8421321273369434197, guid: b25bb084b778e46c2ad166e931259ed0,
        type: 3}
      time: 0.04
      eventEnabled: 0
      eventName: 
    - sprite: {fileID: 34383570797721299, guid: b25bb084b778e46c2ad166e931259ed0,
        type: 3}
      time: 0.04
      eventEnabled: 0
      eventName: 
    - sprite: {fileID: 3600732815483802375, guid: b25bb084b778e46c2ad166e931259ed0,
        type: 3}
      time: 0.04
      eventEnabled: 0
      eventName: 
    - sprite: {fileID: -4245816974633031012, guid: b25bb084b778e46c2ad166e931259ed0,
        type: 3}
      time: 0.04
      eventEnabled: 0
      eventName: 
    - sprite: {fileID: -3480061424166424501, guid: b25bb084b778e46c2ad166e931259ed0,
        type: 3}
      time: 0.04
      eventEnabled: 0
      eventName: 
    - sprite: {fileID: -8295306096606900933, guid: b25bb084b778e46c2ad166e931259ed0,
        type: 3}
      time: 0.04
      eventEnabled: 0
      eventName: 
    - sprite: {fileID: 21300000, guid: fd49ac06ab59f472699a83cd9ae6e5e3, type: 3}
      time: 0.05
      eventEnabled: 0
      eventName: 
    name: battlecry-activate
    selectedIndex: 14
    newFramesTime: 0.05
    setFramesTime: 0.1
