%YAML 1.1
%TAG !u! tag:unity3d.com,2011:
--- !u!114 &11400000
MonoBehaviour:
  m_ObjectHideFlags: 0
  m_CorrespondingSourceObject: {fileID: 0}
  m_PrefabInstance: {fileID: 0}
  m_PrefabAsset: {fileID: 0}
  m_GameObject: {fileID: 0}
  m_Enabled: 1
  m_EditorHideFlags: 0
  m_Script: {fileID: 11500000, guid: 34404cb99b59bb543805a55e3c469d61, type: 3}
  m_Name: bite
  m_EditorClassIdentifier: 
  editorConfirmations: 1
  animations:
  - speedRatio: 1
    loop: 0
    frameToLoop: 0
    frameDatas:
    - sprite: {fileID: 1123738900913626936, guid: 478ce7c7a757d4beaa18ddf8b5a22ec5,
        type: 3}
      time: 0.04
      eventEnabled: 0
      eventName: 
    - sprite: {fileID: 5886228804132239128, guid: 478ce7c7a757d4beaa18ddf8b5a22ec5,
        type: 3}
      time: 0.04
      eventEnabled: 0
      eventName: 
    - sprite: {fileID: 7994842569350169260, guid: 478ce7c7a757d4beaa18ddf8b5a22ec5,
        type: 3}
      time: 0.04
      eventEnabled: 0
      eventName: 
    - sprite: {fileID: -5261584160273592891, guid: 478ce7c7a757d4beaa18ddf8b5a22ec5,
        type: 3}
      time: 0.04
      eventEnabled: 0
      eventName: 
    - sprite: {fileID: 4866838066770402999, guid: 478ce7c7a757d4beaa18ddf8b5a22ec5,
        type: 3}
      time: 0.04
      eventEnabled: 0
      eventName: 
    - sprite: {fileID: 2846299223697865513, guid: 478ce7c7a757d4beaa18ddf8b5a22ec5,
        type: 3}
      time: 0.04
      eventEnabled: 0
      eventName: 
    - sprite: {fileID: 8397747893151095238, guid: 478ce7c7a757d4beaa18ddf8b5a22ec5,
        type: 3}
      time: 0.04
      eventEnabled: 0
      eventName: 
    - sprite: {fileID: 8411680476007219264, guid: 478ce7c7a757d4beaa18ddf8b5a22ec5,
        type: 3}
      time: 0.04
      eventEnabled: 0
      eventName: 
    - sprite: {fileID: 8878597517326695737, guid: 478ce7c7a757d4beaa18ddf8b5a22ec5,
        type: 3}
      time: 0.04
      eventEnabled: 0
      eventName: 
    - sprite: {fileID: -7191572639010709662, guid: 478ce7c7a757d4beaa18ddf8b5a22ec5,
        type: 3}
      time: 0.04
      eventEnabled: 0
      eventName: 
    - sprite: {fileID: -3668637051500358718, guid: 478ce7c7a757d4beaa18ddf8b5a22ec5,
        type: 3}
      time: 0.04
      eventEnabled: 0
      eventName: 
    - sprite: {fileID: -3866880784859919600, guid: 478ce7c7a757d4beaa18ddf8b5a22ec5,
        type: 3}
      time: 0.04
      eventEnabled: 0
      eventName: 
    - sprite: {fileID: 8835289485742965814, guid: 478ce7c7a757d4beaa18ddf8b5a22ec5,
        type: 3}
      time: 0.04
      eventEnabled: 0
      eventName: 
    - sprite: {fileID: 21300000, guid: fd49ac06ab59f472699a83cd9ae6e5e3, type: 3}
      time: 0.05
      eventEnabled: 0
      eventName: 
    name: chomp
    selectedIndex: 13
    newFramesTime: 0.05
    setFramesTime: 0.1
