%YAML 1.1
%TAG !u! tag:unity3d.com,2011:
--- !u!114 &11400000
MonoBehaviour:
  m_ObjectHideFlags: 0
  m_CorrespondingSourceObject: {fileID: 0}
  m_PrefabInstance: {fileID: 0}
  m_PrefabAsset: {fileID: 0}
  m_GameObject: {fileID: 0}
  m_Enabled: 1
  m_EditorHideFlags: 0
  m_Script: {fileID: 11500000, guid: 34404cb99b59bb543805a55e3c469d61, type: 3}
  m_Name: blade-bomb-projectile
  m_EditorClassIdentifier: 
  editorConfirmations: 1
  animations:
  - speedRatio: 1
    loop: 1
    frameToLoop: 0
    frameDatas:
    - sprite: {fileID: 21300000, guid: f4cf92ae47276d940803b9a0423842e6, type: 3}
      time: 0.04
      eventEnabled: 0
      eventName: 
    name: blade-2
    selectedIndex: 0
    newFramesTime: 0.05
    setFramesTime: 0.1
  - speedRatio: 1
    loop: 1
    frameToLoop: 0
    frameDatas:
    - sprite: {fileID: 21300000, guid: 01709b578445ccf439414e764523f223, type: 3}
      time: 0.04
      eventEnabled: 0
      eventName: 
    name: blade-4
    selectedIndex: 0
    newFramesTime: 0.05
    setFramesTime: 0.1
  - speedRatio: 1
    loop: 1
    frameToLoop: 0
    frameDatas:
    - sprite: {fileID: 21300000, guid: 4437cfff1171dc54399018c5fa4494ad, type: 3}
      time: 0.04
      eventEnabled: 0
      eventName: 
    name: blade-3
    selectedIndex: 0
    newFramesTime: 0.05
    setFramesTime: 0.1
  - speedRatio: 1
    loop: 1
    frameToLoop: 0
    frameDatas:
    - sprite: {fileID: 21300000, guid: 61133a95b67446e4a8f74bf01bef224b, type: 3}
      time: 0.04
      eventEnabled: 0
      eventName: 
    name: blade-1
    selectedIndex: 0
    newFramesTime: 0.05
    setFramesTime: 0.1
