%YAML 1.1
%TAG !u! tag:unity3d.com,2011:
--- !u!114 &11400000
MonoBehaviour:
  m_ObjectHideFlags: 0
  m_CorrespondingSourceObject: {fileID: 0}
  m_PrefabInstance: {fileID: 0}
  m_PrefabAsset: {fileID: 0}
  m_GameObject: {fileID: 0}
  m_Enabled: 1
  m_EditorHideFlags: 0
  m_Script: {fileID: 11500000, guid: 34404cb99b59bb543805a55e3c469d61, type: 3}
  m_Name: book
  m_EditorClassIdentifier: 
  editorConfirmations: 1
  animations:
  - speedRatio: 1
    loop: 0
    frameToLoop: 0
    frameDatas:
    - sprite: {fileID: 21300000, guid: 91d24a3172e5b4fca9c1b08ddc967b16, type: 3}
      time: 0.04
      eventEnabled: 0
      eventName: 
    name: redcroft-3
    selectedIndex: 0
    newFramesTime: 0.05
    setFramesTime: 0.1
  - speedRatio: 1
    loop: 0
    frameToLoop: 0
    frameDatas:
    - sprite: {fileID: 21300000, guid: 4bcaff1cf25054c10a06bc30b51e6f95, type: 3}
      time: 0.04
      eventEnabled: 0
      eventName: 
    name: redcroft-2-locked
    selectedIndex: 0
    newFramesTime: 0.05
    setFramesTime: 0.1
  - speedRatio: 1
    loop: 0
    frameToLoop: 0
    frameDatas:
    - sprite: {fileID: 21300000, guid: 75c9c50004966456bb57739cf13f30e1, type: 3}
      time: 0.04
      eventEnabled: 0
      eventName: 
    name: redcroft-3-locked
    selectedIndex: 0
    newFramesTime: 0.05
    setFramesTime: 0.1
  - speedRatio: 1
    loop: 0
    frameToLoop: 0
    frameDatas:
    - sprite: {fileID: 21300000, guid: ce9c6a21d06604256aa6c3efeec486bb, type: 3}
      time: 0.04
      eventEnabled: 0
      eventName: 
    name: redcroft-1-locked
    selectedIndex: 0
    newFramesTime: 0.05
    setFramesTime: 0.1
  - speedRatio: 1
    loop: 0
    frameToLoop: 0
    frameDatas:
    - sprite: {fileID: 21300000, guid: 5d762460246f4448496b0b5970ad9a58, type: 3}
      time: 0.04
      eventEnabled: 0
      eventName: 
    name: redcroft-2
    selectedIndex: 0
    newFramesTime: 0.05
    setFramesTime: 0.1
  - speedRatio: 1
    loop: 0
    frameToLoop: 0
    frameDatas:
    - sprite: {fileID: 21300000, guid: cdea1cda17f784a03a4cf0840436582b, type: 3}
      time: 0.04
      eventEnabled: 0
      eventName: 
    name: redcroft-1
    selectedIndex: 0
    newFramesTime: 0.05
    setFramesTime: 0.1
  - speedRatio: 1
    loop: 0
    frameToLoop: 0
    frameDatas:
    - sprite: {fileID: 21300000, guid: a56222421385aae46b559bedf078a60c, type: 3}
      time: 0.04
      eventEnabled: 0
      eventName: 
    name: violet-1-locked
    selectedIndex: 0
    newFramesTime: 0.05
    setFramesTime: 0.1
  - speedRatio: 1
    loop: 0
    frameToLoop: 0
    frameDatas:
    - sprite: {fileID: 21300000, guid: cb98f2174d7e03b40ab742eeec324716, type: 3}
      time: 0.04
      eventEnabled: 0
      eventName: 
    name: violet-1
    selectedIndex: 0
    newFramesTime: 0.05
    setFramesTime: 0.1
  - speedRatio: 1
    loop: 0
    frameToLoop: 0
    frameDatas:
    - sprite: {fileID: 21300000, guid: b2173cceb181948428bbaf498dca22b2, type: 3}
      time: 0.04
      eventEnabled: 0
      eventName: 
    name: violet-2-locked
    selectedIndex: 0
    newFramesTime: 0.05
    setFramesTime: 0.1
  - speedRatio: 1
    loop: 0
    frameToLoop: 0
    frameDatas:
    - sprite: {fileID: 21300000, guid: c669932d7c98bb642bb70712f18aeb15, type: 3}
      time: 0.04
      eventEnabled: 0
      eventName: 
    name: violet-2
    selectedIndex: 0
    newFramesTime: 0.05
    setFramesTime: 0.1
  - speedRatio: 1
    loop: 0
    frameToLoop: 0
    frameDatas:
    - sprite: {fileID: 21300000, guid: 55036b37f7787a94581f8a0dbe051087, type: 3}
      time: 0.04
      eventEnabled: 0
      eventName: 
    name: violet-3-locked
    selectedIndex: 0
    newFramesTime: 0.05
    setFramesTime: 0.1
  - speedRatio: 1
    loop: 0
    frameToLoop: 0
    frameDatas:
    - sprite: {fileID: 21300000, guid: eacef025380a2384fa52d56b8de1ce8f, type: 3}
      time: 0.04
      eventEnabled: 0
      eventName: 
    name: violet-3
    selectedIndex: 0
    newFramesTime: 0.05
    setFramesTime: 0.1
  - speedRatio: 1
    loop: 1
    frameToLoop: 0
    frameDatas:
    - sprite: {fileID: 21300000, guid: c35e3f53d21783041bd90e3ad5292fc1, type: 3}
      time: 0.04
      eventEnabled: 0
      eventName: 
    name: quill-2-locked
    selectedIndex: 0
    newFramesTime: 0.05
    setFramesTime: 0.1
  - speedRatio: 1
    loop: 1
    frameToLoop: 0
    frameDatas:
    - sprite: {fileID: 21300000, guid: bd6d9ae9b47207c4890394b762001098, type: 3}
      time: 0.04
      eventEnabled: 0
      eventName: 
    name: quill-3
    selectedIndex: 0
    newFramesTime: 0.05
    setFramesTime: 0.1
  - speedRatio: 1
    loop: 1
    frameToLoop: 0
    frameDatas:
    - sprite: {fileID: 21300000, guid: 0a74ff6bea92ee24bad6144e344e7fba, type: 3}
      time: 0.04
      eventEnabled: 0
      eventName: 
    name: quill-1
    selectedIndex: 0
    newFramesTime: 0.05
    setFramesTime: 0.1
  - speedRatio: 1
    loop: 1
    frameToLoop: 0
    frameDatas:
    - sprite: {fileID: 21300000, guid: 5cf8306f7dea83245a49483e1bc2b759, type: 3}
      time: 0.04
      eventEnabled: 0
      eventName: 
    name: quill-2
    selectedIndex: 0
    newFramesTime: 0.05
    setFramesTime: 0.1
  - speedRatio: 1
    loop: 1
    frameToLoop: 0
    frameDatas:
    - sprite: {fileID: 21300000, guid: 2679c874d71e9f84f8f982793d5f22e0, type: 3}
      time: 0.04
      eventEnabled: 0
      eventName: 
    name: quill-3-locked
    selectedIndex: 0
    newFramesTime: 0.05
    setFramesTime: 0.1
  - speedRatio: 1
    loop: 1
    frameToLoop: 0
    frameDatas:
    - sprite: {fileID: 21300000, guid: a8d9307c1453b164992c33e1adf694b2, type: 3}
      time: 0.04
      eventEnabled: 0
      eventName: 
    name: quill-1-locked
    selectedIndex: 0
    newFramesTime: 0.05
    setFramesTime: 0.1
