%YAML 1.1
%TAG !u! tag:unity3d.com,2011:
--- !u!114 &11400000
MonoBehaviour:
  m_ObjectHideFlags: 0
  m_CorrespondingSourceObject: {fileID: 0}
  m_PrefabInstance: {fileID: 0}
  m_PrefabAsset: {fileID: 0}
  m_GameObject: {fileID: 0}
  m_Enabled: 1
  m_EditorHideFlags: 0
  m_Script: {fileID: 11500000, guid: 34404cb99b59bb543805a55e3c469d61, type: 3}
  m_Name: brigade-trapdoor
  m_EditorClassIdentifier: 
  editorConfirmations: 1
  animations:
  - speedRatio: 1
    loop: 0
    frameToLoop: 0
    frameDatas:
    - sprite: {fileID: -3383634242357651428, guid: 648781e8c6714ab48a922e0c267d48ce,
        type: 3}
      time: 0.04
      eventEnabled: 0
      eventName: 
    - sprite: {fileID: -4213854183560192721, guid: 648781e8c6714ab48a922e0c267d48ce,
        type: 3}
      time: 0.04
      eventEnabled: 0
      eventName: 
    - sprite: {fileID: -6826903401260387027, guid: 648781e8c6714ab48a922e0c267d48ce,
        type: 3}
      time: 0.04
      eventEnabled: 0
      eventName: 
    - sprite: {fileID: 2661864672657644369, guid: 648781e8c6714ab48a922e0c267d48ce,
        type: 3}
      time: 0.04
      eventEnabled: 0
      eventName: 
    - sprite: {fileID: 7201682250558210434, guid: 648781e8c6714ab48a922e0c267d48ce,
        type: 3}
      time: 0.04
      eventEnabled: 0
      eventName: 
    - sprite: {fileID: -5013914765632220523, guid: 648781e8c6714ab48a922e0c267d48ce,
        type: 3}
      time: 0.04
      eventEnabled: 0
      eventName: 
    - sprite: {fileID: -3639743133013379735, guid: 648781e8c6714ab48a922e0c267d48ce,
        type: 3}
      time: 0.04
      eventEnabled: 0
      eventName: 
    - sprite: {fileID: -809423051737317277, guid: 648781e8c6714ab48a922e0c267d48ce,
        type: 3}
      time: 0.04
      eventEnabled: 0
      eventName: 
    - sprite: {fileID: 8515111785381320752, guid: 648781e8c6714ab48a922e0c267d48ce,
        type: 3}
      time: 0.2
      eventEnabled: 0
      eventName: 
    name: appear
    selectedIndex: 8
    newFramesTime: 0.05
    setFramesTime: 0.1
  - speedRatio: 1
    loop: 0
    frameToLoop: 0
    frameDatas:
    - sprite: {fileID: 4736701527898648508, guid: d88c154637a98d344a1e164e3dee6356,
        type: 3}
      time: 0.04
      eventEnabled: 0
      eventName: 
    - sprite: {fileID: 4881980220199817248, guid: d88c154637a98d344a1e164e3dee6356,
        type: 3}
      time: 0.04
      eventEnabled: 0
      eventName: 
    - sprite: {fileID: 989285767438867853, guid: d88c154637a98d344a1e164e3dee6356,
        type: 3}
      time: 0.04
      eventEnabled: 0
      eventName: 
    - sprite: {fileID: 7438192884426469093, guid: d88c154637a98d344a1e164e3dee6356,
        type: 3}
      time: 0.04
      eventEnabled: 0
      eventName: 
    - sprite: {fileID: 8511172935674676767, guid: d88c154637a98d344a1e164e3dee6356,
        type: 3}
      time: 0.04
      eventEnabled: 0
      eventName: 
    - sprite: {fileID: 3865794313451303579, guid: d88c154637a98d344a1e164e3dee6356,
        type: 3}
      time: 0.04
      eventEnabled: 0
      eventName: 
    - sprite: {fileID: 6830304332523228379, guid: d88c154637a98d344a1e164e3dee6356,
        type: 3}
      time: 0.04
      eventEnabled: 0
      eventName: 
    - sprite: {fileID: -6117531551121432960, guid: d88c154637a98d344a1e164e3dee6356,
        type: 3}
      time: 0.04
      eventEnabled: 0
      eventName: 
    - sprite: {fileID: -5228675079064402873, guid: d88c154637a98d344a1e164e3dee6356,
        type: 3}
      time: 0.04
      eventEnabled: 0
      eventName: 
    name: despawn
    selectedIndex: 8
    newFramesTime: 0.05
    setFramesTime: 0.1
  - speedRatio: 1
    loop: 0
    frameToLoop: 0
    frameDatas:
    - sprite: {fileID: 4719412289934186019, guid: 48c28c6d6273b02428e30a16d22be15f,
        type: 3}
      time: 0.04
      eventEnabled: 0
      eventName: 
    - sprite: {fileID: 8495835506547860694, guid: 48c28c6d6273b02428e30a16d22be15f,
        type: 3}
      time: 0.04
      eventEnabled: 0
      eventName: 
    - sprite: {fileID: -8923534168430994589, guid: 48c28c6d6273b02428e30a16d22be15f,
        type: 3}
      time: 0.04
      eventEnabled: 0
      eventName: 
    - sprite: {fileID: 226724062951714967, guid: 48c28c6d6273b02428e30a16d22be15f,
        type: 3}
      time: 0.04
      eventEnabled: 0
      eventName: 
    - sprite: {fileID: -5384674681830476166, guid: 48c28c6d6273b02428e30a16d22be15f,
        type: 3}
      time: 0.04
      eventEnabled: 0
      eventName: 
    - sprite: {fileID: 8167982402928997843, guid: 48c28c6d6273b02428e30a16d22be15f,
        type: 3}
      time: 0.04
      eventEnabled: 0
      eventName: 
    - sprite: {fileID: 4591294153928895523, guid: 48c28c6d6273b02428e30a16d22be15f,
        type: 3}
      time: 0.16
      eventEnabled: 0
      eventName: 
    - sprite: {fileID: -2068992692493820875, guid: 48c28c6d6273b02428e30a16d22be15f,
        type: 3}
      time: 0.04
      eventEnabled: 0
      eventName: 
    - sprite: {fileID: 907045303891558649, guid: 48c28c6d6273b02428e30a16d22be15f,
        type: 3}
      time: 0.4
      eventEnabled: 0
      eventName: 
    name: open
    selectedIndex: 8
    newFramesTime: 0.05
    setFramesTime: 0.1
