%YAML 1.1
%TAG !u! tag:unity3d.com,2011:
--- !u!114 &11400000
MonoBehaviour:
  m_ObjectHideFlags: 0
  m_CorrespondingSourceObject: {fileID: 0}
  m_PrefabInstance: {fileID: 0}
  m_PrefabAsset: {fileID: 0}
  m_GameObject: {fileID: 0}
  m_Enabled: 1
  m_EditorHideFlags: 0
  m_Script: {fileID: 11500000, guid: 34404cb99b59bb543805a55e3c469d61, type: 3}
  m_Name: cannon-spawn
  m_EditorClassIdentifier: 
  editorConfirmations: 1
  animations:
  - speedRatio: 1
    loop: 0
    frameToLoop: 0
    frameDatas:
    - sprite: {fileID: -6235116668443494200, guid: 7764c9b5fc65a42308fcf5a6cb32c16c,
        type: 3}
      time: 0.06
      eventEnabled: 0
      eventName: 
    - sprite: {fileID: 5088767328558079804, guid: 7764c9b5fc65a42308fcf5a6cb32c16c,
        type: 3}
      time: 0.06
      eventEnabled: 0
      eventName: 
    - sprite: {fileID: 3081197805469468712, guid: 7764c9b5fc65a42308fcf5a6cb32c16c,
        type: 3}
      time: 0.06
      eventEnabled: 0
      eventName: 
    - sprite: {fileID: 4304165553931037186, guid: 7764c9b5fc65a42308fcf5a6cb32c16c,
        type: 3}
      time: 0.06
      eventEnabled: 0
      eventName: 
    - sprite: {fileID: -5443838749014144067, guid: 7764c9b5fc65a42308fcf5a6cb32c16c,
        type: 3}
      time: 0.06
      eventEnabled: 0
      eventName: 
    - sprite: {fileID: 5508283945260523039, guid: 7764c9b5fc65a42308fcf5a6cb32c16c,
        type: 3}
      time: 0.06
      eventEnabled: 0
      eventName: 
    name: bottom
    selectedIndex: 0
    newFramesTime: 0.05
    setFramesTime: 0.1
  - speedRatio: 1
    loop: 0
    frameToLoop: 0
    frameDatas:
    - sprite: {fileID: 2380833095004481647, guid: d42ad521395e64297a023a14828e0cd2,
        type: 3}
      time: 0.06
      eventEnabled: 0
      eventName: 
    - sprite: {fileID: -2129176090414957154, guid: d42ad521395e64297a023a14828e0cd2,
        type: 3}
      time: 0.06
      eventEnabled: 0
      eventName: 
    - sprite: {fileID: 6139064818154165004, guid: d42ad521395e64297a023a14828e0cd2,
        type: 3}
      time: 0.06
      eventEnabled: 0
      eventName: 
    - sprite: {fileID: 1200089816909183794, guid: d42ad521395e64297a023a14828e0cd2,
        type: 3}
      time: 0.06
      eventEnabled: 0
      eventName: 
    - sprite: {fileID: 4639704295970705045, guid: d42ad521395e64297a023a14828e0cd2,
        type: 3}
      time: 0.06
      eventEnabled: 0
      eventName: 
    - sprite: {fileID: -2073304807073135237, guid: d42ad521395e64297a023a14828e0cd2,
        type: 3}
      time: 0.06
      eventEnabled: 0
      eventName: 
    name: top
    selectedIndex: 0
    newFramesTime: 0.05
    setFramesTime: 0.1
