%YAML 1.1
%TAG !u! tag:unity3d.com,2011:
--- !u!114 &11400000
MonoBehaviour:
  m_ObjectHideFlags: 0
  m_CorrespondingSourceObject: {fileID: 0}
  m_PrefabInstance: {fileID: 0}
  m_PrefabAsset: {fileID: 0}
  m_GameObject: {fileID: 0}
  m_Enabled: 1
  m_EditorHideFlags: 0
  m_Script: {fileID: 11500000, guid: 34404cb99b59bb543805a55e3c469d61, type: 3}
  m_Name: cannonballBurst
  m_EditorClassIdentifier: 
  editorConfirmations: 1
  animations:
  - speedRatio: 1
    loop: 0
    frameToLoop: 0
    frameDatas:
    - sprite: {fileID: 1325415737557119313, guid: 68f2d7d21ad68409bab3039f190d9a43,
        type: 3}
      time: 0.04
      eventEnabled: 0
      eventName: 
    - sprite: {fileID: -7250245337421405698, guid: 68f2d7d21ad68409bab3039f190d9a43,
        type: 3}
      time: 0.04
      eventEnabled: 0
      eventName: 
    - sprite: {fileID: -5004407673026847110, guid: 68f2d7d21ad68409bab3039f190d9a43,
        type: 3}
      time: 0.04
      eventEnabled: 0
      eventName: 
    - sprite: {fileID: -7209202861430067148, guid: 68f2d7d21ad68409bab3039f190d9a43,
        type: 3}
      time: 0.04
      eventEnabled: 0
      eventName: 
    - sprite: {fileID: 5958671334284626702, guid: 68f2d7d21ad68409bab3039f190d9a43,
        type: 3}
      time: 0.04
      eventEnabled: 0
      eventName: 
    - sprite: {fileID: -7605295203736471804, guid: 68f2d7d21ad68409bab3039f190d9a43,
        type: 3}
      time: 0.04
      eventEnabled: 0
      eventName: 
    - sprite: {fileID: -5673828717827922012, guid: 68f2d7d21ad68409bab3039f190d9a43,
        type: 3}
      time: 0.04
      eventEnabled: 0
      eventName: 
    - sprite: {fileID: -1949748069143852285, guid: 68f2d7d21ad68409bab3039f190d9a43,
        type: 3}
      time: 0.04
      eventEnabled: 0
      eventName: 
    - sprite: {fileID: 3367263802230482966, guid: 68f2d7d21ad68409bab3039f190d9a43,
        type: 3}
      time: 0.04
      eventEnabled: 0
      eventName: 
    - sprite: {fileID: 3305050174339796484, guid: 68f2d7d21ad68409bab3039f190d9a43,
        type: 3}
      time: 0.04
      eventEnabled: 0
      eventName: 
    name: smoke-burst
    selectedIndex: 9
    newFramesTime: 0.05
    setFramesTime: 0.1
