%YAML 1.1
%TAG !u! tag:unity3d.com,2011:
--- !u!114 &11400000
MonoBehaviour:
  m_ObjectHideFlags: 0
  m_CorrespondingSourceObject: {fileID: 0}
  m_PrefabInstance: {fileID: 0}
  m_PrefabAsset: {fileID: 0}
  m_GameObject: {fileID: 0}
  m_Enabled: 1
  m_EditorHideFlags: 0
  m_Script: {fileID: 11500000, guid: 34404cb99b59bb543805a55e3c469d61, type: 3}
  m_Name: cannoneer
  m_EditorClassIdentifier: 
  editorConfirmations: 1
  animations:
  - speedRatio: 1
    loop: 1
    frameToLoop: 0
    frameDatas:
    - sprite: {fileID: -4049421151405785023, guid: 63ecc83a6a1784f3da9fa4423a1efe17,
        type: 3}
      time: 0.05
      eventEnabled: 0
      eventName: 
    - sprite: {fileID: -705097740956997080, guid: 63ecc83a6a1784f3da9fa4423a1efe17,
        type: 3}
      time: 0.05
      eventEnabled: 0
      eventName: 
    - sprite: {fileID: -5778891902859615593, guid: 63ecc83a6a1784f3da9fa4423a1efe17,
        type: 3}
      time: 0.05
      eventEnabled: 0
      eventName: 
    - sprite: {fileID: -4510290675985987710, guid: 63ecc83a6a1784f3da9fa4423a1efe17,
        type: 3}
      time: 0.05
      eventEnabled: 0
      eventName: 
    - sprite: {fileID: 2349598933911914948, guid: 63ecc83a6a1784f3da9fa4423a1efe17,
        type: 3}
      time: 0.05
      eventEnabled: 0
      eventName: 
    - sprite: {fileID: 5988009770552287997, guid: 63ecc83a6a1784f3da9fa4423a1efe17,
        type: 3}
      time: 0.05
      eventEnabled: 0
      eventName: 
    name: spawn
    selectedIndex: 0
    newFramesTime: 0.05
    setFramesTime: 0.1
  - speedRatio: 1
    loop: 1
    frameToLoop: 0
    frameDatas:
    - sprite: {fileID: -529622915444339388, guid: ff2f1eb89ad7d47c9b4975e6e1ccb27b,
        type: 3}
      time: 0.05
      eventEnabled: 0
      eventName: 
    - sprite: {fileID: 345460101202384741, guid: ff2f1eb89ad7d47c9b4975e6e1ccb27b,
        type: 3}
      time: 0.05
      eventEnabled: 0
      eventName: 
    - sprite: {fileID: -5504012325731474132, guid: ff2f1eb89ad7d47c9b4975e6e1ccb27b,
        type: 3}
      time: 0.05
      eventEnabled: 0
      eventName: 
    - sprite: {fileID: 3972867590249006386, guid: ff2f1eb89ad7d47c9b4975e6e1ccb27b,
        type: 3}
      time: 0.05
      eventEnabled: 0
      eventName: 
    - sprite: {fileID: 3960909145488535463, guid: ff2f1eb89ad7d47c9b4975e6e1ccb27b,
        type: 3}
      time: 0.05
      eventEnabled: 0
      eventName: 
    - sprite: {fileID: -9121328496566092749, guid: ff2f1eb89ad7d47c9b4975e6e1ccb27b,
        type: 3}
      time: 0.05
      eventEnabled: 0
      eventName: 
    - sprite: {fileID: -7852489775719305682, guid: ff2f1eb89ad7d47c9b4975e6e1ccb27b,
        type: 3}
      time: 0.05
      eventEnabled: 0
      eventName: 
    - sprite: {fileID: -484882404486777517, guid: ff2f1eb89ad7d47c9b4975e6e1ccb27b,
        type: 3}
      time: 0.05
      eventEnabled: 0
      eventName: 
    - sprite: {fileID: -4837821519877757648, guid: ff2f1eb89ad7d47c9b4975e6e1ccb27b,
        type: 3}
      time: 0.05
      eventEnabled: 0
      eventName: 
    name: burn
    selectedIndex: 0
    newFramesTime: 0.05
    setFramesTime: 0.1
  - speedRatio: 1
    loop: 1
    frameToLoop: 0
    frameDatas:
    - sprite: {fileID: 3091811947582296137, guid: 7921be623db834497b116f6ed7b5195e,
        type: 3}
      time: 0.05
      eventEnabled: 0
      eventName: 
    - sprite: {fileID: 4203507977791258813, guid: 7921be623db834497b116f6ed7b5195e,
        type: 3}
      time: 0.05
      eventEnabled: 0
      eventName: 
    - sprite: {fileID: -758503090132598766, guid: 7921be623db834497b116f6ed7b5195e,
        type: 3}
      time: 0.05
      eventEnabled: 0
      eventName: 
    - sprite: {fileID: 3472786969076624094, guid: 7921be623db834497b116f6ed7b5195e,
        type: 3}
      time: 0.05
      eventEnabled: 0
      eventName: 
    - sprite: {fileID: 7195970729046900175, guid: 7921be623db834497b116f6ed7b5195e,
        type: 3}
      time: 0.05
      eventEnabled: 0
      eventName: 
    - sprite: {fileID: -3708809205855572654, guid: 7921be623db834497b116f6ed7b5195e,
        type: 3}
      time: 0.05
      eventEnabled: 0
      eventName: 
    - sprite: {fileID: -1812863799886172904, guid: 7921be623db834497b116f6ed7b5195e,
        type: 3}
      time: 0.05
      eventEnabled: 0
      eventName: 
    - sprite: {fileID: -2239351687107965035, guid: 7921be623db834497b116f6ed7b5195e,
        type: 3}
      time: 0.05
      eventEnabled: 0
      eventName: 
    - sprite: {fileID: 1546275277811527636, guid: 7921be623db834497b116f6ed7b5195e,
        type: 3}
      time: 0.05
      eventEnabled: 0
      eventName: 
    - sprite: {fileID: -7850115530389208320, guid: 7921be623db834497b116f6ed7b5195e,
        type: 3}
      time: 0.05
      eventEnabled: 0
      eventName: 
    - sprite: {fileID: 4338200251649293771, guid: 7921be623db834497b116f6ed7b5195e,
        type: 3}
      time: 0.05
      eventEnabled: 0
      eventName: 
    - sprite: {fileID: -1118023964096880596, guid: 7921be623db834497b116f6ed7b5195e,
        type: 3}
      time: 0.05
      eventEnabled: 0
      eventName: 
    - sprite: {fileID: 153999775005827567, guid: 7921be623db834497b116f6ed7b5195e,
        type: 3}
      time: 0.05
      eventEnabled: 0
      eventName: 
    - sprite: {fileID: -4460173314208568363, guid: 7921be623db834497b116f6ed7b5195e,
        type: 3}
      time: 0.05
      eventEnabled: 0
      eventName: 
    name: idle
    selectedIndex: 0
    newFramesTime: 0.05
    setFramesTime: 0.1
  - speedRatio: 1
    loop: 1
    frameToLoop: 0
    frameDatas:
    - sprite: {fileID: 57902910130133836, guid: b14bebe312ab84ff99c864d48af41967,
        type: 3}
      time: 0.05
      eventEnabled: 0
      eventName: 
    - sprite: {fileID: -5489534958655278756, guid: b14bebe312ab84ff99c864d48af41967,
        type: 3}
      time: 0.05
      eventEnabled: 0
      eventName: 
    - sprite: {fileID: 1207857871371657747, guid: b14bebe312ab84ff99c864d48af41967,
        type: 3}
      time: 0.05
      eventEnabled: 0
      eventName: 
    - sprite: {fileID: -1062657396518000640, guid: b14bebe312ab84ff99c864d48af41967,
        type: 3}
      time: 0.05
      eventEnabled: 0
      eventName: 
    - sprite: {fileID: -4741397845539504198, guid: b14bebe312ab84ff99c864d48af41967,
        type: 3}
      time: 0.05
      eventEnabled: 0
      eventName: 
    - sprite: {fileID: 4666110734348871540, guid: b14bebe312ab84ff99c864d48af41967,
        type: 3}
      time: 0.05
      eventEnabled: 0
      eventName: 
    - sprite: {fileID: -2122711791307055940, guid: b14bebe312ab84ff99c864d48af41967,
        type: 3}
      time: 0.05
      eventEnabled: 0
      eventName: 
    - sprite: {fileID: -8748373000719793444, guid: b14bebe312ab84ff99c864d48af41967,
        type: 3}
      time: 0.05
      eventEnabled: 0
      eventName: 
    - sprite: {fileID: -2906753519324271757, guid: b14bebe312ab84ff99c864d48af41967,
        type: 3}
      time: 0.05
      eventEnabled: 0
      eventName: 
    - sprite: {fileID: 2514068706040551804, guid: b14bebe312ab84ff99c864d48af41967,
        type: 3}
      time: 0.05
      eventEnabled: 0
      eventName: 
    - sprite: {fileID: -4328190044694680399, guid: b14bebe312ab84ff99c864d48af41967,
        type: 3}
      time: 0.05
      eventEnabled: 0
      eventName: 
    - sprite: {fileID: -2967760022574415242, guid: b14bebe312ab84ff99c864d48af41967,
        type: 3}
      time: 0.05
      eventEnabled: 0
      eventName: 
    - sprite: {fileID: 7347196968880353635, guid: b14bebe312ab84ff99c864d48af41967,
        type: 3}
      time: 0.05
      eventEnabled: 0
      eventName: 
    - sprite: {fileID: -7326440024566569457, guid: b14bebe312ab84ff99c864d48af41967,
        type: 3}
      time: 0.05
      eventEnabled: 0
      eventName: 
    name: explode
    selectedIndex: 0
    newFramesTime: 0.05
    setFramesTime: 0.1
