%YAML 1.1
%TAG !u! tag:unity3d.com,2011:
--- !u!114 &11400000
MonoBehaviour:
  m_ObjectHideFlags: 0
  m_CorrespondingSourceObject: {fileID: 0}
  m_PrefabInstance: {fileID: 0}
  m_PrefabAsset: {fileID: 0}
  m_GameObject: {fileID: 0}
  m_Enabled: 1
  m_EditorHideFlags: 0
  m_Script: {fileID: 11500000, guid: 34404cb99b59bb543805a55e3c469d61, type: 3}
  m_Name: card-location-tooltip-icon
  m_EditorClassIdentifier: 
  editorConfirmations: 1
  animations:
  - speedRatio: 1
    loop: 1
    frameToLoop: 0
    frameDatas:
    - sprite: {fileID: 21300000, guid: 75d920899cb801945b4a4b21c5257e37, type: 3}
      time: 0.04
      eventEnabled: 0
      eventName: 
    name: battle
    selectedIndex: 0
    newFramesTime: 0.05
    setFramesTime: 0.1
  - speedRatio: 1
    loop: 1
    frameToLoop: 0
    frameDatas:
    - sprite: {fileID: 21300000, guid: 1736e10627695bd4dbe6da0764b99524, type: 3}
      time: 0.04
      eventEnabled: 0
      eventName: 
    name: cardinellas-shop
    selectedIndex: 0
    newFramesTime: 0.05
    setFramesTime: 0.1
  - speedRatio: 1
    loop: 1
    frameToLoop: 0
    frameDatas:
    - sprite: {fileID: 21300000, guid: b55f07c6994bb6944ac8f8313968bf60, type: 3}
      time: 0.04
      eventEnabled: 0
      eventName: 
    name: level-grid
    selectedIndex: 0
    newFramesTime: 0.05
    setFramesTime: 0.1
  - speedRatio: 1
    loop: 1
    frameToLoop: 0
    frameDatas:
    - sprite: {fileID: 21300000, guid: 227ff6eef4cef5441af67da03a759385, type: 3}
      time: 0.04
      eventEnabled: 0
      eventName: 
    name: mawlders-shop
    selectedIndex: 0
    newFramesTime: 0.05
    setFramesTime: 0.1
