%YAML 1.1
%TAG !u! tag:unity3d.com,2011:
--- !u!114 &11400000
MonoBehaviour:
  m_ObjectHideFlags: 0
  m_CorrespondingSourceObject: {fileID: 0}
  m_PrefabInstance: {fileID: 0}
  m_PrefabAsset: {fileID: 0}
  m_GameObject: {fileID: 0}
  m_Enabled: 1
  m_EditorHideFlags: 0
  m_Script: {fileID: 11500000, guid: 34404cb99b59bb543805a55e3c469d61, type: 3}
  m_Name: card-purchase-burst
  m_EditorClassIdentifier: 
  editorConfirmations: 1
  animations:
  - speedRatio: 1
    loop: 0
    frameToLoop: 0
    frameDatas:
    - sprite: {fileID: -1894276940599234068, guid: a064e0247f93284419bc5b15fd70aec7,
        type: 3}
      time: 0.08
      eventEnabled: 0
      eventName: 
    - sprite: {fileID: 7451330598053965065, guid: a064e0247f93284419bc5b15fd70aec7,
        type: 3}
      time: 0.04
      eventEnabled: 0
      eventName: 
    - sprite: {fileID: -8266462542866372447, guid: a064e0247f93284419bc5b15fd70aec7,
        type: 3}
      time: 0.04
      eventEnabled: 0
      eventName: 
    - sprite: {fileID: 276918352987219346, guid: a064e0247f93284419bc5b15fd70aec7,
        type: 3}
      time: 0.04
      eventEnabled: 0
      eventName: 
    - sprite: {fileID: 4226065498579464338, guid: a064e0247f93284419bc5b15fd70aec7,
        type: 3}
      time: 0.04
      eventEnabled: 0
      eventName: 
    name: card-burst
    selectedIndex: 3
    newFramesTime: 0.05
    setFramesTime: 0.1
