%YAML 1.1
%TAG !u! tag:unity3d.com,2011:
--- !u!114 &11400000
MonoBehaviour:
  m_ObjectHideFlags: 0
  m_CorrespondingSourceObject: {fileID: 0}
  m_PrefabInstance: {fileID: 0}
  m_PrefabAsset: {fileID: 0}
  m_GameObject: {fileID: 0}
  m_Enabled: 1
  m_EditorHideFlags: 0
  m_Script: {fileID: 11500000, guid: 34404cb99b59bb543805a55e3c469d61, type: 3}
  m_Name: card-playalbe
  m_EditorClassIdentifier: 
  editorConfirmations: 1
  animations:
  - speedRatio: 1
    loop: 0
    frameToLoop: 0
    frameDatas:
    - sprite: {fileID: -5683706818425586738, guid: bf401a85ed1a546fa83a7d2e34735de7,
        type: 3}
      time: 0.08
      eventEnabled: 0
      eventName: 
    - sprite: {fileID: 3584086515358923489, guid: bf401a85ed1a546fa83a7d2e34735de7,
        type: 3}
      time: 0.08
      eventEnabled: 0
      eventName: 
    - sprite: {fileID: 490152178274292478, guid: bf401a85ed1a546fa83a7d2e34735de7,
        type: 3}
      time: 0.08
      eventEnabled: 0
      eventName: 
    - sprite: {fileID: -6035369510838477240, guid: bf401a85ed1a546fa83a7d2e34735de7,
        type: 3}
      time: 0.08
      eventEnabled: 0
      eventName: 
    name: click-minion
    selectedIndex: 3
    newFramesTime: 0.08
    setFramesTime: 0.04
  - speedRatio: 1
    loop: 0
    frameToLoop: 0
    frameDatas:
    - sprite: {fileID: 21300000, guid: b3e0c41b97b5a447eb97034ed2056e64, type: 3}
      time: 0.08
      eventEnabled: 0
      eventName: 
    name: click-minion-orange
    selectedIndex: 0
    newFramesTime: 0.08
    setFramesTime: 0.1
  - speedRatio: 1
    loop: 0
    frameToLoop: 0
    frameDatas:
    - sprite: {fileID: -4928152568728031074, guid: a43e46f726eb743f0a4dcb0463d06451,
        type: 3}
      time: 0.08
      eventEnabled: 0
      eventName: 
    - sprite: {fileID: 7394944642349009506, guid: a43e46f726eb743f0a4dcb0463d06451,
        type: 3}
      time: 0.08
      eventEnabled: 0
      eventName: 
    - sprite: {fileID: 1168161099319152721, guid: a43e46f726eb743f0a4dcb0463d06451,
        type: 3}
      time: 0.08
      eventEnabled: 0
      eventName: 
    - sprite: {fileID: 19109511113443397, guid: a43e46f726eb743f0a4dcb0463d06451,
        type: 3}
      time: 0.08
      eventEnabled: 0
      eventName: 
    name: click-spell
    selectedIndex: 3
    newFramesTime: 0.08
    setFramesTime: 0.04
  - speedRatio: 1
    loop: 0
    frameToLoop: 0
    frameDatas:
    - sprite: {fileID: 21300000, guid: 3b2fe4a96c86a4606b96b058266a838d, type: 3}
      time: 0.08
      eventEnabled: 0
      eventName: 
    name: click-spell-orange
    selectedIndex: 0
    newFramesTime: 0.08
    setFramesTime: 0.1
  - speedRatio: 1
    loop: 0
    frameToLoop: 0
    frameDatas:
    - sprite: {fileID: 8957791215543665437, guid: eeee751cb066d44c2aeb57d91e7d0a82,
        type: 3}
      time: 0.08
      eventEnabled: 0
      eventName: 
    - sprite: {fileID: 5794795294473877260, guid: eeee751cb066d44c2aeb57d91e7d0a82,
        type: 3}
      time: 0.08
      eventEnabled: 0
      eventName: 
    - sprite: {fileID: -9121487951748923550, guid: eeee751cb066d44c2aeb57d91e7d0a82,
        type: 3}
      time: 0.08
      eventEnabled: 0
      eventName: 
    - sprite: {fileID: -8458702588838969499, guid: eeee751cb066d44c2aeb57d91e7d0a82,
        type: 3}
      time: 0.08
      eventEnabled: 0
      eventName: 
    name: click-trick
    selectedIndex: 3
    newFramesTime: 0.08
    setFramesTime: 0.04
  - speedRatio: 1
    loop: 0
    frameToLoop: 0
    frameDatas:
    - sprite: {fileID: 21300000, guid: d3a9d35a4f7ce4a178902a7bf399997d, type: 3}
      time: 0.08
      eventEnabled: 0
      eventName: 
    name: click-trick-orange
    selectedIndex: 0
    newFramesTime: 0.08
    setFramesTime: 0.1
  - speedRatio: 1
    loop: 0
    frameToLoop: 0
    frameDatas:
    - sprite: {fileID: -6035369510838477240, guid: bf401a85ed1a546fa83a7d2e34735de7,
        type: 3}
      time: 0.08
      eventEnabled: 0
      eventName: 
    - sprite: {fileID: 490152178274292478, guid: bf401a85ed1a546fa83a7d2e34735de7,
        type: 3}
      time: 0.08
      eventEnabled: 0
      eventName: 
    - sprite: {fileID: 3584086515358923489, guid: bf401a85ed1a546fa83a7d2e34735de7,
        type: 3}
      time: 0.08
      eventEnabled: 0
      eventName: 
    - sprite: {fileID: -5683706818425586738, guid: bf401a85ed1a546fa83a7d2e34735de7,
        type: 3}
      time: 0.08
      eventEnabled: 0
      eventName: 
    - sprite: {fileID: -7598428728865092256, guid: bf401a85ed1a546fa83a7d2e34735de7,
        type: 3}
      time: 0.08
      eventEnabled: 0
      eventName: 
    - sprite: {fileID: 21300000, guid: fd49ac06ab59f472699a83cd9ae6e5e3, type: 3}
      time: 0.08
      eventEnabled: 0
      eventName: 
    name: despawn-minion
    selectedIndex: 5
    newFramesTime: 0.08
    setFramesTime: 0.04
  - speedRatio: 1
    loop: 0
    frameToLoop: 0
    frameDatas:
    - sprite: {fileID: 19109511113443397, guid: a43e46f726eb743f0a4dcb0463d06451,
        type: 3}
      time: 0.08
      eventEnabled: 0
      eventName: 
    - sprite: {fileID: 1168161099319152721, guid: a43e46f726eb743f0a4dcb0463d06451,
        type: 3}
      time: 0.08
      eventEnabled: 0
      eventName: 
    - sprite: {fileID: 7394944642349009506, guid: a43e46f726eb743f0a4dcb0463d06451,
        type: 3}
      time: 0.08
      eventEnabled: 0
      eventName: 
    - sprite: {fileID: -4928152568728031074, guid: a43e46f726eb743f0a4dcb0463d06451,
        type: 3}
      time: 0.08
      eventEnabled: 0
      eventName: 
    - sprite: {fileID: -12520947046083552, guid: a43e46f726eb743f0a4dcb0463d06451,
        type: 3}
      time: 0.08
      eventEnabled: 0
      eventName: 
    - sprite: {fileID: 21300000, guid: fd49ac06ab59f472699a83cd9ae6e5e3, type: 3}
      time: 0.08
      eventEnabled: 0
      eventName: 
    name: despawn-spell
    selectedIndex: 5
    newFramesTime: 0.08
    setFramesTime: 0.04
  - speedRatio: 1
    loop: 0
    frameToLoop: 0
    frameDatas:
    - sprite: {fileID: -8458702588838969499, guid: eeee751cb066d44c2aeb57d91e7d0a82,
        type: 3}
      time: 0.08
      eventEnabled: 0
      eventName: 
    - sprite: {fileID: -9121487951748923550, guid: eeee751cb066d44c2aeb57d91e7d0a82,
        type: 3}
      time: 0.08
      eventEnabled: 0
      eventName: 
    - sprite: {fileID: 5794795294473877260, guid: eeee751cb066d44c2aeb57d91e7d0a82,
        type: 3}
      time: 0.08
      eventEnabled: 0
      eventName: 
    - sprite: {fileID: 8957791215543665437, guid: eeee751cb066d44c2aeb57d91e7d0a82,
        type: 3}
      time: 0.08
      eventEnabled: 0
      eventName: 
    - sprite: {fileID: -6031943412287530153, guid: eeee751cb066d44c2aeb57d91e7d0a82,
        type: 3}
      time: 0.08
      eventEnabled: 0
      eventName: 
    - sprite: {fileID: 21300000, guid: fd49ac06ab59f472699a83cd9ae6e5e3, type: 3}
      time: 0.08
      eventEnabled: 0
      eventName: 
    name: despawn-trick
    selectedIndex: 5
    newFramesTime: 0.08
    setFramesTime: 0.04
  - speedRatio: 1
    loop: 0
    frameToLoop: 0
    frameDatas:
    - sprite: {fileID: -7254759823348121444, guid: cc5f16e881c69429998b2d53a4161675,
        type: 3}
      time: 0.04
      eventEnabled: 0
      eventName: 
    - sprite: {fileID: 3967678166701123395, guid: cc5f16e881c69429998b2d53a4161675,
        type: 3}
      time: 0.04
      eventEnabled: 0
      eventName: 
    - sprite: {fileID: -2115119628093749942, guid: cc5f16e881c69429998b2d53a4161675,
        type: 3}
      time: 0.04
      eventEnabled: 0
      eventName: 
    - sprite: {fileID: -5533736717965249672, guid: cc5f16e881c69429998b2d53a4161675,
        type: 3}
      time: 0.04
      eventEnabled: 0
      eventName: 
    - sprite: {fileID: -8617307193153474081, guid: cc5f16e881c69429998b2d53a4161675,
        type: 3}
      time: 0.04
      eventEnabled: 0
      eventName: 
    - sprite: {fileID: 3794330500580760654, guid: cc5f16e881c69429998b2d53a4161675,
        type: 3}
      time: 0.04
      eventEnabled: 0
      eventName: 
    - sprite: {fileID: 3664642191737149254, guid: cc5f16e881c69429998b2d53a4161675,
        type: 3}
      time: 0.04
      eventEnabled: 0
      eventName: 
    - sprite: {fileID: -1118353289712846105, guid: cc5f16e881c69429998b2d53a4161675,
        type: 3}
      time: 0.04
      eventEnabled: 0
      eventName: 
    - sprite: {fileID: -3821043097816881177, guid: cc5f16e881c69429998b2d53a4161675,
        type: 3}
      time: 0.04
      eventEnabled: 0
      eventName: 
    name: idle-particle-1
    selectedIndex: 0
    newFramesTime: 0.05
    setFramesTime: 0.1
  - speedRatio: 1
    loop: 0
    frameToLoop: 0
    frameDatas:
    - sprite: {fileID: 3927354681766384392, guid: d3bce1495ba174f999b6991da209c305,
        type: 3}
      time: 0.04
      eventEnabled: 0
      eventName: 
    - sprite: {fileID: -1629646674413788238, guid: d3bce1495ba174f999b6991da209c305,
        type: 3}
      time: 0.04
      eventEnabled: 0
      eventName: 
    - sprite: {fileID: 898163477936367770, guid: d3bce1495ba174f999b6991da209c305,
        type: 3}
      time: 0.04
      eventEnabled: 0
      eventName: 
    - sprite: {fileID: 8927599628479934625, guid: d3bce1495ba174f999b6991da209c305,
        type: 3}
      time: 0.04
      eventEnabled: 0
      eventName: 
    - sprite: {fileID: -1218492661933446961, guid: d3bce1495ba174f999b6991da209c305,
        type: 3}
      time: 0.04
      eventEnabled: 0
      eventName: 
    - sprite: {fileID: 6415884014948630387, guid: d3bce1495ba174f999b6991da209c305,
        type: 3}
      time: 0.04
      eventEnabled: 0
      eventName: 
    - sprite: {fileID: 51094898416685551, guid: d3bce1495ba174f999b6991da209c305,
        type: 3}
      time: 0.04
      eventEnabled: 0
      eventName: 
    - sprite: {fileID: 6648234815765489371, guid: d3bce1495ba174f999b6991da209c305,
        type: 3}
      time: 0.04
      eventEnabled: 0
      eventName: 
    - sprite: {fileID: 2189127888612841717, guid: d3bce1495ba174f999b6991da209c305,
        type: 3}
      time: 0.04
      eventEnabled: 0
      eventName: 
    name: idle-particle-1-orange
    selectedIndex: 0
    newFramesTime: 0.05
    setFramesTime: 0.1
  - speedRatio: 1
    loop: 0
    frameToLoop: 0
    frameDatas:
    - sprite: {fileID: 1260217517533146872, guid: 8851fe93ebeb148ccb9759d70e56e59e,
        type: 3}
      time: 0.04
      eventEnabled: 0
      eventName: 
    - sprite: {fileID: -630938386780239239, guid: 8851fe93ebeb148ccb9759d70e56e59e,
        type: 3}
      time: 0.04
      eventEnabled: 0
      eventName: 
    - sprite: {fileID: -6966848163157097525, guid: 8851fe93ebeb148ccb9759d70e56e59e,
        type: 3}
      time: 0.04
      eventEnabled: 0
      eventName: 
    - sprite: {fileID: 289625461609930895, guid: 8851fe93ebeb148ccb9759d70e56e59e,
        type: 3}
      time: 0.04
      eventEnabled: 0
      eventName: 
    - sprite: {fileID: 6020812359833814144, guid: 8851fe93ebeb148ccb9759d70e56e59e,
        type: 3}
      time: 0.04
      eventEnabled: 0
      eventName: 
    - sprite: {fileID: -8178994852453599392, guid: 8851fe93ebeb148ccb9759d70e56e59e,
        type: 3}
      time: 0.04
      eventEnabled: 0
      eventName: 
    - sprite: {fileID: 8165138271792861214, guid: 8851fe93ebeb148ccb9759d70e56e59e,
        type: 3}
      time: 0.04
      eventEnabled: 0
      eventName: 
    - sprite: {fileID: 2761453843122829988, guid: 8851fe93ebeb148ccb9759d70e56e59e,
        type: 3}
      time: 0.04
      eventEnabled: 0
      eventName: 
    - sprite: {fileID: -3603336470410437643, guid: 8851fe93ebeb148ccb9759d70e56e59e,
        type: 3}
      time: 0.04
      eventEnabled: 0
      eventName: 
    - sprite: {fileID: -659208839614097525, guid: 8851fe93ebeb148ccb9759d70e56e59e,
        type: 3}
      time: 0.04
      eventEnabled: 0
      eventName: 
    name: idle-particle-2
    selectedIndex: 0
    newFramesTime: 0.05
    setFramesTime: 0.1
  - speedRatio: 1
    loop: 0
    frameToLoop: 0
    frameDatas:
    - sprite: {fileID: 8788369375498028441, guid: 9c4d76085a2bf4c2db55864a8c81556e,
        type: 3}
      time: 0.04
      eventEnabled: 0
      eventName: 
    - sprite: {fileID: 4903780125492693639, guid: 9c4d76085a2bf4c2db55864a8c81556e,
        type: 3}
      time: 0.04
      eventEnabled: 0
      eventName: 
    - sprite: {fileID: 7205730663130585782, guid: 9c4d76085a2bf4c2db55864a8c81556e,
        type: 3}
      time: 0.04
      eventEnabled: 0
      eventName: 
    - sprite: {fileID: -6177266762563571134, guid: 9c4d76085a2bf4c2db55864a8c81556e,
        type: 3}
      time: 0.04
      eventEnabled: 0
      eventName: 
    - sprite: {fileID: 8756368160200850304, guid: 9c4d76085a2bf4c2db55864a8c81556e,
        type: 3}
      time: 0.04
      eventEnabled: 0
      eventName: 
    - sprite: {fileID: -3653825171939945247, guid: 9c4d76085a2bf4c2db55864a8c81556e,
        type: 3}
      time: 0.04
      eventEnabled: 0
      eventName: 
    - sprite: {fileID: -1585814611547700735, guid: 9c4d76085a2bf4c2db55864a8c81556e,
        type: 3}
      time: 0.04
      eventEnabled: 0
      eventName: 
    - sprite: {fileID: 1623523430052303871, guid: 9c4d76085a2bf4c2db55864a8c81556e,
        type: 3}
      time: 0.04
      eventEnabled: 0
      eventName: 
    - sprite: {fileID: -545990590030689027, guid: 9c4d76085a2bf4c2db55864a8c81556e,
        type: 3}
      time: 0.04
      eventEnabled: 0
      eventName: 
    - sprite: {fileID: -4291718599222576735, guid: 9c4d76085a2bf4c2db55864a8c81556e,
        type: 3}
      time: 0.04
      eventEnabled: 0
      eventName: 
    name: idle-particle-2-orange
    selectedIndex: 0
    newFramesTime: 0.05
    setFramesTime: 0.1
  - speedRatio: 1
    loop: 0
    frameToLoop: 0
    frameDatas:
    - sprite: {fileID: 5904256630082594833, guid: 719990224d6e743959fe59d3bdb6033e,
        type: 3}
      time: 0.04
      eventEnabled: 0
      eventName: 
    - sprite: {fileID: -936217449880251308, guid: 719990224d6e743959fe59d3bdb6033e,
        type: 3}
      time: 0.04
      eventEnabled: 0
      eventName: 
    - sprite: {fileID: -622306211719642138, guid: 719990224d6e743959fe59d3bdb6033e,
        type: 3}
      time: 0.04
      eventEnabled: 0
      eventName: 
    - sprite: {fileID: 8720328549313503680, guid: 719990224d6e743959fe59d3bdb6033e,
        type: 3}
      time: 0.04
      eventEnabled: 0
      eventName: 
    - sprite: {fileID: -832724138480557191, guid: 719990224d6e743959fe59d3bdb6033e,
        type: 3}
      time: 0.04
      eventEnabled: 0
      eventName: 
    - sprite: {fileID: -5906737192794745345, guid: 719990224d6e743959fe59d3bdb6033e,
        type: 3}
      time: 0.04
      eventEnabled: 0
      eventName: 
    - sprite: {fileID: 5421212744645440627, guid: 719990224d6e743959fe59d3bdb6033e,
        type: 3}
      time: 0.04
      eventEnabled: 0
      eventName: 
    - sprite: {fileID: 5358673904580927716, guid: 719990224d6e743959fe59d3bdb6033e,
        type: 3}
      time: 0.04
      eventEnabled: 0
      eventName: 
    - sprite: {fileID: 1624736044543260067, guid: 719990224d6e743959fe59d3bdb6033e,
        type: 3}
      time: 0.04
      eventEnabled: 0
      eventName: 
    - sprite: {fileID: 2486183961534663246, guid: 719990224d6e743959fe59d3bdb6033e,
        type: 3}
      time: 0.04
      eventEnabled: 0
      eventName: 
    - sprite: {fileID: -7952009931493755619, guid: 719990224d6e743959fe59d3bdb6033e,
        type: 3}
      time: 0.04
      eventEnabled: 0
      eventName: 
    - sprite: {fileID: 7182072306865226895, guid: 719990224d6e743959fe59d3bdb6033e,
        type: 3}
      time: 0.04
      eventEnabled: 0
      eventName: 
    name: idle-particle-3
    selectedIndex: 1
    newFramesTime: 0.05
    setFramesTime: 0.1
  - speedRatio: 1
    loop: 0
    frameToLoop: 0
    frameDatas:
    - sprite: {fileID: 6863896650771526969, guid: 3b59a2077c5654629975edfad62fe3d2,
        type: 3}
      time: 0.04
      eventEnabled: 0
      eventName: 
    - sprite: {fileID: 8667091609593521599, guid: 3b59a2077c5654629975edfad62fe3d2,
        type: 3}
      time: 0.04
      eventEnabled: 0
      eventName: 
    - sprite: {fileID: -316201163750739629, guid: 3b59a2077c5654629975edfad62fe3d2,
        type: 3}
      time: 0.04
      eventEnabled: 0
      eventName: 
    - sprite: {fileID: 217441360871544186, guid: 3b59a2077c5654629975edfad62fe3d2,
        type: 3}
      time: 0.04
      eventEnabled: 0
      eventName: 
    - sprite: {fileID: -6589750505436332264, guid: 3b59a2077c5654629975edfad62fe3d2,
        type: 3}
      time: 0.04
      eventEnabled: 0
      eventName: 
    - sprite: {fileID: -5324338034705166026, guid: 3b59a2077c5654629975edfad62fe3d2,
        type: 3}
      time: 0.04
      eventEnabled: 0
      eventName: 
    - sprite: {fileID: -5735983304429824800, guid: 3b59a2077c5654629975edfad62fe3d2,
        type: 3}
      time: 0.04
      eventEnabled: 0
      eventName: 
    - sprite: {fileID: -5810871044911135946, guid: 3b59a2077c5654629975edfad62fe3d2,
        type: 3}
      time: 0.04
      eventEnabled: 0
      eventName: 
    - sprite: {fileID: 8843504433226969585, guid: 3b59a2077c5654629975edfad62fe3d2,
        type: 3}
      time: 0.04
      eventEnabled: 0
      eventName: 
    - sprite: {fileID: -5851868094113651134, guid: 3b59a2077c5654629975edfad62fe3d2,
        type: 3}
      time: 0.04
      eventEnabled: 0
      eventName: 
    - sprite: {fileID: -4190037469783605218, guid: 3b59a2077c5654629975edfad62fe3d2,
        type: 3}
      time: 0.04
      eventEnabled: 0
      eventName: 
    - sprite: {fileID: -7365221312655308244, guid: 3b59a2077c5654629975edfad62fe3d2,
        type: 3}
      time: 0.04
      eventEnabled: 0
      eventName: 
    name: idle-particle-3-orange
    selectedIndex: 0
    newFramesTime: 0.05
    setFramesTime: 0.1
  - speedRatio: 1
    loop: 0
    frameToLoop: 0
    frameDatas:
    - sprite: {fileID: -7598428728865092256, guid: bf401a85ed1a546fa83a7d2e34735de7,
        type: 3}
      time: 0.04
      eventEnabled: 0
      eventName: 
    - sprite: {fileID: -5683706818425586738, guid: bf401a85ed1a546fa83a7d2e34735de7,
        type: 3}
      time: 0.04
      eventEnabled: 0
      eventName: 
    - sprite: {fileID: 3584086515358923489, guid: bf401a85ed1a546fa83a7d2e34735de7,
        type: 3}
      time: 0.04
      eventEnabled: 0
      eventName: 
    - sprite: {fileID: 490152178274292478, guid: bf401a85ed1a546fa83a7d2e34735de7,
        type: 3}
      time: 0.04
      eventEnabled: 0
      eventName: 
    - sprite: {fileID: -6035369510838477240, guid: bf401a85ed1a546fa83a7d2e34735de7,
        type: 3}
      time: 0.6
      eventEnabled: 0
      eventName: 
    name: spawn-minion
    selectedIndex: 2
    newFramesTime: 0.05
    setFramesTime: 0.1
  - speedRatio: 1
    loop: 0
    frameToLoop: 0
    frameDatas:
    - sprite: {fileID: 21300000, guid: b3e0c41b97b5a447eb97034ed2056e64, type: 3}
      time: 0.04
      eventEnabled: 0
      eventName: 
    name: spawn-minion-orange
    selectedIndex: 0
    newFramesTime: 0.05
    setFramesTime: 0.1
  - speedRatio: 1
    loop: 0
    frameToLoop: 0
    frameDatas:
    - sprite: {fileID: -9072411272706682490, guid: b9e408ce10692419fa0598de8802cdd5,
        type: 3}
      time: 0.04
      eventEnabled: 0
      eventName: 
    - sprite: {fileID: -2119915406835371729, guid: b9e408ce10692419fa0598de8802cdd5,
        type: 3}
      time: 0.04
      eventEnabled: 0
      eventName: 
    - sprite: {fileID: -5451631923978625490, guid: b9e408ce10692419fa0598de8802cdd5,
        type: 3}
      time: 0.04
      eventEnabled: 0
      eventName: 
    - sprite: {fileID: 4343972894423821566, guid: b9e408ce10692419fa0598de8802cdd5,
        type: 3}
      time: 0.04
      eventEnabled: 0
      eventName: 
    - sprite: {fileID: 4137981647258642383, guid: b9e408ce10692419fa0598de8802cdd5,
        type: 3}
      time: 0.04
      eventEnabled: 0
      eventName: 
    - sprite: {fileID: -4765695983596646229, guid: b9e408ce10692419fa0598de8802cdd5,
        type: 3}
      time: 0.04
      eventEnabled: 0
      eventName: 
    - sprite: {fileID: 367591350458006485, guid: b9e408ce10692419fa0598de8802cdd5,
        type: 3}
      time: 0.04
      eventEnabled: 0
      eventName: 
    - sprite: {fileID: 4648229930650023240, guid: b9e408ce10692419fa0598de8802cdd5,
        type: 3}
      time: 0.04
      eventEnabled: 0
      eventName: 
    - sprite: {fileID: 6969153032183923929, guid: b9e408ce10692419fa0598de8802cdd5,
        type: 3}
      time: 0.04
      eventEnabled: 0
      eventName: 
    - sprite: {fileID: 21300000, guid: fd49ac06ab59f472699a83cd9ae6e5e3, type: 3}
      time: 0.05
      eventEnabled: 0
      eventName: 
    name: spawn-particle
    selectedIndex: 1
    newFramesTime: 0.05
    setFramesTime: 0.1
  - speedRatio: 1
    loop: 0
    frameToLoop: 0
    frameDatas:
    - sprite: {fileID: -4406551435853218025, guid: 25728852eadc846cd819a6019bd5fadb,
        type: 3}
      time: 0.04
      eventEnabled: 0
      eventName: 
    - sprite: {fileID: -791096542488830675, guid: 25728852eadc846cd819a6019bd5fadb,
        type: 3}
      time: 0.04
      eventEnabled: 0
      eventName: 
    - sprite: {fileID: -1978997350929958817, guid: 25728852eadc846cd819a6019bd5fadb,
        type: 3}
      time: 0.04
      eventEnabled: 0
      eventName: 
    - sprite: {fileID: 3424070436048200987, guid: 25728852eadc846cd819a6019bd5fadb,
        type: 3}
      time: 0.04
      eventEnabled: 0
      eventName: 
    - sprite: {fileID: 4711698512604788536, guid: 25728852eadc846cd819a6019bd5fadb,
        type: 3}
      time: 0.04
      eventEnabled: 0
      eventName: 
    - sprite: {fileID: 5789965227636071356, guid: 25728852eadc846cd819a6019bd5fadb,
        type: 3}
      time: 0.04
      eventEnabled: 0
      eventName: 
    - sprite: {fileID: 5966330124625093155, guid: 25728852eadc846cd819a6019bd5fadb,
        type: 3}
      time: 0.04
      eventEnabled: 0
      eventName: 
    - sprite: {fileID: -1386874389521275678, guid: 25728852eadc846cd819a6019bd5fadb,
        type: 3}
      time: 0.04
      eventEnabled: 0
      eventName: 
    - sprite: {fileID: 5805573736889077901, guid: 25728852eadc846cd819a6019bd5fadb,
        type: 3}
      time: 0.04
      eventEnabled: 0
      eventName: 
    name: spawn-particle-orange
    selectedIndex: 0
    newFramesTime: 0.05
    setFramesTime: 0.1
  - speedRatio: 1
    loop: 0
    frameToLoop: 0
    frameDatas:
    - sprite: {fileID: -12520947046083552, guid: a43e46f726eb743f0a4dcb0463d06451,
        type: 3}
      time: 0.04
      eventEnabled: 0
      eventName: 
    - sprite: {fileID: -4928152568728031074, guid: a43e46f726eb743f0a4dcb0463d06451,
        type: 3}
      time: 0.04
      eventEnabled: 0
      eventName: 
    - sprite: {fileID: 7394944642349009506, guid: a43e46f726eb743f0a4dcb0463d06451,
        type: 3}
      time: 0.04
      eventEnabled: 0
      eventName: 
    - sprite: {fileID: 1168161099319152721, guid: a43e46f726eb743f0a4dcb0463d06451,
        type: 3}
      time: 0.04
      eventEnabled: 0
      eventName: 
    - sprite: {fileID: 19109511113443397, guid: a43e46f726eb743f0a4dcb0463d06451,
        type: 3}
      time: 0.3
      eventEnabled: 0
      eventName: 
    name: spawn-spell
    selectedIndex: 0
    newFramesTime: 0.05
    setFramesTime: 0.1
  - speedRatio: 1
    loop: 1
    frameToLoop: 0
    frameDatas:
    - sprite: {fileID: -5599977717240536917, guid: 4d883ff4cbbf04fa887f23114241b180,
        type: 3}
      time: 0.04
      eventEnabled: 0
      eventName: 
    - sprite: {fileID: 1270461926807590330, guid: 4d883ff4cbbf04fa887f23114241b180,
        type: 3}
      time: 0.04
      eventEnabled: 0
      eventName: 
    - sprite: {fileID: -6517618001634527351, guid: 4d883ff4cbbf04fa887f23114241b180,
        type: 3}
      time: 0.04
      eventEnabled: 0
      eventName: 
    - sprite: {fileID: 7436062723992777740, guid: 4d883ff4cbbf04fa887f23114241b180,
        type: 3}
      time: 0.04
      eventEnabled: 0
      eventName: 
    - sprite: {fileID: 7113635958456379505, guid: 4d883ff4cbbf04fa887f23114241b180,
        type: 3}
      time: 0.04
      eventEnabled: 0
      eventName: 
    - sprite: {fileID: 152526456235719176, guid: 4d883ff4cbbf04fa887f23114241b180,
        type: 3}
      time: 0.04
      eventEnabled: 0
      eventName: 
    - sprite: {fileID: 8940126953249057316, guid: 4d883ff4cbbf04fa887f23114241b180,
        type: 3}
      time: 0.04
      eventEnabled: 0
      eventName: 
    - sprite: {fileID: -9003239596943751768, guid: 4d883ff4cbbf04fa887f23114241b180,
        type: 3}
      time: 0.04
      eventEnabled: 0
      eventName: 
    - sprite: {fileID: -5040781632778106287, guid: 4d883ff4cbbf04fa887f23114241b180,
        type: 3}
      time: 0.04
      eventEnabled: 0
      eventName: 
    - sprite: {fileID: 8734825944859601451, guid: 4d883ff4cbbf04fa887f23114241b180,
        type: 3}
      time: 0.04
      eventEnabled: 0
      eventName: 
    name: spawn-spell-orange
    selectedIndex: 5
    newFramesTime: 0.05
    setFramesTime: 0.1
  - speedRatio: 1
    loop: 0
    frameToLoop: 0
    frameDatas:
    - sprite: {fileID: 21300000, guid: 3b2fe4a96c86a4606b96b058266a838d, type: 3}
      time: 0.04
      eventEnabled: 0
      eventName: 
    name: spawn-spell-orange-none
    selectedIndex: 0
    newFramesTime: 0.05
    setFramesTime: 0.1
  - speedRatio: 1
    loop: 0
    frameToLoop: 0
    frameDatas:
    - sprite: {fileID: -6031943412287530153, guid: eeee751cb066d44c2aeb57d91e7d0a82,
        type: 3}
      time: 0.04
      eventEnabled: 0
      eventName: 
    - sprite: {fileID: 8957791215543665437, guid: eeee751cb066d44c2aeb57d91e7d0a82,
        type: 3}
      time: 0.04
      eventEnabled: 0
      eventName: 
    - sprite: {fileID: 5794795294473877260, guid: eeee751cb066d44c2aeb57d91e7d0a82,
        type: 3}
      time: 0.04
      eventEnabled: 0
      eventName: 
    - sprite: {fileID: -9121487951748923550, guid: eeee751cb066d44c2aeb57d91e7d0a82,
        type: 3}
      time: 0.04
      eventEnabled: 0
      eventName: 
    - sprite: {fileID: -8458702588838969499, guid: eeee751cb066d44c2aeb57d91e7d0a82,
        type: 3}
      time: 0.3
      eventEnabled: 0
      eventName: 
    name: spawn-trick
    selectedIndex: 0
    newFramesTime: 0.05
    setFramesTime: 0.1
  - speedRatio: 1
    loop: 0
    frameToLoop: 0
    frameDatas:
    - sprite: {fileID: 21300000, guid: d3a9d35a4f7ce4a178902a7bf399997d, type: 3}
      time: 0.04
      eventEnabled: 0
      eventName: 
    name: spawn-trick-orange
    selectedIndex: 0
    newFramesTime: 0.05
    setFramesTime: 0.1
  - speedRatio: 1
    loop: 0
    frameToLoop: 0
    frameDatas:
    - sprite: {fileID: 21300000, guid: efd5b5ee2f63f4239804f5689f14ae28, type: 3}
      time: 0.04
      eventEnabled: 0
      eventName: 
    name: spawn-power-orange
    selectedIndex: 0
    newFramesTime: 0.05
    setFramesTime: 0.1
  - speedRatio: 1
    loop: 0
    frameToLoop: 0
    frameDatas:
    - sprite: {fileID: 21300000, guid: 7e9695a36ee631e42966220e99254c68, type: 3}
      time: 0.04
      eventEnabled: 0
      eventName: 
    name: spawn-relic-orange
    selectedIndex: 0
    newFramesTime: 0.05
    setFramesTime: 0.1
