%YAML 1.1
%TAG !u! tag:unity3d.com,2011:
--- !u!114 &11400000
MonoBehaviour:
  m_ObjectHideFlags: 0
  m_CorrespondingSourceObject: {fileID: 0}
  m_PrefabInstance: {fileID: 0}
  m_PrefabAsset: {fileID: 0}
  m_GameObject: {fileID: 0}
  m_Enabled: 1
  m_EditorHideFlags: 0
  m_Script: {fileID: 11500000, guid: 34404cb99b59bb543805a55e3c469d61, type: 3}
  m_Name: card-count-tt-icon
  m_EditorClassIdentifier: 
  editorConfirmations: 1
  animations:
  - speedRatio: 1
    loop: 0
    frameToLoop: 0
    frameDatas:
    - sprite: {fileID: 21300000, guid: ec665a67fb7c70148a916ba25b07175e, type: 3}
      time: 0.04
      eventEnabled: 0
      eventName: 
    name: player-hand
    selectedIndex: 0
    newFramesTime: 0.05
    setFramesTime: 0.1
  - speedRatio: 1
    loop: 0
    frameToLoop: 0
    frameDatas:
    - sprite: {fileID: 21300000, guid: 19a1fde085cda9d4dbf7f19f281c5f7c, type: 3}
      time: 0.04
      eventEnabled: 0
      eventName: 
    name: opponent-hand
    selectedIndex: 0
    newFramesTime: 0.05
    setFramesTime: 0.1
  - speedRatio: 1
    loop: 0
    frameToLoop: 0
    frameDatas:
    - sprite: {fileID: 21300000, guid: 83ffae0388a547448810128409d96c0a, type: 3}
      time: 0.04
      eventEnabled: 0
      eventName: 
    name: opponent-deck
    selectedIndex: 0
    newFramesTime: 0.05
    setFramesTime: 0.1
  - speedRatio: 1
    loop: 0
    frameToLoop: 0
    frameDatas:
    - sprite: {fileID: 21300000, guid: ff06e06e79b743a4e8fb120d48689826, type: 3}
      time: 0.04
      eventEnabled: 0
      eventName: 
    name: skull
    selectedIndex: 0
    newFramesTime: 0.05
    setFramesTime: 0.1
  - speedRatio: 1
    loop: 0
    frameToLoop: 0
    frameDatas:
    - sprite: {fileID: 21300000, guid: 25f9cc1d033f6df45b4d5b70971babe6, type: 3}
      time: 0.04
      eventEnabled: 0
      eventName: 
    name: player-deck
    selectedIndex: 0
    newFramesTime: 0.05
    setFramesTime: 0.1
