%YAML 1.1
%TAG !u! tag:unity3d.com,2011:
--- !u!114 &11400000
MonoBehaviour:
  m_ObjectHideFlags: 0
  m_CorrespondingSourceObject: {fileID: 0}
  m_PrefabInstance: {fileID: 0}
  m_PrefabAsset: {fileID: 0}
  m_GameObject: {fileID: 0}
  m_Enabled: 1
  m_EditorHideFlags: 0
  m_Script: {fileID: 11500000, guid: 34404cb99b59bb543805a55e3c469d61, type: 3}
  m_Name: cob-trap-card-fx
  m_EditorClassIdentifier: 
  editorConfirmations: 1
  animations:
  - speedRatio: 1
    loop: 0
    frameToLoop: 0
    frameDatas:
    - sprite: {fileID: 2299819629680619122, guid: 6388bf49115f79e429123cb2a2877abe,
        type: 3}
      time: 0.04
      eventEnabled: 0
      eventName: 
    - sprite: {fileID: 8892263731007691372, guid: 6388bf49115f79e429123cb2a2877abe,
        type: 3}
      time: 0.04
      eventEnabled: 0
      eventName: 
    - sprite: {fileID: 4559259282712100501, guid: 6388bf49115f79e429123cb2a2877abe,
        type: 3}
      time: 0.04
      eventEnabled: 0
      eventName: 
    - sprite: {fileID: -708034107613289090, guid: 6388bf49115f79e429123cb2a2877abe,
        type: 3}
      time: 0.04
      eventEnabled: 0
      eventName: 
    - sprite: {fileID: -1116234225482789917, guid: 6388bf49115f79e429123cb2a2877abe,
        type: 3}
      time: 0.04
      eventEnabled: 0
      eventName: 
    - sprite: {fileID: 9221645887670960546, guid: 6388bf49115f79e429123cb2a2877abe,
        type: 3}
      time: 0.04
      eventEnabled: 0
      eventName: 
    - sprite: {fileID: 8072081887227110664, guid: 6388bf49115f79e429123cb2a2877abe,
        type: 3}
      time: 0.48
      eventEnabled: 0
      eventName: 
    - sprite: {fileID: 2309821350663153439, guid: 6388bf49115f79e429123cb2a2877abe,
        type: 3}
      time: 0.04
      eventEnabled: 0
      eventName: 
    - sprite: {fileID: -6395958329066903395, guid: 6388bf49115f79e429123cb2a2877abe,
        type: 3}
      time: 0.04
      eventEnabled: 0
      eventName: 
    - sprite: {fileID: 3898457998847264499, guid: 6388bf49115f79e429123cb2a2877abe,
        type: 3}
      time: 0.04
      eventEnabled: 0
      eventName: 
    - sprite: {fileID: 5639949858074618677, guid: 6388bf49115f79e429123cb2a2877abe,
        type: 3}
      time: 0.04
      eventEnabled: 0
      eventName: 
    name: spawn
    selectedIndex: 5
    newFramesTime: 0.05
    setFramesTime: 0.1
