%YAML 1.1
%TAG !u! tag:unity3d.com,2011:
--- !u!114 &11400000
MonoBehaviour:
  m_ObjectHideFlags: 0
  m_CorrespondingSourceObject: {fileID: 0}
  m_PrefabInstance: {fileID: 0}
  m_PrefabAsset: {fileID: 0}
  m_GameObject: {fileID: 0}
  m_Enabled: 1
  m_EditorHideFlags: 0
  m_Script: {fileID: 11500000, guid: 34404cb99b59bb543805a55e3c469d61, type: 3}
  m_Name: coin
  m_EditorClassIdentifier: 
  editorConfirmations: 1
  animations:
  - speedRatio: 1
    loop: 0
    frameToLoop: 0
    frameDatas:
    - sprite: {fileID: -1085938402821907436, guid: fdfd26e8399f24b0489a574f867c92c4,
        type: 3}
      time: 0.04
      eventEnabled: 0
      eventName: 
    - sprite: {fileID: -5547289387389356264, guid: fdfd26e8399f24b0489a574f867c92c4,
        type: 3}
      time: 0.04
      eventEnabled: 0
      eventName: 
    - sprite: {fileID: 5519284899840515575, guid: fdfd26e8399f24b0489a574f867c92c4,
        type: 3}
      time: 0.04
      eventEnabled: 0
      eventName: 
    - sprite: {fileID: 1226875989337491664, guid: fdfd26e8399f24b0489a574f867c92c4,
        type: 3}
      time: 0.04
      eventEnabled: 0
      eventName: 
    - sprite: {fileID: -6344325363246617385, guid: fdfd26e8399f24b0489a574f867c92c4,
        type: 3}
      time: 0.04
      eventEnabled: 0
      eventName: 
    - sprite: {fileID: 4198104524426190255, guid: fdfd26e8399f24b0489a574f867c92c4,
        type: 3}
      time: 0.04
      eventEnabled: 0
      eventName: 
    - sprite: {fileID: 9043774708569495398, guid: fdfd26e8399f24b0489a574f867c92c4,
        type: 3}
      time: 0.04
      eventEnabled: 0
      eventName: 
    - sprite: {fileID: -3266527779180642034, guid: fdfd26e8399f24b0489a574f867c92c4,
        type: 3}
      time: 0.04
      eventEnabled: 0
      eventName: 
    name: spin
    selectedIndex: 0
    newFramesTime: 0.05
    setFramesTime: 0.1
