%YAML 1.1
%TAG !u! tag:unity3d.com,2011:
--- !u!114 &11400000
MonoBehaviour:
  m_ObjectHideFlags: 0
  m_CorrespondingSourceObject: {fileID: 0}
  m_PrefabInstance: {fileID: 0}
  m_PrefabAsset: {fileID: 0}
  m_GameObject: {fileID: 0}
  m_Enabled: 1
  m_EditorHideFlags: 0
  m_Script: {fileID: 11500000, guid: 34404cb99b59bb543805a55e3c469d61, type: 3}
  m_Name: combo-slash
  m_EditorClassIdentifier: 
  editorConfirmations: 1
  animations:
  - speedRatio: 1
    loop: 1
    frameToLoop: 0
    frameDatas:
    - sprite: {fileID: -2354276281442420244, guid: bb82a706daca32246a173f3182996d2a,
        type: 3}
      time: 0.04
      eventEnabled: 0
      eventName: 
    - sprite: {fileID: -2675695006860325672, guid: bb82a706daca32246a173f3182996d2a,
        type: 3}
      time: 0.04
      eventEnabled: 0
      eventName: 
    - sprite: {fileID: -7602823814304746831, guid: bb82a706daca32246a173f3182996d2a,
        type: 3}
      time: 0.04
      eventEnabled: 0
      eventName: 
    - sprite: {fileID: -9012314148371309590, guid: bb82a706daca32246a173f3182996d2a,
        type: 3}
      time: 0.04
      eventEnabled: 0
      eventName: 
    - sprite: {fileID: -6723520311264334488, guid: bb82a706daca32246a173f3182996d2a,
        type: 3}
      time: 0.04
      eventEnabled: 0
      eventName: 
    - sprite: {fileID: 2356960632268185056, guid: bb82a706daca32246a173f3182996d2a,
        type: 3}
      time: 0.04
      eventEnabled: 0
      eventName: 
    - sprite: {fileID: 2311765656732180764, guid: bb82a706daca32246a173f3182996d2a,
        type: 3}
      time: 0.04
      eventEnabled: 0
      eventName: 
    - sprite: {fileID: 7974785808502795161, guid: bb82a706daca32246a173f3182996d2a,
        type: 3}
      time: 0.04
      eventEnabled: 0
      eventName: 
    - sprite: {fileID: -3679907613315910349, guid: bb82a706daca32246a173f3182996d2a,
        type: 3}
      time: 0.04
      eventEnabled: 0
      eventName: 
    - sprite: {fileID: 1114004676174947906, guid: bb82a706daca32246a173f3182996d2a,
        type: 3}
      time: 0.04
      eventEnabled: 0
      eventName: 
    - sprite: {fileID: 2683095392793357087, guid: bb82a706daca32246a173f3182996d2a,
        type: 3}
      time: 0.04
      eventEnabled: 0
      eventName: 
    - sprite: {fileID: 1044723326199819690, guid: bb82a706daca32246a173f3182996d2a,
        type: 3}
      time: 0.04
      eventEnabled: 0
      eventName: 
    - sprite: {fileID: -5349646869408693489, guid: bb82a706daca32246a173f3182996d2a,
        type: 3}
      time: 0.04
      eventEnabled: 0
      eventName: 
    - sprite: {fileID: 3162864009156600704, guid: bb82a706daca32246a173f3182996d2a,
        type: 3}
      time: 0.04
      eventEnabled: 0
      eventName: 
    - sprite: {fileID: -6591618212690123043, guid: bb82a706daca32246a173f3182996d2a,
        type: 3}
      time: 0.04
      eventEnabled: 0
      eventName: 
    - sprite: {fileID: -5462162711875072469, guid: bb82a706daca32246a173f3182996d2a,
        type: 3}
      time: 0.04
      eventEnabled: 0
      eventName: 
    - sprite: {fileID: -1575682395178818286, guid: bb82a706daca32246a173f3182996d2a,
        type: 3}
      time: 0.04
      eventEnabled: 0
      eventName: 
    - sprite: {fileID: -3761451819170673185, guid: bb82a706daca32246a173f3182996d2a,
        type: 3}
      time: 0.04
      eventEnabled: 0
      eventName: 
    - sprite: {fileID: -7218881456779262616, guid: bb82a706daca32246a173f3182996d2a,
        type: 3}
      time: 0.04
      eventEnabled: 0
      eventName: 
    - sprite: {fileID: -8076913856554344823, guid: bb82a706daca32246a173f3182996d2a,
        type: 3}
      time: 0.04
      eventEnabled: 0
      eventName: 
    - sprite: {fileID: 1595991540362027236, guid: bb82a706daca32246a173f3182996d2a,
        type: 3}
      time: 0.04
      eventEnabled: 0
      eventName: 
    - sprite: {fileID: 5893065655330848766, guid: bb82a706daca32246a173f3182996d2a,
        type: 3}
      time: 0.04
      eventEnabled: 0
      eventName: 
    - sprite: {fileID: -7009169657701425709, guid: bb82a706daca32246a173f3182996d2a,
        type: 3}
      time: 0.04
      eventEnabled: 0
      eventName: 
    - sprite: {fileID: 3199908656550472927, guid: bb82a706daca32246a173f3182996d2a,
        type: 3}
      time: 0.04
      eventEnabled: 0
      eventName: 
    - sprite: {fileID: 9188398851235227252, guid: bb82a706daca32246a173f3182996d2a,
        type: 3}
      time: 0.24
      eventEnabled: 0
      eventName: 
    - sprite: {fileID: -1358603606590063445, guid: bb82a706daca32246a173f3182996d2a,
        type: 3}
      time: 0.04
      eventEnabled: 0
      eventName: 
    - sprite: {fileID: 1279645436807832318, guid: bb82a706daca32246a173f3182996d2a,
        type: 3}
      time: 0.04
      eventEnabled: 0
      eventName: 
    - sprite: {fileID: -4066792876679952178, guid: bb82a706daca32246a173f3182996d2a,
        type: 3}
      time: 0.04
      eventEnabled: 0
      eventName: 
    name: slash
    selectedIndex: 24
    newFramesTime: 0.05
    setFramesTime: 0.1
