%YAML 1.1
%TAG !u! tag:unity3d.com,2011:
--- !u!114 &11400000
MonoBehaviour:
  m_ObjectHideFlags: 0
  m_CorrespondingSourceObject: {fileID: 0}
  m_PrefabInstance: {fileID: 0}
  m_PrefabAsset: {fileID: 0}
  m_GameObject: {fileID: 0}
  m_Enabled: 1
  m_EditorHideFlags: 0
  m_Script: {fileID: 11500000, guid: 34404cb99b59bb543805a55e3c469d61, type: 3}
  m_Name: continue-button-frame
  m_EditorClassIdentifier: 
  editorConfirmations: 1
  animations:
  - speedRatio: 1
    loop: 0
    frameToLoop: 0
    frameDatas:
    - sprite: {fileID: -8957324433073775256, guid: d6c32f6fb8ff4487289eacf3c5c7fe30,
        type: 3}
      time: 0.06
      eventEnabled: 0
      eventName: 
    - sprite: {fileID: -2276986699826427692, guid: d6c32f6fb8ff4487289eacf3c5c7fe30,
        type: 3}
      time: 0.06
      eventEnabled: 0
      eventName: 
    - sprite: {fileID: -5619189513683048939, guid: d6c32f6fb8ff4487289eacf3c5c7fe30,
        type: 3}
      time: 0.06
      eventEnabled: 0
      eventName: 
    - sprite: {fileID: 5073785729439573388, guid: d6c32f6fb8ff4487289eacf3c5c7fe30,
        type: 3}
      time: 0.06
      eventEnabled: 0
      eventName: 
    - sprite: {fileID: 3688825276035762404, guid: d6c32f6fb8ff4487289eacf3c5c7fe30,
        type: 3}
      time: 0.06
      eventEnabled: 0
      eventName: 
    - sprite: {fileID: -6276419012811991011, guid: d6c32f6fb8ff4487289eacf3c5c7fe30,
        type: 3}
      time: 0.06
      eventEnabled: 0
      eventName: 
    name: spawn
    selectedIndex: 0
    newFramesTime: 0.05
    setFramesTime: 0.1
