%YAML 1.1
%TAG !u! tag:unity3d.com,2011:
--- !u!114 &11400000
MonoBehaviour:
  m_ObjectHideFlags: 0
  m_CorrespondingSourceObject: {fileID: 0}
  m_PrefabInstance: {fileID: 0}
  m_PrefabAsset: {fileID: 0}
  m_GameObject: {fileID: 0}
  m_Enabled: 1
  m_EditorHideFlags: 0
  m_Script: {fileID: 11500000, guid: 34404cb99b59bb543805a55e3c469d61, type: 3}
  m_Name: control-icon
  m_EditorClassIdentifier: 
  editorConfirmations: 1
  animations:
  - speedRatio: 1
    loop: 1
    frameToLoop: 0
    frameDatas:
    - sprite: {fileID: 21300000, guid: a0c82a16b1bb7f346810a5787891b5c7, type: 3}
      time: 0.04
      eventEnabled: 0
      eventName: 
    name: add-card
    selectedIndex: 0
    newFramesTime: 0.05
    setFramesTime: 0.1
  - speedRatio: 1
    loop: 1
    frameToLoop: 0
    frameDatas:
    - sprite: {fileID: 21300000, guid: a0c82a16b1bb7f346810a5787891b5c7, type: 3}
      time: 0.04
      eventEnabled: 0
      eventName: 
    name: AddCard
    selectedIndex: 0
    newFramesTime: 0.05
    setFramesTime: 0.1
  - speedRatio: 1
    loop: 1
    frameToLoop: 0
    frameDatas:
    - sprite: {fileID: 3397607707185201102, guid: 55500e4c5eaa648668d70fe1c7fec9d6,
        type: 3}
      time: 0.9
      eventEnabled: 0
      eventName: 
    - sprite: {fileID: -7820150895579218534, guid: 55500e4c5eaa648668d70fe1c7fec9d6,
        type: 3}
      time: 0.9
      eventEnabled: 0
      eventName: 
    name: key-blank
    selectedIndex: 0
    newFramesTime: 0.05
    setFramesTime: 0.1
  - speedRatio: 1
    loop: 1
    frameToLoop: 0
    frameDatas:
    - sprite: {fileID: -71444005393858584, guid: 750b509373f79475da21e6cf075fcbf3,
        type: 3}
      time: 0.9
      eventEnabled: 0
      eventName: 
    - sprite: {fileID: 8148395603426471697, guid: 750b509373f79475da21e6cf075fcbf3,
        type: 3}
      time: 0.9
      eventEnabled: 0
      eventName: 
    name: key-f
    selectedIndex: 0
    newFramesTime: 0.05
    setFramesTime: 0.1
  - speedRatio: 1
    loop: 1
    frameToLoop: 0
    frameDatas:
    - sprite: {fileID: 4335167585495004700, guid: e0054247c49414127a50c6d293262ec4,
        type: 3}
      time: 0.9
      eventEnabled: 0
      eventName: 
    - sprite: {fileID: 2260792811311901129, guid: e0054247c49414127a50c6d293262ec4,
        type: 3}
      time: 0.9
      eventEnabled: 0
      eventName: 
    name: key-tab
    selectedIndex: 0
    newFramesTime: 0.05
    setFramesTime: 0.1
  - speedRatio: 1
    loop: 1
    frameToLoop: 0
    frameDatas:
    - sprite: {fileID: -3782118505872034861, guid: 7154cbbf7e68d4e9cb31cfb38ccf742c,
        type: 3}
      time: 0.9
      eventEnabled: 0
      eventName: 
    - sprite: {fileID: 7604969323515906476, guid: 7154cbbf7e68d4e9cb31cfb38ccf742c,
        type: 3}
      time: 0.9
      eventEnabled: 0
      eventName: 
    name: left-click
    selectedIndex: 0
    newFramesTime: 0.05
    setFramesTime: 0.1
  - speedRatio: 1
    loop: 1
    frameToLoop: 0
    frameDatas:
    - sprite: {fileID: 21300000, guid: b5714495d7ed9480aa05c2507dfdacc7, type: 3}
      time: 0.04
      eventEnabled: 0
      eventName: 
    name: mark
    selectedIndex: 0
    newFramesTime: 0.05
    setFramesTime: 0.1
  - speedRatio: 1
    loop: 1
    frameToLoop: 0
    frameDatas:
    - sprite: {fileID: 21300000, guid: b5714495d7ed9480aa05c2507dfdacc7, type: 3}
      time: 0.04
      eventEnabled: 0
      eventName: 
    name: Mark
    selectedIndex: 0
    newFramesTime: 0.05
    setFramesTime: 0.1
  - speedRatio: 1
    loop: 1
    frameToLoop: 0
    frameDatas:
    - sprite: {fileID: 21300000, guid: a00a84cc1680340c0a6ed55baa359e45, type: 3}
      time: 0.04
      eventEnabled: 0
      eventName: 
    name: meld
    selectedIndex: 0
    newFramesTime: 0.05
    setFramesTime: 0.1
  - speedRatio: 1
    loop: 1
    frameToLoop: 0
    frameDatas:
    - sprite: {fileID: 21300000, guid: a00a84cc1680340c0a6ed55baa359e45, type: 3}
      time: 0.04
      eventEnabled: 0
      eventName: 
    name: Meld
    selectedIndex: 0
    newFramesTime: 0.05
    setFramesTime: 0.1
  - speedRatio: 1
    loop: 1
    frameToLoop: 0
    frameDatas:
    - sprite: {fileID: 21300000, guid: e8ba6cd4d5632ba469d257eb415325a5, type: 3}
      time: 0.04
      eventEnabled: 0
      eventName: 
    name: page-turn
    selectedIndex: 0
    newFramesTime: 0.05
    setFramesTime: 0.1
  - speedRatio: 1
    loop: 1
    frameToLoop: 0
    frameDatas:
    - sprite: {fileID: 21300000, guid: b23f3f48d8f324284b02a9fdd4bafed0, type: 3}
      time: 0.04
      eventEnabled: 0
      eventName: 
    name: page-turn-left
    selectedIndex: 0
    newFramesTime: 0.05
    setFramesTime: 0.1
  - speedRatio: 1
    loop: 1
    frameToLoop: 0
    frameDatas:
    - sprite: {fileID: 21300000, guid: 17c5eb50456504d1a8ee83bedf0d0e85, type: 3}
      time: 0.04
      eventEnabled: 0
      eventName: 
    name: page-turn-right
    selectedIndex: 0
    newFramesTime: 0.05
    setFramesTime: 0.1
  - speedRatio: 1
    loop: 1
    frameToLoop: 0
    frameDatas:
    - sprite: {fileID: 21300000, guid: 11c83a1fec81a3640aa50f4d61c4e528, type: 3}
      time: 0.04
      eventEnabled: 0
      eventName: 
    name: remove-card
    selectedIndex: 0
    newFramesTime: 0.05
    setFramesTime: 0.1
  - speedRatio: 1
    loop: 1
    frameToLoop: 0
    frameDatas:
    - sprite: {fileID: 21300000, guid: 11c83a1fec81a3640aa50f4d61c4e528, type: 3}
      time: 0.04
      eventEnabled: 0
      eventName: 
    name: RemoveCard
    selectedIndex: 0
    newFramesTime: 0.05
    setFramesTime: 0.1
  - speedRatio: 1
    loop: 1
    frameToLoop: 0
    frameDatas:
    - sprite: {fileID: -5798431921274631495, guid: 3ff3a57ed69314a33ae9a208b9f47169,
        type: 3}
      time: 0.9
      eventEnabled: 0
      eventName: 
    - sprite: {fileID: 839678323556945068, guid: 3ff3a57ed69314a33ae9a208b9f47169,
        type: 3}
      time: 0.9
      eventEnabled: 0
      eventName: 
    name: right-click
    selectedIndex: 0
    newFramesTime: 0.05
    setFramesTime: 0.1
  - speedRatio: 1
    loop: 1
    frameToLoop: 0
    frameDatas:
    - sprite: {fileID: 21300000, guid: 60ea769f3bf834a5fa39dd58049bf176, type: 3}
      time: 0.04
      eventEnabled: 0
      eventName: 
    name: swap
    selectedIndex: 0
    newFramesTime: 0.05
    setFramesTime: 0.1
  - speedRatio: 1
    loop: 1
    frameToLoop: 0
    frameDatas:
    - sprite: {fileID: 21300000, guid: 60ea769f3bf834a5fa39dd58049bf176, type: 3}
      time: 0.04
      eventEnabled: 0
      eventName: 
    name: Swap
    selectedIndex: 0
    newFramesTime: 0.05
    setFramesTime: 0.1
  - speedRatio: 1
    loop: 1
    frameToLoop: 0
    frameDatas:
    - sprite: {fileID: 21300000, guid: 17c5eb50456504d1a8ee83bedf0d0e85, type: 3}
      time: 0.04
      eventEnabled: 0
      eventName: 
    name: TurnPageLeft
    selectedIndex: 0
    newFramesTime: 0.05
    setFramesTime: 0.1
  - speedRatio: 1
    loop: 1
    frameToLoop: 0
    frameDatas:
    - sprite: {fileID: 21300000, guid: b23f3f48d8f324284b02a9fdd4bafed0, type: 3}
      time: 0.04
      eventEnabled: 0
      eventName: 
    name: TurnPageRight
    selectedIndex: 0
    newFramesTime: 0.05
    setFramesTime: 0.1
  - speedRatio: 1
    loop: 0
    frameToLoop: 0
    frameDatas:
    - sprite: {fileID: 21300000, guid: b23f3f48d8f324284b02a9fdd4bafed0, type: 3}
      time: 0.04
      eventEnabled: 0
      eventName: 
    name: TurnPageRightAlt
    selectedIndex: 0
    newFramesTime: 0.08
    setFramesTime: 0.1
