%YAML 1.1
%TAG !u! tag:unity3d.com,2011:
--- !u!114 &11400000
MonoBehaviour:
  m_ObjectHideFlags: 0
  m_CorrespondingSourceObject: {fileID: 0}
  m_PrefabInstance: {fileID: 0}
  m_PrefabAsset: {fileID: 0}
  m_GameObject: {fileID: 0}
  m_Enabled: 1
  m_EditorHideFlags: 0
  m_Script: {fileID: 11500000, guid: 34404cb99b59bb543805a55e3c469d61, type: 3}
  m_Name: damage-number-fx
  m_EditorClassIdentifier: 
  editorConfirmations: 1
  animations:
  - speedRatio: 1
    loop: 1
    frameToLoop: 0
    frameDatas:
    - sprite: {fileID: 2458117368627999228, guid: 9e4e6b96e75d04ef18fd2b9c2d0a4545,
        type: 3}
      time: 0.06
      eventEnabled: 0
      eventName: 
    - sprite: {fileID: 3142323796457357954, guid: 9e4e6b96e75d04ef18fd2b9c2d0a4545,
        type: 3}
      time: 0.06
      eventEnabled: 0
      eventName: 
    - sprite: {fileID: -5703634265661945913, guid: 9e4e6b96e75d04ef18fd2b9c2d0a4545,
        type: 3}
      time: 0.06
      eventEnabled: 0
      eventName: 
    - sprite: {fileID: 5543888800569119281, guid: 9e4e6b96e75d04ef18fd2b9c2d0a4545,
        type: 3}
      time: 0.06
      eventEnabled: 0
      eventName: 
    name: burst
    selectedIndex: 0
    newFramesTime: 0.05
    setFramesTime: 0.1
