%YAML 1.1
%TAG !u! tag:unity3d.com,2011:
--- !u!114 &11400000
MonoBehaviour:
  m_ObjectHideFlags: 0
  m_CorrespondingSourceObject: {fileID: 0}
  m_PrefabInstance: {fileID: 0}
  m_PrefabAsset: {fileID: 0}
  m_GameObject: {fileID: 0}
  m_Enabled: 1
  m_EditorHideFlags: 0
  m_Script: {fileID: 11500000, guid: 34404cb99b59bb543805a55e3c469d61, type: 3}
  m_Name: dawn-dollars-particles-fly
  m_EditorClassIdentifier: 
  editorConfirmations: 1
  animations:
  - speedRatio: 1
    loop: 0
    frameToLoop: 0
    frameDatas:
    - sprite: {fileID: -597953386871066307, guid: 7ddb27b1efbe5ec4bb6dd150d91d8374,
        type: 3}
      time: 0.04
      eventEnabled: 0
      eventName: 
    - sprite: {fileID: -1999893602036319536, guid: 7ddb27b1efbe5ec4bb6dd150d91d8374,
        type: 3}
      time: 0.03
      eventEnabled: 0
      eventName: 
    - sprite: {fileID: 3157444016585350445, guid: 7ddb27b1efbe5ec4bb6dd150d91d8374,
        type: 3}
      time: 0.03
      eventEnabled: 0
      eventName: 
    - sprite: {fileID: 1713278527947379260, guid: 7ddb27b1efbe5ec4bb6dd150d91d8374,
        type: 3}
      time: 0.03
      eventEnabled: 0
      eventName: 
    - sprite: {fileID: 8040404574004304456, guid: 7ddb27b1efbe5ec4bb6dd150d91d8374,
        type: 3}
      time: 0.03
      eventEnabled: 0
      eventName: 
    - sprite: {fileID: -1161124291145196664, guid: 7ddb27b1efbe5ec4bb6dd150d91d8374,
        type: 3}
      time: 0.03
      eventEnabled: 0
      eventName: 
    name: burst
    selectedIndex: 0
    newFramesTime: 0.05
    setFramesTime: 0.1
