%YAML 1.1
%TAG !u! tag:unity3d.com,2011:
--- !u!114 &11400000
MonoBehaviour:
  m_ObjectHideFlags: 0
  m_CorrespondingSourceObject: {fileID: 0}
  m_PrefabInstance: {fileID: 0}
  m_PrefabAsset: {fileID: 0}
  m_GameObject: {fileID: 0}
  m_Enabled: 1
  m_EditorHideFlags: 0
  m_Script: {fileID: 11500000, guid: 34404cb99b59bb543805a55e3c469d61, type: 3}
  m_Name: deck-card-slot
  m_EditorClassIdentifier: 
  editorConfirmations: 1
  animations:
  - speedRatio: 1
    loop: 0
    frameToLoop: 0
    frameDatas:
    - sprite: {fileID: 21300000, guid: f858ee9058a2c4a048f4e034afac237f, type: 3}
      time: 0.06
      eventEnabled: 0
      eventName: 
    name: balance-minion
    selectedIndex: 0
    newFramesTime: 0.05
    setFramesTime: 0.1
  - speedRatio: 1
    loop: 0
    frameToLoop: 0
    frameDatas:
    - sprite: {fileID: 21300000, guid: 1f90b742669614a9eb8a20f30962f7fd, type: 3}
      time: 0.04
      eventEnabled: 0
      eventName: 
    name: balance-power
    selectedIndex: 0
    newFramesTime: 0.05
    setFramesTime: 0.1
  - speedRatio: 1
    loop: 0
    frameToLoop: 0
    frameDatas:
    - sprite: {fileID: 21300000, guid: fc21a7e0d8481423ba773d42d0548e8c, type: 3}
      time: 0.06
      eventEnabled: 0
      eventName: 
    name: balance-spell
    selectedIndex: 0
    newFramesTime: 0.05
    setFramesTime: 0.1
  - speedRatio: 1
    loop: 0
    frameToLoop: 0
    frameDatas:
    - sprite: {fileID: 21300000, guid: 2fbf7182f17de43399cd3852bc15cd4f, type: 3}
      time: 0.06
      eventEnabled: 0
      eventName: 
    name: balance-trick
    selectedIndex: 0
    newFramesTime: 0.05
    setFramesTime: 0.1
  - speedRatio: 1
    loop: 0
    frameToLoop: 0
    frameDatas:
    - sprite: {fileID: 21300000, guid: e58e9b1a1a92f47deb129af0f2844fe5, type: 3}
      time: 0.06
      eventEnabled: 0
      eventName: 
    name: chaos-minion
    selectedIndex: 0
    newFramesTime: 0.05
    setFramesTime: 0.1
  - speedRatio: 1
    loop: 0
    frameToLoop: 0
    frameDatas:
    - sprite: {fileID: 21300000, guid: 2770de7c7e65a4a3a8a095ad837d1c9c, type: 3}
      time: 0.04
      eventEnabled: 0
      eventName: 
    name: chaos-power
    selectedIndex: 0
    newFramesTime: 0.05
    setFramesTime: 0.1
  - speedRatio: 1
    loop: 0
    frameToLoop: 0
    frameDatas:
    - sprite: {fileID: 21300000, guid: d7de3a4efbc5a42a6b71b6be86ad3bd5, type: 3}
      time: 0.06
      eventEnabled: 0
      eventName: 
    name: chaos-spell
    selectedIndex: 0
    newFramesTime: 0.05
    setFramesTime: 0.1
  - speedRatio: 1
    loop: 0
    frameToLoop: 0
    frameDatas:
    - sprite: {fileID: 21300000, guid: a3a1b70f9cfb1453c8d5540a3c88ffbc, type: 3}
      time: 0.06
      eventEnabled: 0
      eventName: 
    name: chaos-trick
    selectedIndex: 0
    newFramesTime: 0.05
    setFramesTime: 0.1
  - speedRatio: 1
    loop: 0
    frameToLoop: 0
    frameDatas:
    - sprite: {fileID: 21300000, guid: f8374c4b09f8c1049bc8fbb74f8bab0d, type: 3}
      time: 0.04
      eventEnabled: 0
      eventName: 
    name: elder-relic
    selectedIndex: 0
    newFramesTime: 0.05
    setFramesTime: 0.1
  - speedRatio: 1
    loop: 0
    frameToLoop: 0
    frameDatas:
    - sprite: {fileID: 21300000, guid: d46554bf126294e388b13861944d1835, type: 3}
      time: 0.04
      eventEnabled: 0
      eventName: 
    name: empty-power-1
    selectedIndex: 0
    newFramesTime: 0.05
    setFramesTime: 0.1
  - speedRatio: 1
    loop: 0
    frameToLoop: 0
    frameDatas:
    - sprite: {fileID: 21300000, guid: c6d479dc5b1a74f0d9f5ef25cf962ed2, type: 3}
      time: 0.04
      eventEnabled: 0
      eventName: 
    name: empty-power-2
    selectedIndex: 0
    newFramesTime: 0.05
    setFramesTime: 0.1
  - speedRatio: 1
    loop: 0
    frameToLoop: 0
    frameDatas:
    - sprite: {fileID: 21300000, guid: 4ad7952a31acd4faa8ef8b97684a674a, type: 3}
      time: 0.04
      eventEnabled: 0
      eventName: 
    name: empty-power-3
    selectedIndex: 0
    newFramesTime: 0.05
    setFramesTime: 0.1
  - speedRatio: 1
    loop: 0
    frameToLoop: 0
    frameDatas:
    - sprite: {fileID: 21300000, guid: b10997ae6ddfd46bb9910a214c316d67, type: 3}
      time: 0.06
      eventEnabled: 0
      eventName: 
    name: fortune-minion
    selectedIndex: 0
    newFramesTime: 0.05
    setFramesTime: 0.1
  - speedRatio: 1
    loop: 0
    frameToLoop: 0
    frameDatas:
    - sprite: {fileID: 21300000, guid: 39ca19505a6594c25a5702ccbaa451b3, type: 3}
      time: 0.04
      eventEnabled: 0
      eventName: 
    name: fortune-power
    selectedIndex: 0
    newFramesTime: 0.05
    setFramesTime: 0.1
  - speedRatio: 1
    loop: 0
    frameToLoop: 0
    frameDatas:
    - sprite: {fileID: 21300000, guid: 456f162f713ba4e5dbf349eed24be176, type: 3}
      time: 0.06
      eventEnabled: 0
      eventName: 
    name: fortune-spell
    selectedIndex: 0
    newFramesTime: 0.05
    setFramesTime: 0.1
  - speedRatio: 1
    loop: 0
    frameToLoop: 0
    frameDatas:
    - sprite: {fileID: 21300000, guid: e7e15918e3ba34238a04f1b750d4f19b, type: 3}
      time: 0.06
      eventEnabled: 0
      eventName: 
    name: fortune-trick
    selectedIndex: 0
    newFramesTime: 0.05
    setFramesTime: 0.1
  - speedRatio: 1
    loop: 0
    frameToLoop: 0
    frameDatas:
    - sprite: {fileID: 21300000, guid: 38d0bfa3f75cc4c0784b1284a0beecb9, type: 3}
      time: 0.06
      eventEnabled: 0
      eventName: 
    name: nature-minion
    selectedIndex: 0
    newFramesTime: 0.05
    setFramesTime: 0.1
  - speedRatio: 1
    loop: 0
    frameToLoop: 0
    frameDatas:
    - sprite: {fileID: 21300000, guid: eebeadb4953a54c64b0494cce435da5b, type: 3}
      time: 0.04
      eventEnabled: 0
      eventName: 
    name: nature-power
    selectedIndex: 0
    newFramesTime: 0.05
    setFramesTime: 0.1
  - speedRatio: 1
    loop: 0
    frameToLoop: 0
    frameDatas:
    - sprite: {fileID: 21300000, guid: 4393e9e78c73143019fbe4a2702e42d8, type: 3}
      time: 0.06
      eventEnabled: 0
      eventName: 
    name: nature-spell
    selectedIndex: 0
    newFramesTime: 0.05
    setFramesTime: 0.1
  - speedRatio: 1
    loop: 0
    frameToLoop: 0
    frameDatas:
    - sprite: {fileID: 21300000, guid: f13ca4c96ad74435abba083b7973fa42, type: 3}
      time: 0.06
      eventEnabled: 0
      eventName: 
    name: nature-trick
    selectedIndex: 0
    newFramesTime: 0.05
    setFramesTime: 0.1
  - speedRatio: 1
    loop: 0
    frameToLoop: 0
    frameDatas:
    - sprite: {fileID: 21300000, guid: 12d88ac83f87545cb8ff855379721246, type: 3}
      time: 0.06
      eventEnabled: 0
      eventName: 
    name: neutral-minion
    selectedIndex: 0
    newFramesTime: 0.05
    setFramesTime: 0.1
  - speedRatio: 1
    loop: 0
    frameToLoop: 0
    frameDatas:
    - sprite: {fileID: 21300000, guid: 985b4bf21c30fef4d976e3361cb34e08, type: 3}
      time: 0.06
      eventEnabled: 0
      eventName: 
    name: neutral-relic
    selectedIndex: 0
    newFramesTime: 0.05
    setFramesTime: 0.1
  - speedRatio: 1
    loop: 0
    frameToLoop: 0
    frameDatas:
    - sprite: {fileID: 21300000, guid: 686b0e3aae06445da949be393c4caa79, type: 3}
      time: 0.06
      eventEnabled: 0
      eventName: 
    name: neutral-spell
    selectedIndex: 0
    newFramesTime: 0.05
    setFramesTime: 0.1
  - speedRatio: 1
    loop: 0
    frameToLoop: 0
    frameDatas:
    - sprite: {fileID: 21300000, guid: 578a1ae96060440d59248c187bd3b6e0, type: 3}
      time: 0.06
      eventEnabled: 0
      eventName: 
    name: neutral-trick
    selectedIndex: 0
    newFramesTime: 0.05
    setFramesTime: 0.1
  - speedRatio: 1
    loop: 0
    frameToLoop: 0
    frameDatas:
    - sprite: {fileID: 21300000, guid: 985b4bf21c30fef4d976e3361cb34e08, type: 3}
      time: 0.04
      eventEnabled: 0
      eventName: 
    name: relic
    selectedIndex: 0
    newFramesTime: 0.05
    setFramesTime: 0.1
  - speedRatio: 1
    loop: 0
    frameToLoop: 0
    frameDatas:
    - sprite: {fileID: 21300000, guid: 5296ca20c540e490ba85e575af3971b5, type: 3}
      time: 0.06
      eventEnabled: 0
      eventName: 
    name: war-minion
    selectedIndex: 0
    newFramesTime: 0.05
    setFramesTime: 0.1
  - speedRatio: 1
    loop: 0
    frameToLoop: 0
    frameDatas:
    - sprite: {fileID: 21300000, guid: 1119723e3f76e4587bbde89b9ed58e2e, type: 3}
      time: 0.04
      eventEnabled: 0
      eventName: 
    name: war-power
    selectedIndex: 0
    newFramesTime: 0.05
    setFramesTime: 0.1
  - speedRatio: 1
    loop: 0
    frameToLoop: 0
    frameDatas:
    - sprite: {fileID: 21300000, guid: 8072a2011b7a8460688fb8e5a0cae407, type: 3}
      time: 0.06
      eventEnabled: 0
      eventName: 
    name: war-spell
    selectedIndex: 0
    newFramesTime: 0.05
    setFramesTime: 0.1
  - speedRatio: 1
    loop: 0
    frameToLoop: 0
    frameDatas:
    - sprite: {fileID: 21300000, guid: 60c81b44a346b4836bb814d7732b6eba, type: 3}
      time: 0.06
      eventEnabled: 0
      eventName: 
    name: war-trick
    selectedIndex: 0
    newFramesTime: 0.05
    setFramesTime: 0.1
