%YAML 1.1
%TAG !u! tag:unity3d.com,2011:
--- !u!114 &11400000
MonoBehaviour:
  m_ObjectHideFlags: 0
  m_CorrespondingSourceObject: {fileID: 0}
  m_PrefabInstance: {fileID: 0}
  m_PrefabAsset: {fileID: 0}
  m_GameObject: {fileID: 0}
  m_Enabled: 1
  m_EditorHideFlags: 0
  m_Script: {fileID: 11500000, guid: 34404cb99b59bb543805a55e3c469d61, type: 3}
  m_Name: draw-damage-spikes
  m_EditorClassIdentifier: 
  editorConfirmations: 1
  animations:
  - speedRatio: 1
    loop: 1
    frameToLoop: 0
    frameDatas:
    - sprite: {fileID: 8910912187214835185, guid: 11fbf9cbc5b3243f89125f0780869af9,
        type: 3}
      time: 0.9
      eventEnabled: 0
      eventName: 
    - sprite: {fileID: 6161724900613882520, guid: 11fbf9cbc5b3243f89125f0780869af9,
        type: 3}
      time: 0.06
      eventEnabled: 0
      eventName: 
    - sprite: {fileID: -4399501602960291619, guid: 11fbf9cbc5b3243f89125f0780869af9,
        type: 3}
      time: 0.06
      eventEnabled: 0
      eventName: 
    - sprite: {fileID: 90287993717440018, guid: 11fbf9cbc5b3243f89125f0780869af9,
        type: 3}
      time: 0.9
      eventEnabled: 0
      eventName: 
    - sprite: {fileID: 4867968906623069202, guid: 11fbf9cbc5b3243f89125f0780869af9,
        type: 3}
      time: 0.06
      eventEnabled: 0
      eventName: 
    - sprite: {fileID: 4742763248750956868, guid: 11fbf9cbc5b3243f89125f0780869af9,
        type: 3}
      time: 0.06
      eventEnabled: 0
      eventName: 
    name: idle
    selectedIndex: 0
    newFramesTime: 0.05
    setFramesTime: 0.1
