%YAML 1.1
%TAG !u! tag:unity3d.com,2011:
--- !u!114 &11400000
MonoBehaviour:
  m_ObjectHideFlags: 0
  m_CorrespondingSourceObject: {fileID: 0}
  m_PrefabInstance: {fileID: 0}
  m_PrefabAsset: {fileID: 0}
  m_GameObject: {fileID: 0}
  m_Enabled: 1
  m_EditorHideFlags: 0
  m_Script: {fileID: 11500000, guid: 34404cb99b59bb543805a55e3c469d61, type: 3}
  m_Name: end-match-banner
  m_EditorClassIdentifier: 
  editorConfirmations: 1
  animations:
  - speedRatio: 1
    loop: 0
    frameToLoop: 0
    frameDatas:
    - sprite: {fileID: 5371591995841869252, guid: 765f402fe318e4dbda164a046430f5d5,
        type: 3}
      time: 0.06
      eventEnabled: 0
      eventName: 
    - sprite: {fileID: -253550059398831294, guid: 765f402fe318e4dbda164a046430f5d5,
        type: 3}
      time: 0.06
      eventEnabled: 0
      eventName: 
    - sprite: {fileID: -4569753163592280375, guid: 765f402fe318e4dbda164a046430f5d5,
        type: 3}
      time: 0.06
      eventEnabled: 0
      eventName: 
    - sprite: {fileID: -6519648099713610989, guid: 765f402fe318e4dbda164a046430f5d5,
        type: 3}
      time: 0.06
      eventEnabled: 0
      eventName: 
    - sprite: {fileID: 2700210481127244584, guid: 765f402fe318e4dbda164a046430f5d5,
        type: 3}
      time: 0.06
      eventEnabled: 0
      eventName: 
    - sprite: {fileID: 8243630883111430487, guid: 765f402fe318e4dbda164a046430f5d5,
        type: 3}
      time: 0.06
      eventEnabled: 0
      eventName: 
    - sprite: {fileID: -1791528726940801242, guid: 765f402fe318e4dbda164a046430f5d5,
        type: 3}
      time: 0.06
      eventEnabled: 0
      eventName: 
    - sprite: {fileID: 1575546892176491585, guid: 765f402fe318e4dbda164a046430f5d5,
        type: 3}
      time: 0.06
      eventEnabled: 0
      eventName: 
    - sprite: {fileID: 404180490297257930, guid: 765f402fe318e4dbda164a046430f5d5,
        type: 3}
      time: 0.06
      eventEnabled: 0
      eventName: 
    - sprite: {fileID: -1573678298929571058, guid: 765f402fe318e4dbda164a046430f5d5,
        type: 3}
      time: 0.06
      eventEnabled: 0
      eventName: 
    - sprite: {fileID: 137926067635881230, guid: 765f402fe318e4dbda164a046430f5d5,
        type: 3}
      time: 0.06
      eventEnabled: 0
      eventName: 
    - sprite: {fileID: -1447911598150990140, guid: 765f402fe318e4dbda164a046430f5d5,
        type: 3}
      time: 0.06
      eventEnabled: 0
      eventName: 
    - sprite: {fileID: 7339040518224368141, guid: 765f402fe318e4dbda164a046430f5d5,
        type: 3}
      time: 0.06
      eventEnabled: 0
      eventName: 
    - sprite: {fileID: 3420750801698917521, guid: 765f402fe318e4dbda164a046430f5d5,
        type: 3}
      time: 0.06
      eventEnabled: 0
      eventName: 
    - sprite: {fileID: 7542170644834541889, guid: 765f402fe318e4dbda164a046430f5d5,
        type: 3}
      time: 0.06
      eventEnabled: 0
      eventName: 
    - sprite: {fileID: 1599204182085304273, guid: 765f402fe318e4dbda164a046430f5d5,
        type: 3}
      time: 0.06
      eventEnabled: 0
      eventName: 
    - sprite: {fileID: 6458022719458650991, guid: 765f402fe318e4dbda164a046430f5d5,
        type: 3}
      time: 0.06
      eventEnabled: 0
      eventName: 
    - sprite: {fileID: -6245530892952257273, guid: 765f402fe318e4dbda164a046430f5d5,
        type: 3}
      time: 0.06
      eventEnabled: 0
      eventName: 
    - sprite: {fileID: 6761366779792256659, guid: 765f402fe318e4dbda164a046430f5d5,
        type: 3}
      time: 0.06
      eventEnabled: 0
      eventName: 
    - sprite: {fileID: 400769345164566415, guid: 765f402fe318e4dbda164a046430f5d5,
        type: 3}
      time: 0.06
      eventEnabled: 0
      eventName: 
    - sprite: {fileID: 3894438514235919000, guid: 765f402fe318e4dbda164a046430f5d5,
        type: 3}
      time: 0.06
      eventEnabled: 0
      eventName: 
    - sprite: {fileID: -3777961404138413907, guid: 765f402fe318e4dbda164a046430f5d5,
        type: 3}
      time: 0.04
      eventEnabled: 0
      eventName: 
    - sprite: {fileID: -8951699367002057177, guid: 765f402fe318e4dbda164a046430f5d5,
        type: 3}
      time: 0.04
      eventEnabled: 0
      eventName: 
    - sprite: {fileID: -940715841490274637, guid: 765f402fe318e4dbda164a046430f5d5,
        type: 3}
      time: 0.04
      eventEnabled: 0
      eventName: 
    - sprite: {fileID: -701993788794571584, guid: 765f402fe318e4dbda164a046430f5d5,
        type: 3}
      time: 0.04
      eventEnabled: 0
      eventName: 
    - sprite: {fileID: 7667558596963712598, guid: 765f402fe318e4dbda164a046430f5d5,
        type: 3}
      time: 0.04
      eventEnabled: 0
      eventName: 
    - sprite: {fileID: -7434894533211837342, guid: 765f402fe318e4dbda164a046430f5d5,
        type: 3}
      time: 0.04
      eventEnabled: 0
      eventName: 
    - sprite: {fileID: 6663456777359527915, guid: 765f402fe318e4dbda164a046430f5d5,
        type: 3}
      time: 0.06
      eventEnabled: 0
      eventName: 
    - sprite: {fileID: -6824299182092101290, guid: 765f402fe318e4dbda164a046430f5d5,
        type: 3}
      time: 0.04
      eventEnabled: 0
      eventName: 
    - sprite: {fileID: 2488981387436542774, guid: 765f402fe318e4dbda164a046430f5d5,
        type: 3}
      time: 0.06
      eventEnabled: 0
      eventName: 
    - sprite: {fileID: 3607380734722561110, guid: 765f402fe318e4dbda164a046430f5d5,
        type: 3}
      time: 0.06
      eventEnabled: 0
      eventName: 
    - sprite: {fileID: 7915377738207898680, guid: 765f402fe318e4dbda164a046430f5d5,
        type: 3}
      time: 0.06
      eventEnabled: 0
      eventName: 
    - sprite: {fileID: 5513743189738287508, guid: 765f402fe318e4dbda164a046430f5d5,
        type: 3}
      time: 0.06
      eventEnabled: 0
      eventName: 
    - sprite: {fileID: -4170397342567850175, guid: 765f402fe318e4dbda164a046430f5d5,
        type: 3}
      time: 0.06
      eventEnabled: 0
      eventName: 
    - sprite: {fileID: 8915393915105248124, guid: 765f402fe318e4dbda164a046430f5d5,
        type: 3}
      time: 0.06
      eventEnabled: 0
      eventName: 
    - sprite: {fileID: -215415443179559244, guid: 765f402fe318e4dbda164a046430f5d5,
        type: 3}
      time: 0.06
      eventEnabled: 0
      eventName: 
    - sprite: {fileID: -4733686809275122559, guid: 765f402fe318e4dbda164a046430f5d5,
        type: 3}
      time: 0.06
      eventEnabled: 0
      eventName: 
    - sprite: {fileID: 475396775900220510, guid: 765f402fe318e4dbda164a046430f5d5,
        type: 3}
      time: 0.06
      eventEnabled: 0
      eventName: 
    - sprite: {fileID: -721750420754700972, guid: 765f402fe318e4dbda164a046430f5d5,
        type: 3}
      time: 0.06
      eventEnabled: 0
      eventName: 
    name: defeat
    selectedIndex: 0
    newFramesTime: 0.05
    setFramesTime: 0.1
  - speedRatio: 1
    loop: 0
    frameToLoop: 0
    frameDatas:
    - sprite: {fileID: -2442057207185422428, guid: 0ff38d9d86d2b46e1b2a471b66374ccd,
        type: 3}
      time: 0.06
      eventEnabled: 0
      eventName: 
    - sprite: {fileID: -2060264856932466022, guid: 0ff38d9d86d2b46e1b2a471b66374ccd,
        type: 3}
      time: 0.06
      eventEnabled: 0
      eventName: 
    - sprite: {fileID: -3559542910306630527, guid: 0ff38d9d86d2b46e1b2a471b66374ccd,
        type: 3}
      time: 0.06
      eventEnabled: 0
      eventName: 
    - sprite: {fileID: 5264876504552039973, guid: 0ff38d9d86d2b46e1b2a471b66374ccd,
        type: 3}
      time: 0.06
      eventEnabled: 0
      eventName: 
    - sprite: {fileID: -7218493490460681965, guid: 0ff38d9d86d2b46e1b2a471b66374ccd,
        type: 3}
      time: 0.06
      eventEnabled: 0
      eventName: 
    - sprite: {fileID: 3703219186048826085, guid: 0ff38d9d86d2b46e1b2a471b66374ccd,
        type: 3}
      time: 0.06
      eventEnabled: 0
      eventName: 
    - sprite: {fileID: -385916484216685889, guid: 0ff38d9d86d2b46e1b2a471b66374ccd,
        type: 3}
      time: 0.06
      eventEnabled: 0
      eventName: 
    - sprite: {fileID: 2086114010819139488, guid: 0ff38d9d86d2b46e1b2a471b66374ccd,
        type: 3}
      time: 0.06
      eventEnabled: 0
      eventName: 
    - sprite: {fileID: 5300307731133107275, guid: 0ff38d9d86d2b46e1b2a471b66374ccd,
        type: 3}
      time: 0.06
      eventEnabled: 0
      eventName: 
    - sprite: {fileID: 4538239071113066112, guid: 0ff38d9d86d2b46e1b2a471b66374ccd,
        type: 3}
      time: 0.06
      eventEnabled: 0
      eventName: 
    - sprite: {fileID: -3665592010263113532, guid: 0ff38d9d86d2b46e1b2a471b66374ccd,
        type: 3}
      time: 0.06
      eventEnabled: 0
      eventName: 
    - sprite: {fileID: -4262472268841990322, guid: 0ff38d9d86d2b46e1b2a471b66374ccd,
        type: 3}
      time: 0.06
      eventEnabled: 0
      eventName: 
    - sprite: {fileID: -7741726854480525863, guid: 0ff38d9d86d2b46e1b2a471b66374ccd,
        type: 3}
      time: 0.06
      eventEnabled: 0
      eventName: 
    - sprite: {fileID: 5222098460374722165, guid: 0ff38d9d86d2b46e1b2a471b66374ccd,
        type: 3}
      time: 0.06
      eventEnabled: 0
      eventName: 
    - sprite: {fileID: -2176518591041501451, guid: 0ff38d9d86d2b46e1b2a471b66374ccd,
        type: 3}
      time: 0.06
      eventEnabled: 0
      eventName: 
    - sprite: {fileID: 9218341190200900012, guid: 0ff38d9d86d2b46e1b2a471b66374ccd,
        type: 3}
      time: 0.06
      eventEnabled: 0
      eventName: 
    - sprite: {fileID: 718671993453574479, guid: 0ff38d9d86d2b46e1b2a471b66374ccd,
        type: 3}
      time: 0.06
      eventEnabled: 0
      eventName: 
    - sprite: {fileID: 8735122077875876790, guid: 0ff38d9d86d2b46e1b2a471b66374ccd,
        type: 3}
      time: 0.06
      eventEnabled: 0
      eventName: 
    - sprite: {fileID: -7544799466175734634, guid: 0ff38d9d86d2b46e1b2a471b66374ccd,
        type: 3}
      time: 0.06
      eventEnabled: 0
      eventName: 
    - sprite: {fileID: 3883855611015153507, guid: 0ff38d9d86d2b46e1b2a471b66374ccd,
        type: 3}
      time: 0.06
      eventEnabled: 0
      eventName: 
    - sprite: {fileID: 5969190263031896928, guid: 0ff38d9d86d2b46e1b2a471b66374ccd,
        type: 3}
      time: 0.06
      eventEnabled: 0
      eventName: 
    - sprite: {fileID: 5390466285339263090, guid: 0ff38d9d86d2b46e1b2a471b66374ccd,
        type: 3}
      time: 0.06
      eventEnabled: 0
      eventName: 
    - sprite: {fileID: -6918526259355167977, guid: 0ff38d9d86d2b46e1b2a471b66374ccd,
        type: 3}
      time: 0.06
      eventEnabled: 0
      eventName: 
    - sprite: {fileID: -3734752660346202917, guid: 0ff38d9d86d2b46e1b2a471b66374ccd,
        type: 3}
      time: 0.06
      eventEnabled: 0
      eventName: 
    - sprite: {fileID: 1892888090723518321, guid: 0ff38d9d86d2b46e1b2a471b66374ccd,
        type: 3}
      time: 0.06
      eventEnabled: 0
      eventName: 
    - sprite: {fileID: 8023105264789687401, guid: 0ff38d9d86d2b46e1b2a471b66374ccd,
        type: 3}
      time: 0.06
      eventEnabled: 0
      eventName: 
    - sprite: {fileID: -6349076961560672231, guid: 0ff38d9d86d2b46e1b2a471b66374ccd,
        type: 3}
      time: 0.06
      eventEnabled: 0
      eventName: 
    - sprite: {fileID: -7339052903401043756, guid: 0ff38d9d86d2b46e1b2a471b66374ccd,
        type: 3}
      time: 0.06
      eventEnabled: 0
      eventName: 
    - sprite: {fileID: 848073900440799743, guid: 0ff38d9d86d2b46e1b2a471b66374ccd,
        type: 3}
      time: 0.06
      eventEnabled: 0
      eventName: 
    - sprite: {fileID: -4906055943862396984, guid: 0ff38d9d86d2b46e1b2a471b66374ccd,
        type: 3}
      time: 0.06
      eventEnabled: 0
      eventName: 
    - sprite: {fileID: 3860535664450255015, guid: 0ff38d9d86d2b46e1b2a471b66374ccd,
        type: 3}
      time: 0.06
      eventEnabled: 0
      eventName: 
    - sprite: {fileID: 1578526326451538412, guid: 0ff38d9d86d2b46e1b2a471b66374ccd,
        type: 3}
      time: 0.06
      eventEnabled: 0
      eventName: 
    - sprite: {fileID: 1971964246868353135, guid: 0ff38d9d86d2b46e1b2a471b66374ccd,
        type: 3}
      time: 0.06
      eventEnabled: 0
      eventName: 
    - sprite: {fileID: 5683068521758895369, guid: 0ff38d9d86d2b46e1b2a471b66374ccd,
        type: 3}
      time: 0.06
      eventEnabled: 0
      eventName: 
    - sprite: {fileID: 1531439082043725031, guid: 0ff38d9d86d2b46e1b2a471b66374ccd,
        type: 3}
      time: 0.06
      eventEnabled: 0
      eventName: 
    - sprite: {fileID: -7231458647600313625, guid: 0ff38d9d86d2b46e1b2a471b66374ccd,
        type: 3}
      time: 0.06
      eventEnabled: 0
      eventName: 
    - sprite: {fileID: 1097372743008225625, guid: 0ff38d9d86d2b46e1b2a471b66374ccd,
        type: 3}
      time: 0.06
      eventEnabled: 0
      eventName: 
    - sprite: {fileID: 8109621520880650922, guid: 0ff38d9d86d2b46e1b2a471b66374ccd,
        type: 3}
      time: 0.06
      eventEnabled: 0
      eventName: 
    - sprite: {fileID: 1655290850516189121, guid: 0ff38d9d86d2b46e1b2a471b66374ccd,
        type: 3}
      time: 0.9
      eventEnabled: 0
      eventName: 
    name: draw
    selectedIndex: 0
    newFramesTime: 0.05
    setFramesTime: 0.1
  - speedRatio: 1
    loop: 0
    frameToLoop: 0
    frameDatas:
    - sprite: {fileID: 2523570340880434905, guid: 8730d408bfb004bf8b79e33dfe9c7e4c,
        type: 3}
      time: 0.06
      eventEnabled: 0
      eventName: 
    - sprite: {fileID: -2878874549220107358, guid: 8730d408bfb004bf8b79e33dfe9c7e4c,
        type: 3}
      time: 0.06
      eventEnabled: 0
      eventName: 
    - sprite: {fileID: -5223607494055614850, guid: 8730d408bfb004bf8b79e33dfe9c7e4c,
        type: 3}
      time: 0.06
      eventEnabled: 0
      eventName: 
    - sprite: {fileID: -9027067862744907943, guid: 8730d408bfb004bf8b79e33dfe9c7e4c,
        type: 3}
      time: 0.06
      eventEnabled: 0
      eventName: 
    - sprite: {fileID: -259796001039582527, guid: 8730d408bfb004bf8b79e33dfe9c7e4c,
        type: 3}
      time: 0.06
      eventEnabled: 0
      eventName: 
    - sprite: {fileID: -79661936811953269, guid: 8730d408bfb004bf8b79e33dfe9c7e4c,
        type: 3}
      time: 0.06
      eventEnabled: 0
      eventName: 
    - sprite: {fileID: 1651499760825703462, guid: 8730d408bfb004bf8b79e33dfe9c7e4c,
        type: 3}
      time: 0.06
      eventEnabled: 0
      eventName: 
    - sprite: {fileID: -3907325588209841107, guid: 8730d408bfb004bf8b79e33dfe9c7e4c,
        type: 3}
      time: 0.06
      eventEnabled: 0
      eventName: 
    - sprite: {fileID: -2150596447698750081, guid: 8730d408bfb004bf8b79e33dfe9c7e4c,
        type: 3}
      time: 0.06
      eventEnabled: 0
      eventName: 
    - sprite: {fileID: -8100123300999378609, guid: 8730d408bfb004bf8b79e33dfe9c7e4c,
        type: 3}
      time: 0.06
      eventEnabled: 0
      eventName: 
    - sprite: {fileID: 6760942366862822520, guid: 8730d408bfb004bf8b79e33dfe9c7e4c,
        type: 3}
      time: 0.06
      eventEnabled: 0
      eventName: 
    - sprite: {fileID: 6493978887679536947, guid: 8730d408bfb004bf8b79e33dfe9c7e4c,
        type: 3}
      time: 0.06
      eventEnabled: 0
      eventName: 
    - sprite: {fileID: -7654756584909929134, guid: 8730d408bfb004bf8b79e33dfe9c7e4c,
        type: 3}
      time: 0.06
      eventEnabled: 0
      eventName: 
    - sprite: {fileID: -9103238740123799083, guid: 8730d408bfb004bf8b79e33dfe9c7e4c,
        type: 3}
      time: 0.06
      eventEnabled: 0
      eventName: 
    - sprite: {fileID: 5546759412677189215, guid: 8730d408bfb004bf8b79e33dfe9c7e4c,
        type: 3}
      time: 0.06
      eventEnabled: 0
      eventName: 
    - sprite: {fileID: 6315154925662908120, guid: 8730d408bfb004bf8b79e33dfe9c7e4c,
        type: 3}
      time: 0.06
      eventEnabled: 0
      eventName: 
    - sprite: {fileID: 236291179942110410, guid: 8730d408bfb004bf8b79e33dfe9c7e4c,
        type: 3}
      time: 0.06
      eventEnabled: 0
      eventName: 
    - sprite: {fileID: -7411758524383713115, guid: 8730d408bfb004bf8b79e33dfe9c7e4c,
        type: 3}
      time: 0.06
      eventEnabled: 0
      eventName: 
    - sprite: {fileID: -5841165362124779959, guid: 8730d408bfb004bf8b79e33dfe9c7e4c,
        type: 3}
      time: 0.06
      eventEnabled: 0
      eventName: 
    - sprite: {fileID: -8416627273923808440, guid: 8730d408bfb004bf8b79e33dfe9c7e4c,
        type: 3}
      time: 0.06
      eventEnabled: 0
      eventName: 
    - sprite: {fileID: -3740661416601362909, guid: 8730d408bfb004bf8b79e33dfe9c7e4c,
        type: 3}
      time: 0.06
      eventEnabled: 0
      eventName: 
    - sprite: {fileID: -2747502109070830767, guid: 8730d408bfb004bf8b79e33dfe9c7e4c,
        type: 3}
      time: 0.06
      eventEnabled: 0
      eventName: 
    - sprite: {fileID: 543097098400336342, guid: 8730d408bfb004bf8b79e33dfe9c7e4c,
        type: 3}
      time: 0.06
      eventEnabled: 0
      eventName: 
    - sprite: {fileID: -2698125061103986831, guid: 8730d408bfb004bf8b79e33dfe9c7e4c,
        type: 3}
      time: 0.06
      eventEnabled: 0
      eventName: 
    - sprite: {fileID: -287961519012435891, guid: 8730d408bfb004bf8b79e33dfe9c7e4c,
        type: 3}
      time: 0.06
      eventEnabled: 0
      eventName: 
    - sprite: {fileID: -4989189169978070083, guid: 8730d408bfb004bf8b79e33dfe9c7e4c,
        type: 3}
      time: 0.06
      eventEnabled: 0
      eventName: 
    - sprite: {fileID: 8731061878242059925, guid: 8730d408bfb004bf8b79e33dfe9c7e4c,
        type: 3}
      time: 0.06
      eventEnabled: 0
      eventName: 
    - sprite: {fileID: -367364482086226194, guid: 8730d408bfb004bf8b79e33dfe9c7e4c,
        type: 3}
      time: 0.06
      eventEnabled: 0
      eventName: 
    - sprite: {fileID: -280573806427010002, guid: 8730d408bfb004bf8b79e33dfe9c7e4c,
        type: 3}
      time: 0.06
      eventEnabled: 0
      eventName: 
    - sprite: {fileID: -1394862126754889897, guid: 8730d408bfb004bf8b79e33dfe9c7e4c,
        type: 3}
      time: 0.06
      eventEnabled: 0
      eventName: 
    - sprite: {fileID: -87815368048474518, guid: 8730d408bfb004bf8b79e33dfe9c7e4c,
        type: 3}
      time: 0.06
      eventEnabled: 0
      eventName: 
    - sprite: {fileID: 2330106131920725947, guid: 8730d408bfb004bf8b79e33dfe9c7e4c,
        type: 3}
      time: 0.06
      eventEnabled: 0
      eventName: 
    - sprite: {fileID: 4829848961472639368, guid: 8730d408bfb004bf8b79e33dfe9c7e4c,
        type: 3}
      time: 0.9
      eventEnabled: 0
      eventName: 
    name: victory
    selectedIndex: 0
    newFramesTime: 0.05
    setFramesTime: 0.1
