%YAML 1.1
%TAG !u! tag:unity3d.com,2011:
--- !u!114 &11400000
MonoBehaviour:
  m_ObjectHideFlags: 0
  m_CorrespondingSourceObject: {fileID: 0}
  m_PrefabInstance: {fileID: 0}
  m_PrefabAsset: {fileID: 0}
  m_GameObject: {fileID: 0}
  m_Enabled: 1
  m_EditorHideFlags: 0
  m_Script: {fileID: 11500000, guid: 34404cb99b59bb543805a55e3c469d61, type: 3}
  m_Name: energy-strike-slash
  m_EditorClassIdentifier: 
  editorConfirmations: 1
  animations:
  - speedRatio: 1
    loop: 0
    frameToLoop: 0
    frameDatas:
    - sprite: {fileID: 6600667250303590205, guid: 9a5307e996f58490e940f0a519db6ed6,
        type: 3}
      time: 0.04
      eventEnabled: 0
      eventName: 
    - sprite: {fileID: 829464918497957290, guid: 9a5307e996f58490e940f0a519db6ed6,
        type: 3}
      time: 0.04
      eventEnabled: 0
      eventName: 
    - sprite: {fileID: -7576656051668641531, guid: 9a5307e996f58490e940f0a519db6ed6,
        type: 3}
      time: 0.04
      eventEnabled: 0
      eventName: 
    - sprite: {fileID: 2829927935216122845, guid: 9a5307e996f58490e940f0a519db6ed6,
        type: 3}
      time: 0.04
      eventEnabled: 0
      eventName: 
    - sprite: {fileID: -3468408364140856087, guid: 9a5307e996f58490e940f0a519db6ed6,
        type: 3}
      time: 0.04
      eventEnabled: 0
      eventName: 
    - sprite: {fileID: 1920977440729369083, guid: 9a5307e996f58490e940f0a519db6ed6,
        type: 3}
      time: 0.04
      eventEnabled: 0
      eventName: 
    - sprite: {fileID: 3201944634873655838, guid: 9a5307e996f58490e940f0a519db6ed6,
        type: 3}
      time: 0.04
      eventEnabled: 0
      eventName: 
    - sprite: {fileID: 7867538091561030553, guid: 9a5307e996f58490e940f0a519db6ed6,
        type: 3}
      time: 0.04
      eventEnabled: 0
      eventName: 
    - sprite: {fileID: -2527659224651039815, guid: 9a5307e996f58490e940f0a519db6ed6,
        type: 3}
      time: 0.04
      eventEnabled: 0
      eventName: 
    - sprite: {fileID: -4581796088203574410, guid: 9a5307e996f58490e940f0a519db6ed6,
        type: 3}
      time: 0.04
      eventEnabled: 0
      eventName: 
    - sprite: {fileID: -8412286886812579631, guid: 9a5307e996f58490e940f0a519db6ed6,
        type: 3}
      time: 0.04
      eventEnabled: 0
      eventName: 
    - sprite: {fileID: -8990989097173282290, guid: 9a5307e996f58490e940f0a519db6ed6,
        type: 3}
      time: 0.04
      eventEnabled: 0
      eventName: 
    - sprite: {fileID: 1229420073537869393, guid: 9a5307e996f58490e940f0a519db6ed6,
        type: 3}
      time: 0.04
      eventEnabled: 0
      eventName: 
    name: slash
    selectedIndex: 6
    newFramesTime: 0.05
    setFramesTime: 0.1
