%YAML 1.1
%TAG !u! tag:unity3d.com,2011:
--- !u!114 &11400000
MonoBehaviour:
  m_ObjectHideFlags: 0
  m_CorrespondingSourceObject: {fileID: 0}
  m_PrefabInstance: {fileID: 0}
  m_PrefabAsset: {fileID: 0}
  m_GameObject: {fileID: 0}
  m_Enabled: 1
  m_EditorHideFlags: 0
  m_Script: {fileID: 11500000, guid: 34404cb99b59bb543805a55e3c469d61, type: 3}
  m_Name: faction-slot
  m_EditorClassIdentifier: 
  editorConfirmations: 1
  animations:
  - speedRatio: 1
    loop: 1
    frameToLoop: 0
    frameDatas:
    - sprite: {fileID: 21300000, guid: ed2423427fa45422bbff2c1c4b16fd67, type: 3}
      time: 0.06
      eventEnabled: 0
      eventName: 
    name: all
    selectedIndex: 0
    newFramesTime: 0.05
    setFramesTime: 0.1
  - speedRatio: 1
    loop: 1
    frameToLoop: 0
    frameDatas:
    - sprite: {fileID: 21300000, guid: ff67ace00c0fc4a14816d2adc04cfa31, type: 3}
      time: 0.06
      eventEnabled: 0
      eventName: 
    name: balance
    selectedIndex: 0
    newFramesTime: 0.05
    setFramesTime: 0.1
  - speedRatio: 1
    loop: 1
    frameToLoop: 0
    frameDatas:
    - sprite: {fileID: 21300000, guid: 874cbffc9e6a446ec9fdc7049d30f721, type: 3}
      time: 0.06
      eventEnabled: 0
      eventName: 
    name: chaos
    selectedIndex: 0
    newFramesTime: 0.05
    setFramesTime: 0.1
  - speedRatio: 1
    loop: 1
    frameToLoop: 0
    frameDatas:
    - sprite: {fileID: 21300000, guid: 589322b254c964d608a7d08bb20c18ed, type: 3}
      time: 0.06
      eventEnabled: 0
      eventName: 
    name: fortune
    selectedIndex: 0
    newFramesTime: 0.05
    setFramesTime: 0.1
  - speedRatio: 1
    loop: 1
    frameToLoop: 0
    frameDatas:
    - sprite: {fileID: 21300000, guid: 66118421bac6046c88e6f9fa0b62f26b, type: 3}
      time: 0.06
      eventEnabled: 0
      eventName: 
    name: nature
    selectedIndex: 0
    newFramesTime: 0.05
    setFramesTime: 0.1
  - speedRatio: 1
    loop: 1
    frameToLoop: 0
    frameDatas:
    - sprite: {fileID: 21300000, guid: 12c6e58cd4a614da2b15bad240cf5cd5, type: 3}
      time: 0.06
      eventEnabled: 0
      eventName: 
    name: neutral
    selectedIndex: 0
    newFramesTime: 0.05
    setFramesTime: 0.1
  - speedRatio: 1
    loop: 1
    frameToLoop: 0
    frameDatas:
    - sprite: {fileID: 21300000, guid: cfa46eb8f2b0849bcaf05c51777759aa, type: 3}
      time: 0.06
      eventEnabled: 0
      eventName: 
    name: war
    selectedIndex: 0
    newFramesTime: 0.05
    setFramesTime: 0.1
