%YAML 1.1
%TAG !u! tag:unity3d.com,2011:
--- !u!114 &11400000
MonoBehaviour:
  m_ObjectHideFlags: 0
  m_CorrespondingSourceObject: {fileID: 0}
  m_PrefabInstance: {fileID: 0}
  m_PrefabAsset: {fileID: 0}
  m_GameObject: {fileID: 0}
  m_Enabled: 1
  m_EditorHideFlags: 0
  m_Script: {fileID: 11500000, guid: 34404cb99b59bb543805a55e3c469d61, type: 3}
  m_Name: fly
  m_EditorClassIdentifier: 
  editorConfirmations: 1
  animations:
  - speedRatio: 1
    loop: 1
    frameToLoop: 0
    frameDatas:
    - sprite: {fileID: -6702706872339780421, guid: feff3b49877624f76a3ae7566611a649,
        type: 3}
      time: 0.04
      eventEnabled: 0
      eventName: 
    - sprite: {fileID: 3057088774093103094, guid: feff3b49877624f76a3ae7566611a649,
        type: 3}
      time: 0.04
      eventEnabled: 0
      eventName: 
    - sprite: {fileID: -1030077417086819789, guid: feff3b49877624f76a3ae7566611a649,
        type: 3}
      time: 0.04
      eventEnabled: 0
      eventName: 
    - sprite: {fileID: -5680979086122543090, guid: feff3b49877624f76a3ae7566611a649,
        type: 3}
      time: 0.04
      eventEnabled: 0
      eventName: 
    - sprite: {fileID: -2855579756445505274, guid: feff3b49877624f76a3ae7566611a649,
        type: 3}
      time: 0.04
      eventEnabled: 0
      eventName: 
    - sprite: {fileID: 2173689038516394069, guid: feff3b49877624f76a3ae7566611a649,
        type: 3}
      time: 0.04
      eventEnabled: 0
      eventName: 
    - sprite: {fileID: -8389754314167301344, guid: feff3b49877624f76a3ae7566611a649,
        type: 3}
      time: 0.04
      eventEnabled: 0
      eventName: 
    - sprite: {fileID: -4387533025694030774, guid: feff3b49877624f76a3ae7566611a649,
        type: 3}
      time: 0.04
      eventEnabled: 0
      eventName: 
    - sprite: {fileID: -873972448510197377, guid: feff3b49877624f76a3ae7566611a649,
        type: 3}
      time: 0.04
      eventEnabled: 0
      eventName: 
    - sprite: {fileID: -19403455517230243, guid: feff3b49877624f76a3ae7566611a649,
        type: 3}
      time: 0.04
      eventEnabled: 0
      eventName: 
    - sprite: {fileID: -5610700791974427969, guid: feff3b49877624f76a3ae7566611a649,
        type: 3}
      time: 0.04
      eventEnabled: 0
      eventName: 
    - sprite: {fileID: 4779965608478167687, guid: feff3b49877624f76a3ae7566611a649,
        type: 3}
      time: 0.04
      eventEnabled: 0
      eventName: 
    - sprite: {fileID: -685882581925978627, guid: feff3b49877624f76a3ae7566611a649,
        type: 3}
      time: 0.04
      eventEnabled: 0
      eventName: 
    - sprite: {fileID: 4501233592636381010, guid: feff3b49877624f76a3ae7566611a649,
        type: 3}
      time: 0.04
      eventEnabled: 0
      eventName: 
    - sprite: {fileID: -3166334738651318798, guid: feff3b49877624f76a3ae7566611a649,
        type: 3}
      time: 0.04
      eventEnabled: 0
      eventName: 
    - sprite: {fileID: 6026744830481632196, guid: feff3b49877624f76a3ae7566611a649,
        type: 3}
      time: 0.04
      eventEnabled: 0
      eventName: 
    - sprite: {fileID: 5510734475715056476, guid: feff3b49877624f76a3ae7566611a649,
        type: 3}
      time: 0.04
      eventEnabled: 0
      eventName: 
    - sprite: {fileID: 140327711929063737, guid: feff3b49877624f76a3ae7566611a649,
        type: 3}
      time: 0.04
      eventEnabled: 0
      eventName: 
    - sprite: {fileID: 4824411407389983145, guid: feff3b49877624f76a3ae7566611a649,
        type: 3}
      time: 0.04
      eventEnabled: 0
      eventName: 
    - sprite: {fileID: 3828698764452719751, guid: feff3b49877624f76a3ae7566611a649,
        type: 3}
      time: 0.04
      eventEnabled: 0
      eventName: 
    - sprite: {fileID: -8389026401951879718, guid: feff3b49877624f76a3ae7566611a649,
        type: 3}
      time: 0.04
      eventEnabled: 0
      eventName: 
    name: idle
    selectedIndex: 0
    newFramesTime: 0.05
    setFramesTime: 0.1
  - speedRatio: 1
    loop: 0
    frameToLoop: 0
    frameDatas:
    - sprite: {fileID: -5658236115535433889, guid: d23c579b07269463ea2cc3420baa8da1,
        type: 3}
      time: 0.04
      eventEnabled: 0
      eventName: 
    - sprite: {fileID: 1931491041697820198, guid: d23c579b07269463ea2cc3420baa8da1,
        type: 3}
      time: 0.04
      eventEnabled: 0
      eventName: 
    - sprite: {fileID: 6346506745411199999, guid: d23c579b07269463ea2cc3420baa8da1,
        type: 3}
      time: 0.04
      eventEnabled: 0
      eventName: 
    - sprite: {fileID: 6796934554370155399, guid: d23c579b07269463ea2cc3420baa8da1,
        type: 3}
      time: 0.04
      eventEnabled: 0
      eventName: 
    - sprite: {fileID: 2539222133601625035, guid: d23c579b07269463ea2cc3420baa8da1,
        type: 3}
      time: 0.04
      eventEnabled: 0
      eventName: 
    - sprite: {fileID: 7831797991174293637, guid: d23c579b07269463ea2cc3420baa8da1,
        type: 3}
      time: 0.04
      eventEnabled: 0
      eventName: 
    - sprite: {fileID: 8360549774919250676, guid: d23c579b07269463ea2cc3420baa8da1,
        type: 3}
      time: 0.04
      eventEnabled: 0
      eventName: 
    - sprite: {fileID: 1450813311864329596, guid: d23c579b07269463ea2cc3420baa8da1,
        type: 3}
      time: 0.04
      eventEnabled: 0
      eventName: 
    - sprite: {fileID: 21300000, guid: fd49ac06ab59f472699a83cd9ae6e5e3, type: 3}
      time: 0.04
      eventEnabled: 0
      eventName: 
    name: lift-off
    selectedIndex: 8
    newFramesTime: 0.05
    setFramesTime: 0.1
