%YAML 1.1
%TAG !u! tag:unity3d.com,2011:
--- !u!114 &11400000
MonoBehaviour:
  m_ObjectHideFlags: 0
  m_CorrespondingSourceObject: {fileID: 0}
  m_PrefabInstance: {fileID: 0}
  m_PrefabAsset: {fileID: 0}
  m_GameObject: {fileID: 0}
  m_Enabled: 1
  m_EditorHideFlags: 0
  m_Script: {fileID: 11500000, guid: 34404cb99b59bb543805a55e3c469d61, type: 3}
  m_Name: game-vfx-projectile
  m_EditorClassIdentifier: 
  editorConfirmations: 1
  animations:
  - speedRatio: 1
    loop: 1
    frameToLoop: 0
    frameDatas:
    - sprite: {fileID: -2135788766833104478, guid: 97b933220a24b4e2587c5e4e73692175,
        type: 3}
      time: 0.04
      eventEnabled: 0
      eventName: 
    - sprite: {fileID: -6966865304676208436, guid: 97b933220a24b4e2587c5e4e73692175,
        type: 3}
      time: 0.04
      eventEnabled: 0
      eventName: 
    - sprite: {fileID: 1436596444998572915, guid: 97b933220a24b4e2587c5e4e73692175,
        type: 3}
      time: 0.04
      eventEnabled: 0
      eventName: 
    - sprite: {fileID: 4482885683868517112, guid: 97b933220a24b4e2587c5e4e73692175,
        type: 3}
      time: 0.04
      eventEnabled: 0
      eventName: 
    - sprite: {fileID: 1614632671392246462, guid: 97b933220a24b4e2587c5e4e73692175,
        type: 3}
      time: 0.04
      eventEnabled: 0
      eventName: 
    - sprite: {fileID: -7419186694110104161, guid: 97b933220a24b4e2587c5e4e73692175,
        type: 3}
      time: 0.04
      eventEnabled: 0
      eventName: 
    - sprite: {fileID: -5345652044682831139, guid: 97b933220a24b4e2587c5e4e73692175,
        type: 3}
      time: 0.04
      eventEnabled: 0
      eventName: 
    - sprite: {fileID: -8134737406007420236, guid: 97b933220a24b4e2587c5e4e73692175,
        type: 3}
      time: 0.04
      eventEnabled: 0
      eventName: 
    - sprite: {fileID: -2745736494255664228, guid: 97b933220a24b4e2587c5e4e73692175,
        type: 3}
      time: 0.04
      eventEnabled: 0
      eventName: 
    - sprite: {fileID: 6612269232535344252, guid: 97b933220a24b4e2587c5e4e73692175,
        type: 3}
      time: 0.04
      eventEnabled: 0
      eventName: 
    name: explode
    selectedIndex: 0
    newFramesTime: 0.05
    setFramesTime: 0.1
  - speedRatio: 1
    loop: 1
    frameToLoop: 0
    frameDatas:
    - sprite: {fileID: 1836984240904832347, guid: 3853e300f31dd4b0e84ba74651e1ec53,
        type: 3}
      time: 0.04
      eventEnabled: 0
      eventName: 
    - sprite: {fileID: 5828260449891099222, guid: 3853e300f31dd4b0e84ba74651e1ec53,
        type: 3}
      time: 0.04
      eventEnabled: 0
      eventName: 
    - sprite: {fileID: 8545420406241287125, guid: 3853e300f31dd4b0e84ba74651e1ec53,
        type: 3}
      time: 0.04
      eventEnabled: 0
      eventName: 
    - sprite: {fileID: 3017750978647560075, guid: 3853e300f31dd4b0e84ba74651e1ec53,
        type: 3}
      time: 0.04
      eventEnabled: 0
      eventName: 
    - sprite: {fileID: -7288921415128540260, guid: 3853e300f31dd4b0e84ba74651e1ec53,
        type: 3}
      time: 0.04
      eventEnabled: 0
      eventName: 
    - sprite: {fileID: 2288951763528641666, guid: 3853e300f31dd4b0e84ba74651e1ec53,
        type: 3}
      time: 0.04
      eventEnabled: 0
      eventName: 
    name: idle
    selectedIndex: 0
    newFramesTime: 0.05
    setFramesTime: 0.1
  - speedRatio: 1
    loop: 1
    frameToLoop: 0
    frameDatas:
    - sprite: {fileID: 942970712524907122, guid: 198d5f25d1ec6485a9669052faa8f4af,
        type: 3}
      time: 0.04
      eventEnabled: 0
      eventName: 
    - sprite: {fileID: -7889416890914064823, guid: 198d5f25d1ec6485a9669052faa8f4af,
        type: 3}
      time: 0.04
      eventEnabled: 0
      eventName: 
    - sprite: {fileID: -5954421026168426956, guid: 198d5f25d1ec6485a9669052faa8f4af,
        type: 3}
      time: 0.04
      eventEnabled: 0
      eventName: 
    name: spawn
    selectedIndex: 0
    newFramesTime: 0.05
    setFramesTime: 0.1
