%YAML 1.1
%TAG !u! tag:unity3d.com,2011:
--- !u!114 &11400000
MonoBehaviour:
  m_ObjectHideFlags: 0
  m_CorrespondingSourceObject: {fileID: 0}
  m_PrefabInstance: {fileID: 0}
  m_PrefabAsset: {fileID: 0}
  m_GameObject: {fileID: 0}
  m_Enabled: 1
  m_EditorHideFlags: 0
  m_Script: {fileID: 11500000, guid: 34404cb99b59bb543805a55e3c469d61, type: 3}
  m_Name: gold-sparkle-1
  m_EditorClassIdentifier: 
  editorConfirmations: 1
  animations:
  - speedRatio: 1
    loop: 0
    frameToLoop: 0
    frameDatas:
    - sprite: {fileID: 3547682888689330057, guid: 11279c130176d40ff9c1212706f732bf,
        type: 3}
      time: 0.06
      eventEnabled: 0
      eventName: 
    - sprite: {fileID: -8084272442631094857, guid: 11279c130176d40ff9c1212706f732bf,
        type: 3}
      time: 0.06
      eventEnabled: 0
      eventName: 
    - sprite: {fileID: -1693822779483739187, guid: 11279c130176d40ff9c1212706f732bf,
        type: 3}
      time: 0.06
      eventEnabled: 0
      eventName: 
    - sprite: {fileID: 8756804971887816769, guid: 11279c130176d40ff9c1212706f732bf,
        type: 3}
      time: 0.06
      eventEnabled: 0
      eventName: 
    - sprite: {fileID: 8458289457618661183, guid: 11279c130176d40ff9c1212706f732bf,
        type: 3}
      time: 0.06
      eventEnabled: 0
      eventName: 
    - sprite: {fileID: -3708197246043609182, guid: 11279c130176d40ff9c1212706f732bf,
        type: 3}
      time: 0.06
      eventEnabled: 0
      eventName: 
    - sprite: {fileID: 2106874543036231927, guid: 11279c130176d40ff9c1212706f732bf,
        type: 3}
      time: 0.06
      eventEnabled: 0
      eventName: 
    - sprite: {fileID: -6558449585198404269, guid: 11279c130176d40ff9c1212706f732bf,
        type: 3}
      time: 0.06
      eventEnabled: 0
      eventName: 
    - sprite: {fileID: 7059005565573446694, guid: 11279c130176d40ff9c1212706f732bf,
        type: 3}
      time: 0.06
      eventEnabled: 0
      eventName: 
    name: idle
    selectedIndex: 0
    newFramesTime: 0.05
    setFramesTime: 0.1
