%YAML 1.1
%TAG !u! tag:unity3d.com,2011:
--- !u!114 &11400000
MonoBehaviour:
  m_ObjectHideFlags: 0
  m_CorrespondingSourceObject: {fileID: 0}
  m_PrefabInstance: {fileID: 0}
  m_PrefabAsset: {fileID: 0}
  m_GameObject: {fileID: 0}
  m_Enabled: 1
  m_EditorHideFlags: 0
  m_Script: {fileID: 11500000, guid: 34404cb99b59bb543805a55e3c469d61, type: 3}
  m_Name: goop
  m_EditorClassIdentifier: 
  editorConfirmations: 1
  animations:
  - speedRatio: 1
    loop: 0
    frameToLoop: 0
    frameDatas:
    - sprite: {fileID: -488348209722818931, guid: c7957450a750e4685af6b5f369941f9b,
        type: 3}
      time: 0.04
      eventEnabled: 0
      eventName: 
    - sprite: {fileID: 7927784806269201182, guid: c7957450a750e4685af6b5f369941f9b,
        type: 3}
      time: 0.04
      eventEnabled: 0
      eventName: 
    - sprite: {fileID: 1995414201271111645, guid: c7957450a750e4685af6b5f369941f9b,
        type: 3}
      time: 0.04
      eventEnabled: 0
      eventName: 
    - sprite: {fileID: 8177027545346448799, guid: c7957450a750e4685af6b5f369941f9b,
        type: 3}
      time: 0.04
      eventEnabled: 0
      eventName: 
    - sprite: {fileID: -8268008154480643471, guid: c7957450a750e4685af6b5f369941f9b,
        type: 3}
      time: 0.04
      eventEnabled: 0
      eventName: 
    - sprite: {fileID: 1822174827604851825, guid: c7957450a750e4685af6b5f369941f9b,
        type: 3}
      time: 0.04
      eventEnabled: 0
      eventName: 
    - sprite: {fileID: 8199434313300664985, guid: c7957450a750e4685af6b5f369941f9b,
        type: 3}
      time: 0.04
      eventEnabled: 0
      eventName: 
    - sprite: {fileID: 782694209539912361, guid: c7957450a750e4685af6b5f369941f9b,
        type: 3}
      time: 0.04
      eventEnabled: 0
      eventName: 
    - sprite: {fileID: -3915895649658613684, guid: c7957450a750e4685af6b5f369941f9b,
        type: 3}
      time: 0.04
      eventEnabled: 0
      eventName: 
    - sprite: {fileID: 7989078031645727020, guid: c7957450a750e4685af6b5f369941f9b,
        type: 3}
      time: 0.3
      eventEnabled: 0
      eventName: 
    name: splatter-2
    selectedIndex: 0
    newFramesTime: 0.05
    setFramesTime: 0.1
  - speedRatio: 1
    loop: 0
    frameToLoop: 0
    frameDatas:
    - sprite: {fileID: 1032842794481982400, guid: de120d1adf62a4c2bbc7e24fa697aa02,
        type: 3}
      time: 0.04
      eventEnabled: 0
      eventName: 
    - sprite: {fileID: -8120002398482143370, guid: de120d1adf62a4c2bbc7e24fa697aa02,
        type: 3}
      time: 0.04
      eventEnabled: 0
      eventName: 
    - sprite: {fileID: 7318585293582047012, guid: de120d1adf62a4c2bbc7e24fa697aa02,
        type: 3}
      time: 0.04
      eventEnabled: 0
      eventName: 
    - sprite: {fileID: -326040969357515523, guid: de120d1adf62a4c2bbc7e24fa697aa02,
        type: 3}
      time: 0.04
      eventEnabled: 0
      eventName: 
    - sprite: {fileID: 3477178397561017367, guid: de120d1adf62a4c2bbc7e24fa697aa02,
        type: 3}
      time: 0.04
      eventEnabled: 0
      eventName: 
    - sprite: {fileID: -7322306515006911407, guid: de120d1adf62a4c2bbc7e24fa697aa02,
        type: 3}
      time: 0.04
      eventEnabled: 0
      eventName: 
    - sprite: {fileID: -1015469632328910737, guid: de120d1adf62a4c2bbc7e24fa697aa02,
        type: 3}
      time: 0.04
      eventEnabled: 0
      eventName: 
    - sprite: {fileID: 6885120962640494187, guid: de120d1adf62a4c2bbc7e24fa697aa02,
        type: 3}
      time: 0.04
      eventEnabled: 0
      eventName: 
    - sprite: {fileID: -1312572536098942371, guid: de120d1adf62a4c2bbc7e24fa697aa02,
        type: 3}
      time: 0.04
      eventEnabled: 0
      eventName: 
    - sprite: {fileID: 3480067060150326531, guid: de120d1adf62a4c2bbc7e24fa697aa02,
        type: 3}
      time: 0.3
      eventEnabled: 0
      eventName: 
    name: splatter-1
    selectedIndex: 0
    newFramesTime: 0.05
    setFramesTime: 0.1
  - speedRatio: 1
    loop: 0
    frameToLoop: 0
    frameDatas:
    - sprite: {fileID: -3550089143654524330, guid: e6a2a843c64db4284a0ba842745e5ca8,
        type: 3}
      time: 0.04
      eventEnabled: 0
      eventName: 
    - sprite: {fileID: -363495792518107501, guid: e6a2a843c64db4284a0ba842745e5ca8,
        type: 3}
      time: 0.04
      eventEnabled: 0
      eventName: 
    - sprite: {fileID: 2724475662304862168, guid: e6a2a843c64db4284a0ba842745e5ca8,
        type: 3}
      time: 0.04
      eventEnabled: 0
      eventName: 
    - sprite: {fileID: 8072973353358439500, guid: e6a2a843c64db4284a0ba842745e5ca8,
        type: 3}
      time: 0.04
      eventEnabled: 0
      eventName: 
    - sprite: {fileID: 1370467061598939753, guid: e6a2a843c64db4284a0ba842745e5ca8,
        type: 3}
      time: 0.04
      eventEnabled: 0
      eventName: 
    - sprite: {fileID: -3342561059679376091, guid: e6a2a843c64db4284a0ba842745e5ca8,
        type: 3}
      time: 0.04
      eventEnabled: 0
      eventName: 
    - sprite: {fileID: 6835638371890158803, guid: e6a2a843c64db4284a0ba842745e5ca8,
        type: 3}
      time: 0.04
      eventEnabled: 0
      eventName: 
    - sprite: {fileID: 3560919676171968468, guid: e6a2a843c64db4284a0ba842745e5ca8,
        type: 3}
      time: 0.04
      eventEnabled: 0
      eventName: 
    - sprite: {fileID: -8996292467924162398, guid: e6a2a843c64db4284a0ba842745e5ca8,
        type: 3}
      time: 0.04
      eventEnabled: 0
      eventName: 
    - sprite: {fileID: 9136379307262328701, guid: e6a2a843c64db4284a0ba842745e5ca8,
        type: 3}
      time: 0.3
      eventEnabled: 0
      eventName: 
    name: splatter-3
    selectedIndex: 0
    newFramesTime: 0.05
    setFramesTime: 0.1
