%YAML 1.1
%TAG !u! tag:unity3d.com,2011:
--- !u!114 &11400000
MonoBehaviour:
  m_ObjectHideFlags: 0
  m_CorrespondingSourceObject: {fileID: 0}
  m_PrefabInstance: {fileID: 0}
  m_PrefabAsset: {fileID: 0}
  m_GameObject: {fileID: 0}
  m_Enabled: 1
  m_EditorHideFlags: 0
  m_Script: {fileID: 11500000, guid: 34404cb99b59bb543805a55e3c469d61, type: 3}
  m_Name: grassland-hex
  m_EditorClassIdentifier: 
  editorConfirmations: 1
  animations:
  - speedRatio: 1
    loop: 1
    frameToLoop: 0
    frameDatas:
    - sprite: {fileID: 21300000, guid: 0651f8effcd7b4306a63c9104cf7ea5d, type: 3}
      time: 0.06
      eventEnabled: 0
      eventName: 
    name: 1
    selectedIndex: 0
    newFramesTime: 0.05
    setFramesTime: 0.1
  - speedRatio: 1
    loop: 1
    frameToLoop: 0
    frameDatas:
    - sprite: {fileID: 21300000, guid: 94083302bbebf464fa322fd9577cb456, type: 3}
      time: 0.06
      eventEnabled: 0
      eventName: 
    name: 2
    selectedIndex: 0
    newFramesTime: 0.05
    setFramesTime: 0.1
  - speedRatio: 1
    loop: 1
    frameToLoop: 0
    frameDatas:
    - sprite: {fileID: 21300000, guid: a8bdc18c0fc6a4792baa1f4ce068c589, type: 3}
      time: 0.06
      eventEnabled: 0
      eventName: 
    name: 3
    selectedIndex: 0
    newFramesTime: 0.05
    setFramesTime: 0.1
