%YAML 1.1
%TAG !u! tag:unity3d.com,2011:
--- !u!114 &11400000
MonoBehaviour:
  m_ObjectHideFlags: 0
  m_CorrespondingSourceObject: {fileID: 0}
  m_PrefabInstance: {fileID: 0}
  m_PrefabAsset: {fileID: 0}
  m_GameObject: {fileID: 0}
  m_Enabled: 1
  m_EditorHideFlags: 0
  m_Script: {fileID: 11500000, guid: 34404cb99b59bb543805a55e3c469d61, type: 3}
  m_Name: grey-ing-icon-small
  m_EditorClassIdentifier: 
  editorConfirmations: 1
  animations:
  - speedRatio: 1
    loop: 0
    frameToLoop: 0
    frameDatas:
    - sprite: {fileID: 21300000, guid: ce4089c7f1577476a86f7830523ec6d2, type: 3}
      time: 0.04
      eventEnabled: 0
      eventName: 
    name: mana-shard
    selectedIndex: 0
    newFramesTime: 0.05
    setFramesTime: 0.1
  - speedRatio: 1
    loop: 0
    frameToLoop: 0
    frameDatas:
    - sprite: {fileID: 21300000, guid: 742bb3890066e42078ecdb0c2a784461, type: 3}
      time: 0.04
      eventEnabled: 0
      eventName: 
    name: shine-wire
    selectedIndex: 0
    newFramesTime: 0.05
    setFramesTime: 0.1
  - speedRatio: 1
    loop: 0
    frameToLoop: 0
    frameDatas:
    - sprite: {fileID: 21300000, guid: f133e8184d0a74c12ba80ec63cd5b5f6, type: 3}
      time: 0.04
      eventEnabled: 0
      eventName: 
    name: silver-chip
    selectedIndex: 0
    newFramesTime: 0.05
    setFramesTime: 0.1
  - speedRatio: 1
    loop: 0
    frameToLoop: 0
    frameDatas:
    - sprite: {fileID: 21300000, guid: 15cced01ff9fc4927b5ae97f344b960c, type: 3}
      time: 0.04
      eventEnabled: 0
      eventName: 
    name: demon-gem
    selectedIndex: 0
    newFramesTime: 0.05
    setFramesTime: 0.1
  - speedRatio: 1
    loop: 0
    frameToLoop: 0
    frameDatas:
    - sprite: {fileID: 21300000, guid: 0cffc7719997d4b168dffe282717d825, type: 3}
      time: 0.04
      eventEnabled: 0
      eventName: 
    name: mushplop
    selectedIndex: 0
    newFramesTime: 0.05
    setFramesTime: 0.1
  - speedRatio: 1
    loop: 0
    frameToLoop: 0
    frameDatas:
    - sprite: {fileID: 21300000, guid: 41ed18ad52f1843d4ade1b9745e10c5c, type: 3}
      time: 0.04
      eventEnabled: 0
      eventName: 
    name: wood-skull
    selectedIndex: 0
    newFramesTime: 0.05
    setFramesTime: 0.1
  - speedRatio: 1
    loop: 0
    frameToLoop: 0
    frameDatas:
    - sprite: {fileID: 21300000, guid: 8cff5d3936cbd4fdbb62f50680750369, type: 3}
      time: 0.04
      eventEnabled: 0
      eventName: 
    name: loaded-die
    selectedIndex: 0
    newFramesTime: 0.05
    setFramesTime: 0.1
  - speedRatio: 1
    loop: 0
    frameToLoop: 0
    frameDatas:
    - sprite: {fileID: 21300000, guid: bee9cb889b33e4bddb4f0bbc4a281c6e, type: 3}
      time: 0.04
      eventEnabled: 0
      eventName: 
    name: salt-conch
    selectedIndex: 0
    newFramesTime: 0.05
    setFramesTime: 0.1
  - speedRatio: 1
    loop: 0
    frameToLoop: 0
    frameDatas:
    - sprite: {fileID: 21300000, guid: d01f07462b56d4187821df7a1752459f, type: 3}
      time: 0.04
      eventEnabled: 0
      eventName: 
    name: lush-leaf
    selectedIndex: 0
    newFramesTime: 0.05
    setFramesTime: 0.1
  - speedRatio: 1
    loop: 0
    frameToLoop: 0
    frameDatas:
    - sprite: {fileID: 21300000, guid: eb8e76f71fc41488dae064e06e65aea1, type: 3}
      time: 0.04
      eventEnabled: 0
      eventName: 
    name: ruby-ring
    selectedIndex: 0
    newFramesTime: 0.05
    setFramesTime: 0.1
  - speedRatio: 1
    loop: 0
    frameToLoop: 0
    frameDatas:
    - sprite: {fileID: 21300000, guid: c47f93bf080fa4cd497ef610f2441c2e, type: 3}
      time: 0.04
      eventEnabled: 0
      eventName: 
    name: timber-ore
    selectedIndex: 0
    newFramesTime: 0.05
    setFramesTime: 0.1
  - speedRatio: 1
    loop: 0
    frameToLoop: 0
    frameDatas:
    - sprite: {fileID: 21300000, guid: 505b1fe8c93b84ed9a83e54a02aa456b, type: 3}
      time: 0.04
      eventEnabled: 0
      eventName: 
    name: tomana-sap
    selectedIndex: 0
    newFramesTime: 0.05
    setFramesTime: 0.1
  - speedRatio: 1
    loop: 0
    frameToLoop: 0
    frameDatas:
    - sprite: {fileID: 21300000, guid: a885d4a3c92ec4bba80ebc874f18f722, type: 3}
      time: 0.04
      eventEnabled: 0
      eventName: 
    name: dragon-nail
    selectedIndex: 0
    newFramesTime: 0.05
    setFramesTime: 0.1
  - speedRatio: 1
    loop: 0
    frameToLoop: 0
    frameDatas:
    - sprite: {fileID: 21300000, guid: c4923bde231894751aa85dc1c08f7bb6, type: 3}
      time: 0.04
      eventEnabled: 0
      eventName: 
    name: sea-claw
    selectedIndex: 0
    newFramesTime: 0.05
    setFramesTime: 0.1
  - speedRatio: 1
    loop: 0
    frameToLoop: 0
    frameDatas:
    - sprite: {fileID: 21300000, guid: 56e61c0a4b33b42bba3094eb232063ab, type: 3}
      time: 0.04
      eventEnabled: 0
      eventName: 
    name: still-plume
    selectedIndex: 0
    newFramesTime: 0.05
    setFramesTime: 0.1
  - speedRatio: 1
    loop: 0
    frameToLoop: 0
    frameDatas:
    - sprite: {fileID: 21300000, guid: 74965cb9aa9c048fe9e42847f057587a, type: 3}
      time: 0.04
      eventEnabled: 0
      eventName: 
    name: azure-ingot
    selectedIndex: 0
    newFramesTime: 0.05
    setFramesTime: 0.1
  - speedRatio: 1
    loop: 0
    frameToLoop: 0
    frameDatas:
    - sprite: {fileID: 21300000, guid: 066e04c6d75644d0c8c56466fdaddaa3, type: 3}
      time: 0.04
      eventEnabled: 0
      eventName: 
    name: rock-frost
    selectedIndex: 0
    newFramesTime: 0.05
    setFramesTime: 0.1
  - speedRatio: 1
    loop: 0
    frameToLoop: 0
    frameDatas:
    - sprite: {fileID: 21300000, guid: 5a69d31380ec64b90b9288b4dfe976c4, type: 3}
      time: 0.04
      eventEnabled: 0
      eventName: 
    name: rigid-screw
    selectedIndex: 0
    newFramesTime: 0.05
    setFramesTime: 0.1
  - speedRatio: 1
    loop: 0
    frameToLoop: 0
    frameDatas:
    - sprite: {fileID: 21300000, guid: d6172192d13bf47e19c362c22d78439a, type: 3}
      time: 0.04
      eventEnabled: 0
      eventName: 
    name: slush-petal
    selectedIndex: 0
    newFramesTime: 0.05
    setFramesTime: 0.1
  - speedRatio: 1
    loop: 0
    frameToLoop: 0
    frameDatas:
    - sprite: {fileID: 21300000, guid: d5ed811d994114dcb844cdb49de37ac7, type: 3}
      time: 0.04
      eventEnabled: 0
      eventName: 
    name: aged-scale
    selectedIndex: 0
    newFramesTime: 0.05
    setFramesTime: 0.1
  - speedRatio: 1
    loop: 0
    frameToLoop: 0
    frameDatas:
    - sprite: {fileID: 21300000, guid: d6d6826b257c04aeb98ef5533695dab0, type: 3}
      time: 0.04
      eventEnabled: 0
      eventName: 
    name: manic-dust
    selectedIndex: 0
    newFramesTime: 0.05
    setFramesTime: 0.1
