%YAML 1.1
%TAG !u! tag:unity3d.com,2011:
--- !u!114 &11400000
MonoBehaviour:
  m_ObjectHideFlags: 0
  m_CorrespondingSourceObject: {fileID: 0}
  m_PrefabInstance: {fileID: 0}
  m_PrefabAsset: {fileID: 0}
  m_GameObject: {fileID: 0}
  m_Enabled: 1
  m_EditorHideFlags: 0
  m_Script: {fileID: 11500000, guid: 34404cb99b59bb543805a55e3c469d61, type: 3}
  m_Name: hell-fire
  m_EditorClassIdentifier: 
  editorConfirmations: 1
  animations:
  - speedRatio: 1
    loop: 1
    frameToLoop: 0
    frameDatas:
    - sprite: {fileID: 5866991756821523221, guid: b1e101cb92ae3194c8a0cfb09f4322bf,
        type: 3}
      time: 0.04
      eventEnabled: 0
      eventName: 
    - sprite: {fileID: 6759028994759754854, guid: b1e101cb92ae3194c8a0cfb09f4322bf,
        type: 3}
      time: 0.04
      eventEnabled: 0
      eventName: 
    - sprite: {fileID: 1966534103018046094, guid: b1e101cb92ae3194c8a0cfb09f4322bf,
        type: 3}
      time: 0.04
      eventEnabled: 0
      eventName: 
    - sprite: {fileID: 3411116113939917615, guid: b1e101cb92ae3194c8a0cfb09f4322bf,
        type: 3}
      time: 0.04
      eventEnabled: 0
      eventName: 
    - sprite: {fileID: -4164018737038355807, guid: b1e101cb92ae3194c8a0cfb09f4322bf,
        type: 3}
      time: 0.04
      eventEnabled: 0
      eventName: 
    - sprite: {fileID: 4785579042667426355, guid: b1e101cb92ae3194c8a0cfb09f4322bf,
        type: 3}
      time: 0.04
      eventEnabled: 0
      eventName: 
    - sprite: {fileID: -6930611839371971770, guid: b1e101cb92ae3194c8a0cfb09f4322bf,
        type: 3}
      time: 0.04
      eventEnabled: 0
      eventName: 
    - sprite: {fileID: -6651768382726936369, guid: b1e101cb92ae3194c8a0cfb09f4322bf,
        type: 3}
      time: 0.04
      eventEnabled: 0
      eventName: 
    - sprite: {fileID: -920064334626977813, guid: b1e101cb92ae3194c8a0cfb09f4322bf,
        type: 3}
      time: 0.12
      eventEnabled: 0
      eventName: 
    - sprite: {fileID: 2647112600184363925, guid: b1e101cb92ae3194c8a0cfb09f4322bf,
        type: 3}
      time: 0.16
      eventEnabled: 0
      eventName: 
    - sprite: {fileID: 2199147784299698752, guid: b1e101cb92ae3194c8a0cfb09f4322bf,
        type: 3}
      time: 0.12
      eventEnabled: 0
      eventName: 
    name: bullet-ping
    selectedIndex: 0
    newFramesTime: 0.05
    setFramesTime: 0.1
