%YAML 1.1
%TAG !u! tag:unity3d.com,2011:
--- !u!114 &11400000
MonoBehaviour:
  m_ObjectHideFlags: 0
  m_CorrespondingSourceObject: {fileID: 0}
  m_PrefabInstance: {fileID: 0}
  m_PrefabAsset: {fileID: 0}
  m_GameObject: {fileID: 0}
  m_Enabled: 1
  m_EditorHideFlags: 0
  m_Script: {fileID: 11500000, guid: 34404cb99b59bb543805a55e3c469d61, type: 3}
  m_Name: hero-avatar-big
  m_EditorClassIdentifier: 
  editorConfirmations: 1
  animations:
  - speedRatio: 1
    loop: 1
    frameToLoop: 0
    frameDatas:
    - sprite: {fileID: 21300000, guid: 91553bb82e7a5466baf84f02195cecd6, type: 3}
      time: 0.06
      eventEnabled: 0
      eventName: 
    name: mereena
    selectedIndex: 0
    newFramesTime: 0.05
    setFramesTime: 0.1
  - speedRatio: 1
    loop: 1
    frameToLoop: 0
    frameDatas:
    - sprite: {fileID: 21300000, guid: 27d922ef1707f440f8fe9a7fc77647b3, type: 3}
      time: 0.06
      eventEnabled: 0
      eventName: 
    name: quill
    selectedIndex: 0
    newFramesTime: 0.05
    setFramesTime: 0.1
  - speedRatio: 1
    loop: 1
    frameToLoop: 0
    frameDatas:
    - sprite: {fileID: 21300000, guid: da49b58452d094d6dad17836479b0319, type: 3}
      time: 0.06
      eventEnabled: 0
      eventName: 
    name: redcroft
    selectedIndex: 0
    newFramesTime: 0.05
    setFramesTime: 0.1
  - speedRatio: 1
    loop: 1
    frameToLoop: 0
    frameDatas:
    - sprite: {fileID: 21300000, guid: 0788aeb8536524c219a51b436d494b80, type: 3}
      time: 0.06
      eventEnabled: 0
      eventName: 
    name: seto
    selectedIndex: 0
    newFramesTime: 0.05
    setFramesTime: 0.1
  - speedRatio: 1
    loop: 1
    frameToLoop: 0
    frameDatas:
    - sprite: {fileID: 21300000, guid: a00b1798ac5f3475c97d3fa80eeb10b7, type: 3}
      time: 0.06
      eventEnabled: 0
      eventName: 
    name: violet
    selectedIndex: 0
    newFramesTime: 0.05
    setFramesTime: 0.1
