%YAML 1.1
%TAG !u! tag:unity3d.com,2011:
--- !u!114 &11400000
MonoBehaviour:
  m_ObjectHideFlags: 0
  m_CorrespondingSourceObject: {fileID: 0}
  m_PrefabInstance: {fileID: 0}
  m_PrefabAsset: {fileID: 0}
  m_GameObject: {fileID: 0}
  m_Enabled: 1
  m_EditorHideFlags: 0
  m_Script: {fileID: 11500000, guid: 34404cb99b59bb543805a55e3c469d61, type: 3}
  m_Name: hex-tile-selected
  m_EditorClassIdentifier: 
  editorConfirmations: 1
  animations:
  - speedRatio: 1
    loop: 1
    frameToLoop: 0
    frameDatas:
    - sprite: {fileID: 6553634900612046268, guid: 513f249b14e274ba8966a2d2ba06164f,
        type: 3}
      time: 0.04
      eventEnabled: 0
      eventName: 
    - sprite: {fileID: -7113406344553074454, guid: 513f249b14e274ba8966a2d2ba06164f,
        type: 3}
      time: 0.04
      eventEnabled: 0
      eventName: 
    - sprite: {fileID: 4535172798132687349, guid: 513f249b14e274ba8966a2d2ba06164f,
        type: 3}
      time: 0.04
      eventEnabled: 0
      eventName: 
    - sprite: {fileID: -6501210468169390364, guid: 513f249b14e274ba8966a2d2ba06164f,
        type: 3}
      time: 0.04
      eventEnabled: 0
      eventName: 
    - sprite: {fileID: -5014127518460975046, guid: 513f249b14e274ba8966a2d2ba06164f,
        type: 3}
      time: 0.04
      eventEnabled: 0
      eventName: 
    - sprite: {fileID: -8110774114201787698, guid: 513f249b14e274ba8966a2d2ba06164f,
        type: 3}
      time: 0.04
      eventEnabled: 0
      eventName: 
    - sprite: {fileID: 7085309023642845515, guid: 513f249b14e274ba8966a2d2ba06164f,
        type: 3}
      time: 0.04
      eventEnabled: 0
      eventName: 
    - sprite: {fileID: -2712380631430673966, guid: 513f249b14e274ba8966a2d2ba06164f,
        type: 3}
      time: 0.04
      eventEnabled: 0
      eventName: 
    - sprite: {fileID: 5521087918544934287, guid: 513f249b14e274ba8966a2d2ba06164f,
        type: 3}
      time: 0.04
      eventEnabled: 0
      eventName: 
    - sprite: {fileID: 3797764932370030961, guid: 513f249b14e274ba8966a2d2ba06164f,
        type: 3}
      time: 0.04
      eventEnabled: 0
      eventName: 
    - sprite: {fileID: -1722734046324478482, guid: 513f249b14e274ba8966a2d2ba06164f,
        type: 3}
      time: 0.04
      eventEnabled: 0
      eventName: 
    - sprite: {fileID: -3997410307663008766, guid: 513f249b14e274ba8966a2d2ba06164f,
        type: 3}
      time: 0.04
      eventEnabled: 0
      eventName: 
    - sprite: {fileID: -1627126791920801852, guid: 513f249b14e274ba8966a2d2ba06164f,
        type: 3}
      time: 0.04
      eventEnabled: 0
      eventName: 
    - sprite: {fileID: 1789155140653661947, guid: 513f249b14e274ba8966a2d2ba06164f,
        type: 3}
      time: 0.04
      eventEnabled: 0
      eventName: 
    - sprite: {fileID: -1414251347990282587, guid: 513f249b14e274ba8966a2d2ba06164f,
        type: 3}
      time: 0.04
      eventEnabled: 0
      eventName: 
    name: animate
    selectedIndex: 0
    newFramesTime: 0.05
    setFramesTime: 0.04
