%YAML 1.1
%TAG !u! tag:unity3d.com,2011:
--- !u!114 &11400000
MonoBehaviour:
  m_ObjectHideFlags: 0
  m_CorrespondingSourceObject: {fileID: 0}
  m_PrefabInstance: {fileID: 0}
  m_PrefabAsset: {fileID: 0}
  m_GameObject: {fileID: 0}
  m_Enabled: 1
  m_EditorHideFlags: 0
  m_Script: {fileID: 11500000, guid: 34404cb99b59bb543805a55e3c469d61, type: 3}
  m_Name: hex-tile
  m_EditorClassIdentifier: 
  editorConfirmations: 1
  animations:
  - speedRatio: 1
    loop: 0
    frameToLoop: 0
    frameDatas:
    - sprite: {fileID: 21300000, guid: b698cf547cbc67f42b8a6f9885c4e597, type: 3}
      time: 0.04
      eventEnabled: 0
      eventName: 
    name: beachstone-1
    selectedIndex: 0
    newFramesTime: 0.05
    setFramesTime: 0.1
  - speedRatio: 1
    loop: 0
    frameToLoop: 0
    frameDatas:
    - sprite: {fileID: 21300000, guid: 33d68779e07cdc14488af3c9ff626543, type: 3}
      time: 0.04
      eventEnabled: 0
      eventName: 
    name: beachstone-2
    selectedIndex: 0
    newFramesTime: 0.05
    setFramesTime: 0.1
  - speedRatio: 1
    loop: 0
    frameToLoop: 0
    frameDatas:
    - sprite: {fileID: 21300000, guid: d1a82292ff3cf4d47a4d251b6d2c392c, type: 3}
      time: 0.04
      eventEnabled: 0
      eventName: 
    name: beachstone-3
    selectedIndex: 0
    newFramesTime: 0.05
    setFramesTime: 0.1
  - speedRatio: 1
    loop: 0
    frameToLoop: 0
    frameDatas:
    - sprite: {fileID: 21300000, guid: 0b1e18c71f907e0428ab10b460279e09, type: 3}
      time: 0.04
      eventEnabled: 0
      eventName: 
    name: casinocarpet-1
    selectedIndex: 0
    newFramesTime: 0.05
    setFramesTime: 0.1
  - speedRatio: 1
    loop: 0
    frameToLoop: 0
    frameDatas:
    - sprite: {fileID: 21300000, guid: 117aaa32468435f4da30486309be587d, type: 3}
      time: 0.04
      eventEnabled: 0
      eventName: 
    name: casinocarpet-2
    selectedIndex: 0
    newFramesTime: 0.05
    setFramesTime: 0.1
  - speedRatio: 1
    loop: 0
    frameToLoop: 0
    frameDatas:
    - sprite: {fileID: 21300000, guid: fe5006a2fce60ca4aa510d654054b83e, type: 3}
      time: 0.04
      eventEnabled: 0
      eventName: 
    name: casinofloor-1
    selectedIndex: 0
    newFramesTime: 0.05
    setFramesTime: 0.1
  - speedRatio: 1
    loop: 0
    frameToLoop: 0
    frameDatas:
    - sprite: {fileID: 21300000, guid: c89c9ef4f46af6b4b8b127e4f0c4f644, type: 3}
      time: 0.04
      eventEnabled: 0
      eventName: 
    name: casinofloor-2
    selectedIndex: 0
    newFramesTime: 0.05
    setFramesTime: 0.1
  - speedRatio: 1
    loop: 0
    frameToLoop: 0
    frameDatas:
    - sprite: {fileID: 21300000, guid: 06c1086caa6fc154c97b94e13a71fd91, type: 3}
      time: 0.04
      eventEnabled: 0
      eventName: 
    name: casinofloor-3
    selectedIndex: 0
    newFramesTime: 0.05
    setFramesTime: 0.1
  - speedRatio: 1
    loop: 0
    frameToLoop: 0
    frameDatas:
    - sprite: {fileID: 21300000, guid: 0283681df41303d478d45e7a8c462453, type: 3}
      time: 0.04
      eventEnabled: 0
      eventName: 
    name: casinofloorb-1
    selectedIndex: 0
    newFramesTime: 0.05
    setFramesTime: 0.1
  - speedRatio: 1
    loop: 0
    frameToLoop: 0
    frameDatas:
    - sprite: {fileID: 21300000, guid: 1c20e4137c7bb2b4b9887ece70bc9012, type: 3}
      time: 0.04
      eventEnabled: 0
      eventName: 
    name: casinofloorb-2
    selectedIndex: 0
    newFramesTime: 0.05
    setFramesTime: 0.1
  - speedRatio: 1
    loop: 0
    frameToLoop: 0
    frameDatas:
    - sprite: {fileID: 21300000, guid: e8418f7da41df644aa20a482c097cf92, type: 3}
      time: 0.04
      eventEnabled: 0
      eventName: 
    name: casinofloorb-3
    selectedIndex: 0
    newFramesTime: 0.05
    setFramesTime: 0.1
  - speedRatio: 1
    loop: 0
    frameToLoop: 0
    frameDatas:
    - sprite: {fileID: 21300000, guid: 7dc6432e51bdbec40acea9225f9764b2, type: 3}
      time: 0.04
      eventEnabled: 0
      eventName: 
    name: cavefloor-1
    selectedIndex: 0
    newFramesTime: 0.05
    setFramesTime: 0.1
  - speedRatio: 1
    loop: 0
    frameToLoop: 0
    frameDatas:
    - sprite: {fileID: 21300000, guid: 64154bdf673977f4d92c6c101728f425, type: 3}
      time: 0.04
      eventEnabled: 0
      eventName: 
    name: cavefloor-2
    selectedIndex: 0
    newFramesTime: 0.05
    setFramesTime: 0.1
  - speedRatio: 1
    loop: 0
    frameToLoop: 0
    frameDatas:
    - sprite: {fileID: 21300000, guid: 166a7fb8b4d038e4794483126b031973, type: 3}
      time: 0.04
      eventEnabled: 0
      eventName: 
    name: cavefloor-3
    selectedIndex: 0
    newFramesTime: 0.05
    setFramesTime: 0.1
  - speedRatio: 1
    loop: 0
    frameToLoop: 0
    frameDatas:
    - sprite: {fileID: 21300000, guid: a719a98222d631345be73caae14d3634, type: 3}
      time: 0.04
      eventEnabled: 0
      eventName: 
    name: citybricka-1
    selectedIndex: 0
    newFramesTime: 0.05
    setFramesTime: 0.1
  - speedRatio: 1
    loop: 0
    frameToLoop: 0
    frameDatas:
    - sprite: {fileID: 21300000, guid: eb16b2ef7e4880b4581e5e6e6336353f, type: 3}
      time: 0.04
      eventEnabled: 0
      eventName: 
    name: citybricka-2
    selectedIndex: 0
    newFramesTime: 0.05
    setFramesTime: 0.1
  - speedRatio: 1
    loop: 0
    frameToLoop: 0
    frameDatas:
    - sprite: {fileID: 21300000, guid: e939093ed4cfdb5438a0321ad78f88ef, type: 3}
      time: 0.04
      eventEnabled: 0
      eventName: 
    name: citybricka-3
    selectedIndex: 0
    newFramesTime: 0.05
    setFramesTime: 0.1
  - speedRatio: 1
    loop: 0
    frameToLoop: 0
    frameDatas:
    - sprite: {fileID: 21300000, guid: 1d327e775822d004c91b7d0a1304a31d, type: 3}
      time: 0.04
      eventEnabled: 0
      eventName: 
    name: citybrickb-1
    selectedIndex: 0
    newFramesTime: 0.05
    setFramesTime: 0.1
  - speedRatio: 1
    loop: 0
    frameToLoop: 0
    frameDatas:
    - sprite: {fileID: 21300000, guid: 752bb59fa5b649a41b65e35765c8452d, type: 3}
      time: 0.04
      eventEnabled: 0
      eventName: 
    name: citybrickb-2
    selectedIndex: 0
    newFramesTime: 0.05
    setFramesTime: 0.1
  - speedRatio: 1
    loop: 0
    frameToLoop: 0
    frameDatas:
    - sprite: {fileID: 21300000, guid: cbc8170c984734f40adf346ae9fadea5, type: 3}
      time: 0.04
      eventEnabled: 0
      eventName: 
    name: citybrickb-3
    selectedIndex: 0
    newFramesTime: 0.05
    setFramesTime: 0.1
  - speedRatio: 1
    loop: 0
    frameToLoop: 0
    frameDatas:
    - sprite: {fileID: 21300000, guid: 78ecece454126e647ab18360fd9aac10, type: 3}
      time: 0.04
      eventEnabled: 0
      eventName: 
    name: citygrass-1
    selectedIndex: 0
    newFramesTime: 0.05
    setFramesTime: 0.1
  - speedRatio: 1
    loop: 0
    frameToLoop: 0
    frameDatas:
    - sprite: {fileID: 21300000, guid: 00d0c59269f7bc64ab17cc4231b80fda, type: 3}
      time: 0.04
      eventEnabled: 0
      eventName: 
    name: citygrass-2
    selectedIndex: 0
    newFramesTime: 0.05
    setFramesTime: 0.1
  - speedRatio: 1
    loop: 0
    frameToLoop: 0
    frameDatas:
    - sprite: {fileID: 21300000, guid: 638ed12cae21dc74798abea359076385, type: 3}
      time: 0.04
      eventEnabled: 0
      eventName: 
    name: citygrass-3
    selectedIndex: 0
    newFramesTime: 0.05
    setFramesTime: 0.1
  - speedRatio: 1
    loop: 0
    frameToLoop: 0
    frameDatas:
    - sprite: {fileID: 21300000, guid: 261e7f1c9a0704c40bfad128a5701790, type: 3}
      time: 0.04
      eventEnabled: 0
      eventName: 
    name: citystone-1
    selectedIndex: 0
    newFramesTime: 0.05
    setFramesTime: 0.1
  - speedRatio: 1
    loop: 0
    frameToLoop: 0
    frameDatas:
    - sprite: {fileID: 21300000, guid: f1055a5260816854885a4c6d89545cc9, type: 3}
      time: 0.04
      eventEnabled: 0
      eventName: 
    name: citystone-2
    selectedIndex: 0
    newFramesTime: 0.05
    setFramesTime: 0.1
  - speedRatio: 1
    loop: 0
    frameToLoop: 0
    frameDatas:
    - sprite: {fileID: 21300000, guid: 1e8fb21870f1c784ca54477ce4367e37, type: 3}
      time: 0.04
      eventEnabled: 0
      eventName: 
    name: citystone-3
    selectedIndex: 0
    newFramesTime: 0.05
    setFramesTime: 0.1
  - speedRatio: 1
    loop: 0
    frameToLoop: 0
    frameDatas:
    - sprite: {fileID: 21300000, guid: 2ede9532a55119442b27a1d858ad5b7b, type: 3}
      time: 0.04
      eventEnabled: 0
      eventName: 
    name: citystoneb-1
    selectedIndex: 0
    newFramesTime: 0.05
    setFramesTime: 0.1
  - speedRatio: 1
    loop: 0
    frameToLoop: 0
    frameDatas:
    - sprite: {fileID: 21300000, guid: 926bc3f7af7500a40ba17ec0c0459112, type: 3}
      time: 0.04
      eventEnabled: 0
      eventName: 
    name: citystoneb-2
    selectedIndex: 0
    newFramesTime: 0.05
    setFramesTime: 0.1
  - speedRatio: 1
    loop: 0
    frameToLoop: 0
    frameDatas:
    - sprite: {fileID: 21300000, guid: 9b1e2009271e3d1439eb8e1ebb76f396, type: 3}
      time: 0.04
      eventEnabled: 0
      eventName: 
    name: citystoneb-3
    selectedIndex: 0
    newFramesTime: 0.05
    setFramesTime: 0.1
  - speedRatio: 1
    loop: 0
    frameToLoop: 0
    frameDatas:
    - sprite: {fileID: 21300000, guid: 085761d1f4f9efe4c91c3c1d48ecaa49, type: 3}
      time: 0.04
      eventEnabled: 0
      eventName: 
    name: darkcarpet-1
    selectedIndex: 0
    newFramesTime: 0.05
    setFramesTime: 0.1
  - speedRatio: 1
    loop: 0
    frameToLoop: 0
    frameDatas:
    - sprite: {fileID: 21300000, guid: 3a69b91c230f4164b94d0a9913a67152, type: 3}
      time: 0.04
      eventEnabled: 0
      eventName: 
    name: darkcarpet-2
    selectedIndex: 0
    newFramesTime: 0.05
    setFramesTime: 0.1
  - speedRatio: 1
    loop: 0
    frameToLoop: 0
    frameDatas:
    - sprite: {fileID: 21300000, guid: bbd7fe4f1f6129445a37f3d92814ed1f, type: 3}
      time: 0.04
      eventEnabled: 0
      eventName: 
    name: darkcarpet-3
    selectedIndex: 0
    newFramesTime: 0.05
    setFramesTime: 0.1
  - speedRatio: 1
    loop: 0
    frameToLoop: 0
    frameDatas:
    - sprite: {fileID: 21300000, guid: 893ad6c337ee68f40936e9d48882c9e2, type: 3}
      time: 0.04
      eventEnabled: 0
      eventName: 
    name: deepminestone-1
    selectedIndex: 0
    newFramesTime: 0.05
    setFramesTime: 0.1
  - speedRatio: 1
    loop: 0
    frameToLoop: 0
    frameDatas:
    - sprite: {fileID: 21300000, guid: aa94e6b96ec74f745a9924a530acf51a, type: 3}
      time: 0.04
      eventEnabled: 0
      eventName: 
    name: deepminestone-2
    selectedIndex: 0
    newFramesTime: 0.05
    setFramesTime: 0.1
  - speedRatio: 1
    loop: 0
    frameToLoop: 0
    frameDatas:
    - sprite: {fileID: 21300000, guid: 9cef50e3fa1a4a34aaccbf18e780ca1d, type: 3}
      time: 0.04
      eventEnabled: 0
      eventName: 
    name: deepminestone-3
    selectedIndex: 0
    newFramesTime: 0.05
    setFramesTime: 0.1
  - speedRatio: 1
    loop: 1
    frameToLoop: 0
    frameDatas:
    - sprite: {fileID: 21300000, guid: 24ff174e69af1bb48bf0dbe00c7e8a37, type: 3}
      time: 0.04
      eventEnabled: 0
      eventName: 
    name: flbricka-1
    selectedIndex: 0
    newFramesTime: 0.05
    setFramesTime: 0.1
  - speedRatio: 1
    loop: 1
    frameToLoop: 0
    frameDatas:
    - sprite: {fileID: 21300000, guid: e73ae47764ae7184489243928ec25fbf, type: 3}
      time: 0.04
      eventEnabled: 0
      eventName: 
    name: flbricka-2
    selectedIndex: 0
    newFramesTime: 0.05
    setFramesTime: 0.1
  - speedRatio: 1
    loop: 1
    frameToLoop: 0
    frameDatas:
    - sprite: {fileID: 21300000, guid: dd687227cfd1cc741901c702b3e8e3e9, type: 3}
      time: 0.04
      eventEnabled: 0
      eventName: 
    name: flbricka-3
    selectedIndex: 0
    newFramesTime: 0.05
    setFramesTime: 0.1
  - speedRatio: 1
    loop: 1
    frameToLoop: 0
    frameDatas:
    - sprite: {fileID: 21300000, guid: 11a926943a30c6c449b7fcd23151902b, type: 3}
      time: 0.04
      eventEnabled: 0
      eventName: 
    name: flgardenstone-1
    selectedIndex: 0
    newFramesTime: 0.05
    setFramesTime: 0.1
  - speedRatio: 1
    loop: 1
    frameToLoop: 0
    frameDatas:
    - sprite: {fileID: 21300000, guid: 882eeaa5b50dfde4b82c34245efd2e21, type: 3}
      time: 0.04
      eventEnabled: 0
      eventName: 
    name: flgardenstone-2
    selectedIndex: 0
    newFramesTime: 0.05
    setFramesTime: 0.1
  - speedRatio: 1
    loop: 1
    frameToLoop: 0
    frameDatas:
    - sprite: {fileID: 21300000, guid: 57a4f82e954a9da4aa15c19afb27fb84, type: 3}
      time: 0.04
      eventEnabled: 0
      eventName: 
    name: flgardenstone-3
    selectedIndex: 0
    newFramesTime: 0.05
    setFramesTime: 0.1
  - speedRatio: 1
    loop: 1
    frameToLoop: 0
    frameDatas:
    - sprite: {fileID: 21300000, guid: 5b34d3e7648fc154bb611b0a01c640dd, type: 3}
      time: 0.04
      eventEnabled: 0
      eventName: 
    name: flgrass-1
    selectedIndex: 0
    newFramesTime: 0.05
    setFramesTime: 0.1
  - speedRatio: 1
    loop: 1
    frameToLoop: 0
    frameDatas:
    - sprite: {fileID: 21300000, guid: 351adf4a257d2b645b08a6eac6baab7c, type: 3}
      time: 0.04
      eventEnabled: 0
      eventName: 
    name: flgrass-2
    selectedIndex: 0
    newFramesTime: 0.05
    setFramesTime: 0.1
  - speedRatio: 1
    loop: 1
    frameToLoop: 0
    frameDatas:
    - sprite: {fileID: 21300000, guid: 289f751a6885f0847b1d2b3f4b6d9a8e, type: 3}
      time: 0.04
      eventEnabled: 0
      eventName: 
    name: flgrass-3
    selectedIndex: 0
    newFramesTime: 0.05
    setFramesTime: 0.1
  - speedRatio: 1
    loop: 1
    frameToLoop: 0
    frameDatas:
    - sprite: {fileID: 21300000, guid: 1dd31db1449135947a769e85dfaa6c0c, type: 3}
      time: 0.04
      eventEnabled: 0
      eventName: 
    name: flstone-1
    selectedIndex: 0
    newFramesTime: 0.05
    setFramesTime: 0.1
  - speedRatio: 1
    loop: 1
    frameToLoop: 0
    frameDatas:
    - sprite: {fileID: 21300000, guid: 65c33df4a8906a84fa7ea69a9955bb07, type: 3}
      time: 0.04
      eventEnabled: 0
      eventName: 
    name: flstone-2
    selectedIndex: 0
    newFramesTime: 0.05
    setFramesTime: 0.1
  - speedRatio: 1
    loop: 1
    frameToLoop: 0
    frameDatas:
    - sprite: {fileID: 21300000, guid: 9b998a6ecdfb1984d8032c17645c21de, type: 3}
      time: 0.04
      eventEnabled: 0
      eventName: 
    name: flstone-3
    selectedIndex: 0
    newFramesTime: 0.05
    setFramesTime: 0.1
  - speedRatio: 1
    loop: 1
    frameToLoop: 0
    frameDatas:
    - sprite: {fileID: 21300000, guid: a2401e33b4a01fb4d8c742f67a3f4e51, type: 3}
      time: 0.04
      eventEnabled: 0
      eventName: 
    name: flstoneb-1
    selectedIndex: 0
    newFramesTime: 0.05
    setFramesTime: 0.1
  - speedRatio: 1
    loop: 1
    frameToLoop: 0
    frameDatas:
    - sprite: {fileID: 21300000, guid: 477901fc7c60d764e82f7a234b0119f9, type: 3}
      time: 0.04
      eventEnabled: 0
      eventName: 
    name: flstoneb-2
    selectedIndex: 0
    newFramesTime: 0.05
    setFramesTime: 0.1
  - speedRatio: 1
    loop: 1
    frameToLoop: 0
    frameDatas:
    - sprite: {fileID: 21300000, guid: 1e2e107672dac1d4e9da905c95125d9c, type: 3}
      time: 0.04
      eventEnabled: 0
      eventName: 
    name: flstoneb-3
    selectedIndex: 0
    newFramesTime: 0.05
    setFramesTime: 0.1
  - speedRatio: 1
    loop: 1
    frameToLoop: 0
    frameDatas:
    - sprite: {fileID: -3179362301190288797, guid: 7c0eac909d30e0d4bbecf186b2f1cddd,
        type: 3}
      time: 0.06
      eventEnabled: 0
      eventName: 
    - sprite: {fileID: 8423422161000271072, guid: 7c0eac909d30e0d4bbecf186b2f1cddd,
        type: 3}
      time: 0.06
      eventEnabled: 0
      eventName: 
    - sprite: {fileID: 6428338132838150984, guid: 7c0eac909d30e0d4bbecf186b2f1cddd,
        type: 3}
      time: 0.06
      eventEnabled: 0
      eventName: 
    - sprite: {fileID: -267204171576860674, guid: 7c0eac909d30e0d4bbecf186b2f1cddd,
        type: 3}
      time: 0.06
      eventEnabled: 0
      eventName: 
    - sprite: {fileID: 3373469810171129089, guid: 7c0eac909d30e0d4bbecf186b2f1cddd,
        type: 3}
      time: 0.06
      eventEnabled: 0
      eventName: 
    - sprite: {fileID: 4074115188918145299, guid: 7c0eac909d30e0d4bbecf186b2f1cddd,
        type: 3}
      time: 0.06
      eventEnabled: 0
      eventName: 
    - sprite: {fileID: 7130892772944999878, guid: 7c0eac909d30e0d4bbecf186b2f1cddd,
        type: 3}
      time: 0.06
      eventEnabled: 0
      eventName: 
    - sprite: {fileID: -2909978356487287199, guid: 7c0eac909d30e0d4bbecf186b2f1cddd,
        type: 3}
      time: 0.06
      eventEnabled: 0
      eventName: 
    - sprite: {fileID: 5739903809673646093, guid: 7c0eac909d30e0d4bbecf186b2f1cddd,
        type: 3}
      time: 0.06
      eventEnabled: 0
      eventName: 
    - sprite: {fileID: -3481563284883635320, guid: 7c0eac909d30e0d4bbecf186b2f1cddd,
        type: 3}
      time: 0.06
      eventEnabled: 0
      eventName: 
    - sprite: {fileID: -4606773988600764769, guid: 7c0eac909d30e0d4bbecf186b2f1cddd,
        type: 3}
      time: 0.06
      eventEnabled: 0
      eventName: 
    - sprite: {fileID: 569913438430259274, guid: 7c0eac909d30e0d4bbecf186b2f1cddd,
        type: 3}
      time: 0.06
      eventEnabled: 0
      eventName: 
    name: fountain-1
    selectedIndex: 0
    newFramesTime: 0.05
    setFramesTime: 0.06
  - speedRatio: 1
    loop: 1
    frameToLoop: 0
    frameDatas:
    - sprite: {fileID: 4184781863778305419, guid: ff53915b89904c544bd69f570568c217,
        type: 3}
      time: 0.06
      eventEnabled: 0
      eventName: 
    - sprite: {fileID: 6315293372935370500, guid: ff53915b89904c544bd69f570568c217,
        type: 3}
      time: 0.06
      eventEnabled: 0
      eventName: 
    - sprite: {fileID: -1187841558553399751, guid: ff53915b89904c544bd69f570568c217,
        type: 3}
      time: 0.06
      eventEnabled: 0
      eventName: 
    - sprite: {fileID: -8033765039724922168, guid: ff53915b89904c544bd69f570568c217,
        type: 3}
      time: 0.06
      eventEnabled: 0
      eventName: 
    - sprite: {fileID: -3227584628766180179, guid: ff53915b89904c544bd69f570568c217,
        type: 3}
      time: 0.06
      eventEnabled: 0
      eventName: 
    - sprite: {fileID: 8227228366555227909, guid: ff53915b89904c544bd69f570568c217,
        type: 3}
      time: 0.06
      eventEnabled: 0
      eventName: 
    - sprite: {fileID: -3136307588435322690, guid: ff53915b89904c544bd69f570568c217,
        type: 3}
      time: 0.06
      eventEnabled: 0
      eventName: 
    - sprite: {fileID: 5027608269469579092, guid: ff53915b89904c544bd69f570568c217,
        type: 3}
      time: 0.06
      eventEnabled: 0
      eventName: 
    - sprite: {fileID: -741727872041050045, guid: ff53915b89904c544bd69f570568c217,
        type: 3}
      time: 0.06
      eventEnabled: 0
      eventName: 
    - sprite: {fileID: 8620558250733728870, guid: ff53915b89904c544bd69f570568c217,
        type: 3}
      time: 0.06
      eventEnabled: 0
      eventName: 
    - sprite: {fileID: -4454411229784024679, guid: ff53915b89904c544bd69f570568c217,
        type: 3}
      time: 0.06
      eventEnabled: 0
      eventName: 
    - sprite: {fileID: 8627003144240134522, guid: ff53915b89904c544bd69f570568c217,
        type: 3}
      time: 0.06
      eventEnabled: 0
      eventName: 
    name: fountain-2
    selectedIndex: 0
    newFramesTime: 0.05
    setFramesTime: 0.06
  - speedRatio: 1
    loop: 1
    frameToLoop: 0
    frameDatas:
    - sprite: {fileID: -4870488066070605068, guid: d1e05f315df05da4dbd473d798d1c556,
        type: 3}
      time: 0.06
      eventEnabled: 0
      eventName: 
    - sprite: {fileID: -6477990209224369590, guid: d1e05f315df05da4dbd473d798d1c556,
        type: 3}
      time: 0.06
      eventEnabled: 0
      eventName: 
    - sprite: {fileID: 16282181434736023, guid: d1e05f315df05da4dbd473d798d1c556,
        type: 3}
      time: 0.06
      eventEnabled: 0
      eventName: 
    - sprite: {fileID: -1790387917587836708, guid: d1e05f315df05da4dbd473d798d1c556,
        type: 3}
      time: 0.06
      eventEnabled: 0
      eventName: 
    - sprite: {fileID: -4212725429682972965, guid: d1e05f315df05da4dbd473d798d1c556,
        type: 3}
      time: 0.06
      eventEnabled: 0
      eventName: 
    - sprite: {fileID: -3484917652697265201, guid: d1e05f315df05da4dbd473d798d1c556,
        type: 3}
      time: 0.06
      eventEnabled: 0
      eventName: 
    - sprite: {fileID: -941669167162445945, guid: d1e05f315df05da4dbd473d798d1c556,
        type: 3}
      time: 0.06
      eventEnabled: 0
      eventName: 
    - sprite: {fileID: -6356223351647360243, guid: d1e05f315df05da4dbd473d798d1c556,
        type: 3}
      time: 0.06
      eventEnabled: 0
      eventName: 
    - sprite: {fileID: -6183162117736023886, guid: d1e05f315df05da4dbd473d798d1c556,
        type: 3}
      time: 0.06
      eventEnabled: 0
      eventName: 
    - sprite: {fileID: 4041014091390705704, guid: d1e05f315df05da4dbd473d798d1c556,
        type: 3}
      time: 0.06
      eventEnabled: 0
      eventName: 
    - sprite: {fileID: -7274825331565959737, guid: d1e05f315df05da4dbd473d798d1c556,
        type: 3}
      time: 0.06
      eventEnabled: 0
      eventName: 
    - sprite: {fileID: -1416826037924495710, guid: d1e05f315df05da4dbd473d798d1c556,
        type: 3}
      time: 0.06
      eventEnabled: 0
      eventName: 
    name: fountain-3
    selectedIndex: 0
    newFramesTime: 0.05
    setFramesTime: 0.06
  - speedRatio: 1
    loop: 0
    frameToLoop: 0
    frameDatas:
    - sprite: {fileID: 21300000, guid: 8d2fac7d75ffd924091714be5134d792, type: 3}
      time: 0.04
      eventEnabled: 0
      eventName: 
    name: gardenstone-1
    selectedIndex: 0
    newFramesTime: 0.05
    setFramesTime: 0.1
  - speedRatio: 1
    loop: 0
    frameToLoop: 0
    frameDatas:
    - sprite: {fileID: 21300000, guid: 8b0e34d74c7096546bad42e82d9abafa, type: 3}
      time: 0.04
      eventEnabled: 0
      eventName: 
    name: gardenstone-2
    selectedIndex: 0
    newFramesTime: 0.05
    setFramesTime: 0.1
  - speedRatio: 1
    loop: 0
    frameToLoop: 0
    frameDatas:
    - sprite: {fileID: 21300000, guid: 53d2cba3b71ef1744987f975a54f1e61, type: 3}
      time: 0.04
      eventEnabled: 0
      eventName: 
    name: gardenstone-3
    selectedIndex: 0
    newFramesTime: 0.05
    setFramesTime: 0.1
  - speedRatio: 1
    loop: 1
    frameToLoop: 0
    frameDatas:
    - sprite: {fileID: 21300000, guid: 0651f8effcd7b4306a63c9104cf7ea5d, type: 3}
      time: 0.06
      eventEnabled: 0
      eventName: 
    name: grassland-1
    selectedIndex: 0
    newFramesTime: 0.05
    setFramesTime: 0.1
  - speedRatio: 1
    loop: 1
    frameToLoop: 0
    frameDatas:
    - sprite: {fileID: 21300000, guid: 94083302bbebf464fa322fd9577cb456, type: 3}
      time: 0.06
      eventEnabled: 0
      eventName: 
    name: grassland-2
    selectedIndex: 0
    newFramesTime: 0.05
    setFramesTime: 0.1
  - speedRatio: 1
    loop: 1
    frameToLoop: 0
    frameDatas:
    - sprite: {fileID: 21300000, guid: a8bdc18c0fc6a4792baa1f4ce068c589, type: 3}
      time: 0.06
      eventEnabled: 0
      eventName: 
    name: grassland-3
    selectedIndex: 0
    newFramesTime: 0.05
    setFramesTime: 0.1
  - speedRatio: 1
    loop: 1
    frameToLoop: 0
    frameDatas:
    - sprite: {fileID: 6905194172343062400, guid: 2ecaf9fd38f99c641af907e3806ed2c4,
        type: 3}
      time: 1.2
      eventEnabled: 0
      eventName: 
    - sprite: {fileID: -4169560126381306136, guid: 2ecaf9fd38f99c641af907e3806ed2c4,
        type: 3}
      time: 0.08
      eventEnabled: 0
      eventName: 
    - sprite: {fileID: -3594954815198195201, guid: 2ecaf9fd38f99c641af907e3806ed2c4,
        type: 3}
      time: 0.08
      eventEnabled: 0
      eventName: 
    - sprite: {fileID: -5971755259834156414, guid: 2ecaf9fd38f99c641af907e3806ed2c4,
        type: 3}
      time: 0.08
      eventEnabled: 0
      eventName: 
    - sprite: {fileID: 2926047886982012746, guid: 2ecaf9fd38f99c641af907e3806ed2c4,
        type: 3}
      time: 0.08
      eventEnabled: 0
      eventName: 
    - sprite: {fileID: -8700918331874443022, guid: 2ecaf9fd38f99c641af907e3806ed2c4,
        type: 3}
      time: 0.08
      eventEnabled: 0
      eventName: 
    - sprite: {fileID: 2750564904565176750, guid: 2ecaf9fd38f99c641af907e3806ed2c4,
        type: 3}
      time: 0.08
      eventEnabled: 0
      eventName: 
    - sprite: {fileID: -8741340575927167137, guid: 2ecaf9fd38f99c641af907e3806ed2c4,
        type: 3}
      time: 0.08
      eventEnabled: 0
      eventName: 
    - sprite: {fileID: -6824079239957701776, guid: 2ecaf9fd38f99c641af907e3806ed2c4,
        type: 3}
      time: 0.08
      eventEnabled: 0
      eventName: 
    - sprite: {fileID: -3239866802147423991, guid: 2ecaf9fd38f99c641af907e3806ed2c4,
        type: 3}
      time: 0.08
      eventEnabled: 0
      eventName: 
    - sprite: {fileID: 6359526119243997813, guid: 2ecaf9fd38f99c641af907e3806ed2c4,
        type: 3}
      time: 0.08
      eventEnabled: 0
      eventName: 
    - sprite: {fileID: -1417068068304530031, guid: 2ecaf9fd38f99c641af907e3806ed2c4,
        type: 3}
      time: 0.08
      eventEnabled: 0
      eventName: 
    - sprite: {fileID: -5403588991209612995, guid: 2ecaf9fd38f99c641af907e3806ed2c4,
        type: 3}
      time: 0.08
      eventEnabled: 0
      eventName: 
    - sprite: {fileID: -8460173528135601784, guid: 2ecaf9fd38f99c641af907e3806ed2c4,
        type: 3}
      time: 0.08
      eventEnabled: 0
      eventName: 
    - sprite: {fileID: 9102199991049544906, guid: 2ecaf9fd38f99c641af907e3806ed2c4,
        type: 3}
      time: 0.08
      eventEnabled: 0
      eventName: 
    - sprite: {fileID: 3300598793537392870, guid: 2ecaf9fd38f99c641af907e3806ed2c4,
        type: 3}
      time: 0.08
      eventEnabled: 0
      eventName: 
    name: ice-1
    selectedIndex: 0
    newFramesTime: 0.05
    setFramesTime: 0.1
  - speedRatio: 1
    loop: 1
    frameToLoop: 0
    frameDatas:
    - sprite: {fileID: 8966826376815980654, guid: fd7c0281e95813d4a8a89664657dc678,
        type: 3}
      time: 1.2
      eventEnabled: 0
      eventName: 
    - sprite: {fileID: -7394284013147438987, guid: fd7c0281e95813d4a8a89664657dc678,
        type: 3}
      time: 0.08
      eventEnabled: 0
      eventName: 
    - sprite: {fileID: -803428523769556089, guid: fd7c0281e95813d4a8a89664657dc678,
        type: 3}
      time: 0.08
      eventEnabled: 0
      eventName: 
    - sprite: {fileID: -6872309287346020980, guid: fd7c0281e95813d4a8a89664657dc678,
        type: 3}
      time: 0.08
      eventEnabled: 0
      eventName: 
    - sprite: {fileID: -6180057843286632845, guid: fd7c0281e95813d4a8a89664657dc678,
        type: 3}
      time: 0.08
      eventEnabled: 0
      eventName: 
    - sprite: {fileID: 1861694723062426403, guid: fd7c0281e95813d4a8a89664657dc678,
        type: 3}
      time: 0.08
      eventEnabled: 0
      eventName: 
    - sprite: {fileID: 4017754931136247045, guid: fd7c0281e95813d4a8a89664657dc678,
        type: 3}
      time: 0.08
      eventEnabled: 0
      eventName: 
    - sprite: {fileID: -6566204253904257495, guid: fd7c0281e95813d4a8a89664657dc678,
        type: 3}
      time: 0.08
      eventEnabled: 0
      eventName: 
    - sprite: {fileID: -7734191655004655852, guid: fd7c0281e95813d4a8a89664657dc678,
        type: 3}
      time: 0.08
      eventEnabled: 0
      eventName: 
    - sprite: {fileID: -152075719607330366, guid: fd7c0281e95813d4a8a89664657dc678,
        type: 3}
      time: 0.08
      eventEnabled: 0
      eventName: 
    - sprite: {fileID: 1413327866548100259, guid: fd7c0281e95813d4a8a89664657dc678,
        type: 3}
      time: 0.08
      eventEnabled: 0
      eventName: 
    - sprite: {fileID: -3321477330255636179, guid: fd7c0281e95813d4a8a89664657dc678,
        type: 3}
      time: 0.08
      eventEnabled: 0
      eventName: 
    - sprite: {fileID: 1949254690414316731, guid: fd7c0281e95813d4a8a89664657dc678,
        type: 3}
      time: 0.08
      eventEnabled: 0
      eventName: 
    - sprite: {fileID: 9120667342229690432, guid: fd7c0281e95813d4a8a89664657dc678,
        type: 3}
      time: 0.08
      eventEnabled: 0
      eventName: 
    - sprite: {fileID: -5322651212641350117, guid: fd7c0281e95813d4a8a89664657dc678,
        type: 3}
      time: 0.08
      eventEnabled: 0
      eventName: 
    - sprite: {fileID: -4829747780323113066, guid: fd7c0281e95813d4a8a89664657dc678,
        type: 3}
      time: 0.08
      eventEnabled: 0
      eventName: 
    name: ice-2
    selectedIndex: 0
    newFramesTime: 0.05
    setFramesTime: 0.1
  - speedRatio: 1
    loop: 1
    frameToLoop: 0
    frameDatas:
    - sprite: {fileID: -4701787364426528865, guid: 977414bdf57e3dc449c5bca73f2cb135,
        type: 3}
      time: 1.2
      eventEnabled: 0
      eventName: 
    - sprite: {fileID: 7140647887842866651, guid: 977414bdf57e3dc449c5bca73f2cb135,
        type: 3}
      time: 0.08
      eventEnabled: 0
      eventName: 
    - sprite: {fileID: -5538349387990601278, guid: 977414bdf57e3dc449c5bca73f2cb135,
        type: 3}
      time: 0.08
      eventEnabled: 0
      eventName: 
    - sprite: {fileID: -1333760729420175030, guid: 977414bdf57e3dc449c5bca73f2cb135,
        type: 3}
      time: 0.08
      eventEnabled: 0
      eventName: 
    - sprite: {fileID: 5571602125790607114, guid: 977414bdf57e3dc449c5bca73f2cb135,
        type: 3}
      time: 0.08
      eventEnabled: 0
      eventName: 
    - sprite: {fileID: 3080095038249064144, guid: 977414bdf57e3dc449c5bca73f2cb135,
        type: 3}
      time: 0.08
      eventEnabled: 0
      eventName: 
    - sprite: {fileID: -9077470028393098225, guid: 977414bdf57e3dc449c5bca73f2cb135,
        type: 3}
      time: 0.08
      eventEnabled: 0
      eventName: 
    - sprite: {fileID: 1526186460171688952, guid: 977414bdf57e3dc449c5bca73f2cb135,
        type: 3}
      time: 0.08
      eventEnabled: 0
      eventName: 
    - sprite: {fileID: 4639364060686329388, guid: 977414bdf57e3dc449c5bca73f2cb135,
        type: 3}
      time: 0.08
      eventEnabled: 0
      eventName: 
    - sprite: {fileID: -5206501769678665109, guid: 977414bdf57e3dc449c5bca73f2cb135,
        type: 3}
      time: 0.08
      eventEnabled: 0
      eventName: 
    - sprite: {fileID: 8551030681744461973, guid: 977414bdf57e3dc449c5bca73f2cb135,
        type: 3}
      time: 0.08
      eventEnabled: 0
      eventName: 
    - sprite: {fileID: -6445682603412721037, guid: 977414bdf57e3dc449c5bca73f2cb135,
        type: 3}
      time: 0.08
      eventEnabled: 0
      eventName: 
    - sprite: {fileID: -4558253103787556655, guid: 977414bdf57e3dc449c5bca73f2cb135,
        type: 3}
      time: 0.08
      eventEnabled: 0
      eventName: 
    - sprite: {fileID: -3936781690817761530, guid: 977414bdf57e3dc449c5bca73f2cb135,
        type: 3}
      time: 0.08
      eventEnabled: 0
      eventName: 
    - sprite: {fileID: 3785291338967995244, guid: 977414bdf57e3dc449c5bca73f2cb135,
        type: 3}
      time: 0.08
      eventEnabled: 0
      eventName: 
    - sprite: {fileID: -4770780531377106157, guid: 977414bdf57e3dc449c5bca73f2cb135,
        type: 3}
      time: 0.08
      eventEnabled: 0
      eventName: 
    name: ice-3
    selectedIndex: 0
    newFramesTime: 0.05
    setFramesTime: 0.1
  - speedRatio: 1
    loop: 0
    frameToLoop: 0
    frameDatas:
    - sprite: {fileID: 21300000, guid: a5b4a360490d4bf4a85c99f9a6bd2ef1, type: 3}
      time: 0.04
      eventEnabled: 0
      eventName: 
    name: manorcarpet-1
    selectedIndex: 0
    newFramesTime: 0.05
    setFramesTime: 0.1
  - speedRatio: 1
    loop: 0
    frameToLoop: 0
    frameDatas:
    - sprite: {fileID: 21300000, guid: 4834b6439b624b5488a953ebfa5a46eb, type: 3}
      time: 0.04
      eventEnabled: 0
      eventName: 
    name: manorcarpet-2
    selectedIndex: 0
    newFramesTime: 0.05
    setFramesTime: 0.1
  - speedRatio: 1
    loop: 0
    frameToLoop: 0
    frameDatas:
    - sprite: {fileID: 21300000, guid: d5efe90d9b1f02542b2081e3108240e9, type: 3}
      time: 0.04
      eventEnabled: 0
      eventName: 
    name: manorcarpet-3
    selectedIndex: 0
    newFramesTime: 0.05
    setFramesTime: 0.1
  - speedRatio: 1
    loop: 0
    frameToLoop: 0
    frameDatas:
    - sprite: {fileID: 21300000, guid: a3f1022d68c33494db165e4a95bdcb12, type: 3}
      time: 0.04
      eventEnabled: 0
      eventName: 
    name: mansionfloor-1
    selectedIndex: 0
    newFramesTime: 0.05
    setFramesTime: 0.1
  - speedRatio: 1
    loop: 0
    frameToLoop: 0
    frameDatas:
    - sprite: {fileID: 21300000, guid: 93caedce89a7df74a92f7465c2b9c769, type: 3}
      time: 0.04
      eventEnabled: 0
      eventName: 
    name: mansionfloor-2
    selectedIndex: 0
    newFramesTime: 0.05
    setFramesTime: 0.1
  - speedRatio: 1
    loop: 0
    frameToLoop: 0
    frameDatas:
    - sprite: {fileID: 21300000, guid: 1b24464378ea2704e9cf6233e2de5b34, type: 3}
      time: 0.04
      eventEnabled: 0
      eventName: 
    name: mansionfloor-3
    selectedIndex: 0
    newFramesTime: 0.05
    setFramesTime: 0.1
  - speedRatio: 1
    loop: 0
    frameToLoop: 0
    frameDatas:
    - sprite: {fileID: 21300000, guid: 072e31483cdf1ea42b70de4c2e6fb389, type: 3}
      time: 0.04
      eventEnabled: 0
      eventName: 
    name: marbleloor-1
    selectedIndex: 0
    newFramesTime: 0.05
    setFramesTime: 0.1
  - speedRatio: 1
    loop: 0
    frameToLoop: 0
    frameDatas:
    - sprite: {fileID: 21300000, guid: a7211239606857c439ec6cbb08aba77a, type: 3}
      time: 0.04
      eventEnabled: 0
      eventName: 
    name: marbleloor-2
    selectedIndex: 0
    newFramesTime: 0.05
    setFramesTime: 0.1
  - speedRatio: 1
    loop: 0
    frameToLoop: 0
    frameDatas:
    - sprite: {fileID: 21300000, guid: 3141a5463ba90ba47bd0ace6e228ae4a, type: 3}
      time: 0.04
      eventEnabled: 0
      eventName: 
    name: marbleloor-3
    selectedIndex: 0
    newFramesTime: 0.05
    setFramesTime: 0.1
  - speedRatio: 1
    loop: 0
    frameToLoop: 0
    frameDatas:
    - sprite: {fileID: 21300000, guid: a18876b055d76ad4f98635828838e72d, type: 3}
      time: 0.04
      eventEnabled: 0
      eventName: 
    name: minecavefloor-1
    selectedIndex: 0
    newFramesTime: 0.05
    setFramesTime: 0.1
  - speedRatio: 1
    loop: 0
    frameToLoop: 0
    frameDatas:
    - sprite: {fileID: 21300000, guid: 0e3db0de314ccb842abff8c19abc10b1, type: 3}
      time: 0.04
      eventEnabled: 0
      eventName: 
    name: minecavefloor-2
    selectedIndex: 0
    newFramesTime: 0.05
    setFramesTime: 0.1
  - speedRatio: 1
    loop: 0
    frameToLoop: 0
    frameDatas:
    - sprite: {fileID: 21300000, guid: 10f233aebb3ecc741a02d61e7b5dcc41, type: 3}
      time: 0.04
      eventEnabled: 0
      eventName: 
    name: minecavefloor-3
    selectedIndex: 0
    newFramesTime: 0.05
    setFramesTime: 0.1
  - speedRatio: 1
    loop: 0
    frameToLoop: 0
    frameDatas:
    - sprite: {fileID: 21300000, guid: 1661ab4e45f5c2648a2f1518f3d6a338, type: 3}
      time: 0.04
      eventEnabled: 0
      eventName: 
    name: minestone-1
    selectedIndex: 0
    newFramesTime: 0.05
    setFramesTime: 0.1
  - speedRatio: 1
    loop: 0
    frameToLoop: 0
    frameDatas:
    - sprite: {fileID: 21300000, guid: a7c318b1646898c4ea133936a3649146, type: 3}
      time: 0.04
      eventEnabled: 0
      eventName: 
    name: minestone-2
    selectedIndex: 0
    newFramesTime: 0.05
    setFramesTime: 0.1
  - speedRatio: 1
    loop: 0
    frameToLoop: 0
    frameDatas:
    - sprite: {fileID: 21300000, guid: 0971e1e31ac014040aa00ab2660f4842, type: 3}
      time: 0.04
      eventEnabled: 0
      eventName: 
    name: minestone-3
    selectedIndex: 0
    newFramesTime: 0.05
    setFramesTime: 0.1
  - speedRatio: 1
    loop: 0
    frameToLoop: 0
    frameDatas:
    - sprite: {fileID: 21300000, guid: 4f9babaf3f567204d87c2044889c8e3f, type: 3}
      time: 0.04
      eventEnabled: 0
      eventName: 
    name: minetrack-1
    selectedIndex: 0
    newFramesTime: 0.05
    setFramesTime: 0.1
  - speedRatio: 1
    loop: 0
    frameToLoop: 0
    frameDatas:
    - sprite: {fileID: 21300000, guid: 02d2263b4ab4e0a47a5e4a2686c85d88, type: 3}
      time: 0.04
      eventEnabled: 0
      eventName: 
    name: minetrack-2
    selectedIndex: 0
    newFramesTime: 0.05
    setFramesTime: 0.1
  - speedRatio: 1
    loop: 0
    frameToLoop: 0
    frameDatas:
    - sprite: {fileID: 21300000, guid: 43dd84c88d31fe144bbf3d7d97a58d28, type: 3}
      time: 0.04
      eventEnabled: 0
      eventName: 
    name: minetrack-3
    selectedIndex: 0
    newFramesTime: 0.05
    setFramesTime: 0.1
  - speedRatio: 1
    loop: 1
    frameToLoop: 0
    frameDatas:
    - sprite: {fileID: 21300000, guid: 5dfc26c57b077ea4081a9e0b2e71c12b, type: 3}
      time: 0.04
      eventEnabled: 0
      eventName: 
    name: mountaingrass-1
    selectedIndex: 0
    newFramesTime: 0.05
    setFramesTime: 0.1
  - speedRatio: 1
    loop: 1
    frameToLoop: 0
    frameDatas:
    - sprite: {fileID: 21300000, guid: 8b33a4fa91b2e6f40a710a44a2e65062, type: 3}
      time: 0.04
      eventEnabled: 0
      eventName: 
    name: mountaingrass-2
    selectedIndex: 0
    newFramesTime: 0.05
    setFramesTime: 0.1
  - speedRatio: 1
    loop: 1
    frameToLoop: 0
    frameDatas:
    - sprite: {fileID: 21300000, guid: 62045efa8bbd5c945ba99d506c3a9aff, type: 3}
      time: 0.04
      eventEnabled: 0
      eventName: 
    name: mountaingrass-3
    selectedIndex: 0
    newFramesTime: 0.05
    setFramesTime: 0.1
  - speedRatio: 1
    loop: 1
    frameToLoop: 0
    frameDatas:
    - sprite: {fileID: 21300000, guid: 3a8dd86c717f6864da4bca03dea5dca1, type: 3}
      time: 0.04
      eventEnabled: 0
      eventName: 
    name: mountainpass-1
    selectedIndex: 0
    newFramesTime: 0.05
    setFramesTime: 0.1
  - speedRatio: 1
    loop: 1
    frameToLoop: 0
    frameDatas:
    - sprite: {fileID: 21300000, guid: 1573921798b4a9c46973e1530487a72e, type: 3}
      time: 0.04
      eventEnabled: 0
      eventName: 
    name: mountainpass-2
    selectedIndex: 0
    newFramesTime: 0.05
    setFramesTime: 0.1
  - speedRatio: 1
    loop: 1
    frameToLoop: 0
    frameDatas:
    - sprite: {fileID: 21300000, guid: d3fe225480048ff46a04ad3ce7b07b24, type: 3}
      time: 0.04
      eventEnabled: 0
      eventName: 
    name: mountainpass-3
    selectedIndex: 0
    newFramesTime: 0.05
    setFramesTime: 0.1
  - speedRatio: 1
    loop: 1
    frameToLoop: 0
    frameDatas:
    - sprite: {fileID: 21300000, guid: 32ccefdac3f37bc47898d4b20da3532b, type: 3}
      time: 0.04
      eventEnabled: 0
      eventName: 
    name: mountainrock-1
    selectedIndex: 0
    newFramesTime: 0.05
    setFramesTime: 0.1
  - speedRatio: 1
    loop: 1
    frameToLoop: 0
    frameDatas:
    - sprite: {fileID: 21300000, guid: 76ad86fafaef3b74e90d45a16f7f65cb, type: 3}
      time: 0.04
      eventEnabled: 0
      eventName: 
    name: mountainrock-2
    selectedIndex: 0
    newFramesTime: 0.05
    setFramesTime: 0.1
  - speedRatio: 1
    loop: 1
    frameToLoop: 0
    frameDatas:
    - sprite: {fileID: 21300000, guid: c607e321c9c3c9643927cbb3f4382119, type: 3}
      time: 0.04
      eventEnabled: 0
      eventName: 
    name: mountainrock-3
    selectedIndex: 0
    newFramesTime: 0.05
    setFramesTime: 0.1
  - speedRatio: 1
    loop: 1
    frameToLoop: 0
    frameDatas:
    - sprite: {fileID: 21300000, guid: 81d37c9bf1ba4754883236371ff8d747, type: 3}
      time: 0.04
      eventEnabled: 0
      eventName: 
    name: mountainsnow-1
    selectedIndex: 0
    newFramesTime: 0.05
    setFramesTime: 0.1
  - speedRatio: 1
    loop: 1
    frameToLoop: 0
    frameDatas:
    - sprite: {fileID: 21300000, guid: 7f2cc923deb2b654aa2bae0cbf742a8d, type: 3}
      time: 0.04
      eventEnabled: 0
      eventName: 
    name: mountainsnow-2
    selectedIndex: 0
    newFramesTime: 0.05
    setFramesTime: 0.1
  - speedRatio: 1
    loop: 1
    frameToLoop: 0
    frameDatas:
    - sprite: {fileID: 21300000, guid: c3e0489e2c76dae4e8d9f299497341ae, type: 3}
      time: 0.04
      eventEnabled: 0
      eventName: 
    name: mountainsnow-3
    selectedIndex: 0
    newFramesTime: 0.05
    setFramesTime: 0.1
  - speedRatio: 1
    loop: 1
    frameToLoop: 0
    frameDatas:
    - sprite: {fileID: -335483476174637786, guid: 7e89cfde931684c5e9c1f4c0fcdea0e9,
        type: 3}
      time: 0.08
      eventEnabled: 0
      eventName: 
    - sprite: {fileID: 6743487032598483173, guid: 7e89cfde931684c5e9c1f4c0fcdea0e9,
        type: 3}
      time: 0.08
      eventEnabled: 0
      eventName: 
    - sprite: {fileID: 1931024454299985128, guid: 7e89cfde931684c5e9c1f4c0fcdea0e9,
        type: 3}
      time: 0.08
      eventEnabled: 0
      eventName: 
    - sprite: {fileID: -842838337240589558, guid: 7e89cfde931684c5e9c1f4c0fcdea0e9,
        type: 3}
      time: 0.08
      eventEnabled: 0
      eventName: 
    - sprite: {fileID: -6831238384731465438, guid: 7e89cfde931684c5e9c1f4c0fcdea0e9,
        type: 3}
      time: 0.08
      eventEnabled: 0
      eventName: 
    - sprite: {fileID: 5194184344939923938, guid: 7e89cfde931684c5e9c1f4c0fcdea0e9,
        type: 3}
      time: 0.08
      eventEnabled: 0
      eventName: 
    - sprite: {fileID: 5749920477911146394, guid: 7e89cfde931684c5e9c1f4c0fcdea0e9,
        type: 3}
      time: 0.08
      eventEnabled: 0
      eventName: 
    - sprite: {fileID: -8633269646451935771, guid: 7e89cfde931684c5e9c1f4c0fcdea0e9,
        type: 3}
      time: 0.08
      eventEnabled: 0
      eventName: 
    - sprite: {fileID: -5900998785012670404, guid: 7e89cfde931684c5e9c1f4c0fcdea0e9,
        type: 3}
      time: 0.08
      eventEnabled: 0
      eventName: 
    - sprite: {fileID: 3966519410880463501, guid: 7e89cfde931684c5e9c1f4c0fcdea0e9,
        type: 3}
      time: 0.08
      eventEnabled: 0
      eventName: 
    - sprite: {fileID: -7937310449531424379, guid: 7e89cfde931684c5e9c1f4c0fcdea0e9,
        type: 3}
      time: 0.08
      eventEnabled: 0
      eventName: 
    - sprite: {fileID: -5693676319861300892, guid: 7e89cfde931684c5e9c1f4c0fcdea0e9,
        type: 3}
      time: 0.08
      eventEnabled: 0
      eventName: 
    name: ocean-1
    selectedIndex: 0
    newFramesTime: 0.05
    setFramesTime: 0.1
  - speedRatio: 1
    loop: 1
    frameToLoop: 0
    frameDatas:
    - sprite: {fileID: -2853755740860486238, guid: 36c120a00f0d843cb81721de94e4b65d,
        type: 3}
      time: 0.08
      eventEnabled: 0
      eventName: 
    - sprite: {fileID: 7354000936407063398, guid: 36c120a00f0d843cb81721de94e4b65d,
        type: 3}
      time: 0.08
      eventEnabled: 0
      eventName: 
    - sprite: {fileID: 769394147690554070, guid: 36c120a00f0d843cb81721de94e4b65d,
        type: 3}
      time: 0.08
      eventEnabled: 0
      eventName: 
    - sprite: {fileID: 329729665042703098, guid: 36c120a00f0d843cb81721de94e4b65d,
        type: 3}
      time: 0.08
      eventEnabled: 0
      eventName: 
    - sprite: {fileID: 3850492161073006106, guid: 36c120a00f0d843cb81721de94e4b65d,
        type: 3}
      time: 0.08
      eventEnabled: 0
      eventName: 
    - sprite: {fileID: -5624640273114422740, guid: 36c120a00f0d843cb81721de94e4b65d,
        type: 3}
      time: 0.08
      eventEnabled: 0
      eventName: 
    - sprite: {fileID: -3632002977878150774, guid: 36c120a00f0d843cb81721de94e4b65d,
        type: 3}
      time: 0.08
      eventEnabled: 0
      eventName: 
    - sprite: {fileID: -7677115556998483980, guid: 36c120a00f0d843cb81721de94e4b65d,
        type: 3}
      time: 0.08
      eventEnabled: 0
      eventName: 
    - sprite: {fileID: 1606517991693017288, guid: 36c120a00f0d843cb81721de94e4b65d,
        type: 3}
      time: 0.08
      eventEnabled: 0
      eventName: 
    - sprite: {fileID: 4744347251269900617, guid: 36c120a00f0d843cb81721de94e4b65d,
        type: 3}
      time: 0.08
      eventEnabled: 0
      eventName: 
    - sprite: {fileID: -7314142403337657840, guid: 36c120a00f0d843cb81721de94e4b65d,
        type: 3}
      time: 0.08
      eventEnabled: 0
      eventName: 
    - sprite: {fileID: 1497482115790540820, guid: 36c120a00f0d843cb81721de94e4b65d,
        type: 3}
      time: 0.08
      eventEnabled: 0
      eventName: 
    name: ocean-2
    selectedIndex: 0
    newFramesTime: 0.05
    setFramesTime: 0.1
  - speedRatio: 1
    loop: 1
    frameToLoop: 0
    frameDatas:
    - sprite: {fileID: -1199650324926385094, guid: 4f251b3e3e1c84fb5a0b250b02ffede5,
        type: 3}
      time: 0.08
      eventEnabled: 0
      eventName: 
    - sprite: {fileID: 1296732272446023096, guid: 4f251b3e3e1c84fb5a0b250b02ffede5,
        type: 3}
      time: 0.08
      eventEnabled: 0
      eventName: 
    - sprite: {fileID: -297911789282556009, guid: 4f251b3e3e1c84fb5a0b250b02ffede5,
        type: 3}
      time: 0.08
      eventEnabled: 0
      eventName: 
    - sprite: {fileID: 6932620639148350909, guid: 4f251b3e3e1c84fb5a0b250b02ffede5,
        type: 3}
      time: 0.08
      eventEnabled: 0
      eventName: 
    - sprite: {fileID: -2913894279406461895, guid: 4f251b3e3e1c84fb5a0b250b02ffede5,
        type: 3}
      time: 0.08
      eventEnabled: 0
      eventName: 
    - sprite: {fileID: 6992662512254609785, guid: 4f251b3e3e1c84fb5a0b250b02ffede5,
        type: 3}
      time: 0.08
      eventEnabled: 0
      eventName: 
    - sprite: {fileID: 8877404885319297295, guid: 4f251b3e3e1c84fb5a0b250b02ffede5,
        type: 3}
      time: 0.08
      eventEnabled: 0
      eventName: 
    - sprite: {fileID: 7329556836085304944, guid: 4f251b3e3e1c84fb5a0b250b02ffede5,
        type: 3}
      time: 0.08
      eventEnabled: 0
      eventName: 
    - sprite: {fileID: -4291444006587573704, guid: 4f251b3e3e1c84fb5a0b250b02ffede5,
        type: 3}
      time: 0.08
      eventEnabled: 0
      eventName: 
    - sprite: {fileID: 4375703168552023985, guid: 4f251b3e3e1c84fb5a0b250b02ffede5,
        type: 3}
      time: 0.08
      eventEnabled: 0
      eventName: 
    - sprite: {fileID: -7779384011457163876, guid: 4f251b3e3e1c84fb5a0b250b02ffede5,
        type: 3}
      time: 0.08
      eventEnabled: 0
      eventName: 
    - sprite: {fileID: -1617556784642852630, guid: 4f251b3e3e1c84fb5a0b250b02ffede5,
        type: 3}
      time: 0.08
      eventEnabled: 0
      eventName: 
    name: ocean-3
    selectedIndex: 0
    newFramesTime: 0.05
    setFramesTime: 0.1
  - speedRatio: 1
    loop: 1
    frameToLoop: 0
    frameDatas:
    - sprite: {fileID: -6099829653808286726, guid: 93ef78214793f9d4a92d5b01b0022fa4,
        type: 3}
      time: 0.08
      eventEnabled: 0
      eventName: 
    - sprite: {fileID: -205025304365562780, guid: 93ef78214793f9d4a92d5b01b0022fa4,
        type: 3}
      time: 0.08
      eventEnabled: 0
      eventName: 
    - sprite: {fileID: -326387131544562945, guid: 93ef78214793f9d4a92d5b01b0022fa4,
        type: 3}
      time: 0.08
      eventEnabled: 0
      eventName: 
    - sprite: {fileID: -7217445917474938546, guid: 93ef78214793f9d4a92d5b01b0022fa4,
        type: 3}
      time: 0.08
      eventEnabled: 0
      eventName: 
    - sprite: {fileID: -8632936663437325820, guid: 93ef78214793f9d4a92d5b01b0022fa4,
        type: 3}
      time: 0.08
      eventEnabled: 0
      eventName: 
    - sprite: {fileID: -3344250766366832057, guid: 93ef78214793f9d4a92d5b01b0022fa4,
        type: 3}
      time: 0.08
      eventEnabled: 0
      eventName: 
    - sprite: {fileID: 3556603564096015746, guid: 93ef78214793f9d4a92d5b01b0022fa4,
        type: 3}
      time: 0.08
      eventEnabled: 0
      eventName: 
    - sprite: {fileID: 6733241403556569355, guid: 93ef78214793f9d4a92d5b01b0022fa4,
        type: 3}
      time: 0.08
      eventEnabled: 0
      eventName: 
    - sprite: {fileID: -986413224262352431, guid: 93ef78214793f9d4a92d5b01b0022fa4,
        type: 3}
      time: 0.08
      eventEnabled: 0
      eventName: 
    - sprite: {fileID: -4254659178862409622, guid: 93ef78214793f9d4a92d5b01b0022fa4,
        type: 3}
      time: 0.08
      eventEnabled: 0
      eventName: 
    - sprite: {fileID: -6978279589552353249, guid: 93ef78214793f9d4a92d5b01b0022fa4,
        type: 3}
      time: 0.08
      eventEnabled: 0
      eventName: 
    - sprite: {fileID: 8433902609543015656, guid: 93ef78214793f9d4a92d5b01b0022fa4,
        type: 3}
      time: 0.08
      eventEnabled: 0
      eventName: 
    name: ocean-alt-1
    selectedIndex: 0
    newFramesTime: 0.05
    setFramesTime: 0.1
  - speedRatio: 1
    loop: 1
    frameToLoop: 0
    frameDatas:
    - sprite: {fileID: -6713317583425831419, guid: eb0b54fe6edfcf34e884397bf6311689,
        type: 3}
      time: 0.08
      eventEnabled: 0
      eventName: 
    - sprite: {fileID: -6097782361452329540, guid: eb0b54fe6edfcf34e884397bf6311689,
        type: 3}
      time: 0.08
      eventEnabled: 0
      eventName: 
    - sprite: {fileID: -1188021940673833021, guid: eb0b54fe6edfcf34e884397bf6311689,
        type: 3}
      time: 0.08
      eventEnabled: 0
      eventName: 
    - sprite: {fileID: 2882930410063689095, guid: eb0b54fe6edfcf34e884397bf6311689,
        type: 3}
      time: 0.08
      eventEnabled: 0
      eventName: 
    - sprite: {fileID: -4030946846768875903, guid: eb0b54fe6edfcf34e884397bf6311689,
        type: 3}
      time: 0.08
      eventEnabled: 0
      eventName: 
    - sprite: {fileID: -7998539676263126448, guid: eb0b54fe6edfcf34e884397bf6311689,
        type: 3}
      time: 0.08
      eventEnabled: 0
      eventName: 
    - sprite: {fileID: 8177414321094055279, guid: eb0b54fe6edfcf34e884397bf6311689,
        type: 3}
      time: 0.08
      eventEnabled: 0
      eventName: 
    - sprite: {fileID: -8830233803779672332, guid: eb0b54fe6edfcf34e884397bf6311689,
        type: 3}
      time: 0.08
      eventEnabled: 0
      eventName: 
    - sprite: {fileID: 6895611379149555880, guid: eb0b54fe6edfcf34e884397bf6311689,
        type: 3}
      time: 0.08
      eventEnabled: 0
      eventName: 
    - sprite: {fileID: -4286258255127583132, guid: eb0b54fe6edfcf34e884397bf6311689,
        type: 3}
      time: 0.08
      eventEnabled: 0
      eventName: 
    - sprite: {fileID: 4884723319577576488, guid: eb0b54fe6edfcf34e884397bf6311689,
        type: 3}
      time: 0.08
      eventEnabled: 0
      eventName: 
    - sprite: {fileID: -8360375580430983528, guid: eb0b54fe6edfcf34e884397bf6311689,
        type: 3}
      time: 0.08
      eventEnabled: 0
      eventName: 
    name: ocean-alt-2
    selectedIndex: 0
    newFramesTime: 0.05
    setFramesTime: 0.1
  - speedRatio: 1
    loop: 1
    frameToLoop: 0
    frameDatas:
    - sprite: {fileID: -5782337005714458360, guid: c2f66565a5b70824e9709beebf5dd105,
        type: 3}
      time: 0.08
      eventEnabled: 0
      eventName: 
    - sprite: {fileID: 7851567817472090243, guid: c2f66565a5b70824e9709beebf5dd105,
        type: 3}
      time: 0.08
      eventEnabled: 0
      eventName: 
    - sprite: {fileID: 6927093375671512586, guid: c2f66565a5b70824e9709beebf5dd105,
        type: 3}
      time: 0.08
      eventEnabled: 0
      eventName: 
    - sprite: {fileID: 1841590022087328381, guid: c2f66565a5b70824e9709beebf5dd105,
        type: 3}
      time: 0.08
      eventEnabled: 0
      eventName: 
    - sprite: {fileID: -1356736249933986956, guid: c2f66565a5b70824e9709beebf5dd105,
        type: 3}
      time: 0.08
      eventEnabled: 0
      eventName: 
    - sprite: {fileID: -4400879970774005806, guid: c2f66565a5b70824e9709beebf5dd105,
        type: 3}
      time: 0.08
      eventEnabled: 0
      eventName: 
    - sprite: {fileID: -60252239390871828, guid: c2f66565a5b70824e9709beebf5dd105,
        type: 3}
      time: 0.08
      eventEnabled: 0
      eventName: 
    - sprite: {fileID: 6357024828633552643, guid: c2f66565a5b70824e9709beebf5dd105,
        type: 3}
      time: 0.08
      eventEnabled: 0
      eventName: 
    - sprite: {fileID: 2064476435400249822, guid: c2f66565a5b70824e9709beebf5dd105,
        type: 3}
      time: 0.08
      eventEnabled: 0
      eventName: 
    - sprite: {fileID: -1273806858265950680, guid: c2f66565a5b70824e9709beebf5dd105,
        type: 3}
      time: 0.08
      eventEnabled: 0
      eventName: 
    - sprite: {fileID: -600126650655600528, guid: c2f66565a5b70824e9709beebf5dd105,
        type: 3}
      time: 0.08
      eventEnabled: 0
      eventName: 
    - sprite: {fileID: -344257014343110723, guid: c2f66565a5b70824e9709beebf5dd105,
        type: 3}
      time: 0.08
      eventEnabled: 0
      eventName: 
    name: ocean-alt-3
    selectedIndex: 0
    newFramesTime: 0.05
    setFramesTime: 0.1
  - speedRatio: 1
    loop: 1
    frameToLoop: 0
    frameDatas:
    - sprite: {fileID: -8168886231361522995, guid: a9d1bbce0f22102408b61220f275a240,
        type: 3}
      time: 0.08
      eventEnabled: 0
      eventName: 
    - sprite: {fileID: 6138867726159203317, guid: a9d1bbce0f22102408b61220f275a240,
        type: 3}
      time: 0.08
      eventEnabled: 0
      eventName: 
    - sprite: {fileID: 5044390096976602974, guid: a9d1bbce0f22102408b61220f275a240,
        type: 3}
      time: 0.08
      eventEnabled: 0
      eventName: 
    - sprite: {fileID: -3845469071498111864, guid: a9d1bbce0f22102408b61220f275a240,
        type: 3}
      time: 0.08
      eventEnabled: 0
      eventName: 
    - sprite: {fileID: -5559803278959080237, guid: a9d1bbce0f22102408b61220f275a240,
        type: 3}
      time: 0.08
      eventEnabled: 0
      eventName: 
    - sprite: {fileID: -7428979336358332070, guid: a9d1bbce0f22102408b61220f275a240,
        type: 3}
      time: 0.08
      eventEnabled: 0
      eventName: 
    - sprite: {fileID: -6720114640566102965, guid: a9d1bbce0f22102408b61220f275a240,
        type: 3}
      time: 0.08
      eventEnabled: 0
      eventName: 
    - sprite: {fileID: 4978864935053218134, guid: a9d1bbce0f22102408b61220f275a240,
        type: 3}
      time: 0.08
      eventEnabled: 0
      eventName: 
    - sprite: {fileID: 5814601067477523604, guid: a9d1bbce0f22102408b61220f275a240,
        type: 3}
      time: 0.08
      eventEnabled: 0
      eventName: 
    - sprite: {fileID: 6665632431507163878, guid: a9d1bbce0f22102408b61220f275a240,
        type: 3}
      time: 0.08
      eventEnabled: 0
      eventName: 
    - sprite: {fileID: -8221966885504156258, guid: a9d1bbce0f22102408b61220f275a240,
        type: 3}
      time: 0.08
      eventEnabled: 0
      eventName: 
    - sprite: {fileID: 1969978008240871615, guid: a9d1bbce0f22102408b61220f275a240,
        type: 3}
      time: 0.08
      eventEnabled: 0
      eventName: 
    name: ocean-shallows-1
    selectedIndex: 0
    newFramesTime: 0.05
    setFramesTime: 0.1
  - speedRatio: 1
    loop: 1
    frameToLoop: 0
    frameDatas:
    - sprite: {fileID: -4584104729956873822, guid: eb4bfa54bc7fd8644b1312c74158b570,
        type: 3}
      time: 0.08
      eventEnabled: 0
      eventName: 
    - sprite: {fileID: 4786238620920256677, guid: eb4bfa54bc7fd8644b1312c74158b570,
        type: 3}
      time: 0.08
      eventEnabled: 0
      eventName: 
    - sprite: {fileID: -6431215965459832233, guid: eb4bfa54bc7fd8644b1312c74158b570,
        type: 3}
      time: 0.08
      eventEnabled: 0
      eventName: 
    - sprite: {fileID: 7749103608933096097, guid: eb4bfa54bc7fd8644b1312c74158b570,
        type: 3}
      time: 0.08
      eventEnabled: 0
      eventName: 
    - sprite: {fileID: -7105943590291409294, guid: eb4bfa54bc7fd8644b1312c74158b570,
        type: 3}
      time: 0.08
      eventEnabled: 0
      eventName: 
    - sprite: {fileID: 6242173955940701167, guid: eb4bfa54bc7fd8644b1312c74158b570,
        type: 3}
      time: 0.08
      eventEnabled: 0
      eventName: 
    - sprite: {fileID: -7021724800833374536, guid: eb4bfa54bc7fd8644b1312c74158b570,
        type: 3}
      time: 0.08
      eventEnabled: 0
      eventName: 
    - sprite: {fileID: -2563075532197919329, guid: eb4bfa54bc7fd8644b1312c74158b570,
        type: 3}
      time: 0.08
      eventEnabled: 0
      eventName: 
    - sprite: {fileID: -655894079973033808, guid: eb4bfa54bc7fd8644b1312c74158b570,
        type: 3}
      time: 0.08
      eventEnabled: 0
      eventName: 
    - sprite: {fileID: -8397141899197833046, guid: eb4bfa54bc7fd8644b1312c74158b570,
        type: 3}
      time: 0.08
      eventEnabled: 0
      eventName: 
    - sprite: {fileID: -8187107111898778926, guid: eb4bfa54bc7fd8644b1312c74158b570,
        type: 3}
      time: 0.08
      eventEnabled: 0
      eventName: 
    - sprite: {fileID: 5985389318767505025, guid: eb4bfa54bc7fd8644b1312c74158b570,
        type: 3}
      time: 0.08
      eventEnabled: 0
      eventName: 
    name: ocean-shallows-2
    selectedIndex: 0
    newFramesTime: 0.05
    setFramesTime: 0.1
  - speedRatio: 1
    loop: 1
    frameToLoop: 0
    frameDatas:
    - sprite: {fileID: 7776404710051354178, guid: 1d0cd6649fe3b3d478dc666da981efcc,
        type: 3}
      time: 0.08
      eventEnabled: 0
      eventName: 
    - sprite: {fileID: -2607241806220673312, guid: 1d0cd6649fe3b3d478dc666da981efcc,
        type: 3}
      time: 0.08
      eventEnabled: 0
      eventName: 
    - sprite: {fileID: 1407076448949940666, guid: 1d0cd6649fe3b3d478dc666da981efcc,
        type: 3}
      time: 0.08
      eventEnabled: 0
      eventName: 
    - sprite: {fileID: -4770462893621587574, guid: 1d0cd6649fe3b3d478dc666da981efcc,
        type: 3}
      time: 0.08
      eventEnabled: 0
      eventName: 
    - sprite: {fileID: -5772677346903144575, guid: 1d0cd6649fe3b3d478dc666da981efcc,
        type: 3}
      time: 0.08
      eventEnabled: 0
      eventName: 
    - sprite: {fileID: -3411526900924959753, guid: 1d0cd6649fe3b3d478dc666da981efcc,
        type: 3}
      time: 0.08
      eventEnabled: 0
      eventName: 
    - sprite: {fileID: 2480833762453379662, guid: 1d0cd6649fe3b3d478dc666da981efcc,
        type: 3}
      time: 0.08
      eventEnabled: 0
      eventName: 
    - sprite: {fileID: -3877973078837988855, guid: 1d0cd6649fe3b3d478dc666da981efcc,
        type: 3}
      time: 0.08
      eventEnabled: 0
      eventName: 
    - sprite: {fileID: 8832638795383341556, guid: 1d0cd6649fe3b3d478dc666da981efcc,
        type: 3}
      time: 0.08
      eventEnabled: 0
      eventName: 
    - sprite: {fileID: -4272195556801377122, guid: 1d0cd6649fe3b3d478dc666da981efcc,
        type: 3}
      time: 0.08
      eventEnabled: 0
      eventName: 
    - sprite: {fileID: -2178576129242261751, guid: 1d0cd6649fe3b3d478dc666da981efcc,
        type: 3}
      time: 0.08
      eventEnabled: 0
      eventName: 
    - sprite: {fileID: 538147394926575604, guid: 1d0cd6649fe3b3d478dc666da981efcc,
        type: 3}
      time: 0.08
      eventEnabled: 0
      eventName: 
    name: ocean-shallows-3
    selectedIndex: 0
    newFramesTime: 0.05
    setFramesTime: 0.1
  - speedRatio: 1
    loop: 1
    frameToLoop: 0
    frameDatas:
    - sprite: {fileID: 8051532621863004633, guid: ee98b643c08ea2a409185b624406041f,
        type: 3}
      time: 0.08
      eventEnabled: 0
      eventName: 
    - sprite: {fileID: -1310874407635315828, guid: ee98b643c08ea2a409185b624406041f,
        type: 3}
      time: 0.08
      eventEnabled: 0
      eventName: 
    - sprite: {fileID: -6066015797854818140, guid: ee98b643c08ea2a409185b624406041f,
        type: 3}
      time: 0.08
      eventEnabled: 0
      eventName: 
    - sprite: {fileID: -6628387260373103531, guid: ee98b643c08ea2a409185b624406041f,
        type: 3}
      time: 0.08
      eventEnabled: 0
      eventName: 
    - sprite: {fileID: 3151504600746979938, guid: ee98b643c08ea2a409185b624406041f,
        type: 3}
      time: 0.08
      eventEnabled: 0
      eventName: 
    - sprite: {fileID: 1121648370965694175, guid: ee98b643c08ea2a409185b624406041f,
        type: 3}
      time: 0.08
      eventEnabled: 0
      eventName: 
    - sprite: {fileID: -2732610597445660980, guid: ee98b643c08ea2a409185b624406041f,
        type: 3}
      time: 0.08
      eventEnabled: 0
      eventName: 
    - sprite: {fileID: -3452412124499147618, guid: ee98b643c08ea2a409185b624406041f,
        type: 3}
      time: 0.08
      eventEnabled: 0
      eventName: 
    - sprite: {fileID: -6739984520639441426, guid: ee98b643c08ea2a409185b624406041f,
        type: 3}
      time: 0.08
      eventEnabled: 0
      eventName: 
    - sprite: {fileID: -4280304324043365488, guid: ee98b643c08ea2a409185b624406041f,
        type: 3}
      time: 0.08
      eventEnabled: 0
      eventName: 
    - sprite: {fileID: 7666691637168755617, guid: ee98b643c08ea2a409185b624406041f,
        type: 3}
      time: 0.08
      eventEnabled: 0
      eventName: 
    - sprite: {fileID: 557324724277817951, guid: ee98b643c08ea2a409185b624406041f,
        type: 3}
      time: 0.08
      eventEnabled: 0
      eventName: 
    name: ocean-shallows-alt-1
    selectedIndex: 0
    newFramesTime: 0.05
    setFramesTime: 0.1
  - speedRatio: 1
    loop: 1
    frameToLoop: 0
    frameDatas:
    - sprite: {fileID: 2182188523587357453, guid: 6fa25fd1581ae1941ba69c9e904b1907,
        type: 3}
      time: 0.08
      eventEnabled: 0
      eventName: 
    - sprite: {fileID: -1620881906763063689, guid: 6fa25fd1581ae1941ba69c9e904b1907,
        type: 3}
      time: 0.08
      eventEnabled: 0
      eventName: 
    - sprite: {fileID: -643654182078798814, guid: 6fa25fd1581ae1941ba69c9e904b1907,
        type: 3}
      time: 0.08
      eventEnabled: 0
      eventName: 
    - sprite: {fileID: 9003149092892128784, guid: 6fa25fd1581ae1941ba69c9e904b1907,
        type: 3}
      time: 0.08
      eventEnabled: 0
      eventName: 
    - sprite: {fileID: 8082817263406503767, guid: 6fa25fd1581ae1941ba69c9e904b1907,
        type: 3}
      time: 0.08
      eventEnabled: 0
      eventName: 
    - sprite: {fileID: -1455676363995792110, guid: 6fa25fd1581ae1941ba69c9e904b1907,
        type: 3}
      time: 0.08
      eventEnabled: 0
      eventName: 
    - sprite: {fileID: 3163644155534762705, guid: 6fa25fd1581ae1941ba69c9e904b1907,
        type: 3}
      time: 0.08
      eventEnabled: 0
      eventName: 
    - sprite: {fileID: -2009568951789520122, guid: 6fa25fd1581ae1941ba69c9e904b1907,
        type: 3}
      time: 0.08
      eventEnabled: 0
      eventName: 
    - sprite: {fileID: 5408170870611274166, guid: 6fa25fd1581ae1941ba69c9e904b1907,
        type: 3}
      time: 0.08
      eventEnabled: 0
      eventName: 
    - sprite: {fileID: -5506516667060924144, guid: 6fa25fd1581ae1941ba69c9e904b1907,
        type: 3}
      time: 0.08
      eventEnabled: 0
      eventName: 
    - sprite: {fileID: 2795588891399048434, guid: 6fa25fd1581ae1941ba69c9e904b1907,
        type: 3}
      time: 0.08
      eventEnabled: 0
      eventName: 
    - sprite: {fileID: -7273075352765555872, guid: 6fa25fd1581ae1941ba69c9e904b1907,
        type: 3}
      time: 0.08
      eventEnabled: 0
      eventName: 
    name: ocean-shallows-alt-2
    selectedIndex: 0
    newFramesTime: 0.05
    setFramesTime: 0.1
  - speedRatio: 1
    loop: 1
    frameToLoop: 0
    frameDatas:
    - sprite: {fileID: -6807018477310112465, guid: 15bc232a302509b4c8366f50cb9acbe9,
        type: 3}
      time: 0.08
      eventEnabled: 0
      eventName: 
    - sprite: {fileID: 8428654031208044098, guid: 15bc232a302509b4c8366f50cb9acbe9,
        type: 3}
      time: 0.08
      eventEnabled: 0
      eventName: 
    - sprite: {fileID: 7324090737276627964, guid: 15bc232a302509b4c8366f50cb9acbe9,
        type: 3}
      time: 0.08
      eventEnabled: 0
      eventName: 
    - sprite: {fileID: -2674450597092529425, guid: 15bc232a302509b4c8366f50cb9acbe9,
        type: 3}
      time: 0.08
      eventEnabled: 0
      eventName: 
    - sprite: {fileID: -2277900412299553081, guid: 15bc232a302509b4c8366f50cb9acbe9,
        type: 3}
      time: 0.08
      eventEnabled: 0
      eventName: 
    - sprite: {fileID: -5631467112505705386, guid: 15bc232a302509b4c8366f50cb9acbe9,
        type: 3}
      time: 0.08
      eventEnabled: 0
      eventName: 
    - sprite: {fileID: 7463636059025623797, guid: 15bc232a302509b4c8366f50cb9acbe9,
        type: 3}
      time: 0.08
      eventEnabled: 0
      eventName: 
    - sprite: {fileID: 2290794026785700221, guid: 15bc232a302509b4c8366f50cb9acbe9,
        type: 3}
      time: 0.08
      eventEnabled: 0
      eventName: 
    - sprite: {fileID: 8376856753055110653, guid: 15bc232a302509b4c8366f50cb9acbe9,
        type: 3}
      time: 0.08
      eventEnabled: 0
      eventName: 
    - sprite: {fileID: 7054046018992075850, guid: 15bc232a302509b4c8366f50cb9acbe9,
        type: 3}
      time: 0.08
      eventEnabled: 0
      eventName: 
    - sprite: {fileID: -8363316833235207188, guid: 15bc232a302509b4c8366f50cb9acbe9,
        type: 3}
      time: 0.08
      eventEnabled: 0
      eventName: 
    - sprite: {fileID: -5891331793794249851, guid: 15bc232a302509b4c8366f50cb9acbe9,
        type: 3}
      time: 0.08
      eventEnabled: 0
      eventName: 
    name: ocean-shallows-alt-3
    selectedIndex: 0
    newFramesTime: 0.05
    setFramesTime: 0.1
  - speedRatio: 1
    loop: 0
    frameToLoop: 0
    frameDatas:
    - sprite: {fileID: 21300000, guid: 9e73605fea048b140aba19cf30767574, type: 3}
      time: 0.04
      eventEnabled: 0
      eventName: 
    name: pierstone-1
    selectedIndex: 0
    newFramesTime: 0.05
    setFramesTime: 0.1
  - speedRatio: 1
    loop: 0
    frameToLoop: 0
    frameDatas:
    - sprite: {fileID: 21300000, guid: 6412e047aaee789498f7054dd0dd9e5a, type: 3}
      time: 0.04
      eventEnabled: 0
      eventName: 
    name: pierstone-2
    selectedIndex: 0
    newFramesTime: 0.05
    setFramesTime: 0.1
  - speedRatio: 1
    loop: 0
    frameToLoop: 0
    frameDatas:
    - sprite: {fileID: 21300000, guid: ac202acf48f916241a105b3a50d16d29, type: 3}
      time: 0.04
      eventEnabled: 0
      eventName: 
    name: pierstone-3
    selectedIndex: 0
    newFramesTime: 0.05
    setFramesTime: 0.1
  - speedRatio: 1
    loop: 0
    frameToLoop: 0
    frameDatas:
    - sprite: {fileID: 21300000, guid: 74d2314e7462b754992184ed4fb64c42, type: 3}
      time: 0.04
      eventEnabled: 0
      eventName: 
    name: prisonstone-1
    selectedIndex: 0
    newFramesTime: 0.05
    setFramesTime: 0.1
  - speedRatio: 1
    loop: 0
    frameToLoop: 0
    frameDatas:
    - sprite: {fileID: 21300000, guid: 9293d6e8925c68140bb20699a73384f6, type: 3}
      time: 0.04
      eventEnabled: 0
      eventName: 
    name: prisonstone-2
    selectedIndex: 0
    newFramesTime: 0.05
    setFramesTime: 0.1
  - speedRatio: 1
    loop: 0
    frameToLoop: 0
    frameDatas:
    - sprite: {fileID: 21300000, guid: 282aff3bf082f9d49bf71f7db726ac75, type: 3}
      time: 0.04
      eventEnabled: 0
      eventName: 
    name: prisonstone-3
    selectedIndex: 0
    newFramesTime: 0.05
    setFramesTime: 0.1
  - speedRatio: 1
    loop: 0
    frameToLoop: 0
    frameDatas:
    - sprite: {fileID: 21300000, guid: 28d3dee021a4dc14fb05650d4b006af7, type: 3}
      time: 0.04
      eventEnabled: 0
      eventName: 
    name: red-carpet-1
    selectedIndex: 0
    newFramesTime: 0.05
    setFramesTime: 0.1
  - speedRatio: 1
    loop: 0
    frameToLoop: 0
    frameDatas:
    - sprite: {fileID: 21300000, guid: d43f63ebc0adae94bbfdf7fa11bb1d18, type: 3}
      time: 0.04
      eventEnabled: 0
      eventName: 
    name: red-carpet-2
    selectedIndex: 0
    newFramesTime: 0.05
    setFramesTime: 0.1
  - speedRatio: 1
    loop: 0
    frameToLoop: 0
    frameDatas:
    - sprite: {fileID: 21300000, guid: 96894d403b0b9d0468b385b77ee004e1, type: 3}
      time: 0.04
      eventEnabled: 0
      eventName: 
    name: red-carpet-3
    selectedIndex: 0
    newFramesTime: 0.05
    setFramesTime: 0.1
  - speedRatio: 1
    loop: 1
    frameToLoop: 0
    frameDatas:
    - sprite: {fileID: 6560980365874935998, guid: c792b3fe3f09a45108c3003d340d6253,
        type: 3}
      time: 0.08
      eventEnabled: 0
      eventName: 
    - sprite: {fileID: -5344178331723463584, guid: c792b3fe3f09a45108c3003d340d6253,
        type: 3}
      time: 0.08
      eventEnabled: 0
      eventName: 
    - sprite: {fileID: -2526154114911419155, guid: c792b3fe3f09a45108c3003d340d6253,
        type: 3}
      time: 0.08
      eventEnabled: 0
      eventName: 
    - sprite: {fileID: 4408803761306806500, guid: c792b3fe3f09a45108c3003d340d6253,
        type: 3}
      time: 0.08
      eventEnabled: 0
      eventName: 
    - sprite: {fileID: -3860025426895681392, guid: c792b3fe3f09a45108c3003d340d6253,
        type: 3}
      time: 0.08
      eventEnabled: 0
      eventName: 
    - sprite: {fileID: 5941602143201631620, guid: c792b3fe3f09a45108c3003d340d6253,
        type: 3}
      time: 0.08
      eventEnabled: 0
      eventName: 
    - sprite: {fileID: -560188244272462874, guid: c792b3fe3f09a45108c3003d340d6253,
        type: 3}
      time: 0.08
      eventEnabled: 0
      eventName: 
    - sprite: {fileID: 4398695981907344491, guid: c792b3fe3f09a45108c3003d340d6253,
        type: 3}
      time: 0.08
      eventEnabled: 0
      eventName: 
    - sprite: {fileID: -968400472145299473, guid: c792b3fe3f09a45108c3003d340d6253,
        type: 3}
      time: 0.08
      eventEnabled: 0
      eventName: 
    - sprite: {fileID: -5004841376969138687, guid: c792b3fe3f09a45108c3003d340d6253,
        type: 3}
      time: 0.08
      eventEnabled: 0
      eventName: 
    - sprite: {fileID: -4782915125253362191, guid: c792b3fe3f09a45108c3003d340d6253,
        type: 3}
      time: 0.08
      eventEnabled: 0
      eventName: 
    - sprite: {fileID: 5504136010433788193, guid: c792b3fe3f09a45108c3003d340d6253,
        type: 3}
      time: 0.08
      eventEnabled: 0
      eventName: 
    name: river-1
    selectedIndex: 0
    newFramesTime: 0.05
    setFramesTime: 0.08
  - speedRatio: 1
    loop: 1
    frameToLoop: 0
    frameDatas:
    - sprite: {fileID: 956443511942642933, guid: 04cf450aa98c741a9b974062edc2e7b3,
        type: 3}
      time: 0.08
      eventEnabled: 0
      eventName: 
    - sprite: {fileID: 4797435981281776010, guid: 04cf450aa98c741a9b974062edc2e7b3,
        type: 3}
      time: 0.08
      eventEnabled: 0
      eventName: 
    - sprite: {fileID: -15480745214810107, guid: 04cf450aa98c741a9b974062edc2e7b3,
        type: 3}
      time: 0.08
      eventEnabled: 0
      eventName: 
    - sprite: {fileID: -322808023142717388, guid: 04cf450aa98c741a9b974062edc2e7b3,
        type: 3}
      time: 0.08
      eventEnabled: 0
      eventName: 
    - sprite: {fileID: 2717340814993792974, guid: 04cf450aa98c741a9b974062edc2e7b3,
        type: 3}
      time: 0.08
      eventEnabled: 0
      eventName: 
    - sprite: {fileID: -4374380377705997712, guid: 04cf450aa98c741a9b974062edc2e7b3,
        type: 3}
      time: 0.08
      eventEnabled: 0
      eventName: 
    - sprite: {fileID: -6617421109358134230, guid: 04cf450aa98c741a9b974062edc2e7b3,
        type: 3}
      time: 0.08
      eventEnabled: 0
      eventName: 
    - sprite: {fileID: 4239836654005948868, guid: 04cf450aa98c741a9b974062edc2e7b3,
        type: 3}
      time: 0.08
      eventEnabled: 0
      eventName: 
    - sprite: {fileID: 6303175510720128742, guid: 04cf450aa98c741a9b974062edc2e7b3,
        type: 3}
      time: 0.08
      eventEnabled: 0
      eventName: 
    - sprite: {fileID: 4820826059479218455, guid: 04cf450aa98c741a9b974062edc2e7b3,
        type: 3}
      time: 0.08
      eventEnabled: 0
      eventName: 
    - sprite: {fileID: -976908027021493788, guid: 04cf450aa98c741a9b974062edc2e7b3,
        type: 3}
      time: 0.08
      eventEnabled: 0
      eventName: 
    - sprite: {fileID: -8110842936240547934, guid: 04cf450aa98c741a9b974062edc2e7b3,
        type: 3}
      time: 0.08
      eventEnabled: 0
      eventName: 
    name: river-2
    selectedIndex: 0
    newFramesTime: 0.05
    setFramesTime: 0.08
  - speedRatio: 1
    loop: 1
    frameToLoop: 0
    frameDatas:
    - sprite: {fileID: -648269698164636867, guid: 3597e07b2beeb404191cd685c152b923,
        type: 3}
      time: 0.08
      eventEnabled: 0
      eventName: 
    - sprite: {fileID: 933821508904787636, guid: 3597e07b2beeb404191cd685c152b923,
        type: 3}
      time: 0.08
      eventEnabled: 0
      eventName: 
    - sprite: {fileID: 4138565549522376035, guid: 3597e07b2beeb404191cd685c152b923,
        type: 3}
      time: 0.08
      eventEnabled: 0
      eventName: 
    - sprite: {fileID: 6372971819169575168, guid: 3597e07b2beeb404191cd685c152b923,
        type: 3}
      time: 0.08
      eventEnabled: 0
      eventName: 
    - sprite: {fileID: -8975917858814337784, guid: 3597e07b2beeb404191cd685c152b923,
        type: 3}
      time: 0.08
      eventEnabled: 0
      eventName: 
    - sprite: {fileID: -6242059637931290774, guid: 3597e07b2beeb404191cd685c152b923,
        type: 3}
      time: 0.08
      eventEnabled: 0
      eventName: 
    - sprite: {fileID: 2448924829135491117, guid: 3597e07b2beeb404191cd685c152b923,
        type: 3}
      time: 0.08
      eventEnabled: 0
      eventName: 
    - sprite: {fileID: -2640147655818801796, guid: 3597e07b2beeb404191cd685c152b923,
        type: 3}
      time: 0.08
      eventEnabled: 0
      eventName: 
    - sprite: {fileID: -7187437372873942360, guid: 3597e07b2beeb404191cd685c152b923,
        type: 3}
      time: 0.08
      eventEnabled: 0
      eventName: 
    - sprite: {fileID: -2958722227601398458, guid: 3597e07b2beeb404191cd685c152b923,
        type: 3}
      time: 0.08
      eventEnabled: 0
      eventName: 
    - sprite: {fileID: -3790911952521305216, guid: 3597e07b2beeb404191cd685c152b923,
        type: 3}
      time: 0.08
      eventEnabled: 0
      eventName: 
    - sprite: {fileID: -8962778519448486804, guid: 3597e07b2beeb404191cd685c152b923,
        type: 3}
      time: 0.08
      eventEnabled: 0
      eventName: 
    name: river-3
    selectedIndex: 0
    newFramesTime: 0.05
    setFramesTime: 0.08
  - speedRatio: 1
    loop: 1
    frameToLoop: 0
    frameDatas:
    - sprite: {fileID: 21300000, guid: a3882608a0b82d347a83c5390f8af917, type: 3}
      time: 0.04
      eventEnabled: 0
      eventName: 
    name: sanctumbrick-1
    selectedIndex: 0
    newFramesTime: 0.05
    setFramesTime: 0.1
  - speedRatio: 1
    loop: 1
    frameToLoop: 0
    frameDatas:
    - sprite: {fileID: 21300000, guid: 39204926e80d8f14e8652b11ac8975a2, type: 3}
      time: 0.04
      eventEnabled: 0
      eventName: 
    name: sanctumbrick-2
    selectedIndex: 0
    newFramesTime: 0.05
    setFramesTime: 0.1
  - speedRatio: 1
    loop: 1
    frameToLoop: 0
    frameDatas:
    - sprite: {fileID: 21300000, guid: d0cb1a18e6a88ca478102a9f64794216, type: 3}
      time: 0.04
      eventEnabled: 0
      eventName: 
    name: sanctumbrick-3
    selectedIndex: 0
    newFramesTime: 0.05
    setFramesTime: 0.1
  - speedRatio: 1
    loop: 1
    frameToLoop: 0
    frameDatas:
    - sprite: {fileID: 21300000, guid: 86f70474c8260a541b83c76c8805ae71, type: 3}
      time: 0.04
      eventEnabled: 0
      eventName: 
    name: sanctumfloor-1
    selectedIndex: 0
    newFramesTime: 0.05
    setFramesTime: 0.1
  - speedRatio: 1
    loop: 1
    frameToLoop: 0
    frameDatas:
    - sprite: {fileID: 21300000, guid: e15a95ef6cdc3654182eb9c22e8c84f0, type: 3}
      time: 0.04
      eventEnabled: 0
      eventName: 
    name: sanctumfloor-2
    selectedIndex: 0
    newFramesTime: 0.05
    setFramesTime: 0.1
  - speedRatio: 1
    loop: 1
    frameToLoop: 0
    frameDatas:
    - sprite: {fileID: 21300000, guid: a4f6f8fc7721ac249a51038e45c97d0a, type: 3}
      time: 0.04
      eventEnabled: 0
      eventName: 
    name: sanctumfloor-3
    selectedIndex: 0
    newFramesTime: 0.05
    setFramesTime: 0.1
  - speedRatio: 1
    loop: 1
    frameToLoop: 0
    frameDatas:
    - sprite: {fileID: 21300000, guid: b40e7b4d19f6dfc4892c3e54810040fc, type: 3}
      time: 0.04
      eventEnabled: 0
      eventName: 
    name: sanctumstone-1
    selectedIndex: 0
    newFramesTime: 0.05
    setFramesTime: 0.1
  - speedRatio: 1
    loop: 1
    frameToLoop: 0
    frameDatas:
    - sprite: {fileID: 21300000, guid: f0079a2464665774d8d7e2c99bc21092, type: 3}
      time: 0.04
      eventEnabled: 0
      eventName: 
    name: sanctumstone-2
    selectedIndex: 0
    newFramesTime: 0.05
    setFramesTime: 0.1
  - speedRatio: 1
    loop: 1
    frameToLoop: 0
    frameDatas:
    - sprite: {fileID: 21300000, guid: 6cf3976cbe5aa934c952fc45506f2109, type: 3}
      time: 0.04
      eventEnabled: 0
      eventName: 
    name: sanctumstone-3
    selectedIndex: 0
    newFramesTime: 0.05
    setFramesTime: 0.1
  - speedRatio: 1
    loop: 1
    frameToLoop: 0
    frameDatas:
    - sprite: {fileID: 21300000, guid: 1d7a7e0e96d5c4274a742281a0e3ecd0, type: 3}
      time: 0.06
      eventEnabled: 0
      eventName: 
    name: sand-1
    selectedIndex: 0
    newFramesTime: 0.05
    setFramesTime: 0.1
  - speedRatio: 1
    loop: 1
    frameToLoop: 0
    frameDatas:
    - sprite: {fileID: 21300000, guid: 88a35ee0e84a54d2f900cd1af7b702f1, type: 3}
      time: 0.06
      eventEnabled: 0
      eventName: 
    name: sand-2
    selectedIndex: 0
    newFramesTime: 0.05
    setFramesTime: 0.1
  - speedRatio: 1
    loop: 1
    frameToLoop: 0
    frameDatas:
    - sprite: {fileID: 21300000, guid: f7b76025e26f14f80b765d7b4a8054a4, type: 3}
      time: 0.06
      eventEnabled: 0
      eventName: 
    name: sand-3
    selectedIndex: 0
    newFramesTime: 0.05
    setFramesTime: 0.1
  - speedRatio: 1
    loop: 1
    frameToLoop: 0
    frameDatas:
    - sprite: {fileID: 21300000, guid: 9ea5e65db094844e0aff97b456516253, type: 3}
      time: 0.06
      eventEnabled: 0
      eventName: 
    name: sand-4
    selectedIndex: 0
    newFramesTime: 0.05
    setFramesTime: 0.1
  - speedRatio: 1
    loop: 0
    frameToLoop: 0
    frameDatas:
    - sprite: {fileID: 21300000, guid: 566913181245fe545bafd6bbc30448f0, type: 3}
      time: 0.04
      eventEnabled: 0
      eventName: 
    name: seaspoutpiera-1
    selectedIndex: 0
    newFramesTime: 0.05
    setFramesTime: 0.1
  - speedRatio: 1
    loop: 0
    frameToLoop: 0
    frameDatas:
    - sprite: {fileID: 21300000, guid: 2c4e3bf4565a0f344be8f2bf36b4b181, type: 3}
      time: 0.04
      eventEnabled: 0
      eventName: 
    name: seaspoutpiera-2
    selectedIndex: 0
    newFramesTime: 0.05
    setFramesTime: 0.1
  - speedRatio: 1
    loop: 0
    frameToLoop: 0
    frameDatas:
    - sprite: {fileID: 21300000, guid: 52c1b6f0f4176d542949a20a3227f615, type: 3}
      time: 0.04
      eventEnabled: 0
      eventName: 
    name: seaspoutpiera-3
    selectedIndex: 0
    newFramesTime: 0.05
    setFramesTime: 0.1
  - speedRatio: 1
    loop: 0
    frameToLoop: 0
    frameDatas:
    - sprite: {fileID: 21300000, guid: e66cc5c5eed5ad142831b664488f6eec, type: 3}
      time: 0.04
      eventEnabled: 0
      eventName: 
    name: seaspoutpierb-1
    selectedIndex: 0
    newFramesTime: 0.05
    setFramesTime: 0.1
  - speedRatio: 1
    loop: 0
    frameToLoop: 0
    frameDatas:
    - sprite: {fileID: 21300000, guid: 762ec31334999e0428431e98a115365a, type: 3}
      time: 0.04
      eventEnabled: 0
      eventName: 
    name: seaspoutpierb-2
    selectedIndex: 0
    newFramesTime: 0.05
    setFramesTime: 0.1
  - speedRatio: 1
    loop: 0
    frameToLoop: 0
    frameDatas:
    - sprite: {fileID: 21300000, guid: ce5d4979f44ed9c4ab832a80f627e42a, type: 3}
      time: 0.04
      eventEnabled: 0
      eventName: 
    name: seaspoutpierb-3
    selectedIndex: 0
    newFramesTime: 0.05
    setFramesTime: 0.1
  - speedRatio: 1
    loop: 1
    frameToLoop: 0
    frameDatas:
    - sprite: {fileID: 7213165428259527717, guid: 3e5dce8e381d36e40aae26c9eb27c06b,
        type: 3}
      time: 0.08
      eventEnabled: 0
      eventName: 
    - sprite: {fileID: 1342046285417849213, guid: 3e5dce8e381d36e40aae26c9eb27c06b,
        type: 3}
      time: 0.08
      eventEnabled: 0
      eventName: 
    - sprite: {fileID: -9042308903119716911, guid: 3e5dce8e381d36e40aae26c9eb27c06b,
        type: 3}
      time: 0.08
      eventEnabled: 0
      eventName: 
    - sprite: {fileID: -6713626161874702055, guid: 3e5dce8e381d36e40aae26c9eb27c06b,
        type: 3}
      time: 0.08
      eventEnabled: 0
      eventName: 
    - sprite: {fileID: -2826300023604529919, guid: 3e5dce8e381d36e40aae26c9eb27c06b,
        type: 3}
      time: 0.08
      eventEnabled: 0
      eventName: 
    - sprite: {fileID: 7755793444508883646, guid: 3e5dce8e381d36e40aae26c9eb27c06b,
        type: 3}
      time: 0.08
      eventEnabled: 0
      eventName: 
    - sprite: {fileID: 8764270309976534750, guid: 3e5dce8e381d36e40aae26c9eb27c06b,
        type: 3}
      time: 0.08
      eventEnabled: 0
      eventName: 
    - sprite: {fileID: -2515609773130865324, guid: 3e5dce8e381d36e40aae26c9eb27c06b,
        type: 3}
      time: 0.08
      eventEnabled: 0
      eventName: 
    - sprite: {fileID: -7210574268076930062, guid: 3e5dce8e381d36e40aae26c9eb27c06b,
        type: 3}
      time: 0.08
      eventEnabled: 0
      eventName: 
    - sprite: {fileID: -7451146559067255532, guid: 3e5dce8e381d36e40aae26c9eb27c06b,
        type: 3}
      time: 0.08
      eventEnabled: 0
      eventName: 
    - sprite: {fileID: 2300682435074304192, guid: 3e5dce8e381d36e40aae26c9eb27c06b,
        type: 3}
      time: 0.08
      eventEnabled: 0
      eventName: 
    - sprite: {fileID: -4626374689405227174, guid: 3e5dce8e381d36e40aae26c9eb27c06b,
        type: 3}
      time: 0.08
      eventEnabled: 0
      eventName: 
    name: shiverpool-1
    selectedIndex: 0
    newFramesTime: 0.05
    setFramesTime: 0.08
  - speedRatio: 1
    loop: 1
    frameToLoop: 0
    frameDatas:
    - sprite: {fileID: 4322441130013126224, guid: 8a46ef1d163763641ab72f24d1807374,
        type: 3}
      time: 0.08
      eventEnabled: 0
      eventName: 
    - sprite: {fileID: 7180387617398888349, guid: 8a46ef1d163763641ab72f24d1807374,
        type: 3}
      time: 0.08
      eventEnabled: 0
      eventName: 
    - sprite: {fileID: 6027256656159533508, guid: 8a46ef1d163763641ab72f24d1807374,
        type: 3}
      time: 0.08
      eventEnabled: 0
      eventName: 
    - sprite: {fileID: 5464521654473723096, guid: 8a46ef1d163763641ab72f24d1807374,
        type: 3}
      time: 0.08
      eventEnabled: 0
      eventName: 
    - sprite: {fileID: 5498375775220576627, guid: 8a46ef1d163763641ab72f24d1807374,
        type: 3}
      time: 0.08
      eventEnabled: 0
      eventName: 
    - sprite: {fileID: -5566309374536662828, guid: 8a46ef1d163763641ab72f24d1807374,
        type: 3}
      time: 0.08
      eventEnabled: 0
      eventName: 
    - sprite: {fileID: 8599435335340450628, guid: 8a46ef1d163763641ab72f24d1807374,
        type: 3}
      time: 0.08
      eventEnabled: 0
      eventName: 
    - sprite: {fileID: 6832248691540001625, guid: 8a46ef1d163763641ab72f24d1807374,
        type: 3}
      time: 0.08
      eventEnabled: 0
      eventName: 
    - sprite: {fileID: -485436097704055286, guid: 8a46ef1d163763641ab72f24d1807374,
        type: 3}
      time: 0.08
      eventEnabled: 0
      eventName: 
    - sprite: {fileID: -8738033122999636096, guid: 8a46ef1d163763641ab72f24d1807374,
        type: 3}
      time: 0.08
      eventEnabled: 0
      eventName: 
    - sprite: {fileID: 1654899642699515607, guid: 8a46ef1d163763641ab72f24d1807374,
        type: 3}
      time: 0.08
      eventEnabled: 0
      eventName: 
    - sprite: {fileID: 2801228420690778541, guid: 8a46ef1d163763641ab72f24d1807374,
        type: 3}
      time: 0.08
      eventEnabled: 0
      eventName: 
    name: shiverpool-2
    selectedIndex: 0
    newFramesTime: 0.05
    setFramesTime: 0.1
  - speedRatio: 1
    loop: 1
    frameToLoop: 0
    frameDatas:
    - sprite: {fileID: -5936380868460322123, guid: a4477105ff3574243873f2f8cd093ab5,
        type: 3}
      time: 0.08
      eventEnabled: 0
      eventName: 
    - sprite: {fileID: -3996999799784422922, guid: a4477105ff3574243873f2f8cd093ab5,
        type: 3}
      time: 0.08
      eventEnabled: 0
      eventName: 
    - sprite: {fileID: 3782903674515486575, guid: a4477105ff3574243873f2f8cd093ab5,
        type: 3}
      time: 0.08
      eventEnabled: 0
      eventName: 
    - sprite: {fileID: -2876644379029772928, guid: a4477105ff3574243873f2f8cd093ab5,
        type: 3}
      time: 0.08
      eventEnabled: 0
      eventName: 
    - sprite: {fileID: -6126598813156290878, guid: a4477105ff3574243873f2f8cd093ab5,
        type: 3}
      time: 0.08
      eventEnabled: 0
      eventName: 
    - sprite: {fileID: -80791022431578621, guid: a4477105ff3574243873f2f8cd093ab5,
        type: 3}
      time: 0.08
      eventEnabled: 0
      eventName: 
    - sprite: {fileID: -3972169654255803747, guid: a4477105ff3574243873f2f8cd093ab5,
        type: 3}
      time: 0.08
      eventEnabled: 0
      eventName: 
    - sprite: {fileID: 3899013435922996347, guid: a4477105ff3574243873f2f8cd093ab5,
        type: 3}
      time: 0.08
      eventEnabled: 0
      eventName: 
    - sprite: {fileID: 7490075579470743433, guid: a4477105ff3574243873f2f8cd093ab5,
        type: 3}
      time: 0.08
      eventEnabled: 0
      eventName: 
    - sprite: {fileID: 5249504350405730011, guid: a4477105ff3574243873f2f8cd093ab5,
        type: 3}
      time: 0.08
      eventEnabled: 0
      eventName: 
    - sprite: {fileID: 9182837031625807571, guid: a4477105ff3574243873f2f8cd093ab5,
        type: 3}
      time: 0.08
      eventEnabled: 0
      eventName: 
    - sprite: {fileID: -4376045530115671381, guid: a4477105ff3574243873f2f8cd093ab5,
        type: 3}
      time: 0.08
      eventEnabled: 0
      eventName: 
    name: shiverpool-3
    selectedIndex: 0
    newFramesTime: 0.05
    setFramesTime: 0.1
  - speedRatio: 1
    loop: 0
    frameToLoop: 0
    frameDatas:
    - sprite: {fileID: 21300000, guid: 19dbbdfb296dea44fa1c90c914174439, type: 3}
      time: 0.04
      eventEnabled: 0
      eventName: 
    name: starscapedirt-1
    selectedIndex: 0
    newFramesTime: 0.05
    setFramesTime: 0.1
  - speedRatio: 1
    loop: 0
    frameToLoop: 0
    frameDatas:
    - sprite: {fileID: 21300000, guid: 560e82a70e5c7334a873cd1804544fd6, type: 3}
      time: 0.04
      eventEnabled: 0
      eventName: 
    name: starscapedirt-2
    selectedIndex: 0
    newFramesTime: 0.05
    setFramesTime: 0.1
  - speedRatio: 1
    loop: 0
    frameToLoop: 0
    frameDatas:
    - sprite: {fileID: 21300000, guid: 9951b6af0da6b8548a2e62be3585d1ff, type: 3}
      time: 0.04
      eventEnabled: 0
      eventName: 
    name: starscapedirt-3
    selectedIndex: 0
    newFramesTime: 0.05
    setFramesTime: 0.1
  - speedRatio: 1
    loop: 0
    frameToLoop: 0
    frameDatas:
    - sprite: {fileID: 21300000, guid: e1ce29a57312699468acc5dd94021ea4, type: 3}
      time: 0.04
      eventEnabled: 0
      eventName: 
    name: starscapegrassa-1
    selectedIndex: 0
    newFramesTime: 0.05
    setFramesTime: 0.1
  - speedRatio: 1
    loop: 0
    frameToLoop: 0
    frameDatas:
    - sprite: {fileID: 21300000, guid: 78434ddece5a3894f8ee6836dcaac8e0, type: 3}
      time: 0.04
      eventEnabled: 0
      eventName: 
    name: starscapegrassa-2
    selectedIndex: 0
    newFramesTime: 0.05
    setFramesTime: 0.1
  - speedRatio: 1
    loop: 0
    frameToLoop: 0
    frameDatas:
    - sprite: {fileID: 21300000, guid: 4c7813e3b4ef60743ad7885f7602f888, type: 3}
      time: 0.04
      eventEnabled: 0
      eventName: 
    name: starscapegrassa-3
    selectedIndex: 0
    newFramesTime: 0.05
    setFramesTime: 0.1
  - speedRatio: 1
    loop: 0
    frameToLoop: 0
    frameDatas:
    - sprite: {fileID: 21300000, guid: 4aed00c355d60ae43b0cde412ef7f4ba, type: 3}
      time: 0.04
      eventEnabled: 0
      eventName: 
    name: starscapegrassb-1
    selectedIndex: 0
    newFramesTime: 0.05
    setFramesTime: 0.1
  - speedRatio: 1
    loop: 0
    frameToLoop: 0
    frameDatas:
    - sprite: {fileID: 21300000, guid: 591a4b77bcb8c7842884cb0dd1fab5ac, type: 3}
      time: 0.04
      eventEnabled: 0
      eventName: 
    name: starscapegrassb-2
    selectedIndex: 0
    newFramesTime: 0.05
    setFramesTime: 0.1
  - speedRatio: 1
    loop: 0
    frameToLoop: 0
    frameDatas:
    - sprite: {fileID: 21300000, guid: 0737205a7a4b7224e96764415a12105b, type: 3}
      time: 0.04
      eventEnabled: 0
      eventName: 
    name: starscapegrassb-3
    selectedIndex: 0
    newFramesTime: 0.05
    setFramesTime: 0.1
  - speedRatio: 1
    loop: 0
    frameToLoop: 0
    frameDatas:
    - sprite: {fileID: 21300000, guid: 3b5645ab71149c848bcb92f2e5076afe, type: 3}
      time: 0.04
      eventEnabled: 0
      eventName: 
    name: starscapegrassc-1
    selectedIndex: 0
    newFramesTime: 0.05
    setFramesTime: 0.1
  - speedRatio: 1
    loop: 0
    frameToLoop: 0
    frameDatas:
    - sprite: {fileID: 21300000, guid: 0d9c4ddaa7f35124fa31a6cc35225248, type: 3}
      time: 0.04
      eventEnabled: 0
      eventName: 
    name: starscapegrassc-2
    selectedIndex: 0
    newFramesTime: 0.05
    setFramesTime: 0.1
  - speedRatio: 1
    loop: 0
    frameToLoop: 0
    frameDatas:
    - sprite: {fileID: 21300000, guid: e187466e138b3ba4c94b1453f31fe32f, type: 3}
      time: 0.04
      eventEnabled: 0
      eventName: 
    name: starscapegrassc-3
    selectedIndex: 0
    newFramesTime: 0.05
    setFramesTime: 0.1
  - speedRatio: 1
    loop: 1
    frameToLoop: 0
    frameDatas:
    - sprite: {fileID: 21300000, guid: a02ac88e970827048a19eab453dacc06, type: 3}
      time: 0.04
      eventEnabled: 0
      eventName: 
    name: templecarpet-1
    selectedIndex: 0
    newFramesTime: 0.05
    setFramesTime: 0.1
  - speedRatio: 1
    loop: 1
    frameToLoop: 0
    frameDatas:
    - sprite: {fileID: 21300000, guid: d67f9949581be1b44887ae7aaeb85f71, type: 3}
      time: 0.04
      eventEnabled: 0
      eventName: 
    name: templecarpet-2
    selectedIndex: 0
    newFramesTime: 0.05
    setFramesTime: 0.1
  - speedRatio: 1
    loop: 1
    frameToLoop: 0
    frameDatas:
    - sprite: {fileID: 21300000, guid: 7fbd0f6a7c0ddb840ac3ae525cbc6b63, type: 3}
      time: 0.04
      eventEnabled: 0
      eventName: 
    name: templecarpet-3
    selectedIndex: 0
    newFramesTime: 0.05
    setFramesTime: 0.1
  - speedRatio: 1
    loop: 1
    frameToLoop: 0
    frameDatas:
    - sprite: {fileID: 21300000, guid: 7456827f3ffb9f84b8636437d6488158, type: 3}
      time: 0.04
      eventEnabled: 0
      eventName: 
    name: templefloora-1
    selectedIndex: 0
    newFramesTime: 0.05
    setFramesTime: 0.1
  - speedRatio: 1
    loop: 1
    frameToLoop: 0
    frameDatas:
    - sprite: {fileID: 21300000, guid: 1f148af5e0f4ba84f8bfe17ebee5e11f, type: 3}
      time: 0.04
      eventEnabled: 0
      eventName: 
    name: templefloora-2
    selectedIndex: 0
    newFramesTime: 0.05
    setFramesTime: 0.1
  - speedRatio: 1
    loop: 1
    frameToLoop: 0
    frameDatas:
    - sprite: {fileID: 21300000, guid: a10655342e78beb4789bbca082ae7fc0, type: 3}
      time: 0.04
      eventEnabled: 0
      eventName: 
    name: templefloora-3
    selectedIndex: 0
    newFramesTime: 0.05
    setFramesTime: 0.1
  - speedRatio: 1
    loop: 1
    frameToLoop: 0
    frameDatas:
    - sprite: {fileID: 21300000, guid: 1f8f7fdae11a6f04d87f8fc49dcc6951, type: 3}
      time: 0.04
      eventEnabled: 0
      eventName: 
    name: templefloorb-1
    selectedIndex: 0
    newFramesTime: 0.05
    setFramesTime: 0.1
  - speedRatio: 1
    loop: 1
    frameToLoop: 0
    frameDatas:
    - sprite: {fileID: 21300000, guid: d8c9704f423327e4e9daaa5b6a023505, type: 3}
      time: 0.04
      eventEnabled: 0
      eventName: 
    name: templefloorb-2
    selectedIndex: 0
    newFramesTime: 0.05
    setFramesTime: 0.1
  - speedRatio: 1
    loop: 1
    frameToLoop: 0
    frameDatas:
    - sprite: {fileID: 21300000, guid: 2fdd807a6be4ff64ea9201782de373e7, type: 3}
      time: 0.04
      eventEnabled: 0
      eventName: 
    name: templefloorb-3
    selectedIndex: 0
    newFramesTime: 0.05
    setFramesTime: 0.1
  - speedRatio: 1
    loop: 1
    frameToLoop: 0
    frameDatas:
    - sprite: {fileID: 21300000, guid: 5cde5fcab609c6f47b8def855077fa17, type: 3}
      time: 0.04
      eventEnabled: 0
      eventName: 
    name: templesand-1
    selectedIndex: 0
    newFramesTime: 0.05
    setFramesTime: 0.1
  - speedRatio: 1
    loop: 1
    frameToLoop: 0
    frameDatas:
    - sprite: {fileID: 21300000, guid: 88b45d7a5b7f87f4ca8e1e94c0e813a4, type: 3}
      time: 0.04
      eventEnabled: 0
      eventName: 
    name: templesand-2
    selectedIndex: 0
    newFramesTime: 0.05
    setFramesTime: 0.1
  - speedRatio: 1
    loop: 1
    frameToLoop: 0
    frameDatas:
    - sprite: {fileID: 21300000, guid: f97d8be0d14742f43870fe0b26d1e036, type: 3}
      time: 0.04
      eventEnabled: 0
      eventName: 
    name: templesand-3
    selectedIndex: 0
    newFramesTime: 0.05
    setFramesTime: 0.1
  - speedRatio: 1
    loop: 1
    frameToLoop: 0
    frameDatas:
    - sprite: {fileID: 21300000, guid: e1c67fcc68cf344f4bf5abc9ccb77951, type: 3}
      time: 0.06
      eventEnabled: 0
      eventName: 
    name: wooda-1
    selectedIndex: 0
    newFramesTime: 0.05
    setFramesTime: 0.1
  - speedRatio: 1
    loop: 1
    frameToLoop: 0
    frameDatas:
    - sprite: {fileID: 21300000, guid: b70c7064caa6b48e1b18fa2e7a7a05ef, type: 3}
      time: 0.06
      eventEnabled: 0
      eventName: 
    name: wooda-2
    selectedIndex: 0
    newFramesTime: 0.05
    setFramesTime: 0.1
  - speedRatio: 1
    loop: 1
    frameToLoop: 0
    frameDatas:
    - sprite: {fileID: 21300000, guid: 7e2dc24fd5932442fa17d4bd7b25fd92, type: 3}
      time: 0.06
      eventEnabled: 0
      eventName: 
    name: wooda-3
    selectedIndex: 0
    newFramesTime: 0.05
    setFramesTime: 0.1
  - speedRatio: 1
    loop: 1
    frameToLoop: 0
    frameDatas:
    - sprite: {fileID: 21300000, guid: 33ed8d5a9e4ca47308da9ab851a89586, type: 3}
      time: 0.06
      eventEnabled: 0
      eventName: 
    name: woodb-1
    selectedIndex: 0
    newFramesTime: 0.05
    setFramesTime: 0.1
  - speedRatio: 1
    loop: 1
    frameToLoop: 0
    frameDatas:
    - sprite: {fileID: 21300000, guid: 4fff58fbd2639457885f27172d582327, type: 3}
      time: 0.06
      eventEnabled: 0
      eventName: 
    name: woodb-2
    selectedIndex: 0
    newFramesTime: 0.05
    setFramesTime: 0.1
  - speedRatio: 1
    loop: 1
    frameToLoop: 0
    frameDatas:
    - sprite: {fileID: 21300000, guid: b51dcd8b496b84fcf89bcf1444fe6410, type: 3}
      time: 0.06
      eventEnabled: 0
      eventName: 
    name: woodb-3
    selectedIndex: 0
    newFramesTime: 0.05
    setFramesTime: 0.1
  - speedRatio: 1
    loop: 0
    frameToLoop: 0
    frameDatas:
    - sprite: {fileID: 21300000, guid: ea0f74357c62c284db6495ce331e44b9, type: 3}
      time: 0.04
      eventEnabled: 0
      eventName: 
    name: woodc-1
    selectedIndex: 0
    newFramesTime: 0.05
    setFramesTime: 0.1
  - speedRatio: 1
    loop: 0
    frameToLoop: 0
    frameDatas:
    - sprite: {fileID: 21300000, guid: 9bbbe541bcdf4184cb4d4bc184bd1d19, type: 3}
      time: 0.04
      eventEnabled: 0
      eventName: 
    name: woodc-2
    selectedIndex: 0
    newFramesTime: 0.05
    setFramesTime: 0.1
  - speedRatio: 1
    loop: 0
    frameToLoop: 0
    frameDatas:
    - sprite: {fileID: 21300000, guid: 1a0e0a498fa605646821e7aa1371a844, type: 3}
      time: 0.04
      eventEnabled: 0
      eventName: 
    name: woodc-3
    selectedIndex: 0
    newFramesTime: 0.05
    setFramesTime: 0.1
  - speedRatio: 1
    loop: 0
    frameToLoop: 0
    frameDatas:
    - sprite: {fileID: 21300000, guid: d4cb25a331c5c8742bc09c55879d7f7c, type: 3}
      time: 0.04
      eventEnabled: 0
      eventName: 
    name: woodcave-1
    selectedIndex: 0
    newFramesTime: 0.05
    setFramesTime: 0.1
  - speedRatio: 1
    loop: 0
    frameToLoop: 0
    frameDatas:
    - sprite: {fileID: 21300000, guid: fdf32132878b3174fba2f840d68dcdbb, type: 3}
      time: 0.04
      eventEnabled: 0
      eventName: 
    name: woodcave-2
    selectedIndex: 0
    newFramesTime: 0.05
    setFramesTime: 0.1
  - speedRatio: 1
    loop: 0
    frameToLoop: 0
    frameDatas:
    - sprite: {fileID: 21300000, guid: 63f981a538e79164c8a3c9a31bed24d6, type: 3}
      time: 0.04
      eventEnabled: 0
      eventName: 
    name: woodcave-3
    selectedIndex: 0
    newFramesTime: 0.05
    setFramesTime: 0.1
  - speedRatio: 1
    loop: 0
    frameToLoop: 0
    frameDatas:
    - sprite: {fileID: 21300000, guid: 602ef11939f04d14f8798d0862bc2b1c, type: 3}
      time: 0.04
      eventEnabled: 0
      eventName: 
    name: woodmine-1
    selectedIndex: 0
    newFramesTime: 0.05
    setFramesTime: 0.1
  - speedRatio: 1
    loop: 0
    frameToLoop: 0
    frameDatas:
    - sprite: {fileID: 21300000, guid: 8f1257f7bdb24d044bbdae0b84a373c9, type: 3}
      time: 0.04
      eventEnabled: 0
      eventName: 
    name: woodmine-2
    selectedIndex: 0
    newFramesTime: 0.05
    setFramesTime: 0.1
  - speedRatio: 1
    loop: 0
    frameToLoop: 0
    frameDatas:
    - sprite: {fileID: 21300000, guid: dfad344f384ca0c4880cc98b2e3e85ef, type: 3}
      time: 0.04
      eventEnabled: 0
      eventName: 
    name: woodmine-3
    selectedIndex: 0
    newFramesTime: 0.05
    setFramesTime: 0.1
  - speedRatio: 1
    loop: 0
    frameToLoop: 0
    frameDatas:
    - sprite: {fileID: 21300000, guid: a18b7eade2e63fd45be478c0f4dd1ba0, type: 3}
      time: 0.04
      eventEnabled: 0
      eventName: 
    name: woodpe-1
    selectedIndex: 0
    newFramesTime: 0.05
    setFramesTime: 0.1
  - speedRatio: 1
    loop: 0
    frameToLoop: 0
    frameDatas:
    - sprite: {fileID: 21300000, guid: ebc9f5b7da7dd1e4f8944bf8ba5451f1, type: 3}
      time: 0.04
      eventEnabled: 0
      eventName: 
    name: woodpe-2
    selectedIndex: 0
    newFramesTime: 0.05
    setFramesTime: 0.1
  - speedRatio: 1
    loop: 0
    frameToLoop: 0
    frameDatas:
    - sprite: {fileID: 21300000, guid: 028b9ab0584fd8f4689ae35ca0225516, type: 3}
      time: 0.04
      eventEnabled: 0
      eventName: 
    name: woodpe-3
    selectedIndex: 0
    newFramesTime: 0.05
    setFramesTime: 0.1
