%YAML 1.1
%TAG !u! tag:unity3d.com,2011:
--- !u!114 &11400000
MonoBehaviour:
  m_ObjectHideFlags: 0
  m_CorrespondingSourceObject: {fileID: 0}
  m_PrefabInstance: {fileID: 0}
  m_PrefabAsset: {fileID: 0}
  m_GameObject: {fileID: 0}
  m_Enabled: 1
  m_EditorHideFlags: 0
  m_Script: {fileID: 11500000, guid: 34404cb99b59bb543805a55e3c469d61, type: 3}
  m_Name: hex-marker
  m_EditorClassIdentifier: 
  editorConfirmations: 1
  animations:
  - speedRatio: 1
    loop: 0
    frameToLoop: 0
    frameDatas:
    - sprite: {fileID: 21300000, guid: 4aec1be5f64d54fa2ba7bc3f1fdb5da3, type: 3}
      time: 0.06
      eventEnabled: 0
      eventName: 
    name: battle
    selectedIndex: 0
    newFramesTime: 0.05
    setFramesTime: 0.1
  - speedRatio: 1
    loop: 0
    frameToLoop: 0
    frameDatas:
    - sprite: {fileID: 21300000, guid: 0d43c95ae358441349545cd89e673bd4, type: 3}
      time: 0.04
      eventEnabled: 0
      eventName: 
    name: boss
    selectedIndex: 0
    newFramesTime: 0.05
    setFramesTime: 0.1
  - speedRatio: 1
    loop: 1
    frameToLoop: 0
    frameDatas:
    - sprite: {fileID: -998273499118981189, guid: 9b7ea075dde7bc24b8c0d7b95968b15f,
        type: 3}
      time: 0.08
      eventEnabled: 0
      eventName: 
    - sprite: {fileID: -1973526545416468470, guid: 9b7ea075dde7bc24b8c0d7b95968b15f,
        type: 3}
      time: 0.08
      eventEnabled: 0
      eventName: 
    - sprite: {fileID: -7636136778426325325, guid: 9b7ea075dde7bc24b8c0d7b95968b15f,
        type: 3}
      time: 0.08
      eventEnabled: 0
      eventName: 
    - sprite: {fileID: 6873404557380755406, guid: 9b7ea075dde7bc24b8c0d7b95968b15f,
        type: 3}
      time: 0.08
      eventEnabled: 0
      eventName: 
    - sprite: {fileID: 8756543781558020765, guid: 9b7ea075dde7bc24b8c0d7b95968b15f,
        type: 3}
      time: 0.08
      eventEnabled: 0
      eventName: 
    - sprite: {fileID: -2344885889007201320, guid: 9b7ea075dde7bc24b8c0d7b95968b15f,
        type: 3}
      time: 0.08
      eventEnabled: 0
      eventName: 
    - sprite: {fileID: 6638568552330236342, guid: 9b7ea075dde7bc24b8c0d7b95968b15f,
        type: 3}
      time: 0.08
      eventEnabled: 0
      eventName: 
    - sprite: {fileID: -6069174025382358291, guid: 9b7ea075dde7bc24b8c0d7b95968b15f,
        type: 3}
      time: 0.08
      eventEnabled: 0
      eventName: 
    - sprite: {fileID: 1266470696322665627, guid: 9b7ea075dde7bc24b8c0d7b95968b15f,
        type: 3}
      time: 0.08
      eventEnabled: 0
      eventName: 
    - sprite: {fileID: 1119540415272763277, guid: 9b7ea075dde7bc24b8c0d7b95968b15f,
        type: 3}
      time: 0.08
      eventEnabled: 0
      eventName: 
    - sprite: {fileID: 4108375348599933574, guid: 9b7ea075dde7bc24b8c0d7b95968b15f,
        type: 3}
      time: 0.08
      eventEnabled: 0
      eventName: 
    - sprite: {fileID: -2201140560105649804, guid: 9b7ea075dde7bc24b8c0d7b95968b15f,
        type: 3}
      time: 0.08
      eventEnabled: 0
      eventName: 
    - sprite: {fileID: -6267748052304381018, guid: 9b7ea075dde7bc24b8c0d7b95968b15f,
        type: 3}
      time: 0.08
      eventEnabled: 0
      eventName: 
    - sprite: {fileID: -8079462767674024031, guid: 9b7ea075dde7bc24b8c0d7b95968b15f,
        type: 3}
      time: 0.08
      eventEnabled: 0
      eventName: 
    - sprite: {fileID: -3649783099168249534, guid: 9b7ea075dde7bc24b8c0d7b95968b15f,
        type: 3}
      time: 0.08
      eventEnabled: 0
      eventName: 
    - sprite: {fileID: -1670255320808545547, guid: 9b7ea075dde7bc24b8c0d7b95968b15f,
        type: 3}
      time: 0.08
      eventEnabled: 0
      eventName: 
    name: card-shop
    selectedIndex: 0
    newFramesTime: 0.05
    setFramesTime: 0.1
  - speedRatio: 1
    loop: 0
    frameToLoop: 0
    frameDatas:
    - sprite: {fileID: 21300000, guid: 6e08deb6de7504e549d7a860c9f77b11, type: 3}
      time: 0.06
      eventEnabled: 0
      eventName: 
    name: chest
    selectedIndex: 0
    newFramesTime: 0.05
    setFramesTime: 0.1
  - speedRatio: 1
    loop: 0
    frameToLoop: 0
    frameDatas:
    - sprite: {fileID: 21300000, guid: 773220cde26564c44995a7e451cf0a53, type: 3}
      time: 0.04
      eventEnabled: 0
      eventName: 
    name: chest-melding
    selectedIndex: 0
    newFramesTime: 0.05
    setFramesTime: 0.1
  - speedRatio: 1
    loop: 0
    frameToLoop: 0
    frameDatas:
    - sprite: {fileID: 21300000, guid: 5919ffc0e1d7b9d47a09601ebddc5a35, type: 3}
      time: 0.04
      eventEnabled: 0
      eventName: 
    name: chest-relic
    selectedIndex: 0
    newFramesTime: 0.05
    setFramesTime: 0.1
  - speedRatio: 1
    loop: 0
    frameToLoop: 0
    frameDatas:
    - sprite: {fileID: 21300000, guid: 8b87f19ec736d45a18d8286ce234b109, type: 3}
      time: 0.06
      eventEnabled: 0
      eventName: 
    name: down-exit
    selectedIndex: 0
    newFramesTime: 0.05
    setFramesTime: 0.1
  - speedRatio: 1
    loop: 1
    frameToLoop: 0
    frameDatas:
    - sprite: {fileID: 1928336903083294284, guid: b215ec844721d854398b66b33635b6a5,
        type: 3}
      time: 0.6
      eventEnabled: 0
      eventName: 
    - sprite: {fileID: -2223430992883770562, guid: b215ec844721d854398b66b33635b6a5,
        type: 3}
      time: 0.08
      eventEnabled: 0
      eventName: 
    - sprite: {fileID: -7472145751395420792, guid: b215ec844721d854398b66b33635b6a5,
        type: 3}
      time: 0.08
      eventEnabled: 0
      eventName: 
    - sprite: {fileID: 7923021770829666470, guid: b215ec844721d854398b66b33635b6a5,
        type: 3}
      time: 0.6
      eventEnabled: 0
      eventName: 
    - sprite: {fileID: 2570358661778468321, guid: b215ec844721d854398b66b33635b6a5,
        type: 3}
      time: 0.08
      eventEnabled: 0
      eventName: 
    - sprite: {fileID: -3318577227530457146, guid: b215ec844721d854398b66b33635b6a5,
        type: 3}
      time: 0.08
      eventEnabled: 0
      eventName: 
    name: enter
    selectedIndex: 5
    newFramesTime: 0.05
    setFramesTime: 0.1
  - speedRatio: 1
    loop: 0
    frameToLoop: 0
    frameDatas:
    - sprite: {fileID: 21300000, guid: dcc826e5d94df46eb8a942a4ded879f1, type: 3}
      time: 0.06
      eventEnabled: 0
      eventName: 
    name: event-1
    selectedIndex: 0
    newFramesTime: 0.05
    setFramesTime: 0.1
  - speedRatio: 1
    loop: 0
    frameToLoop: 0
    frameDatas:
    - sprite: {fileID: 21300000, guid: 838ad03e2b17a428eb9da898104348a9, type: 3}
      time: 0.06
      eventEnabled: 0
      eventName: 
    name: event-2
    selectedIndex: 0
    newFramesTime: 0.05
    setFramesTime: 0.1
  - speedRatio: 1
    loop: 0
    frameToLoop: 0
    frameDatas:
    - sprite: {fileID: 21300000, guid: b5160c2a3af77419ca4f5048dca2a817, type: 3}
      time: 0.04
      eventEnabled: 0
      eventName: 
    name: exit-chapter
    selectedIndex: 0
    newFramesTime: 0.05
    setFramesTime: 0.1
  - speedRatio: 1
    loop: 0
    frameToLoop: 0
    frameDatas:
    - sprite: {fileID: 21300000, guid: a3b7b3186fe364575b6cbac035e44d94, type: 3}
      time: 0.06
      eventEnabled: 0
      eventName: 
    name: left-exit
    selectedIndex: 0
    newFramesTime: 0.05
    setFramesTime: 0.1
  - speedRatio: 1
    loop: 1
    frameToLoop: 0
    frameDatas:
    - sprite: {fileID: -750977736637556127, guid: ce2dc2582a9f6234f89a4cc2f85721cf,
        type: 3}
      time: 0.08
      eventEnabled: 0
      eventName: 
    - sprite: {fileID: 2004460828534228152, guid: ce2dc2582a9f6234f89a4cc2f85721cf,
        type: 3}
      time: 0.08
      eventEnabled: 0
      eventName: 
    - sprite: {fileID: -7427107989647041000, guid: ce2dc2582a9f6234f89a4cc2f85721cf,
        type: 3}
      time: 0.08
      eventEnabled: 0
      eventName: 
    - sprite: {fileID: 8570460849881213965, guid: ce2dc2582a9f6234f89a4cc2f85721cf,
        type: 3}
      time: 0.08
      eventEnabled: 0
      eventName: 
    - sprite: {fileID: 5918729097861994467, guid: ce2dc2582a9f6234f89a4cc2f85721cf,
        type: 3}
      time: 0.08
      eventEnabled: 0
      eventName: 
    - sprite: {fileID: 8688508924253429827, guid: ce2dc2582a9f6234f89a4cc2f85721cf,
        type: 3}
      time: 0.08
      eventEnabled: 0
      eventName: 
    - sprite: {fileID: -2084138496518152945, guid: ce2dc2582a9f6234f89a4cc2f85721cf,
        type: 3}
      time: 0.08
      eventEnabled: 0
      eventName: 
    - sprite: {fileID: 5789980610381342835, guid: ce2dc2582a9f6234f89a4cc2f85721cf,
        type: 3}
      time: 0.08
      eventEnabled: 0
      eventName: 
    - sprite: {fileID: -5672846293619301128, guid: ce2dc2582a9f6234f89a4cc2f85721cf,
        type: 3}
      time: 0.08
      eventEnabled: 0
      eventName: 
    - sprite: {fileID: 2187835451166127984, guid: ce2dc2582a9f6234f89a4cc2f85721cf,
        type: 3}
      time: 0.08
      eventEnabled: 0
      eventName: 
    - sprite: {fileID: 2783111395173244243, guid: ce2dc2582a9f6234f89a4cc2f85721cf,
        type: 3}
      time: 0.08
      eventEnabled: 0
      eventName: 
    - sprite: {fileID: -532543442273262195, guid: ce2dc2582a9f6234f89a4cc2f85721cf,
        type: 3}
      time: 0.08
      eventEnabled: 0
      eventName: 
    - sprite: {fileID: 3471430501774421942, guid: ce2dc2582a9f6234f89a4cc2f85721cf,
        type: 3}
      time: 0.08
      eventEnabled: 0
      eventName: 
    - sprite: {fileID: 2067325975022516229, guid: ce2dc2582a9f6234f89a4cc2f85721cf,
        type: 3}
      time: 0.08
      eventEnabled: 0
      eventName: 
    - sprite: {fileID: 5181483485733867616, guid: ce2dc2582a9f6234f89a4cc2f85721cf,
        type: 3}
      time: 0.08
      eventEnabled: 0
      eventName: 
    name: melding-furnace
    selectedIndex: 0
    newFramesTime: 0.05
    setFramesTime: 0.1
  - speedRatio: 1
    loop: 0
    frameToLoop: 0
    frameDatas:
    - sprite: {fileID: 21300000, guid: b8d2ca014ff92474081fe8f63bbceec3, type: 3}
      time: 0.04
      eventEnabled: 0
      eventName: 
    name: mult-battle-2x
    selectedIndex: 0
    newFramesTime: 0.05
    setFramesTime: 0.1
  - speedRatio: 1
    loop: 0
    frameToLoop: 0
    frameDatas:
    - sprite: {fileID: 21300000, guid: 60d68972327464544a9d95204a56b550, type: 3}
      time: 0.04
      eventEnabled: 0
      eventName: 
    name: mult-battle-3x
    selectedIndex: 0
    newFramesTime: 0.05
    setFramesTime: 0.1
  - speedRatio: 1
    loop: 0
    frameToLoop: 0
    frameDatas:
    - sprite: {fileID: 21300000, guid: 4675190a2f02b4602a964febb6854ba0, type: 3}
      time: 0.04
      eventEnabled: 0
      eventName: 
    name: mult-battle-4x
    selectedIndex: 0
    newFramesTime: 0.05
    setFramesTime: 0.1
  - speedRatio: 1
    loop: 0
    frameToLoop: 0
    frameDatas:
    - sprite: {fileID: 21300000, guid: 81583f85ff18842cc81e02fd0a30835b, type: 3}
      time: 0.04
      eventEnabled: 0
      eventName: 
    name: mult-battle-5x
    selectedIndex: 0
    newFramesTime: 0.05
    setFramesTime: 0.1
  - speedRatio: 1
    loop: 0
    frameToLoop: 0
    frameDatas:
    - sprite: {fileID: 21300000, guid: cd07867ac144444ca94359104cfc1588, type: 3}
      time: 0.06
      eventEnabled: 0
      eventName: 
    name: peddlers-wagon
    selectedIndex: 0
    newFramesTime: 0.05
    setFramesTime: 0.1
  - speedRatio: 1
    loop: 1
    frameToLoop: 0
    frameDatas:
    - sprite: {fileID: -2641655178175532475, guid: b09ef5bdedde9274aa0ab6ec71b767ec,
        type: 3}
      time: 0.08
      eventEnabled: 0
      eventName: 
    - sprite: {fileID: 1210572292078152503, guid: b09ef5bdedde9274aa0ab6ec71b767ec,
        type: 3}
      time: 0.08
      eventEnabled: 0
      eventName: 
    - sprite: {fileID: 1673834678765093142, guid: b09ef5bdedde9274aa0ab6ec71b767ec,
        type: 3}
      time: 0.08
      eventEnabled: 0
      eventName: 
    - sprite: {fileID: -5382643976537592067, guid: b09ef5bdedde9274aa0ab6ec71b767ec,
        type: 3}
      time: 0.08
      eventEnabled: 0
      eventName: 
    - sprite: {fileID: 3360549732427095693, guid: b09ef5bdedde9274aa0ab6ec71b767ec,
        type: 3}
      time: 0.08
      eventEnabled: 0
      eventName: 
    - sprite: {fileID: 5880658046437689333, guid: b09ef5bdedde9274aa0ab6ec71b767ec,
        type: 3}
      time: 0.08
      eventEnabled: 0
      eventName: 
    - sprite: {fileID: 5356728901070997716, guid: b09ef5bdedde9274aa0ab6ec71b767ec,
        type: 3}
      time: 0.08
      eventEnabled: 0
      eventName: 
    - sprite: {fileID: 1749216679315043366, guid: b09ef5bdedde9274aa0ab6ec71b767ec,
        type: 3}
      time: 0.08
      eventEnabled: 0
      eventName: 
    - sprite: {fileID: 1705594688626892161, guid: b09ef5bdedde9274aa0ab6ec71b767ec,
        type: 3}
      time: 0.08
      eventEnabled: 0
      eventName: 
    - sprite: {fileID: 3298479565650699984, guid: b09ef5bdedde9274aa0ab6ec71b767ec,
        type: 3}
      time: 0.08
      eventEnabled: 0
      eventName: 
    - sprite: {fileID: -1384357421455822700, guid: b09ef5bdedde9274aa0ab6ec71b767ec,
        type: 3}
      time: 0.08
      eventEnabled: 0
      eventName: 
    - sprite: {fileID: -47160395403631461, guid: b09ef5bdedde9274aa0ab6ec71b767ec,
        type: 3}
      time: 0.08
      eventEnabled: 0
      eventName: 
    - sprite: {fileID: -4105303935348581075, guid: b09ef5bdedde9274aa0ab6ec71b767ec,
        type: 3}
      time: 0.08
      eventEnabled: 0
      eventName: 
    - sprite: {fileID: -5043155352257823975, guid: b09ef5bdedde9274aa0ab6ec71b767ec,
        type: 3}
      time: 0.08
      eventEnabled: 0
      eventName: 
    - sprite: {fileID: -3408910924127321752, guid: b09ef5bdedde9274aa0ab6ec71b767ec,
        type: 3}
      time: 0.08
      eventEnabled: 0
      eventName: 
    - sprite: {fileID: -327701716834920209, guid: b09ef5bdedde9274aa0ab6ec71b767ec,
        type: 3}
      time: 0.08
      eventEnabled: 0
      eventName: 
    - sprite: {fileID: 1029524681119373908, guid: b09ef5bdedde9274aa0ab6ec71b767ec,
        type: 3}
      time: 0.08
      eventEnabled: 0
      eventName: 
    - sprite: {fileID: -5367739824497707218, guid: b09ef5bdedde9274aa0ab6ec71b767ec,
        type: 3}
      time: 0.08
      eventEnabled: 0
      eventName: 
    name: relic-shop
    selectedIndex: 0
    newFramesTime: 0.05
    setFramesTime: 0.1
  - speedRatio: 1
    loop: 0
    frameToLoop: 0
    frameDatas:
    - sprite: {fileID: 21300000, guid: 4a7dffac029a34ab7a70de3be44e5c9e, type: 3}
      time: 0.06
      eventEnabled: 0
      eventName: 
    name: right-exit
    selectedIndex: 0
    newFramesTime: 0.05
    setFramesTime: 0.1
  - speedRatio: 1
    loop: 0
    frameToLoop: 0
    frameDatas:
    - sprite: {fileID: 21300000, guid: a5ba95beb8365425c9154b655b005bb8, type: 3}
      time: 0.06
      eventEnabled: 0
      eventName: 
    name: up-exit
    selectedIndex: 0
    newFramesTime: 0.05
    setFramesTime: 0.1
