%YAML 1.1
%TAG !u! tag:unity3d.com,2011:
--- !u!114 &11400000
MonoBehaviour:
  m_ObjectHideFlags: 0
  m_CorrespondingSourceObject: {fileID: 0}
  m_PrefabInstance: {fileID: 0}
  m_PrefabAsset: {fileID: 0}
  m_GameObject: {fileID: 0}
  m_Enabled: 1
  m_EditorHideFlags: 0
  m_Script: {fileID: 11500000, guid: 34404cb99b59bb543805a55e3c469d61, type: 3}
  m_Name: hit-dust
  m_EditorClassIdentifier: 
  editorConfirmations: 1
  animations:
  - speedRatio: 1
    loop: 0
    frameToLoop: 0
    frameDatas:
    - sprite: {fileID: 6878288607988257207, guid: 4c1237149ffd64303a17f35584d041dd,
        type: 3}
      time: 0.04
      eventEnabled: 0
      eventName: 
    - sprite: {fileID: -1417088115188233540, guid: 4c1237149ffd64303a17f35584d041dd,
        type: 3}
      time: 0.04
      eventEnabled: 0
      eventName: 
    - sprite: {fileID: 6202425542782278894, guid: 4c1237149ffd64303a17f35584d041dd,
        type: 3}
      time: 0.04
      eventEnabled: 0
      eventName: 
    - sprite: {fileID: -2536607616509183102, guid: 4c1237149ffd64303a17f35584d041dd,
        type: 3}
      time: 0.04
      eventEnabled: 0
      eventName: 
    - sprite: {fileID: 21300000, guid: fd49ac06ab59f472699a83cd9ae6e5e3, type: 3}
      time: 0.04
      eventEnabled: 0
      eventName: 
    name: animate
    selectedIndex: 0
    newFramesTime: 0.05
    setFramesTime: 0.04
