%YAML 1.1
%TAG !u! tag:unity3d.com,2011:
--- !u!114 &11400000
MonoBehaviour:
  m_ObjectHideFlags: 0
  m_CorrespondingSourceObject: {fileID: 0}
  m_PrefabInstance: {fileID: 0}
  m_PrefabAsset: {fileID: 0}
  m_GameObject: {fileID: 0}
  m_Enabled: 1
  m_EditorHideFlags: 0
  m_Script: {fileID: 11500000, guid: 34404cb99b59bb543805a55e3c469d61, type: 3}
  m_Name: hp-gained-fx
  m_EditorClassIdentifier: 
  editorConfirmations: 1
  animations:
  - speedRatio: 1
    loop: 0
    frameToLoop: 0
    frameDatas:
    - sprite: {fileID: 4431819109772278352, guid: 741dca6a0615447d9b7b6fc9b8843065,
        type: 3}
      time: 0.04
      eventEnabled: 0
      eventName: 
    - sprite: {fileID: -7153516621154867673, guid: 741dca6a0615447d9b7b6fc9b8843065,
        type: 3}
      time: 0.04
      eventEnabled: 0
      eventName: 
    - sprite: {fileID: 5080587408021796198, guid: 741dca6a0615447d9b7b6fc9b8843065,
        type: 3}
      time: 0.04
      eventEnabled: 0
      eventName: 
    - sprite: {fileID: 151244420998919225, guid: 741dca6a0615447d9b7b6fc9b8843065,
        type: 3}
      time: 0.04
      eventEnabled: 0
      eventName: 
    name: burst
    selectedIndex: 0
    newFramesTime: 0.05
    setFramesTime: 0.1
