%YAML 1.1
%TAG !u! tag:unity3d.com,2011:
--- !u!114 &11400000
MonoBehaviour:
  m_ObjectHideFlags: 0
  m_CorrespondingSourceObject: {fileID: 0}
  m_PrefabInstance: {fileID: 0}
  m_PrefabAsset: {fileID: 0}
  m_GameObject: {fileID: 0}
  m_Enabled: 1
  m_EditorHideFlags: 0
  m_Script: {fileID: 11500000, guid: 34404cb99b59bb543805a55e3c469d61, type: 3}
  m_Name: interior-tile
  m_EditorClassIdentifier: 
  editorConfirmations: 1
  animations:
  - speedRatio: 1
    loop: 0
    frameToLoop: 0
    frameDatas:
    - sprite: {fileID: 21300000, guid: 53629a73a512b4df2a321b7055c21381, type: 3}
      time: 0.04
      eventEnabled: 0
      eventName: 
    name: fortune
    selectedIndex: 0
    newFramesTime: 0.05
    setFramesTime: 0.1
  - speedRatio: 1
    loop: 0
    frameToLoop: 0
    frameDatas:
    - sprite: {fileID: 21300000, guid: 0a458bf9bd44a42f383e29fc2403fe0d, type: 3}
      time: 0.04
      eventEnabled: 0
      eventName: 
    name: chaos
    selectedIndex: 0
    newFramesTime: 0.05
    setFramesTime: 0.1
  - speedRatio: 1
    loop: 0
    frameToLoop: 0
    frameDatas:
    - sprite: {fileID: 21300000, guid: be67d455264bb40b2916b1dd0c908716, type: 3}
      time: 0.04
      eventEnabled: 0
      eventName: 
    name: war
    selectedIndex: 0
    newFramesTime: 0.05
    setFramesTime: 0.1
  - speedRatio: 1
    loop: 0
    frameToLoop: 0
    frameDatas:
    - sprite: {fileID: 21300000, guid: 1887622280387471aaa970eaf7e20f8e, type: 3}
      time: 0.04
      eventEnabled: 0
      eventName: 
    name: nature
    selectedIndex: 0
    newFramesTime: 0.05
    setFramesTime: 0.1
  - speedRatio: 1
    loop: 0
    frameToLoop: 0
    frameDatas:
    - sprite: {fileID: 21300000, guid: ce8ea71102fd345d8a005b3562cf5b90, type: 3}
      time: 0.04
      eventEnabled: 0
      eventName: 
    name: balance
    selectedIndex: 0
    newFramesTime: 0.05
    setFramesTime: 0.1
