%YAML 1.1
%TAG !u! tag:unity3d.com,2011:
--- !u!114 &11400000
MonoBehaviour:
  m_ObjectHideFlags: 0
  m_CorrespondingSourceObject: {fileID: 0}
  m_PrefabInstance: {fileID: 0}
  m_PrefabAsset: {fileID: 0}
  m_GameObject: {fileID: 0}
  m_Enabled: 1
  m_EditorHideFlags: 0
  m_Script: {fileID: 11500000, guid: 34404cb99b59bb543805a55e3c469d61, type: 3}
  m_Name: jump-fx
  m_EditorClassIdentifier: 
  editorConfirmations: 1
  animations:
  - speedRatio: 1
    loop: 1
    frameToLoop: 0
    frameDatas:
    - sprite: {fileID: -3651010834237922668, guid: 69506839604034490b3d2f90970b44ef,
        type: 3}
      time: 0.04
      eventEnabled: 0
      eventName: 
    - sprite: {fileID: -3189730572041388907, guid: 69506839604034490b3d2f90970b44ef,
        type: 3}
      time: 0.04
      eventEnabled: 0
      eventName: 
    - sprite: {fileID: -3333474970086064177, guid: 69506839604034490b3d2f90970b44ef,
        type: 3}
      time: 0.04
      eventEnabled: 0
      eventName: 
    name: launch
    selectedIndex: 0
    newFramesTime: 0.05
    setFramesTime: 0.1
  - speedRatio: 1
    loop: 1
    frameToLoop: 0
    frameDatas:
    - sprite: {fileID: -7963473398488544693, guid: 387db2c989658428bad068b21931f829,
        type: 3}
      time: 0.04
      eventEnabled: 0
      eventName: 
    - sprite: {fileID: 7437039440910398811, guid: 387db2c989658428bad068b21931f829,
        type: 3}
      time: 0.04
      eventEnabled: 0
      eventName: 
    - sprite: {fileID: -8714722225098380207, guid: 387db2c989658428bad068b21931f829,
        type: 3}
      time: 0.04
      eventEnabled: 0
      eventName: 
    - sprite: {fileID: 5047268970329125850, guid: 387db2c989658428bad068b21931f829,
        type: 3}
      time: 0.04
      eventEnabled: 0
      eventName: 
    - sprite: {fileID: 251396887958642599, guid: 387db2c989658428bad068b21931f829,
        type: 3}
      time: 0.04
      eventEnabled: 0
      eventName: 
    - sprite: {fileID: -3514276967178713792, guid: 387db2c989658428bad068b21931f829,
        type: 3}
      time: 0.04
      eventEnabled: 0
      eventName: 
    name: land
    selectedIndex: 0
    newFramesTime: 0.05
    setFramesTime: 0.1
