%YAML 1.1
%TAG !u! tag:unity3d.com,2011:
--- !u!114 &11400000
MonoBehaviour:
  m_ObjectHideFlags: 0
  m_CorrespondingSourceObject: {fileID: 0}
  m_PrefabInstance: {fileID: 0}
  m_PrefabAsset: {fileID: 0}
  m_GameObject: {fileID: 0}
  m_Enabled: 1
  m_EditorHideFlags: 0
  m_Script: {fileID: 11500000, guid: 34404cb99b59bb543805a55e3c469d61, type: 3}
  m_Name: knife-shadow
  m_EditorClassIdentifier: 
  editorConfirmations: 1
  animations:
  - speedRatio: 1
    loop: 0
    frameToLoop: 0
    frameDatas:
    - sprite: {fileID: 5968043686777525530, guid: 7305d88b050cf4ba9a8d039752c34cd3,
        type: 3}
      time: 0.04
      eventEnabled: 0
      eventName: 
    - sprite: {fileID: -1845614981417555417, guid: 7305d88b050cf4ba9a8d039752c34cd3,
        type: 3}
      time: 0.04
      eventEnabled: 0
      eventName: 
    - sprite: {fileID: 2046154472922037661, guid: 7305d88b050cf4ba9a8d039752c34cd3,
        type: 3}
      time: 0.04
      eventEnabled: 0
      eventName: 
    - sprite: {fileID: -8262040906734836442, guid: 7305d88b050cf4ba9a8d039752c34cd3,
        type: 3}
      time: 0.04
      eventEnabled: 0
      eventName: 
    name: land
    selectedIndex: 0
    newFramesTime: 0.05
    setFramesTime: 0.1
  - speedRatio: 1
    loop: 0
    frameToLoop: 0
    frameDatas:
    - sprite: {fileID: -3318557927796477642, guid: 5d7486be118734857a713f13db946f2b,
        type: 3}
      time: 0.04
      eventEnabled: 0
      eventName: 
    - sprite: {fileID: 6968255220514207077, guid: 5d7486be118734857a713f13db946f2b,
        type: 3}
      time: 0.04
      eventEnabled: 0
      eventName: 
    - sprite: {fileID: -5113318989260787440, guid: 5d7486be118734857a713f13db946f2b,
        type: 3}
      time: 0.04
      eventEnabled: 0
      eventName: 
    - sprite: {fileID: -2910805418647577776, guid: 5d7486be118734857a713f13db946f2b,
        type: 3}
      time: 0.04
      eventEnabled: 0
      eventName: 
    name: despawn
    selectedIndex: 0
    newFramesTime: 0.05
    setFramesTime: 0.1
  - speedRatio: 1
    loop: 0
    frameToLoop: 0
    frameDatas:
    - sprite: {fileID: 1133795623087253782, guid: 4bc3a2ad2c17a4aac8137bffdba63b3c,
        type: 3}
      time: 0.04
      eventEnabled: 0
      eventName: 
    - sprite: {fileID: -8102133359245211479, guid: 4bc3a2ad2c17a4aac8137bffdba63b3c,
        type: 3}
      time: 0.04
      eventEnabled: 0
      eventName: 
    - sprite: {fileID: 5497304406135372815, guid: 4bc3a2ad2c17a4aac8137bffdba63b3c,
        type: 3}
      time: 0.04
      eventEnabled: 0
      eventName: 
    - sprite: {fileID: -4302856746658855292, guid: 4bc3a2ad2c17a4aac8137bffdba63b3c,
        type: 3}
      time: 0.04
      eventEnabled: 0
      eventName: 
    - sprite: {fileID: 1987288274554505621, guid: 4bc3a2ad2c17a4aac8137bffdba63b3c,
        type: 3}
      time: 0.04
      eventEnabled: 0
      eventName: 
    name: falling
    selectedIndex: 0
    newFramesTime: 0.05
    setFramesTime: 0.1
