%YAML 1.1
%TAG !u! tag:unity3d.com,2011:
--- !u!114 &11400000
MonoBehaviour:
  m_ObjectHideFlags: 0
  m_CorrespondingSourceObject: {fileID: 0}
  m_PrefabInstance: {fileID: 0}
  m_PrefabAsset: {fileID: 0}
  m_GameObject: {fileID: 0}
  m_Enabled: 1
  m_EditorHideFlags: 0
  m_Script: {fileID: 11500000, guid: 34404cb99b59bb543805a55e3c469d61, type: 3}
  m_Name: lifesteal-border
  m_EditorClassIdentifier: 
  editorConfirmations: 1
  animations:
  - speedRatio: 1
    loop: 1
    frameToLoop: 0
    frameDatas:
    - sprite: {fileID: 1325812782367770001, guid: 5443fc78fbd7fe14fbce3e5656f4d5f9,
        type: 3}
      time: 0.06
      eventEnabled: 0
      eventName: 
    - sprite: {fileID: -182913258945965427, guid: 5443fc78fbd7fe14fbce3e5656f4d5f9,
        type: 3}
      time: 0.06
      eventEnabled: 0
      eventName: 
    - sprite: {fileID: 7777840186835938849, guid: 5443fc78fbd7fe14fbce3e5656f4d5f9,
        type: 3}
      time: 0.06
      eventEnabled: 0
      eventName: 
    - sprite: {fileID: 760295927445518057, guid: 5443fc78fbd7fe14fbce3e5656f4d5f9,
        type: 3}
      time: 0.06
      eventEnabled: 0
      eventName: 
    - sprite: {fileID: 6196459333856558947, guid: 5443fc78fbd7fe14fbce3e5656f4d5f9,
        type: 3}
      time: 0.06
      eventEnabled: 0
      eventName: 
    - sprite: {fileID: -2875202836137460917, guid: 5443fc78fbd7fe14fbce3e5656f4d5f9,
        type: 3}
      time: 0.06
      eventEnabled: 0
      eventName: 
    - sprite: {fileID: 4284363820704614355, guid: 5443fc78fbd7fe14fbce3e5656f4d5f9,
        type: 3}
      time: 0.06
      eventEnabled: 0
      eventName: 
    - sprite: {fileID: 8250769979842586092, guid: 5443fc78fbd7fe14fbce3e5656f4d5f9,
        type: 3}
      time: 0.06
      eventEnabled: 0
      eventName: 
    - sprite: {fileID: -1919578758510294051, guid: 5443fc78fbd7fe14fbce3e5656f4d5f9,
        type: 3}
      time: 0.06
      eventEnabled: 0
      eventName: 
    name: idle
    selectedIndex: 0
    newFramesTime: 0.05
    setFramesTime: 0.1
  - speedRatio: 1
    loop: 1
    frameToLoop: 0
    frameDatas:
    - sprite: {fileID: -6134108191257188524, guid: ca7b7c36b8982c342a207907f96e0cf2,
        type: 3}
      time: 0.06
      eventEnabled: 0
      eventName: 
    - sprite: {fileID: 1831274321215092139, guid: ca7b7c36b8982c342a207907f96e0cf2,
        type: 3}
      time: 0.06
      eventEnabled: 0
      eventName: 
    - sprite: {fileID: 4992328652491378597, guid: ca7b7c36b8982c342a207907f96e0cf2,
        type: 3}
      time: 0.06
      eventEnabled: 0
      eventName: 
    - sprite: {fileID: -5432548201433796304, guid: ca7b7c36b8982c342a207907f96e0cf2,
        type: 3}
      time: 0.06
      eventEnabled: 0
      eventName: 
    - sprite: {fileID: 6324865508241380624, guid: ca7b7c36b8982c342a207907f96e0cf2,
        type: 3}
      time: 0.06
      eventEnabled: 0
      eventName: 
    - sprite: {fileID: 2530673829445564970, guid: ca7b7c36b8982c342a207907f96e0cf2,
        type: 3}
      time: 0.06
      eventEnabled: 0
      eventName: 
    - sprite: {fileID: -403097923139718959, guid: ca7b7c36b8982c342a207907f96e0cf2,
        type: 3}
      time: 0.06
      eventEnabled: 0
      eventName: 
    - sprite: {fileID: 5241995353427306186, guid: ca7b7c36b8982c342a207907f96e0cf2,
        type: 3}
      time: 0.06
      eventEnabled: 0
      eventName: 
    - sprite: {fileID: 4023847847365678014, guid: ca7b7c36b8982c342a207907f96e0cf2,
        type: 3}
      time: 0.06
      eventEnabled: 0
      eventName: 
    - sprite: {fileID: 3999392516577299064, guid: ca7b7c36b8982c342a207907f96e0cf2,
        type: 3}
      time: 0.06
      eventEnabled: 0
      eventName: 
    - sprite: {fileID: 1248354670337582883, guid: ca7b7c36b8982c342a207907f96e0cf2,
        type: 3}
      time: 0.06
      eventEnabled: 0
      eventName: 
    name: spawn
    selectedIndex: 0
    newFramesTime: 0.05
    setFramesTime: 0.1
