%YAML 1.1
%TAG !u! tag:unity3d.com,2011:
--- !u!114 &11400000
MonoBehaviour:
  m_ObjectHideFlags: 0
  m_CorrespondingSourceObject: {fileID: 0}
  m_PrefabInstance: {fileID: 0}
  m_PrefabAsset: {fileID: 0}
  m_GameObject: {fileID: 0}
  m_Enabled: 1
  m_EditorHideFlags: 0
  m_Script: {fileID: 11500000, guid: 34404cb99b59bb543805a55e3c469d61, type: 3}
  m_Name: lvl-hex-effect
  m_EditorClassIdentifier: 
  editorConfirmations: 1
  animations:
  - speedRatio: 1
    loop: 0
    frameToLoop: 0
    frameDatas:
    - sprite: {fileID: -2004600626743252979, guid: 48c669e087d6148fc840341996a32191,
        type: 3}
      time: 0.04
      eventEnabled: 0
      eventName: 
    - sprite: {fileID: -8437564073427476803, guid: 48c669e087d6148fc840341996a32191,
        type: 3}
      time: 0.04
      eventEnabled: 0
      eventName: 
    - sprite: {fileID: 7085794190255742598, guid: 48c669e087d6148fc840341996a32191,
        type: 3}
      time: 0.04
      eventEnabled: 0
      eventName: 
    - sprite: {fileID: 387417737991763487, guid: 48c669e087d6148fc840341996a32191,
        type: 3}
      time: 0.04
      eventEnabled: 0
      eventName: 
    - sprite: {fileID: -4191655140702592457, guid: 48c669e087d6148fc840341996a32191,
        type: 3}
      time: 0.04
      eventEnabled: 0
      eventName: 
    - sprite: {fileID: 4102374779348800777, guid: 48c669e087d6148fc840341996a32191,
        type: 3}
      time: 0.04
      eventEnabled: 0
      eventName: 
    - sprite: {fileID: 8986370900449820018, guid: 48c669e087d6148fc840341996a32191,
        type: 3}
      time: 0.04
      eventEnabled: 0
      eventName: 
    - sprite: {fileID: -7342315392297137182, guid: 48c669e087d6148fc840341996a32191,
        type: 3}
      time: 0.04
      eventEnabled: 0
      eventName: 
    - sprite: {fileID: 6390442622329713384, guid: 48c669e087d6148fc840341996a32191,
        type: 3}
      time: 0.04
      eventEnabled: 0
      eventName: 
    - sprite: {fileID: 8763572598400886294, guid: 48c669e087d6148fc840341996a32191,
        type: 3}
      time: 0.04
      eventEnabled: 0
      eventName: 
    - sprite: {fileID: 6681204386457577194, guid: 48c669e087d6148fc840341996a32191,
        type: 3}
      time: 0.04
      eventEnabled: 0
      eventName: 
    - sprite: {fileID: -9125281612005870781, guid: 48c669e087d6148fc840341996a32191,
        type: 3}
      time: 0.04
      eventEnabled: 0
      eventName: 
    - sprite: {fileID: 694952172950954866, guid: 48c669e087d6148fc840341996a32191,
        type: 3}
      time: 0.04
      eventEnabled: 0
      eventName: 
    - sprite: {fileID: 846612078543861796, guid: 48c669e087d6148fc840341996a32191,
        type: 3}
      time: 0.04
      eventEnabled: 0
      eventName: 
    - sprite: {fileID: 1915026701367947433, guid: 48c669e087d6148fc840341996a32191,
        type: 3}
      time: 0.04
      eventEnabled: 0
      eventName: 
    - sprite: {fileID: 4117578382692318862, guid: 48c669e087d6148fc840341996a32191,
        type: 3}
      time: 0.04
      eventEnabled: 0
      eventName: 
    name: level-up-burst
    selectedIndex: 0
    newFramesTime: 0.05
    setFramesTime: 0.1
  - speedRatio: 1
    loop: 1
    frameToLoop: 0
    frameDatas:
    - sprite: {fileID: -872763450937407622, guid: 5d7ab8258bc9c4d05b02022e52d4c332,
        type: 3}
      time: 0.04
      eventEnabled: 0
      eventName: 
    - sprite: {fileID: -4651444108609682558, guid: 5d7ab8258bc9c4d05b02022e52d4c332,
        type: 3}
      time: 0.04
      eventEnabled: 0
      eventName: 
    - sprite: {fileID: 220976428982877851, guid: 5d7ab8258bc9c4d05b02022e52d4c332,
        type: 3}
      time: 0.04
      eventEnabled: 0
      eventName: 
    - sprite: {fileID: 8019211006701967295, guid: 5d7ab8258bc9c4d05b02022e52d4c332,
        type: 3}
      time: 0.04
      eventEnabled: 0
      eventName: 
    - sprite: {fileID: 2375114654481307, guid: 5d7ab8258bc9c4d05b02022e52d4c332, type: 3}
      time: 0.04
      eventEnabled: 0
      eventName: 
    - sprite: {fileID: 9118616466361248595, guid: 5d7ab8258bc9c4d05b02022e52d4c332,
        type: 3}
      time: 0.04
      eventEnabled: 0
      eventName: 
    - sprite: {fileID: 9074877538228979492, guid: 5d7ab8258bc9c4d05b02022e52d4c332,
        type: 3}
      time: 0.04
      eventEnabled: 0
      eventName: 
    - sprite: {fileID: 7328194854597695268, guid: 5d7ab8258bc9c4d05b02022e52d4c332,
        type: 3}
      time: 0.04
      eventEnabled: 0
      eventName: 
    - sprite: {fileID: -5610889195264927439, guid: 5d7ab8258bc9c4d05b02022e52d4c332,
        type: 3}
      time: 0.04
      eventEnabled: 0
      eventName: 
    - sprite: {fileID: 1088838062921421292, guid: 5d7ab8258bc9c4d05b02022e52d4c332,
        type: 3}
      time: 0.04
      eventEnabled: 0
      eventName: 
    - sprite: {fileID: 6750459836104357269, guid: 5d7ab8258bc9c4d05b02022e52d4c332,
        type: 3}
      time: 0.04
      eventEnabled: 0
      eventName: 
    - sprite: {fileID: -6078849062244564331, guid: 5d7ab8258bc9c4d05b02022e52d4c332,
        type: 3}
      time: 0.04
      eventEnabled: 0
      eventName: 
    - sprite: {fileID: -467614847424527508, guid: 5d7ab8258bc9c4d05b02022e52d4c332,
        type: 3}
      time: 0.04
      eventEnabled: 0
      eventName: 
    name: level-up-end-sparkles
    selectedIndex: 0
    newFramesTime: 0.05
    setFramesTime: 0.1
  - speedRatio: 1
    loop: 0
    frameToLoop: 0
    frameDatas:
    - sprite: {fileID: -5884956622940782875, guid: f989ded12f1234e4487891de3cf75b69,
        type: 3}
      time: 0.04
      eventEnabled: 0
      eventName: 
    - sprite: {fileID: -4500462483649092217, guid: f989ded12f1234e4487891de3cf75b69,
        type: 3}
      time: 0.04
      eventEnabled: 0
      eventName: 
    - sprite: {fileID: 1108359225270850581, guid: f989ded12f1234e4487891de3cf75b69,
        type: 3}
      time: 0.04
      eventEnabled: 0
      eventName: 
    - sprite: {fileID: 7346238419641787037, guid: f989ded12f1234e4487891de3cf75b69,
        type: 3}
      time: 0.04
      eventEnabled: 0
      eventName: 
    - sprite: {fileID: 1760463999378984894, guid: f989ded12f1234e4487891de3cf75b69,
        type: 3}
      time: 0.04
      eventEnabled: 0
      eventName: 
    - sprite: {fileID: 8800567999345909576, guid: f989ded12f1234e4487891de3cf75b69,
        type: 3}
      time: 0.04
      eventEnabled: 0
      eventName: 
    - sprite: {fileID: 1368433479007690404, guid: f989ded12f1234e4487891de3cf75b69,
        type: 3}
      time: 0.04
      eventEnabled: 0
      eventName: 
    - sprite: {fileID: -8500223346158934545, guid: f989ded12f1234e4487891de3cf75b69,
        type: 3}
      time: 0.04
      eventEnabled: 0
      eventName: 
    - sprite: {fileID: 6880045090566834398, guid: f989ded12f1234e4487891de3cf75b69,
        type: 3}
      time: 0.04
      eventEnabled: 0
      eventName: 
    name: level-up-shine
    selectedIndex: 0
    newFramesTime: 0.05
    setFramesTime: 0.1
