%YAML 1.1
%TAG !u! tag:unity3d.com,2011:
--- !u!114 &11400000
MonoBehaviour:
  m_ObjectHideFlags: 0
  m_CorrespondingSourceObject: {fileID: 0}
  m_PrefabInstance: {fileID: 0}
  m_PrefabAsset: {fileID: 0}
  m_GameObject: {fileID: 0}
  m_Enabled: 1
  m_EditorHideFlags: 0
  m_Script: {fileID: 11500000, guid: 34404cb99b59bb543805a55e3c469d61, type: 3}
  m_Name: lvl-hex-node
  m_EditorClassIdentifier: 
  editorConfirmations: 1
  animations:
  - speedRatio: 1
    loop: 1
    frameToLoop: 0
    frameDatas:
    - sprite: {fileID: 21300000, guid: 4e2d1fbb0a43b854993b5d11868a864c, type: 3}
      time: 0.04
      eventEnabled: 0
      eventName: 
    name: nature-inactive
    selectedIndex: 0
    newFramesTime: 0.05
    setFramesTime: 0.1
  - speedRatio: 1
    loop: 1
    frameToLoop: 0
    frameDatas:
    - sprite: {fileID: 21300000, guid: 0be637b002d6b4bbbb9b544bed227b71, type: 3}
      time: 0.04
      eventEnabled: 0
      eventName: 
    name: nature-active
    selectedIndex: 0
    newFramesTime: 0.05
    setFramesTime: 0.1
  - speedRatio: 1
    loop: 1
    frameToLoop: 0
    frameDatas:
    - sprite: {fileID: 21300000, guid: f0d61d7dec11340af824c16ad146e25b, type: 3}
      time: 0.04
      eventEnabled: 0
      eventName: 
    name: war-active
    selectedIndex: 0
    newFramesTime: 0.05
    setFramesTime: 0.1
  - speedRatio: 1
    loop: 1
    frameToLoop: 0
    frameDatas:
    - sprite: {fileID: 21300000, guid: c208a0667eb4a554f8ab78ae3ad5c760, type: 3}
      time: 0.04
      eventEnabled: 0
      eventName: 
    name: war-inactive
    selectedIndex: 0
    newFramesTime: 0.05
    setFramesTime: 0.1
  - speedRatio: 1
    loop: 1
    frameToLoop: 0
    frameDatas:
    - sprite: {fileID: 21300000, guid: 53c35ef936ef2504eb05589ae0fb3edb, type: 3}
      time: 0.04
      eventEnabled: 0
      eventName: 
    name: balance-inactive
    selectedIndex: 0
    newFramesTime: 0.05
    setFramesTime: 0.1
  - speedRatio: 1
    loop: 1
    frameToLoop: 0
    frameDatas:
    - sprite: {fileID: 21300000, guid: 1c00d1def3bea4571973d8ff6259d29a, type: 3}
      time: 0.04
      eventEnabled: 0
      eventName: 
    name: balance-active
    selectedIndex: 0
    newFramesTime: 0.05
    setFramesTime: 0.1
  - speedRatio: 1
    loop: 1
    frameToLoop: 0
    frameDatas:
    - sprite: {fileID: 21300000, guid: c2c3986f0fe4247a6a54d7a338b9ad3c, type: 3}
      time: 0.04
      eventEnabled: 0
      eventName: 
    name: chaos-active
    selectedIndex: 0
    newFramesTime: 0.05
    setFramesTime: 0.1
  - speedRatio: 1
    loop: 1
    frameToLoop: 0
    frameDatas:
    - sprite: {fileID: 21300000, guid: 6a0852e6a4e75714d8abad3a22eea3a3, type: 3}
      time: 0.04
      eventEnabled: 0
      eventName: 
    name: chaos-inactive
    selectedIndex: 0
    newFramesTime: 0.05
    setFramesTime: 0.1
  - speedRatio: 1
    loop: 1
    frameToLoop: 0
    frameDatas:
    - sprite: {fileID: 21300000, guid: 17cbe32779e3949e7801453c04666ec1, type: 3}
      time: 0.04
      eventEnabled: 0
      eventName: 
    name: fortune-active
    selectedIndex: 0
    newFramesTime: 0.05
    setFramesTime: 0.1
  - speedRatio: 1
    loop: 1
    frameToLoop: 0
    frameDatas:
    - sprite: {fileID: 21300000, guid: 8f94cb05b3574894e92aa74d9868e277, type: 3}
      time: 0.04
      eventEnabled: 0
      eventName: 
    name: fortune-inactive
    selectedIndex: 0
    newFramesTime: 0.05
    setFramesTime: 0.1
