%YAML 1.1
%TAG !u! tag:unity3d.com,2011:
--- !u!114 &11400000
MonoBehaviour:
  m_ObjectHideFlags: 0
  m_CorrespondingSourceObject: {fileID: 0}
  m_PrefabInstance: {fileID: 0}
  m_PrefabAsset: {fileID: 0}
  m_GameObject: {fileID: 0}
  m_Enabled: 1
  m_EditorHideFlags: 0
  m_Script: {fileID: 11500000, guid: 34404cb99b59bb543805a55e3c469d61, type: 3}
  m_Name: mana-pip
  m_EditorClassIdentifier: 
  editorConfirmations: 1
  animations:
  - speedRatio: 1
    loop: 0
    frameToLoop: 0
    frameDatas:
    - sprite: {fileID: 21300000, guid: 62ae164e6dddd4fa4bdaf49e89bfa9c3, type: 3}
      time: 0.04
      eventEnabled: 0
      eventName: 
    name: bottom
    selectedIndex: 0
    newFramesTime: 0.05
    setFramesTime: 0.1
  - speedRatio: 1
    loop: 1
    frameToLoop: 0
    frameDatas:
    - sprite: {fileID: 21300000, guid: 29c7b585ed050614c92bdfa6d703712c, type: 3}
      time: 0.04
      eventEnabled: 0
      eventName: 
    name: bottom-gold
    selectedIndex: 0
    newFramesTime: 0.05
    setFramesTime: 0.1
  - speedRatio: 1
    loop: 0
    frameToLoop: 0
    frameDatas:
    - sprite: {fileID: 21300000, guid: f2ea5ee5118f642789b850363b2648f1, type: 3}
      time: 0.04
      eventEnabled: 0
      eventName: 
    name: max
    selectedIndex: 0
    newFramesTime: 0.05
    setFramesTime: 0.1
  - speedRatio: 1
    loop: 1
    frameToLoop: 0
    frameDatas:
    - sprite: {fileID: 21300000, guid: 6ab9e3d0ce924714ba4128df9e6dfa9e, type: 3}
      time: 0.04
      eventEnabled: 0
      eventName: 
    name: max-gold
    selectedIndex: 0
    newFramesTime: 0.05
    setFramesTime: 0.1
  - speedRatio: 1
    loop: 0
    frameToLoop: 0
    frameDatas:
    - sprite: {fileID: 21300000, guid: 9d79a600a316546a1b55119f4d161b73, type: 3}
      time: 0.04
      eventEnabled: 0
      eventName: 
    name: mid
    selectedIndex: 0
    newFramesTime: 0.05
    setFramesTime: 0.1
  - speedRatio: 1
    loop: 0
    frameToLoop: 0
    frameDatas:
    - sprite: {fileID: 21300000, guid: 4f35300603923490c8bb609f4875dc0f, type: 3}
      time: 0.04
      eventEnabled: 0
      eventName: 
    name: mid-2
    selectedIndex: 0
    newFramesTime: 0.05
    setFramesTime: 0.1
  - speedRatio: 1
    loop: 1
    frameToLoop: 0
    frameDatas:
    - sprite: {fileID: 21300000, guid: 531fc0b2c9aa47d46b103a386900c3b7, type: 3}
      time: 0.04
      eventEnabled: 0
      eventName: 
    name: mid-2-gold
    selectedIndex: 0
    newFramesTime: 0.05
    setFramesTime: 0.1
  - speedRatio: 1
    loop: 1
    frameToLoop: 0
    frameDatas:
    - sprite: {fileID: 21300000, guid: a66522f7d946f4740ae6e448354cdee3, type: 3}
      time: 0.04
      eventEnabled: 0
      eventName: 
    name: mid-gold
    selectedIndex: 0
    newFramesTime: 0.05
    setFramesTime: 0.1
  - speedRatio: 1
    loop: 0
    frameToLoop: 0
    frameDatas:
    - sprite: {fileID: -6836752959256940112, guid: fdb50b54c148a44ef9eb3d7d7aae3b11,
        type: 3}
      time: 0.08
      eventEnabled: 0
      eventName: 
    name: pre-use
    selectedIndex: 0
    newFramesTime: 0.08
    setFramesTime: 0.1
  - speedRatio: 1
    loop: 1
    frameToLoop: 0
    frameDatas:
    - sprite: {fileID: -1855843487938447654, guid: cf1b31804a87f4e77bd5cdb2606989c6,
        type: 3}
      time: 0.06
      eventEnabled: 0
      eventName: 
    - sprite: {fileID: -2538203641410512378, guid: cf1b31804a87f4e77bd5cdb2606989c6,
        type: 3}
      time: 0.06
      eventEnabled: 0
      eventName: 
    - sprite: {fileID: 7976898326405372652, guid: cf1b31804a87f4e77bd5cdb2606989c6,
        type: 3}
      time: 0.06
      eventEnabled: 0
      eventName: 
    - sprite: {fileID: -6316933808565289670, guid: cf1b31804a87f4e77bd5cdb2606989c6,
        type: 3}
      time: 0.06
      eventEnabled: 0
      eventName: 
    - sprite: {fileID: 771605653576897238, guid: cf1b31804a87f4e77bd5cdb2606989c6,
        type: 3}
      time: 0.06
      eventEnabled: 0
      eventName: 
    - sprite: {fileID: 7468455132896100356, guid: cf1b31804a87f4e77bd5cdb2606989c6,
        type: 3}
      time: 0.06
      eventEnabled: 0
      eventName: 
    - sprite: {fileID: -1249447282312399342, guid: cf1b31804a87f4e77bd5cdb2606989c6,
        type: 3}
      time: 0.06
      eventEnabled: 0
      eventName: 
    - sprite: {fileID: -2166027807486635031, guid: cf1b31804a87f4e77bd5cdb2606989c6,
        type: 3}
      time: 0.06
      eventEnabled: 0
      eventName: 
    - sprite: {fileID: -1463454635907964879, guid: cf1b31804a87f4e77bd5cdb2606989c6,
        type: 3}
      time: 0.06
      eventEnabled: 0
      eventName: 
    - sprite: {fileID: -4150302561109826765, guid: cf1b31804a87f4e77bd5cdb2606989c6,
        type: 3}
      time: 0.06
      eventEnabled: 0
      eventName: 
    - sprite: {fileID: 3598285973862940716, guid: cf1b31804a87f4e77bd5cdb2606989c6,
        type: 3}
      time: 0.06
      eventEnabled: 0
      eventName: 
    - sprite: {fileID: 4610184302718616663, guid: cf1b31804a87f4e77bd5cdb2606989c6,
        type: 3}
      time: 0.06
      eventEnabled: 0
      eventName: 
    name: top
    selectedIndex: 0
    newFramesTime: 0.05
    setFramesTime: 0.1
  - speedRatio: 1
    loop: 1
    frameToLoop: 0
    frameDatas:
    - sprite: {fileID: -4551818355024768526, guid: 80067fc9e2d4341449955e996a3c7b8d,
        type: 3}
      time: 0.06
      eventEnabled: 0
      eventName: 
    - sprite: {fileID: -7963879833678182420, guid: 80067fc9e2d4341449955e996a3c7b8d,
        type: 3}
      time: 0.06
      eventEnabled: 0
      eventName: 
    - sprite: {fileID: 5882295463205923224, guid: 80067fc9e2d4341449955e996a3c7b8d,
        type: 3}
      time: 0.06
      eventEnabled: 0
      eventName: 
    - sprite: {fileID: 6691305166609254764, guid: 80067fc9e2d4341449955e996a3c7b8d,
        type: 3}
      time: 0.06
      eventEnabled: 0
      eventName: 
    - sprite: {fileID: 371211568497041116, guid: 80067fc9e2d4341449955e996a3c7b8d,
        type: 3}
      time: 0.06
      eventEnabled: 0
      eventName: 
    - sprite: {fileID: 3219297132845318649, guid: 80067fc9e2d4341449955e996a3c7b8d,
        type: 3}
      time: 0.06
      eventEnabled: 0
      eventName: 
    - sprite: {fileID: 2061601505430323282, guid: 80067fc9e2d4341449955e996a3c7b8d,
        type: 3}
      time: 0.06
      eventEnabled: 0
      eventName: 
    - sprite: {fileID: 2962648108867363140, guid: 80067fc9e2d4341449955e996a3c7b8d,
        type: 3}
      time: 0.06
      eventEnabled: 0
      eventName: 
    - sprite: {fileID: 2222164489109039231, guid: 80067fc9e2d4341449955e996a3c7b8d,
        type: 3}
      time: 0.06
      eventEnabled: 0
      eventName: 
    - sprite: {fileID: -1477205554108840610, guid: 80067fc9e2d4341449955e996a3c7b8d,
        type: 3}
      time: 0.06
      eventEnabled: 0
      eventName: 
    - sprite: {fileID: 4439889993703233192, guid: 80067fc9e2d4341449955e996a3c7b8d,
        type: 3}
      time: 0.06
      eventEnabled: 0
      eventName: 
    - sprite: {fileID: -5086325169619573240, guid: 80067fc9e2d4341449955e996a3c7b8d,
        type: 3}
      time: 0.06
      eventEnabled: 0
      eventName: 
    name: top-gold
    selectedIndex: 0
    newFramesTime: 0.05
    setFramesTime: 0.1
  - speedRatio: 1
    loop: 0
    frameToLoop: 0
    frameDatas:
    - sprite: {fileID: -6836752959256940112, guid: fdb50b54c148a44ef9eb3d7d7aae3b11,
        type: 3}
      time: 0.04
      eventEnabled: 0
      eventName: 
    - sprite: {fileID: 1657748081923886837, guid: fdb50b54c148a44ef9eb3d7d7aae3b11,
        type: 3}
      time: 0.04
      eventEnabled: 0
      eventName: 
    - sprite: {fileID: 8874500477033870848, guid: fdb50b54c148a44ef9eb3d7d7aae3b11,
        type: 3}
      time: 0.04
      eventEnabled: 0
      eventName: 
    - sprite: {fileID: 6826849912685450764, guid: fdb50b54c148a44ef9eb3d7d7aae3b11,
        type: 3}
      time: 0.04
      eventEnabled: 0
      eventName: 
    - sprite: {fileID: 3088340907272144788, guid: fdb50b54c148a44ef9eb3d7d7aae3b11,
        type: 3}
      time: 0.04
      eventEnabled: 0
      eventName: 
    - sprite: {fileID: -701638166857846724, guid: fdb50b54c148a44ef9eb3d7d7aae3b11,
        type: 3}
      time: 0.04
      eventEnabled: 0
      eventName: 
    name: use
    selectedIndex: 0
    newFramesTime: 0.05
    setFramesTime: 0.1
  - speedRatio: 1
    loop: 1
    frameToLoop: 0
    frameDatas:
    - sprite: {fileID: 523805537523122340, guid: 4a95af1f21348f145b388518695aaf3b,
        type: 3}
      time: 0.04
      eventEnabled: 0
      eventName: 
    - sprite: {fileID: -1269445860338555908, guid: 4a95af1f21348f145b388518695aaf3b,
        type: 3}
      time: 0.04
      eventEnabled: 0
      eventName: 
    - sprite: {fileID: 5582980581233626026, guid: 4a95af1f21348f145b388518695aaf3b,
        type: 3}
      time: 0.04
      eventEnabled: 0
      eventName: 
    - sprite: {fileID: -4268485411353748910, guid: 4a95af1f21348f145b388518695aaf3b,
        type: 3}
      time: 0.04
      eventEnabled: 0
      eventName: 
    - sprite: {fileID: 3673613630651264318, guid: 4a95af1f21348f145b388518695aaf3b,
        type: 3}
      time: 0.04
      eventEnabled: 0
      eventName: 
    - sprite: {fileID: -4391179626243903056, guid: 4a95af1f21348f145b388518695aaf3b,
        type: 3}
      time: 0.04
      eventEnabled: 0
      eventName: 
    name: use-gold
    selectedIndex: 0
    newFramesTime: 0.05
    setFramesTime: 0.1
  - speedRatio: 1
    loop: 1
    frameToLoop: 0
    frameDatas:
    - sprite: {fileID: 21300000, guid: 137043238dd89ca47897e19e4fb608aa, type: 3}
      time: 0.04
      eventEnabled: 0
      eventName: 
    name: bottom-fragile
    selectedIndex: 0
    newFramesTime: 0.05
    setFramesTime: 0.1
  - speedRatio: 1
    loop: 1
    frameToLoop: 0
    frameDatas:
    - sprite: {fileID: -3060780824335182736, guid: 572b0afd2804b3644a8476d135f264db,
        type: 3}
      time: 0.04
      eventEnabled: 0
      eventName: 
    - sprite: {fileID: -4497017321522689220, guid: 572b0afd2804b3644a8476d135f264db,
        type: 3}
      time: 0.04
      eventEnabled: 0
      eventName: 
    - sprite: {fileID: -1981114759990143426, guid: 572b0afd2804b3644a8476d135f264db,
        type: 3}
      time: 0.04
      eventEnabled: 0
      eventName: 
    - sprite: {fileID: -4229366914239000156, guid: 572b0afd2804b3644a8476d135f264db,
        type: 3}
      time: 0.04
      eventEnabled: 0
      eventName: 
    - sprite: {fileID: -6603321023581299209, guid: 572b0afd2804b3644a8476d135f264db,
        type: 3}
      time: 0.04
      eventEnabled: 0
      eventName: 
    - sprite: {fileID: 530403863120550084, guid: 572b0afd2804b3644a8476d135f264db,
        type: 3}
      time: 0.04
      eventEnabled: 0
      eventName: 
    - sprite: {fileID: -1840874697789831255, guid: 572b0afd2804b3644a8476d135f264db,
        type: 3}
      time: 0.04
      eventEnabled: 0
      eventName: 
    - sprite: {fileID: -8083742343777317416, guid: 572b0afd2804b3644a8476d135f264db,
        type: 3}
      time: 0.04
      eventEnabled: 0
      eventName: 
    - sprite: {fileID: 415286893036260439, guid: 572b0afd2804b3644a8476d135f264db,
        type: 3}
      time: 0.04
      eventEnabled: 0
      eventName: 
    - sprite: {fileID: -7966893307887542007, guid: 572b0afd2804b3644a8476d135f264db,
        type: 3}
      time: 0.04
      eventEnabled: 0
      eventName: 
    - sprite: {fileID: -1075640342284133471, guid: 572b0afd2804b3644a8476d135f264db,
        type: 3}
      time: 0.04
      eventEnabled: 0
      eventName: 
    - sprite: {fileID: 2565776917368429811, guid: 572b0afd2804b3644a8476d135f264db,
        type: 3}
      time: 0.04
      eventEnabled: 0
      eventName: 
    - sprite: {fileID: 8134007754640106281, guid: 572b0afd2804b3644a8476d135f264db,
        type: 3}
      time: 0.04
      eventEnabled: 0
      eventName: 
    - sprite: {fileID: 4684588232854600720, guid: 572b0afd2804b3644a8476d135f264db,
        type: 3}
      time: 0.04
      eventEnabled: 0
      eventName: 
    - sprite: {fileID: -931411866070893050, guid: 572b0afd2804b3644a8476d135f264db,
        type: 3}
      time: 0.04
      eventEnabled: 0
      eventName: 
    - sprite: {fileID: -8807350081310791674, guid: 572b0afd2804b3644a8476d135f264db,
        type: 3}
      time: 0.04
      eventEnabled: 0
      eventName: 
    - sprite: {fileID: 489194162318228150, guid: 572b0afd2804b3644a8476d135f264db,
        type: 3}
      time: 0.04
      eventEnabled: 0
      eventName: 
    - sprite: {fileID: 224341672113111022, guid: 572b0afd2804b3644a8476d135f264db,
        type: 3}
      time: 0.04
      eventEnabled: 0
      eventName: 
    - sprite: {fileID: 6282771591301734961, guid: 572b0afd2804b3644a8476d135f264db,
        type: 3}
      time: 0.04
      eventEnabled: 0
      eventName: 
    - sprite: {fileID: -4540871432598409668, guid: 572b0afd2804b3644a8476d135f264db,
        type: 3}
      time: 0.04
      eventEnabled: 0
      eventName: 
    - sprite: {fileID: -4165853753824804255, guid: 572b0afd2804b3644a8476d135f264db,
        type: 3}
      time: 0.04
      eventEnabled: 0
      eventName: 
    - sprite: {fileID: -8766803970375281646, guid: 572b0afd2804b3644a8476d135f264db,
        type: 3}
      time: 0.04
      eventEnabled: 0
      eventName: 
    - sprite: {fileID: -4127431436052500828, guid: 572b0afd2804b3644a8476d135f264db,
        type: 3}
      time: 0.04
      eventEnabled: 0
      eventName: 
    - sprite: {fileID: -8705422735669808354, guid: 572b0afd2804b3644a8476d135f264db,
        type: 3}
      time: 0.04
      eventEnabled: 0
      eventName: 
    name: top-fragile
    selectedIndex: 0
    newFramesTime: 0.05
    setFramesTime: 0.1
  - speedRatio: 1
    loop: 1
    frameToLoop: 0
    frameDatas:
    - sprite: {fileID: 7209708723768803726, guid: 67fb76e2ab40dc54fb3c26fa672dba0e,
        type: 3}
      time: 0.04
      eventEnabled: 0
      eventName: 
    - sprite: {fileID: -782059473144239978, guid: 67fb76e2ab40dc54fb3c26fa672dba0e,
        type: 3}
      time: 0.04
      eventEnabled: 0
      eventName: 
    - sprite: {fileID: -9012105736162194317, guid: 67fb76e2ab40dc54fb3c26fa672dba0e,
        type: 3}
      time: 0.04
      eventEnabled: 0
      eventName: 
    - sprite: {fileID: -2699476845715364353, guid: 67fb76e2ab40dc54fb3c26fa672dba0e,
        type: 3}
      time: 0.04
      eventEnabled: 0
      eventName: 
    - sprite: {fileID: 7556685198140915344, guid: 67fb76e2ab40dc54fb3c26fa672dba0e,
        type: 3}
      time: 0.04
      eventEnabled: 0
      eventName: 
    - sprite: {fileID: 8772659338457435899, guid: 67fb76e2ab40dc54fb3c26fa672dba0e,
        type: 3}
      time: 0.04
      eventEnabled: 0
      eventName: 
    name: use-fragile
    selectedIndex: 0
    newFramesTime: 0.05
    setFramesTime: 0.1
  - speedRatio: 1
    loop: 1
    frameToLoop: 0
    frameDatas:
    - sprite: {fileID: 21300000, guid: aff50ad00affb9c48957337cf1a9729f, type: 3}
      time: 0.04
      eventEnabled: 0
      eventName: 
    name: max-fragile
    selectedIndex: 0
    newFramesTime: 0.05
    setFramesTime: 0.1
  - speedRatio: 1
    loop: 1
    frameToLoop: 0
    frameDatas:
    - sprite: {fileID: 21300000, guid: bccfae6c0ca032f4daff1457537e3a18, type: 3}
      time: 0.04
      eventEnabled: 0
      eventName: 
    name: mid-2-fragile
    selectedIndex: 0
    newFramesTime: 0.05
    setFramesTime: 0.1
  - speedRatio: 1
    loop: 1
    frameToLoop: 0
    frameDatas:
    - sprite: {fileID: 21300000, guid: 4bdc1cd3cd34aed4bb843a7b5d68777a, type: 3}
      time: 0.04
      eventEnabled: 0
      eventName: 
    name: mid-fragile
    selectedIndex: 0
    newFramesTime: 0.05
    setFramesTime: 0.1
