%YAML 1.1
%TAG !u! tag:unity3d.com,2011:
--- !u!114 &11400000
MonoBehaviour:
  m_ObjectHideFlags: 0
  m_CorrespondingSourceObject: {fileID: 0}
  m_PrefabInstance: {fileID: 0}
  m_PrefabAsset: {fileID: 0}
  m_GameObject: {fileID: 0}
  m_Enabled: 1
  m_EditorHideFlags: 0
  m_Script: {fileID: 11500000, guid: 34404cb99b59bb543805a55e3c469d61, type: 3}
  m_Name: mass-scrap-ingredient-container
  m_EditorClassIdentifier: 
  editorConfirmations: 1
  animations:
  - speedRatio: 1
    loop: 0
    frameToLoop: 0
    frameDatas:
    - sprite: {fileID: 21300000, guid: 464711664f2124d35a9eb490d65f8059, type: 3}
      time: 0.04
      eventEnabled: 0
      eventName: 
    name: neutral
    selectedIndex: 0
    newFramesTime: 0.05
    setFramesTime: 0.1
  - speedRatio: 1
    loop: 0
    frameToLoop: 0
    frameDatas:
    - sprite: {fileID: 21300000, guid: 928774e46c8bf4d129fdc7325d8a0444, type: 3}
      time: 0.04
      eventEnabled: 0
      eventName: 
    name: balance
    selectedIndex: 0
    newFramesTime: 0.05
    setFramesTime: 0.1
  - speedRatio: 1
    loop: 0
    frameToLoop: 0
    frameDatas:
    - sprite: {fileID: 21300000, guid: ed1b9f60dd8544313b481984ff3a0b99, type: 3}
      time: 0.04
      eventEnabled: 0
      eventName: 
    name: war
    selectedIndex: 0
    newFramesTime: 0.05
    setFramesTime: 0.1
  - speedRatio: 1
    loop: 0
    frameToLoop: 0
    frameDatas:
    - sprite: {fileID: 21300000, guid: 7dc344db36ccf4a6ba6bc3351a878cd2, type: 3}
      time: 0.04
      eventEnabled: 0
      eventName: 
    name: nature
    selectedIndex: 0
    newFramesTime: 0.05
    setFramesTime: 0.1
  - speedRatio: 1
    loop: 0
    frameToLoop: 0
    frameDatas:
    - sprite: {fileID: 21300000, guid: 3805ccb0724cc4feb946f9fc8db621c1, type: 3}
      time: 0.04
      eventEnabled: 0
      eventName: 
    name: fortune
    selectedIndex: 0
    newFramesTime: 0.05
    setFramesTime: 0.1
  - speedRatio: 1
    loop: 0
    frameToLoop: 0
    frameDatas:
    - sprite: {fileID: 21300000, guid: 686e75af5b4234a698bb9ea6c54759b0, type: 3}
      time: 0.04
      eventEnabled: 0
      eventName: 
    name: chaos
    selectedIndex: 0
    newFramesTime: 0.05
    setFramesTime: 0.1
