%YAML 1.1
%TAG !u! tag:unity3d.com,2011:
--- !u!114 &11400000
MonoBehaviour:
  m_ObjectHideFlags: 0
  m_CorrespondingSourceObject: {fileID: 0}
  m_PrefabInstance: {fileID: 0}
  m_PrefabAsset: {fileID: 0}
  m_GameObject: {fileID: 0}
  m_Enabled: 1
  m_EditorHideFlags: 0
  m_Script: {fileID: 11500000, guid: 34404cb99b59bb543805a55e3c469d61, type: 3}
  m_Name: menu-category-icon
  m_EditorClassIdentifier: 
  editorConfirmations: 1
  animations:
  - speedRatio: 1
    loop: 0
    frameToLoop: 0
    frameDatas:
    - sprite: {fileID: 21300000, guid: 1b8f877f3a824f141b947a9a3040742b, type: 3}
      time: 0.04
      eventEnabled: 0
      eventName: 
    name: card-backs
    selectedIndex: 0
    newFramesTime: 0.05
    setFramesTime: 0.1
  - speedRatio: 1
    loop: 0
    frameToLoop: 0
    frameDatas:
    - sprite: {fileID: 21300000, guid: 2256cb1d0d161e344b6f42dccc6e74a1, type: 3}
      time: 0.04
      eventEnabled: 0
      eventName: 
    name: mana-meld
    selectedIndex: 0
    newFramesTime: 0.05
    setFramesTime: 0.1
  - speedRatio: 1
    loop: 0
    frameToLoop: 0
    frameDatas:
    - sprite: {fileID: 21300000, guid: 1fb5dc04af9d3fa4085a9425b3e00019, type: 3}
      time: 0.04
      eventEnabled: 0
      eventName: 
    name: collection
    selectedIndex: 0
    newFramesTime: 0.05
    setFramesTime: 0.1
