%YAML 1.1
%TAG !u! tag:unity3d.com,2011:
--- !u!114 &11400000
MonoBehaviour:
  m_ObjectHideFlags: 0
  m_CorrespondingSourceObject: {fileID: 0}
  m_PrefabInstance: {fileID: 0}
  m_PrefabAsset: {fileID: 0}
  m_GameObject: {fileID: 0}
  m_Enabled: 1
  m_EditorHideFlags: 0
  m_Script: {fileID: 11500000, guid: 34404cb99b59bb543805a55e3c469d61, type: 3}
  m_Name: menu-filter-container
  m_EditorClassIdentifier: 
  editorConfirmations: 1
  animations:
  - speedRatio: 1
    loop: 0
    frameToLoop: 0
    frameDatas:
    - sprite: {fileID: 21300000, guid: e348e067a1b43874998fb9142c881da2, type: 3}
      time: 0.04
      eventEnabled: 0
      eventName: 
    name: card-backs
    selectedIndex: 0
    newFramesTime: 0.05
    setFramesTime: 0.1
  - speedRatio: 1
    loop: 0
    frameToLoop: 0
    frameDatas:
    - sprite: {fileID: 21300000, guid: fae21fccf2f4b6d40851bde97d54fb0b, type: 3}
      time: 0.04
      eventEnabled: 0
      eventName: 
    name: mana-meld-selected
    selectedIndex: 0
    newFramesTime: 0.05
    setFramesTime: 0.1
  - speedRatio: 1
    loop: 0
    frameToLoop: 0
    frameDatas:
    - sprite: {fileID: 21300000, guid: 0d445e57f3b1c3a4fb939503455ec996, type: 3}
      time: 0.04
      eventEnabled: 0
      eventName: 
    name: mana-meld
    selectedIndex: 0
    newFramesTime: 0.05
    setFramesTime: 0.1
  - speedRatio: 1
    loop: 0
    frameToLoop: 0
    frameDatas:
    - sprite: {fileID: 21300000, guid: da9ed639f87b36248a4f67954e08ecaf, type: 3}
      time: 0.04
      eventEnabled: 0
      eventName: 
    name: card-backs-selected
    selectedIndex: 0
    newFramesTime: 0.05
    setFramesTime: 0.1
  - speedRatio: 1
    loop: 0
    frameToLoop: 0
    frameDatas:
    - sprite: {fileID: 21300000, guid: 52ae47932eca5f4438d3666f7ba67c49, type: 3}
      time: 0.04
      eventEnabled: 0
      eventName: 
    name: collection-selected
    selectedIndex: 0
    newFramesTime: 0.05
    setFramesTime: 0.1
  - speedRatio: 1
    loop: 0
    frameToLoop: 0
    frameDatas:
    - sprite: {fileID: 21300000, guid: eddb40c965c45894ca19d6e2f640e8de, type: 3}
      time: 0.04
      eventEnabled: 0
      eventName: 
    name: collection
    selectedIndex: 0
    newFramesTime: 0.05
    setFramesTime: 0.1
