%YAML 1.1
%TAG !u! tag:unity3d.com,2011:
--- !u!114 &11400000
MonoBehaviour:
  m_ObjectHideFlags: 0
  m_CorrespondingSourceObject: {fileID: 0}
  m_PrefabInstance: {fileID: 0}
  m_PrefabAsset: {fileID: 0}
  m_GameObject: {fileID: 0}
  m_Enabled: 1
  m_EditorHideFlags: 0
  m_Script: {fileID: 11500000, guid: 34404cb99b59bb543805a55e3c469d61, type: 3}
  m_Name: music-note
  m_EditorClassIdentifier: 
  editorConfirmations: 1
  animations:
  - speedRatio: 1
    loop: 0
    frameToLoop: 0
    frameDatas:
    - sprite: {fileID: -8381334521874361044, guid: 2fb972822726c31419725b419b94e7f7,
        type: 3}
      time: 0.06
      eventEnabled: 0
      eventName: 
    - sprite: {fileID: 5064652439479953384, guid: 2fb972822726c31419725b419b94e7f7,
        type: 3}
      time: 0.06
      eventEnabled: 0
      eventName: 
    - sprite: {fileID: 6017868345847427437, guid: 2fb972822726c31419725b419b94e7f7,
        type: 3}
      time: 0.06
      eventEnabled: 0
      eventName: 
    - sprite: {fileID: 2771748148424105786, guid: 2fb972822726c31419725b419b94e7f7,
        type: 3}
      time: 0.24
      eventEnabled: 0
      eventName: 
    - sprite: {fileID: -4372858886097183592, guid: 2fb972822726c31419725b419b94e7f7,
        type: 3}
      time: 0.06
      eventEnabled: 0
      eventName: 
    - sprite: {fileID: -5671781081172835623, guid: 2fb972822726c31419725b419b94e7f7,
        type: 3}
      time: 0.06
      eventEnabled: 0
      eventName: 
    - sprite: {fileID: -8557533530654622591, guid: 2fb972822726c31419725b419b94e7f7,
        type: 3}
      time: 0.06
      eventEnabled: 0
      eventName: 
    name: idle-1
    selectedIndex: 0
    newFramesTime: 0.05
    setFramesTime: 0.1
  - speedRatio: 1
    loop: 0
    frameToLoop: 0
    frameDatas:
    - sprite: {fileID: -7201771509133750539, guid: 3a7f4d8b4c9baa149bb09d8fa6dba015,
        type: 3}
      time: 0.06
      eventEnabled: 0
      eventName: 
    - sprite: {fileID: 1552871190803230086, guid: 3a7f4d8b4c9baa149bb09d8fa6dba015,
        type: 3}
      time: 0.06
      eventEnabled: 0
      eventName: 
    - sprite: {fileID: -4494790702671834471, guid: 3a7f4d8b4c9baa149bb09d8fa6dba015,
        type: 3}
      time: 0.06
      eventEnabled: 0
      eventName: 
    - sprite: {fileID: 2691631896555894842, guid: 3a7f4d8b4c9baa149bb09d8fa6dba015,
        type: 3}
      time: 0.24
      eventEnabled: 0
      eventName: 
    - sprite: {fileID: -3683843752995057066, guid: 3a7f4d8b4c9baa149bb09d8fa6dba015,
        type: 3}
      time: 0.06
      eventEnabled: 0
      eventName: 
    - sprite: {fileID: 8821555094977304281, guid: 3a7f4d8b4c9baa149bb09d8fa6dba015,
        type: 3}
      time: 0.06
      eventEnabled: 0
      eventName: 
    - sprite: {fileID: 1477735956380575469, guid: 3a7f4d8b4c9baa149bb09d8fa6dba015,
        type: 3}
      time: 0.06
      eventEnabled: 0
      eventName: 
    name: idle-3
    selectedIndex: 0
    newFramesTime: 0.05
    setFramesTime: 0.1
  - speedRatio: 1
    loop: 0
    frameToLoop: 0
    frameDatas:
    - sprite: {fileID: 3388684867211041406, guid: 27ccd94bbcf6a4840879fc21978b419a,
        type: 3}
      time: 0.06
      eventEnabled: 0
      eventName: 
    - sprite: {fileID: 4629504778520277274, guid: 27ccd94bbcf6a4840879fc21978b419a,
        type: 3}
      time: 0.06
      eventEnabled: 0
      eventName: 
    - sprite: {fileID: 982314506020639560, guid: 27ccd94bbcf6a4840879fc21978b419a,
        type: 3}
      time: 0.06
      eventEnabled: 0
      eventName: 
    - sprite: {fileID: 6311110170717776115, guid: 27ccd94bbcf6a4840879fc21978b419a,
        type: 3}
      time: 0.06
      eventEnabled: 0
      eventName: 
    - sprite: {fileID: 5514220924937325667, guid: 27ccd94bbcf6a4840879fc21978b419a,
        type: 3}
      time: 0.24
      eventEnabled: 0
      eventName: 
    name: spawn-2
    selectedIndex: 0
    newFramesTime: 0.05
    setFramesTime: 0.1
  - speedRatio: 1
    loop: 0
    frameToLoop: 0
    frameDatas:
    - sprite: {fileID: 5303122007574345288, guid: 5c0693bcae469f1498bc746ea2fd7263,
        type: 3}
      time: 0.06
      eventEnabled: 0
      eventName: 
    - sprite: {fileID: -2522560345644796344, guid: 5c0693bcae469f1498bc746ea2fd7263,
        type: 3}
      time: 0.06
      eventEnabled: 0
      eventName: 
    - sprite: {fileID: 1382628672693190348, guid: 5c0693bcae469f1498bc746ea2fd7263,
        type: 3}
      time: 0.06
      eventEnabled: 0
      eventName: 
    - sprite: {fileID: -5554019735995405065, guid: 5c0693bcae469f1498bc746ea2fd7263,
        type: 3}
      time: 0.06
      eventEnabled: 0
      eventName: 
    - sprite: {fileID: -594772784230490010, guid: 5c0693bcae469f1498bc746ea2fd7263,
        type: 3}
      time: 0.24
      eventEnabled: 0
      eventName: 
    name: spawn-3
    selectedIndex: 0
    newFramesTime: 0.05
    setFramesTime: 0.1
  - speedRatio: 1
    loop: 0
    frameToLoop: 0
    frameDatas:
    - sprite: {fileID: -6507174409802229279, guid: 369a03c4f02f44b4c8135f3c863d14d1,
        type: 3}
      time: 0.06
      eventEnabled: 0
      eventName: 
    - sprite: {fileID: -5587891407619465102, guid: 369a03c4f02f44b4c8135f3c863d14d1,
        type: 3}
      time: 0.06
      eventEnabled: 0
      eventName: 
    - sprite: {fileID: 4365749353928286506, guid: 369a03c4f02f44b4c8135f3c863d14d1,
        type: 3}
      time: 0.06
      eventEnabled: 0
      eventName: 
    - sprite: {fileID: -2153974921789954008, guid: 369a03c4f02f44b4c8135f3c863d14d1,
        type: 3}
      time: 0.06
      eventEnabled: 0
      eventName: 
    - sprite: {fileID: 5191501676170271754, guid: 369a03c4f02f44b4c8135f3c863d14d1,
        type: 3}
      time: 0.24
      eventEnabled: 0
      eventName: 
    name: spawn-1
    selectedIndex: 0
    newFramesTime: 0.05
    setFramesTime: 0.1
  - speedRatio: 1
    loop: 0
    frameToLoop: 0
    frameDatas:
    - sprite: {fileID: 7723204507131366753, guid: be697fd2b0d58bc4bb65617662f6425a,
        type: 3}
      time: 0.06
      eventEnabled: 0
      eventName: 
    - sprite: {fileID: 5823991675570930517, guid: be697fd2b0d58bc4bb65617662f6425a,
        type: 3}
      time: 0.06
      eventEnabled: 0
      eventName: 
    - sprite: {fileID: -3567683144443281908, guid: be697fd2b0d58bc4bb65617662f6425a,
        type: 3}
      time: 0.06
      eventEnabled: 0
      eventName: 
    - sprite: {fileID: -4206040774695029609, guid: be697fd2b0d58bc4bb65617662f6425a,
        type: 3}
      time: 0.24
      eventEnabled: 0
      eventName: 
    - sprite: {fileID: 281166108891408702, guid: be697fd2b0d58bc4bb65617662f6425a,
        type: 3}
      time: 0.06
      eventEnabled: 0
      eventName: 
    - sprite: {fileID: -3572330695349977770, guid: be697fd2b0d58bc4bb65617662f6425a,
        type: 3}
      time: 0.06
      eventEnabled: 0
      eventName: 
    - sprite: {fileID: 6678769338848137055, guid: be697fd2b0d58bc4bb65617662f6425a,
        type: 3}
      time: 0.06
      eventEnabled: 0
      eventName: 
    name: idle-2
    selectedIndex: 0
    newFramesTime: 0.05
    setFramesTime: 0.1
