%YAML 1.1
%TAG !u! tag:unity3d.com,2011:
--- !u!114 &11400000
MonoBehaviour:
  m_ObjectHideFlags: 0
  m_CorrespondingSourceObject: {fileID: 0}
  m_PrefabInstance: {fileID: 0}
  m_PrefabAsset: {fileID: 0}
  m_GameObject: {fileID: 0}
  m_Enabled: 1
  m_EditorHideFlags: 0
  m_Script: {fileID: 11500000, guid: 34404cb99b59bb543805a55e3c469d61, type: 3}
  m_Name: overgrow
  m_EditorClassIdentifier: 
  editorConfirmations: 1
  animations:
  - speedRatio: 1
    loop: 1
    frameToLoop: 0
    frameDatas:
    - sprite: {fileID: -4577510890562996040, guid: 948825584132ab84386decff1a3c562d,
        type: 3}
      time: 0.04
      eventEnabled: 0
      eventName: 
    - sprite: {fileID: -109910142601604303, guid: 948825584132ab84386decff1a3c562d,
        type: 3}
      time: 0.04
      eventEnabled: 0
      eventName: 
    - sprite: {fileID: 3195791277598615878, guid: 948825584132ab84386decff1a3c562d,
        type: 3}
      time: 0.04
      eventEnabled: 0
      eventName: 
    - sprite: {fileID: 7419010809898772463, guid: 948825584132ab84386decff1a3c562d,
        type: 3}
      time: 0.04
      eventEnabled: 0
      eventName: 
    - sprite: {fileID: 3912395437240729943, guid: 948825584132ab84386decff1a3c562d,
        type: 3}
      time: 0.04
      eventEnabled: 0
      eventName: 
    - sprite: {fileID: -2455374952792516680, guid: 948825584132ab84386decff1a3c562d,
        type: 3}
      time: 0.04
      eventEnabled: 0
      eventName: 
    - sprite: {fileID: -42642438776175858, guid: 948825584132ab84386decff1a3c562d,
        type: 3}
      time: 0.04
      eventEnabled: 0
      eventName: 
    - sprite: {fileID: 2213400335436427676, guid: 948825584132ab84386decff1a3c562d,
        type: 3}
      time: 0.04
      eventEnabled: 0
      eventName: 
    - sprite: {fileID: 5743713601028973864, guid: 948825584132ab84386decff1a3c562d,
        type: 3}
      time: 0.04
      eventEnabled: 0
      eventName: 
    - sprite: {fileID: 4427757016882073522, guid: 948825584132ab84386decff1a3c562d,
        type: 3}
      time: 0.04
      eventEnabled: 0
      eventName: 
    - sprite: {fileID: -2488300328997645413, guid: 948825584132ab84386decff1a3c562d,
        type: 3}
      time: 0.04
      eventEnabled: 0
      eventName: 
    - sprite: {fileID: -6945680952089599249, guid: 948825584132ab84386decff1a3c562d,
        type: 3}
      time: 0.04
      eventEnabled: 0
      eventName: 
    - sprite: {fileID: -8566087294722988467, guid: 948825584132ab84386decff1a3c562d,
        type: 3}
      time: 0.04
      eventEnabled: 0
      eventName: 
    name: activate-all-seeds
    selectedIndex: 0
    newFramesTime: 0.05
    setFramesTime: 0.1
  - speedRatio: 1
    loop: 0
    frameToLoop: 0
    frameDatas:
    - sprite: {fileID: -1013391247662608952, guid: 65139f4743fd51d43809a7373ee3dc21,
        type: 3}
      time: 0.04
      eventEnabled: 0
      eventName: 
    - sprite: {fileID: -970649978913436721, guid: 65139f4743fd51d43809a7373ee3dc21,
        type: 3}
      time: 0.04
      eventEnabled: 0
      eventName: 
    - sprite: {fileID: 1955298687198240553, guid: 65139f4743fd51d43809a7373ee3dc21,
        type: 3}
      time: 0.04
      eventEnabled: 0
      eventName: 
    - sprite: {fileID: 4110347420803975968, guid: 65139f4743fd51d43809a7373ee3dc21,
        type: 3}
      time: 0.04
      eventEnabled: 0
      eventName: 
    - sprite: {fileID: 6328895413779562855, guid: 65139f4743fd51d43809a7373ee3dc21,
        type: 3}
      time: 0.08
      eventEnabled: 0
      eventName: 
    - sprite: {fileID: -278758322552829506, guid: 65139f4743fd51d43809a7373ee3dc21,
        type: 3}
      time: 0.04
      eventEnabled: 0
      eventName: 
    - sprite: {fileID: 7181177088511696974, guid: 65139f4743fd51d43809a7373ee3dc21,
        type: 3}
      time: 0.04
      eventEnabled: 0
      eventName: 
    - sprite: {fileID: 5949380225903002222, guid: 65139f4743fd51d43809a7373ee3dc21,
        type: 3}
      time: 0.04
      eventEnabled: 0
      eventName: 
    - sprite: {fileID: 1309641079457970230, guid: 65139f4743fd51d43809a7373ee3dc21,
        type: 3}
      time: 0.04
      eventEnabled: 0
      eventName: 
    - sprite: {fileID: -4548694177346136160, guid: 65139f4743fd51d43809a7373ee3dc21,
        type: 3}
      time: 0.04
      eventEnabled: 0
      eventName: 
    - sprite: {fileID: -5376303841886116060, guid: 65139f4743fd51d43809a7373ee3dc21,
        type: 3}
      time: 0.04
      eventEnabled: 0
      eventName: 
    - sprite: {fileID: 20307970915663947, guid: 65139f4743fd51d43809a7373ee3dc21,
        type: 3}
      time: 0.04
      eventEnabled: 0
      eventName: 
    - sprite: {fileID: -9162795877139853998, guid: 65139f4743fd51d43809a7373ee3dc21,
        type: 3}
      time: 0.04
      eventEnabled: 0
      eventName: 
    - sprite: {fileID: -173376934110308360, guid: 65139f4743fd51d43809a7373ee3dc21,
        type: 3}
      time: 0.04
      eventEnabled: 0
      eventName: 
    - sprite: {fileID: -27315599302125405, guid: 65139f4743fd51d43809a7373ee3dc21,
        type: 3}
      time: 0.04
      eventEnabled: 0
      eventName: 
    name: activate-overlay
    selectedIndex: 6
    newFramesTime: 0.05
    setFramesTime: 0.1
  - speedRatio: 1
    loop: 1
    frameToLoop: 0
    frameDatas:
    - sprite: {fileID: -3489430688104719914, guid: aa1a01999bccda74f85970195b5c711f,
        type: 3}
      time: 0.04
      eventEnabled: 0
      eventName: 
    - sprite: {fileID: -5753400362058123806, guid: aa1a01999bccda74f85970195b5c711f,
        type: 3}
      time: 0.04
      eventEnabled: 0
      eventName: 
    - sprite: {fileID: -8812938624654314999, guid: aa1a01999bccda74f85970195b5c711f,
        type: 3}
      time: 0.04
      eventEnabled: 0
      eventName: 
    - sprite: {fileID: 8027431379413338038, guid: aa1a01999bccda74f85970195b5c711f,
        type: 3}
      time: 0.04
      eventEnabled: 0
      eventName: 
    - sprite: {fileID: 8834488941589301269, guid: aa1a01999bccda74f85970195b5c711f,
        type: 3}
      time: 0.04
      eventEnabled: 0
      eventName: 
    - sprite: {fileID: 3393330480391594848, guid: aa1a01999bccda74f85970195b5c711f,
        type: 3}
      time: 0.04
      eventEnabled: 0
      eventName: 
    - sprite: {fileID: -2048289544862118069, guid: aa1a01999bccda74f85970195b5c711f,
        type: 3}
      time: 0.04
      eventEnabled: 0
      eventName: 
    - sprite: {fileID: 8497549253689543811, guid: aa1a01999bccda74f85970195b5c711f,
        type: 3}
      time: 0.04
      eventEnabled: 0
      eventName: 
    - sprite: {fileID: 3825115506210325035, guid: aa1a01999bccda74f85970195b5c711f,
        type: 3}
      time: 0.04
      eventEnabled: 0
      eventName: 
    - sprite: {fileID: 4326850854836391230, guid: aa1a01999bccda74f85970195b5c711f,
        type: 3}
      time: 0.04
      eventEnabled: 0
      eventName: 
    - sprite: {fileID: -4317701860417027466, guid: aa1a01999bccda74f85970195b5c711f,
        type: 3}
      time: 0.04
      eventEnabled: 0
      eventName: 
    - sprite: {fileID: -9220526725867105731, guid: aa1a01999bccda74f85970195b5c711f,
        type: 3}
      time: 0.04
      eventEnabled: 0
      eventName: 
    - sprite: {fileID: 563429126165056619, guid: aa1a01999bccda74f85970195b5c711f,
        type: 3}
      time: 0.04
      eventEnabled: 0
      eventName: 
    - sprite: {fileID: -196727937037589818, guid: aa1a01999bccda74f85970195b5c711f,
        type: 3}
      time: 0.04
      eventEnabled: 0
      eventName: 
    - sprite: {fileID: 4846796911664044048, guid: aa1a01999bccda74f85970195b5c711f,
        type: 3}
      time: 0.04
      eventEnabled: 0
      eventName: 
    - sprite: {fileID: -2821034230181019470, guid: aa1a01999bccda74f85970195b5c711f,
        type: 3}
      time: 0.04
      eventEnabled: 0
      eventName: 
    - sprite: {fileID: -6046606203555066625, guid: aa1a01999bccda74f85970195b5c711f,
        type: 3}
      time: 0.04
      eventEnabled: 0
      eventName: 
    - sprite: {fileID: 5167054216035919212, guid: aa1a01999bccda74f85970195b5c711f,
        type: 3}
      time: 0.04
      eventEnabled: 0
      eventName: 
    - sprite: {fileID: -9095730473972965838, guid: aa1a01999bccda74f85970195b5c711f,
        type: 3}
      time: 0.04
      eventEnabled: 0
      eventName: 
    - sprite: {fileID: 5443546880647253761, guid: aa1a01999bccda74f85970195b5c711f,
        type: 3}
      time: 0.04
      eventEnabled: 0
      eventName: 
    - sprite: {fileID: 3189076896593687489, guid: aa1a01999bccda74f85970195b5c711f,
        type: 3}
      time: 0.04
      eventEnabled: 0
      eventName: 
    - sprite: {fileID: 3981006025887950687, guid: aa1a01999bccda74f85970195b5c711f,
        type: 3}
      time: 0.04
      eventEnabled: 0
      eventName: 
    - sprite: {fileID: -8915811911061335314, guid: aa1a01999bccda74f85970195b5c711f,
        type: 3}
      time: 0.04
      eventEnabled: 0
      eventName: 
    - sprite: {fileID: 3138234054245839094, guid: aa1a01999bccda74f85970195b5c711f,
        type: 3}
      time: 0.04
      eventEnabled: 0
      eventName: 
    - sprite: {fileID: 4022176524761921572, guid: aa1a01999bccda74f85970195b5c711f,
        type: 3}
      time: 0.04
      eventEnabled: 0
      eventName: 
    - sprite: {fileID: -8118302729727195393, guid: aa1a01999bccda74f85970195b5c711f,
        type: 3}
      time: 0.04
      eventEnabled: 0
      eventName: 
    - sprite: {fileID: 6314737654185974452, guid: aa1a01999bccda74f85970195b5c711f,
        type: 3}
      time: 0.04
      eventEnabled: 0
      eventName: 
    - sprite: {fileID: -9082591857068711185, guid: aa1a01999bccda74f85970195b5c711f,
        type: 3}
      time: 0.04
      eventEnabled: 0
      eventName: 
    - sprite: {fileID: -1162482657673011676, guid: aa1a01999bccda74f85970195b5c711f,
        type: 3}
      time: 0.04
      eventEnabled: 0
      eventName: 
    - sprite: {fileID: 6273777333263768626, guid: aa1a01999bccda74f85970195b5c711f,
        type: 3}
      time: 0.04
      eventEnabled: 0
      eventName: 
    - sprite: {fileID: -5638421360053860920, guid: aa1a01999bccda74f85970195b5c711f,
        type: 3}
      time: 0.04
      eventEnabled: 0
      eventName: 
    - sprite: {fileID: -5257348906564169862, guid: aa1a01999bccda74f85970195b5c711f,
        type: 3}
      time: 0.04
      eventEnabled: 0
      eventName: 
    - sprite: {fileID: -2358426143105663160, guid: aa1a01999bccda74f85970195b5c711f,
        type: 3}
      time: 0.04
      eventEnabled: 0
      eventName: 
    - sprite: {fileID: 3992059154598319213, guid: aa1a01999bccda74f85970195b5c711f,
        type: 3}
      time: 0.04
      eventEnabled: 0
      eventName: 
    - sprite: {fileID: 468897375962246024, guid: aa1a01999bccda74f85970195b5c711f,
        type: 3}
      time: 0.04
      eventEnabled: 0
      eventName: 
    - sprite: {fileID: -6064497263351581925, guid: aa1a01999bccda74f85970195b5c711f,
        type: 3}
      time: 0.04
      eventEnabled: 0
      eventName: 
    - sprite: {fileID: 3915173648885685290, guid: aa1a01999bccda74f85970195b5c711f,
        type: 3}
      time: 0.04
      eventEnabled: 0
      eventName: 
    - sprite: {fileID: 5972458118928857827, guid: aa1a01999bccda74f85970195b5c711f,
        type: 3}
      time: 0.04
      eventEnabled: 0
      eventName: 
    - sprite: {fileID: -4659357890249690772, guid: aa1a01999bccda74f85970195b5c711f,
        type: 3}
      time: 0.04
      eventEnabled: 0
      eventName: 
    - sprite: {fileID: 5715636660979651766, guid: aa1a01999bccda74f85970195b5c711f,
        type: 3}
      time: 0.04
      eventEnabled: 0
      eventName: 
    - sprite: {fileID: 6957784258444366767, guid: aa1a01999bccda74f85970195b5c711f,
        type: 3}
      time: 0.04
      eventEnabled: 0
      eventName: 
    - sprite: {fileID: 8941815860510071027, guid: aa1a01999bccda74f85970195b5c711f,
        type: 3}
      time: 0.04
      eventEnabled: 0
      eventName: 
    - sprite: {fileID: -5459874453362959281, guid: aa1a01999bccda74f85970195b5c711f,
        type: 3}
      time: 0.04
      eventEnabled: 0
      eventName: 
    - sprite: {fileID: 4539889891425707293, guid: aa1a01999bccda74f85970195b5c711f,
        type: 3}
      time: 0.04
      eventEnabled: 0
      eventName: 
    - sprite: {fileID: 9218260013108544758, guid: aa1a01999bccda74f85970195b5c711f,
        type: 3}
      time: 0.04
      eventEnabled: 0
      eventName: 
    - sprite: {fileID: -530329004383203689, guid: aa1a01999bccda74f85970195b5c711f,
        type: 3}
      time: 0.04
      eventEnabled: 0
      eventName: 
    - sprite: {fileID: -8624960053905887019, guid: aa1a01999bccda74f85970195b5c711f,
        type: 3}
      time: 0.04
      eventEnabled: 0
      eventName: 
    - sprite: {fileID: -711997967411259152, guid: aa1a01999bccda74f85970195b5c711f,
        type: 3}
      time: 0.04
      eventEnabled: 0
      eventName: 
    name: spawn
    selectedIndex: 0
    newFramesTime: 0.05
    setFramesTime: 0.1
