%YAML 1.1
%TAG !u! tag:unity3d.com,2011:
--- !u!114 &11400000
MonoBehaviour:
  m_ObjectHideFlags: 0
  m_CorrespondingSourceObject: {fileID: 0}
  m_PrefabInstance: {fileID: 0}
  m_PrefabAsset: {fileID: 0}
  m_GameObject: {fileID: 0}
  m_Enabled: 1
  m_EditorHideFlags: 0
  m_Script: {fileID: 11500000, guid: 34404cb99b59bb543805a55e3c469d61, type: 3}
  m_Name: panel-shadow-top
  m_EditorClassIdentifier: 
  editorConfirmations: 1
  animations:
  - speedRatio: 1
    loop: 0
    frameToLoop: 0
    frameDatas:
    - sprite: {fileID: 21300000, guid: fd97b5987853c41ddb9f1c9b1eb7e49f, type: 3}
      time: 0.04
      eventEnabled: 0
      eventName: 
    name: balance
    selectedIndex: 0
    newFramesTime: 0.05
    setFramesTime: 0.1
  - speedRatio: 1
    loop: 0
    frameToLoop: 0
    frameDatas:
    - sprite: {fileID: 21300000, guid: 5a4ef4e88db2d47048030fa139e01ae8, type: 3}
      time: 0.04
      eventEnabled: 0
      eventName: 
    name: blue
    selectedIndex: 0
    newFramesTime: 0.05
    setFramesTime: 0.1
  - speedRatio: 1
    loop: 0
    frameToLoop: 0
    frameDatas:
    - sprite: {fileID: 21300000, guid: 9e5d45332157b4514bca0b6d3ace525e, type: 3}
      time: 0.04
      eventEnabled: 0
      eventName: 
    name: chaos
    selectedIndex: 0
    newFramesTime: 0.05
    setFramesTime: 0.1
  - speedRatio: 1
    loop: 0
    frameToLoop: 0
    frameDatas:
    - sprite: {fileID: 21300000, guid: ce083dbe5116d43d4b08a63302c015b6, type: 3}
      time: 0.04
      eventEnabled: 0
      eventName: 
    name: fortune
    selectedIndex: 0
    newFramesTime: 0.05
    setFramesTime: 0.1
  - speedRatio: 1
    loop: 0
    frameToLoop: 0
    frameDatas:
    - sprite: {fileID: 21300000, guid: 84548ca6321704918bd723d134d5c7a7, type: 3}
      time: 0.04
      eventEnabled: 0
      eventName: 
    name: nature
    selectedIndex: 0
    newFramesTime: 0.05
    setFramesTime: 0.1
  - speedRatio: 1
    loop: 0
    frameToLoop: 0
    frameDatas:
    - sprite: {fileID: 21300000, guid: edce460cc95cb43a28b17b50853790c2, type: 3}
      time: 0.04
      eventEnabled: 0
      eventName: 
    name: red
    selectedIndex: 0
    newFramesTime: 0.05
    setFramesTime: 0.1
  - speedRatio: 1
    loop: 0
    frameToLoop: 0
    frameDatas:
    - sprite: {fileID: 21300000, guid: 169131678660348d6a54c1de356fe06f, type: 3}
      time: 0.04
      eventEnabled: 0
      eventName: 
    name: war
    selectedIndex: 0
    newFramesTime: 0.05
    setFramesTime: 0.1
