%YAML 1.1
%TAG !u! tag:unity3d.com,2011:
--- !u!114 &11400000
MonoBehaviour:
  m_ObjectHideFlags: 0
  m_CorrespondingSourceObject: {fileID: 0}
  m_PrefabInstance: {fileID: 0}
  m_PrefabAsset: {fileID: 0}
  m_GameObject: {fileID: 0}
  m_Enabled: 1
  m_EditorHideFlags: 0
  m_Script: {fileID: 11500000, guid: 34404cb99b59bb543805a55e3c469d61, type: 3}
  m_Name: panel-shadow-top-fable-select
  m_EditorClassIdentifier: 
  editorConfirmations: 1
  animations:
  - speedRatio: 1
    loop: 0
    frameToLoop: 0
    frameDatas:
    - sprite: {fileID: 21300000, guid: dd3a9595deef94b0f8edb346762c67ce, type: 3}
      time: 0.04
      eventEnabled: 0
      eventName: 
    name: war
    selectedIndex: 0
    newFramesTime: 0.05
    setFramesTime: 0.1
  - speedRatio: 1
    loop: 0
    frameToLoop: 0
    frameDatas:
    - sprite: {fileID: 21300000, guid: f483baf16b9ea47749681db2651670f0, type: 3}
      time: 0.04
      eventEnabled: 0
      eventName: 
    name: chaos
    selectedIndex: 0
    newFramesTime: 0.05
    setFramesTime: 0.1
  - speedRatio: 1
    loop: 0
    frameToLoop: 0
    frameDatas:
    - sprite: {fileID: 21300000, guid: ef0ad5e12f1274a51aa8a9804c606763, type: 3}
      time: 0.04
      eventEnabled: 0
      eventName: 
    name: nature
    selectedIndex: 0
    newFramesTime: 0.05
    setFramesTime: 0.1
  - speedRatio: 1
    loop: 0
    frameToLoop: 0
    frameDatas:
    - sprite: {fileID: 21300000, guid: 7a87508fcacdd4e4aa4c04b83be419b2, type: 3}
      time: 0.04
      eventEnabled: 0
      eventName: 
    name: fortune
    selectedIndex: 0
    newFramesTime: 0.05
    setFramesTime: 0.1
  - speedRatio: 1
    loop: 0
    frameToLoop: 0
    frameDatas:
    - sprite: {fileID: 21300000, guid: 6af5404b07f494ebc94e7b113c99c717, type: 3}
      time: 0.04
      eventEnabled: 0
      eventName: 
    name: balance
    selectedIndex: 0
    newFramesTime: 0.05
    setFramesTime: 0.1
