%YAML 1.1
%TAG !u! tag:unity3d.com,2011:
--- !u!114 &11400000
MonoBehaviour:
  m_ObjectHideFlags: 0
  m_CorrespondingSourceObject: {fileID: 0}
  m_PrefabInstance: {fileID: 0}
  m_PrefabAsset: {fileID: 0}
  m_GameObject: {fileID: 0}
  m_Enabled: 1
  m_EditorHideFlags: 0
  m_Script: {fileID: 11500000, guid: 34404cb99b59bb543805a55e3c469d61, type: 3}
  m_Name: peddler
  m_EditorClassIdentifier: 
  editorConfirmations: 1
  animations:
  - speedRatio: 1
    loop: 0
    frameToLoop: 0
    frameDatas:
    - sprite: {fileID: -4703495049817661363, guid: f0693f13d17e648a2800abb221bebe70,
        type: 3}
      time: 4
      eventEnabled: 0
      eventName: 
    - sprite: {fileID: -3393444086853389129, guid: f0693f13d17e648a2800abb221bebe70,
        type: 3}
      time: 0.04
      eventEnabled: 0
      eventName: 
    - sprite: {fileID: 177554983950445889, guid: f0693f13d17e648a2800abb221bebe70,
        type: 3}
      time: 0.04
      eventEnabled: 0
      eventName: 
    - sprite: {fileID: -3795463375731310809, guid: f0693f13d17e648a2800abb221bebe70,
        type: 3}
      time: 0.04
      eventEnabled: 0
      eventName: 
    - sprite: {fileID: 7452561764985057856, guid: f0693f13d17e648a2800abb221bebe70,
        type: 3}
      time: 0.04
      eventEnabled: 0
      eventName: 
    - sprite: {fileID: 7063533147858870534, guid: f0693f13d17e648a2800abb221bebe70,
        type: 3}
      time: 0.04
      eventEnabled: 0
      eventName: 
    - sprite: {fileID: 2118292518535268174, guid: f0693f13d17e648a2800abb221bebe70,
        type: 3}
      time: 2
      eventEnabled: 0
      eventName: 
    - sprite: {fileID: 2702899593453366940, guid: f0693f13d17e648a2800abb221bebe70,
        type: 3}
      time: 0.04
      eventEnabled: 0
      eventName: 
    - sprite: {fileID: -4843150858874027109, guid: f0693f13d17e648a2800abb221bebe70,
        type: 3}
      time: 0.04
      eventEnabled: 0
      eventName: 
    - sprite: {fileID: 7178635495544288552, guid: f0693f13d17e648a2800abb221bebe70,
        type: 3}
      time: 0.04
      eventEnabled: 0
      eventName: 
    - sprite: {fileID: -5297267499810561782, guid: f0693f13d17e648a2800abb221bebe70,
        type: 3}
      time: 0.04
      eventEnabled: 0
      eventName: 
    - sprite: {fileID: -4162012487732397096, guid: f0693f13d17e648a2800abb221bebe70,
        type: 3}
      time: 0.04
      eventEnabled: 0
      eventName: 
    name: idle
    selectedIndex: 4
    newFramesTime: 0.05
    setFramesTime: 0.1
