%YAML 1.1
%TAG !u! tag:unity3d.com,2011:
--- !u!114 &11400000
MonoBehaviour:
  m_ObjectHideFlags: 0
  m_CorrespondingSourceObject: {fileID: 0}
  m_PrefabInstance: {fileID: 0}
  m_PrefabAsset: {fileID: 0}
  m_GameObject: {fileID: 0}
  m_Enabled: 1
  m_EditorHideFlags: 0
  m_Script: {fileID: 11500000, guid: 34404cb99b59bb543805a55e3c469d61, type: 3}
  m_Name: poison-particle-2
  m_EditorClassIdentifier: 
  editorConfirmations: 1
  animations:
  - speedRatio: 1
    loop: 1
    frameToLoop: 0
    frameDatas:
    - sprite: {fileID: -2711471962545724329, guid: e02311639e60741ebb0f6828b984dc18,
        type: 3}
      time: 0.06
      eventEnabled: 0
      eventName: 
    - sprite: {fileID: 5167557383347608372, guid: e02311639e60741ebb0f6828b984dc18,
        type: 3}
      time: 0.06
      eventEnabled: 0
      eventName: 
    - sprite: {fileID: -5154670008890745920, guid: e02311639e60741ebb0f6828b984dc18,
        type: 3}
      time: 0.06
      eventEnabled: 0
      eventName: 
    - sprite: {fileID: 5938231890497188389, guid: e02311639e60741ebb0f6828b984dc18,
        type: 3}
      time: 0.3
      eventEnabled: 0
      eventName: 
    name: spawn
    selectedIndex: 0
    newFramesTime: 0.05
    setFramesTime: 0.1
