%YAML 1.1
%TAG !u! tag:unity3d.com,2011:
--- !u!114 &11400000
MonoBehaviour:
  m_ObjectHideFlags: 0
  m_CorrespondingSourceObject: {fileID: 0}
  m_PrefabInstance: {fileID: 0}
  m_PrefabAsset: {fileID: 0}
  m_GameObject: {fileID: 0}
  m_Enabled: 1
  m_EditorHideFlags: 0
  m_Script: {fileID: 11500000, guid: 34404cb99b59bb543805a55e3c469d61, type: 3}
  m_Name: poisonpuff-grenade
  m_EditorClassIdentifier: 
  editorConfirmations: 1
  animations:
  - speedRatio: 1
    loop: 0
    frameToLoop: 0
    frameDatas:
    - sprite: {fileID: -2727354741817150332, guid: 45db6ec8c166e4542aa11428e80d744b,
        type: 3}
      time: 0.04
      eventEnabled: 0
      eventName: 
    - sprite: {fileID: -6829842562977297241, guid: 45db6ec8c166e4542aa11428e80d744b,
        type: 3}
      time: 0.04
      eventEnabled: 0
      eventName: 
    - sprite: {fileID: -3020956569287121435, guid: 45db6ec8c166e4542aa11428e80d744b,
        type: 3}
      time: 0.08
      eventEnabled: 0
      eventName: 
    - sprite: {fileID: 6300037737390192668, guid: 45db6ec8c166e4542aa11428e80d744b,
        type: 3}
      time: 0.04
      eventEnabled: 0
      eventName: 
    - sprite: {fileID: 106394684568195726, guid: 45db6ec8c166e4542aa11428e80d744b,
        type: 3}
      time: 0.08
      eventEnabled: 0
      eventName: 
    - sprite: {fileID: -4257215488574547772, guid: 45db6ec8c166e4542aa11428e80d744b,
        type: 3}
      time: 0.04
      eventEnabled: 0
      eventName: 
    - sprite: {fileID: -2185468552822615836, guid: 45db6ec8c166e4542aa11428e80d744b,
        type: 3}
      time: 0.04
      eventEnabled: 0
      eventName: 
    - sprite: {fileID: 6324656023461624515, guid: 45db6ec8c166e4542aa11428e80d744b,
        type: 3}
      time: 0.04
      eventEnabled: 0
      eventName: 
    - sprite: {fileID: -1548089945162677975, guid: 45db6ec8c166e4542aa11428e80d744b,
        type: 3}
      time: 0.04
      eventEnabled: 0
      eventName: 
    - sprite: {fileID: -1139712656220359793, guid: 45db6ec8c166e4542aa11428e80d744b,
        type: 3}
      time: 0.04
      eventEnabled: 0
      eventName: 
    - sprite: {fileID: -811394605527636608, guid: 45db6ec8c166e4542aa11428e80d744b,
        type: 3}
      time: 0.04
      eventEnabled: 0
      eventName: 
    - sprite: {fileID: -2739201133330368151, guid: 45db6ec8c166e4542aa11428e80d744b,
        type: 3}
      time: 0.04
      eventEnabled: 0
      eventName: 
    - sprite: {fileID: 7696693103141678961, guid: 45db6ec8c166e4542aa11428e80d744b,
        type: 3}
      time: 0.04
      eventEnabled: 0
      eventName: 
    - sprite: {fileID: 6861580492080877074, guid: 45db6ec8c166e4542aa11428e80d744b,
        type: 3}
      time: 0.04
      eventEnabled: 0
      eventName: 
    - sprite: {fileID: -1077108537521492981, guid: 45db6ec8c166e4542aa11428e80d744b,
        type: 3}
      time: 0.04
      eventEnabled: 0
      eventName: 
    - sprite: {fileID: 6490691120687046265, guid: 45db6ec8c166e4542aa11428e80d744b,
        type: 3}
      time: 0.04
      eventEnabled: 0
      eventName: 
    - sprite: {fileID: 21300000, guid: fd49ac06ab59f472699a83cd9ae6e5e3, type: 3}
      time: 0.05
      eventEnabled: 0
      eventName: 
    name: explode
    selectedIndex: 16
    newFramesTime: 0.05
    setFramesTime: 0.1
  - speedRatio: 1
    loop: 0
    frameToLoop: 0
    frameDatas:
    - sprite: {fileID: -3970080392334991986, guid: b2a16b1fb0692004a96a07551e262dff,
        type: 3}
      time: 0.04
      eventEnabled: 0
      eventName: 
    - sprite: {fileID: 3341985459024637570, guid: b2a16b1fb0692004a96a07551e262dff,
        type: 3}
      time: 0.04
      eventEnabled: 0
      eventName: 
    - sprite: {fileID: 7453213105721701868, guid: b2a16b1fb0692004a96a07551e262dff,
        type: 3}
      time: 0.04
      eventEnabled: 0
      eventName: 
    - sprite: {fileID: -8307174840572406766, guid: b2a16b1fb0692004a96a07551e262dff,
        type: 3}
      time: 0.04
      eventEnabled: 0
      eventName: 
    - sprite: {fileID: 2282844762437098927, guid: b2a16b1fb0692004a96a07551e262dff,
        type: 3}
      time: 0.04
      eventEnabled: 0
      eventName: 
    - sprite: {fileID: -8268984570820092935, guid: b2a16b1fb0692004a96a07551e262dff,
        type: 3}
      time: 0.04
      eventEnabled: 0
      eventName: 
    - sprite: {fileID: 4522120182961173308, guid: b2a16b1fb0692004a96a07551e262dff,
        type: 3}
      time: 0.2
      eventEnabled: 0
      eventName: 
    name: spawn
    selectedIndex: 0
    newFramesTime: 0.05
    setFramesTime: 0.1
