%YAML 1.1
%TAG !u! tag:unity3d.com,2011:
--- !u!114 &11400000
MonoBehaviour:
  m_ObjectHideFlags: 0
  m_CorrespondingSourceObject: {fileID: 0}
  m_PrefabInstance: {fileID: 0}
  m_PrefabAsset: {fileID: 0}
  m_GameObject: {fileID: 0}
  m_Enabled: 1
  m_EditorHideFlags: 0
  m_Script: {fileID: 11500000, guid: 34404cb99b59bb543805a55e3c469d61, type: 3}
  m_Name: poison-particle-3
  m_EditorClassIdentifier: 
  editorConfirmations: 1
  animations:
  - speedRatio: 1
    loop: 1
    frameToLoop: 0
    frameDatas:
    - sprite: {fileID: 7660622556153887143, guid: f40b2b5df86cb40ba9946bd26ee2dcc7,
        type: 3}
      time: 0.06
      eventEnabled: 0
      eventName: 
    - sprite: {fileID: -8289530532802799418, guid: f40b2b5df86cb40ba9946bd26ee2dcc7,
        type: 3}
      time: 0.06
      eventEnabled: 0
      eventName: 
    - sprite: {fileID: -7512177244474404648, guid: f40b2b5df86cb40ba9946bd26ee2dcc7,
        type: 3}
      time: 0.06
      eventEnabled: 0
      eventName: 
    - sprite: {fileID: 2090234462471110402, guid: f40b2b5df86cb40ba9946bd26ee2dcc7,
        type: 3}
      time: 0.3
      eventEnabled: 0
      eventName: 
    name: spawn
    selectedIndex: 0
    newFramesTime: 0.05
    setFramesTime: 0.1
