%YAML 1.1
%TAG !u! tag:unity3d.com,2011:
--- !u!114 &11400000
MonoBehaviour:
  m_ObjectHideFlags: 0
  m_CorrespondingSourceObject: {fileID: 0}
  m_PrefabInstance: {fileID: 0}
  m_PrefabAsset: {fileID: 0}
  m_GameObject: {fileID: 0}
  m_Enabled: 1
  m_EditorHideFlags: 0
  m_Script: {fileID: 11500000, guid: 34404cb99b59bb543805a55e3c469d61, type: 3}
  m_Name: portrait
  m_EditorClassIdentifier: 
  editorConfirmations: 1
  animations:
  - speedRatio: 1
    loop: 0
    frameToLoop: 0
    frameDatas:
    - sprite: {fileID: 21300000, guid: 918a9481b6ed5491e86187b3aafcfaab, type: 3}
      time: 0.04
      eventEnabled: 0
      eventName: 
    name: abraxas-azure-ancient-angry
    selectedIndex: 0
    newFramesTime: 0.05
    setFramesTime: 0.1
  - speedRatio: 1
    loop: 0
    frameToLoop: 0
    frameDatas:
    - sprite: {fileID: 21300000, guid: d9b81dd90d5fa43e1b8cebd377071817, type: 3}
      time: 0.04
      eventEnabled: 0
      eventName: 
    name: abraxas-azure-ancient-idle
    selectedIndex: 0
    newFramesTime: 0.05
    setFramesTime: 0.1
  - speedRatio: 1
    loop: 0
    frameToLoop: 0
    frameDatas:
    - sprite: {fileID: 21300000, guid: 48d805ad0e63b469290c74160bcc1f88, type: 3}
      time: 0.04
      eventEnabled: 0
      eventName: 
    name: abraxas-azure-ancient-sad
    selectedIndex: 0
    newFramesTime: 0.05
    setFramesTime: 0.1
  - speedRatio: 1
    loop: 0
    frameToLoop: 0
    frameDatas:
    - sprite: {fileID: 21300000, guid: 4240a4a36c8e34876a459b821c0f8921, type: 3}
      time: 0.04
      eventEnabled: 0
      eventName: 
    name: abraxas-azure-ancient-shocked
    selectedIndex: 0
    newFramesTime: 0.05
    setFramesTime: 0.1
  - speedRatio: 1
    loop: 0
    frameToLoop: 0
    frameDatas:
    - sprite: {fileID: 21300000, guid: 5a50cb16300634207a1aeacde23d97ce, type: 3}
      time: 0.04
      eventEnabled: 0
      eventName: 
    name: admiral-brass-angry
    selectedIndex: 0
    newFramesTime: 0.05
    setFramesTime: 0.1
  - speedRatio: 1
    loop: 0
    frameToLoop: 0
    frameDatas:
    - sprite: {fileID: 21300000, guid: bc94a6f7b2e1d4cedae3ed5232aef0a5, type: 3}
      time: 0.04
      eventEnabled: 0
      eventName: 
    name: admiral-brass-idle
    selectedIndex: 0
    newFramesTime: 0.05
    setFramesTime: 0.1
  - speedRatio: 1
    loop: 0
    frameToLoop: 0
    frameDatas:
    - sprite: {fileID: 21300000, guid: 4b0442fa3bf984899a6e5ba28a54f0a4, type: 3}
      time: 0.04
      eventEnabled: 0
      eventName: 
    name: admiral-brass-sad
    selectedIndex: 0
    newFramesTime: 0.05
    setFramesTime: 0.1
  - speedRatio: 1
    loop: 0
    frameToLoop: 0
    frameDatas:
    - sprite: {fileID: 21300000, guid: e7f54bdc134a6428181e15c36747e999, type: 3}
      time: 0.04
      eventEnabled: 0
      eventName: 
    name: admiral-brass-shocked
    selectedIndex: 0
    newFramesTime: 0.05
    setFramesTime: 0.1
  - speedRatio: 1
    loop: 0
    frameToLoop: 0
    frameDatas:
    - sprite: {fileID: 21300000, guid: 3da15f95491097842ad4f9d66b451f47, type: 3}
      time: 0.04
      eventEnabled: 0
      eventName: 
    name: alatar-brimwood-angry
    selectedIndex: 0
    newFramesTime: 0.05
    setFramesTime: 0.1
  - speedRatio: 1
    loop: 0
    frameToLoop: 0
    frameDatas:
    - sprite: {fileID: 21300000, guid: 297578e3f0952284597758767a831703, type: 3}
      time: 0.04
      eventEnabled: 0
      eventName: 
    name: alatar-brimwood-idle
    selectedIndex: 0
    newFramesTime: 0.05
    setFramesTime: 0.1
  - speedRatio: 1
    loop: 0
    frameToLoop: 0
    frameDatas:
    - sprite: {fileID: 21300000, guid: b7e96935cc237b24da33cb0797b58104, type: 3}
      time: 0.04
      eventEnabled: 0
      eventName: 
    name: alatar-brimwood-shocked
    selectedIndex: 0
    newFramesTime: 0.05
    setFramesTime: 0.1
  - speedRatio: 1
    loop: 1
    frameToLoop: 0
    frameDatas:
    - sprite: {fileID: 21300000, guid: dcf8dda6c86126047bf7525d37af7e35, type: 3}
      time: 0.04
      eventEnabled: 0
      eventName: 
    name: archduke-mingmogul-angry
    selectedIndex: 0
    newFramesTime: 0.05
    setFramesTime: 0.1
  - speedRatio: 1
    loop: 1
    frameToLoop: 0
    frameDatas:
    - sprite: {fileID: 21300000, guid: dc110b968da5c5a44ad7d10a32385e84, type: 3}
      time: 0.04
      eventEnabled: 0
      eventName: 
    name: archduke-mingmogul-idle
    selectedIndex: 0
    newFramesTime: 0.05
    setFramesTime: 0.1
  - speedRatio: 1
    loop: 1
    frameToLoop: 0
    frameDatas:
    - sprite: {fileID: 21300000, guid: f5a92972f4833a34a96ff41a89e93d71, type: 3}
      time: 0.04
      eventEnabled: 0
      eventName: 
    name: archduke-mingmogul-shocked
    selectedIndex: 0
    newFramesTime: 0.05
    setFramesTime: 0.1
  - speedRatio: 1
    loop: 0
    frameToLoop: 0
    frameDatas:
    - sprite: {fileID: 21300000, guid: 60fa4ab989c6e0b4dae3ec4568a12d91, type: 3}
      time: 0.04
      eventEnabled: 0
      eventName: 
    name: cardinella-idle
    selectedIndex: 0
    newFramesTime: 0.05
    setFramesTime: 0.1
  - speedRatio: 1
    loop: 1
    frameToLoop: 0
    frameDatas:
    - sprite: {fileID: 21300000, guid: 37f7d10ce6ce7fe49bc8cea4d6e899b7, type: 3}
      time: 0.04
      eventEnabled: 0
      eventName: 
    name: commander-sarella-angry
    selectedIndex: 0
    newFramesTime: 0.05
    setFramesTime: 0.1
  - speedRatio: 1
    loop: 1
    frameToLoop: 0
    frameDatas:
    - sprite: {fileID: 21300000, guid: d47864de5e33b5a4ca8dab9e9af35af3, type: 3}
      time: 0.04
      eventEnabled: 0
      eventName: 
    name: commander-sarella-idle
    selectedIndex: 0
    newFramesTime: 0.05
    setFramesTime: 0.1
  - speedRatio: 1
    loop: 1
    frameToLoop: 0
    frameDatas:
    - sprite: {fileID: 21300000, guid: c8ae010527812394790a0982d1fecc0f, type: 3}
      time: 0.04
      eventEnabled: 0
      eventName: 
    name: commander-sarella-joy
    selectedIndex: 0
    newFramesTime: 0.05
    setFramesTime: 0.1
  - speedRatio: 1
    loop: 1
    frameToLoop: 0
    frameDatas:
    - sprite: {fileID: 21300000, guid: 6d6749004291d134c9114d9d54b72b8b, type: 3}
      time: 0.04
      eventEnabled: 0
      eventName: 
    name: commander-sarella-shocked
    selectedIndex: 0
    newFramesTime: 0.05
    setFramesTime: 0.1
  - speedRatio: 1
    loop: 0
    frameToLoop: 0
    frameDatas:
    - sprite: {fileID: 21300000, guid: fd99fe318bbe5164b8e80530802e07b4, type: 3}
      time: 0.04
      eventEnabled: 0
      eventName: 
    name: dj-fungal-master-fresh-idle
    selectedIndex: 0
    newFramesTime: 0.05
    setFramesTime: 0.1
  - speedRatio: 1
    loop: 0
    frameToLoop: 0
    frameDatas:
    - sprite: {fileID: 21300000, guid: def3efda1013d464d8bfd3ddadb293b2, type: 3}
      time: 0.04
      eventEnabled: 0
      eventName: 
    name: dj-fungal-master-fresh-shocked
    selectedIndex: 0
    newFramesTime: 0.05
    setFramesTime: 0.1
  - speedRatio: 1
    loop: 0
    frameToLoop: 0
    frameDatas:
    - sprite: {fileID: 21300000, guid: 0cb0249433271453e820eb8af0e3cc92, type: 3}
      time: 0.04
      eventEnabled: 0
      eventName: 
    name: dragonbrand-angry
    selectedIndex: 0
    newFramesTime: 0.05
    setFramesTime: 0.1
  - speedRatio: 1
    loop: 0
    frameToLoop: 0
    frameDatas:
    - sprite: {fileID: 21300000, guid: 906ec2baea1b448a790741c7abe63a5b, type: 3}
      time: 0.04
      eventEnabled: 0
      eventName: 
    name: dragonbrand-idle
    selectedIndex: 0
    newFramesTime: 0.05
    setFramesTime: 0.1
  - speedRatio: 1
    loop: 0
    frameToLoop: 0
    frameDatas:
    - sprite: {fileID: 21300000, guid: ce10e6a31b3d5cb41a6d4140c2aa59ae, type: 3}
      time: 0.04
      eventEnabled: 0
      eventName: 
    name: dragonbrand-sad
    selectedIndex: 0
    newFramesTime: 0.05
    setFramesTime: 0.1
  - speedRatio: 1
    loop: 0
    frameToLoop: 0
    frameDatas:
    - sprite: {fileID: 21300000, guid: 3c98bc6a8086f470f842778ea0b2445e, type: 3}
      time: 0.04
      eventEnabled: 0
      eventName: 
    name: dragonbrand-shocked
    selectedIndex: 0
    newFramesTime: 0.05
    setFramesTime: 0.1
  - speedRatio: 1
    loop: 1
    frameToLoop: 0
    frameDatas:
    - sprite: {fileID: 21300000, guid: 00f6edb7f190c4d44a6c90006103d55c, type: 3}
      time: 0.04
      eventEnabled: 0
      eventName: 
    name: gizmo-confused-left
    selectedIndex: 0
    newFramesTime: 0.05
    setFramesTime: 0.1
  - speedRatio: 1
    loop: 1
    frameToLoop: 0
    frameDatas:
    - sprite: {fileID: 21300000, guid: a3a74b96cb1d672408f9211c55ca46b8, type: 3}
      time: 0.04
      eventEnabled: 0
      eventName: 
    name: gizmo-confused-right
    selectedIndex: 0
    newFramesTime: 0.05
    setFramesTime: 0.1
  - speedRatio: 1
    loop: 1
    frameToLoop: 0
    frameDatas:
    - sprite: {fileID: 21300000, guid: 36dc108a99c87594c852da09ae96698d, type: 3}
      time: 0.04
      eventEnabled: 0
      eventName: 
    name: gizmo-curious-left
    selectedIndex: 0
    newFramesTime: 0.05
    setFramesTime: 0.1
  - speedRatio: 1
    loop: 1
    frameToLoop: 0
    frameDatas:
    - sprite: {fileID: 21300000, guid: f6d04af553c5aea469f617e9825acc32, type: 3}
      time: 0.04
      eventEnabled: 0
      eventName: 
    name: gizmo-curious-right
    selectedIndex: 0
    newFramesTime: 0.05
    setFramesTime: 0.1
  - speedRatio: 1
    loop: 1
    frameToLoop: 0
    frameDatas:
    - sprite: {fileID: 21300000, guid: 28512fc54933d8e43904c1acf0c5c3ed, type: 3}
      time: 0.04
      eventEnabled: 0
      eventName: 
    name: gizmo-determined
    selectedIndex: 0
    newFramesTime: 0.05
    setFramesTime: 0.1
  - speedRatio: 1
    loop: 1
    frameToLoop: 0
    frameDatas:
    - sprite: {fileID: 21300000, guid: 62a8a7e6ada0a4f499b9cea080ac9f5a, type: 3}
      time: 0.04
      eventEnabled: 0
      eventName: 
    name: gizmo-idle
    selectedIndex: 0
    newFramesTime: 0.05
    setFramesTime: 0.1
  - speedRatio: 1
    loop: 1
    frameToLoop: 0
    frameDatas:
    - sprite: {fileID: 21300000, guid: 803114c4872cd22499b08261658441ea, type: 3}
      time: 0.04
      eventEnabled: 0
      eventName: 
    name: gizmo-joy
    selectedIndex: 0
    newFramesTime: 0.05
    setFramesTime: 0.1
  - speedRatio: 1
    loop: 1
    frameToLoop: 0
    frameDatas:
    - sprite: {fileID: 21300000, guid: 97c5e542ae2efbf4d915de421021803b, type: 3}
      time: 0.04
      eventEnabled: 0
      eventName: 
    name: gizmo-sad
    selectedIndex: 0
    newFramesTime: 0.05
    setFramesTime: 0.1
  - speedRatio: 1
    loop: 1
    frameToLoop: 0
    frameDatas:
    - sprite: {fileID: 21300000, guid: abcb988f6b034364f99dee420d36fcb7, type: 3}
      time: 0.04
      eventEnabled: 0
      eventName: 
    name: gizmo-shocked
    selectedIndex: 0
    newFramesTime: 0.05
    setFramesTime: 0.1
  - speedRatio: 1
    loop: 0
    frameToLoop: 0
    frameDatas:
    - sprite: {fileID: 21300000, guid: 7d5d983939b514975afcffcba7332636, type: 3}
      time: 0.04
      eventEnabled: 0
      eventName: 
    name: grubb-angry
    selectedIndex: 0
    newFramesTime: 0.05
    setFramesTime: 0.1
  - speedRatio: 1
    loop: 0
    frameToLoop: 0
    frameDatas:
    - sprite: {fileID: 21300000, guid: a7ba6d01543644f8cbb2a4f3d7ceec86, type: 3}
      time: 0.04
      eventEnabled: 0
      eventName: 
    name: grubb-idle
    selectedIndex: 0
    newFramesTime: 0.05
    setFramesTime: 0.1
  - speedRatio: 1
    loop: 0
    frameToLoop: 0
    frameDatas:
    - sprite: {fileID: 21300000, guid: 36065963e15bb46549864f49d92f7e97, type: 3}
      time: 0.04
      eventEnabled: 0
      eventName: 
    name: grubb-sad
    selectedIndex: 0
    newFramesTime: 0.05
    setFramesTime: 0.1
  - speedRatio: 1
    loop: 0
    frameToLoop: 0
    frameDatas:
    - sprite: {fileID: 21300000, guid: 58c3eee4d635b4155aa2e29d108ca195, type: 3}
      time: 0.04
      eventEnabled: 0
      eventName: 
    name: grubb-shocked
    selectedIndex: 0
    newFramesTime: 0.05
    setFramesTime: 0.1
  - speedRatio: 1
    loop: 1
    frameToLoop: 0
    frameDatas:
    - sprite: {fileID: 21300000, guid: f6fb1074a1abaa743b1fe321235eb763, type: 3}
      time: 0.04
      eventEnabled: 0
      eventName: 
    name: heavy-sword-hero-idle
    selectedIndex: 0
    newFramesTime: 0.05
    setFramesTime: 0.1
  - speedRatio: 1
    loop: 1
    frameToLoop: 0
    frameDatas:
    - sprite: {fileID: 21300000, guid: 36c43c9d11874b14499f893117d9d293, type: 3}
      time: 0.04
      eventEnabled: 0
      eventName: 
    name: heavy-sword-hero-nervous
    selectedIndex: 0
    newFramesTime: 0.05
    setFramesTime: 0.1
  - speedRatio: 1
    loop: 1
    frameToLoop: 0
    frameDatas:
    - sprite: {fileID: 21300000, guid: 3caedb81491a5ec45ab028058c92addc, type: 3}
      time: 0.04
      eventEnabled: 0
      eventName: 
    name: heister-henry-angry
    selectedIndex: 0
    newFramesTime: 0.05
    setFramesTime: 0.1
  - speedRatio: 1
    loop: 1
    frameToLoop: 0
    frameDatas:
    - sprite: {fileID: 21300000, guid: 4bcbd6aedfb4d8d4192e99b54a7d5d63, type: 3}
      time: 0.04
      eventEnabled: 0
      eventName: 
    name: heister-henry-idle
    selectedIndex: 0
    newFramesTime: 0.05
    setFramesTime: 0.1
  - speedRatio: 1
    loop: 1
    frameToLoop: 0
    frameDatas:
    - sprite: {fileID: 21300000, guid: 4627100c4d68ca945882e61466aebd60, type: 3}
      time: 0.04
      eventEnabled: 0
      eventName: 
    name: heister-henry-nervous
    selectedIndex: 0
    newFramesTime: 0.05
    setFramesTime: 0.1
  - speedRatio: 1
    loop: 1
    frameToLoop: 0
    frameDatas:
    - sprite: {fileID: 21300000, guid: 9333175e8f1858b489e9d4610f490d8d, type: 3}
      time: 0.04
      eventEnabled: 0
      eventName: 
    name: heister-henry-shocked
    selectedIndex: 0
    newFramesTime: 0.05
    setFramesTime: 0.1
  - speedRatio: 1
    loop: 0
    frameToLoop: 0
    frameDatas:
    - sprite: {fileID: 21300000, guid: 44cccbd7b4caafc488a416c7747c9d08, type: 3}
      time: 0.04
      eventEnabled: 0
      eventName: 
    name: hexi-angry
    selectedIndex: 0
    newFramesTime: 0.05
    setFramesTime: 0.1
  - speedRatio: 1
    loop: 0
    frameToLoop: 0
    frameDatas:
    - sprite: {fileID: 21300000, guid: 36fe994f15952bc41af909c07f92a526, type: 3}
      time: 0.04
      eventEnabled: 0
      eventName: 
    name: hexi-idle
    selectedIndex: 0
    newFramesTime: 0.05
    setFramesTime: 0.1
  - speedRatio: 1
    loop: 0
    frameToLoop: 0
    frameDatas:
    - sprite: {fileID: 21300000, guid: f5499ee2f5abd004b8f486c578432077, type: 3}
      time: 0.04
      eventEnabled: 0
      eventName: 
    name: hexi-shocked
    selectedIndex: 0
    newFramesTime: 0.05
    setFramesTime: 0.1
  - speedRatio: 1
    loop: 1
    frameToLoop: 0
    frameDatas:
    - sprite: {fileID: 21300000, guid: 13d4d8c9a342bf2468d31075b6de94bd, type: 3}
      time: 0.04
      eventEnabled: 0
      eventName: 
    name: hooded-zan-idle
    selectedIndex: 0
    newFramesTime: 0.05
    setFramesTime: 0.1
  - speedRatio: 1
    loop: 1
    frameToLoop: 0
    frameDatas:
    - sprite: {fileID: 21300000, guid: 1a0bdec83babbf847bad1591176f647a, type: 3}
      time: 0.04
      eventEnabled: 0
      eventName: 
    name: hooded-zan-joy
    selectedIndex: 0
    newFramesTime: 0.05
    setFramesTime: 0.1
  - speedRatio: 1
    loop: 0
    frameToLoop: 0
    frameDatas:
    - sprite: {fileID: 21300000, guid: f3fd6b15199b99f42a79dade7b0d4752, type: 3}
      time: 0.04
      eventEnabled: 0
      eventName: 
    name: jarvis-angry
    selectedIndex: 0
    newFramesTime: 0.05
    setFramesTime: 0.1
  - speedRatio: 1
    loop: 0
    frameToLoop: 0
    frameDatas:
    - sprite: {fileID: 21300000, guid: 92e12cd25ec053c4fadc5197ab495e86, type: 3}
      time: 0.04
      eventEnabled: 0
      eventName: 
    name: jarvis-idle
    selectedIndex: 0
    newFramesTime: 0.05
    setFramesTime: 0.1
  - speedRatio: 1
    loop: 0
    frameToLoop: 0
    frameDatas:
    - sprite: {fileID: 21300000, guid: 47896812fd62708458dedb82884d0af3, type: 3}
      time: 0.04
      eventEnabled: 0
      eventName: 
    name: jarvis-sad
    selectedIndex: 0
    newFramesTime: 0.05
    setFramesTime: 0.1
  - speedRatio: 1
    loop: 0
    frameToLoop: 0
    frameDatas:
    - sprite: {fileID: 21300000, guid: f9e77f574d03928479c0344a545de6ad, type: 3}
      time: 0.04
      eventEnabled: 0
      eventName: 
    name: jarvis-shocked
    selectedIndex: 0
    newFramesTime: 0.05
    setFramesTime: 0.1
  - speedRatio: 1
    loop: 0
    frameToLoop: 0
    frameDatas:
    - sprite: {fileID: 21300000, guid: daeca8cbc78f8104d8e4e294225fd1c2, type: 3}
      time: 0.04
      eventEnabled: 0
      eventName: 
    name: kazoo-angry
    selectedIndex: 0
    newFramesTime: 0.05
    setFramesTime: 0.1
  - speedRatio: 1
    loop: 0
    frameToLoop: 0
    frameDatas:
    - sprite: {fileID: 21300000, guid: dd3cbf186eae23a47978dcfe3d3446cc, type: 3}
      time: 0.04
      eventEnabled: 0
      eventName: 
    name: kazoo-idle
    selectedIndex: 0
    newFramesTime: 0.05
    setFramesTime: 0.1
  - speedRatio: 1
    loop: 0
    frameToLoop: 0
    frameDatas:
    - sprite: {fileID: 21300000, guid: a1f24fcd75361d34098cbc3c494da285, type: 3}
      time: 0.04
      eventEnabled: 0
      eventName: 
    name: kazoo-sad
    selectedIndex: 0
    newFramesTime: 0.05
    setFramesTime: 0.1
  - speedRatio: 1
    loop: 0
    frameToLoop: 0
    frameDatas:
    - sprite: {fileID: 21300000, guid: 139d5f8472e744f409489dd5c39d3e63, type: 3}
      time: 0.04
      eventEnabled: 0
      eventName: 
    name: kazoo-shocked
    selectedIndex: 0
    newFramesTime: 0.05
    setFramesTime: 0.1
  - speedRatio: 1
    loop: 0
    frameToLoop: 0
    frameDatas:
    - sprite: {fileID: 21300000, guid: cbe8bf6ec90207748b957062f0ba6b23, type: 3}
      time: 0.04
      eventEnabled: 0
      eventName: 
    name: kil-idle
    selectedIndex: 0
    newFramesTime: 0.05
    setFramesTime: 0.1
  - speedRatio: 1
    loop: 0
    frameToLoop: 0
    frameDatas:
    - sprite: {fileID: 21300000, guid: f526bc70b61657e4f880d4212eb0da04, type: 3}
      time: 0.04
      eventEnabled: 0
      eventName: 
    name: kil-shocked
    selectedIndex: 0
    newFramesTime: 0.05
    setFramesTime: 0.1
  - speedRatio: 1
    loop: 0
    frameToLoop: 0
    frameDatas:
    - sprite: {fileID: 21300000, guid: abe42a3512c4de8488861ea6781298ae, type: 3}
      time: 0.04
      eventEnabled: 0
      eventName: 
    name: leviafin-idle
    selectedIndex: 0
    newFramesTime: 0.05
    setFramesTime: 0.1
  - speedRatio: 1
    loop: 0
    frameToLoop: 0
    frameDatas:
    - sprite: {fileID: 21300000, guid: dc3b410f55b24e74081ae63417df27bc, type: 3}
      time: 0.04
      eventEnabled: 0
      eventName: 
    name: lorenza-angry
    selectedIndex: 0
    newFramesTime: 0.05
    setFramesTime: 0.1
  - speedRatio: 1
    loop: 0
    frameToLoop: 0
    frameDatas:
    - sprite: {fileID: 21300000, guid: 3d3fd59e05d8f0b47a0560d9aa256260, type: 3}
      time: 0.04
      eventEnabled: 0
      eventName: 
    name: lorenza-bored
    selectedIndex: 0
    newFramesTime: 0.05
    setFramesTime: 0.1
  - speedRatio: 1
    loop: 0
    frameToLoop: 0
    frameDatas:
    - sprite: {fileID: 21300000, guid: fb155bf7ea32f134b98841077552e750, type: 3}
      time: 0.04
      eventEnabled: 0
      eventName: 
    name: lorenza-idle
    selectedIndex: 0
    newFramesTime: 0.05
    setFramesTime: 0.1
  - speedRatio: 1
    loop: 0
    frameToLoop: 0
    frameDatas:
    - sprite: {fileID: 21300000, guid: 61d0b59353a179848a6eecdf16e0721a, type: 3}
      time: 0.04
      eventEnabled: 0
      eventName: 
    name: lorenza-sad
    selectedIndex: 0
    newFramesTime: 0.05
    setFramesTime: 0.1
  - speedRatio: 1
    loop: 0
    frameToLoop: 0
    frameDatas:
    - sprite: {fileID: 21300000, guid: 26f2ba77f234e2a40906ae8b56f4f1d2, type: 3}
      time: 0.04
      eventEnabled: 0
      eventName: 
    name: lorenza-shocked
    selectedIndex: 0
    newFramesTime: 0.05
    setFramesTime: 0.1
  - speedRatio: 1
    loop: 0
    frameToLoop: 0
    frameDatas:
    - sprite: {fileID: 21300000, guid: 3fe7cbc7c568647fc9ae060637ee4e82, type: 3}
      time: 0.04
      eventEnabled: 0
      eventName: 
    name: loyal-coxswain-angry
    selectedIndex: 0
    newFramesTime: 0.05
    setFramesTime: 0.1
  - speedRatio: 1
    loop: 0
    frameToLoop: 0
    frameDatas:
    - sprite: {fileID: 21300000, guid: 7c016d7d2fdad4cf28da7d0e2c3295a5, type: 3}
      time: 0.04
      eventEnabled: 0
      eventName: 
    name: loyal-coxswain-idle
    selectedIndex: 0
    newFramesTime: 0.05
    setFramesTime: 0.1
  - speedRatio: 1
    loop: 0
    frameToLoop: 0
    frameDatas:
    - sprite: {fileID: 21300000, guid: 05ed8912fc20a4e80b3ca833e214d076, type: 3}
      time: 0.04
      eventEnabled: 0
      eventName: 
    name: loyal-coxswain-joy
    selectedIndex: 0
    newFramesTime: 0.05
    setFramesTime: 0.1
  - speedRatio: 1
    loop: 0
    frameToLoop: 0
    frameDatas:
    - sprite: {fileID: 21300000, guid: 9cba1d1d09ff6410193ee56d18e61799, type: 3}
      time: 0.04
      eventEnabled: 0
      eventName: 
    name: loyal-coxswain-sad
    selectedIndex: 0
    newFramesTime: 0.05
    setFramesTime: 0.1
  - speedRatio: 1
    loop: 0
    frameToLoop: 0
    frameDatas:
    - sprite: {fileID: 21300000, guid: 5ee315cc0973947319b6c150b5c50cd9, type: 3}
      time: 0.04
      eventEnabled: 0
      eventName: 
    name: loyal-coxswain-shocked
    selectedIndex: 0
    newFramesTime: 0.05
    setFramesTime: 0.1
  - speedRatio: 1
    loop: 0
    frameToLoop: 0
    frameDatas:
    - sprite: {fileID: 21300000, guid: bb3841b66c6973a4ea53a5bd33ca4842, type: 3}
      time: 0.04
      eventEnabled: 0
      eventName: 
    name: mawlder-idle
    selectedIndex: 0
    newFramesTime: 0.05
    setFramesTime: 0.1
  - speedRatio: 1
    loop: 0
    frameToLoop: 0
    frameDatas:
    - sprite: {fileID: 21300000, guid: 6fed46ecf50014c4ab63312b35ba88cf, type: 3}
      time: 0.04
      eventEnabled: 0
      eventName: 
    name: mawson-angry
    selectedIndex: 0
    newFramesTime: 0.05
    setFramesTime: 0.1
  - speedRatio: 1
    loop: 0
    frameToLoop: 0
    frameDatas:
    - sprite: {fileID: 21300000, guid: b0d8de0f39cc0a142b4c3fb1f77476ba, type: 3}
      time: 0.04
      eventEnabled: 0
      eventName: 
    name: mawson-idle
    selectedIndex: 0
    newFramesTime: 0.05
    setFramesTime: 0.1
  - speedRatio: 1
    loop: 0
    frameToLoop: 0
    frameDatas:
    - sprite: {fileID: 21300000, guid: f5476552d787012428a5ece301f41167, type: 3}
      time: 0.04
      eventEnabled: 0
      eventName: 
    name: mawson-sad
    selectedIndex: 0
    newFramesTime: 0.05
    setFramesTime: 0.1
  - speedRatio: 1
    loop: 0
    frameToLoop: 0
    frameDatas:
    - sprite: {fileID: 21300000, guid: c2c2d44964fce5e448fc8d98aeebf3b1, type: 3}
      time: 0.04
      eventEnabled: 0
      eventName: 
    name: mawson-shocked
    selectedIndex: 0
    newFramesTime: 0.05
    setFramesTime: 0.1
  - speedRatio: 1
    loop: 0
    frameToLoop: 0
    frameDatas:
    - sprite: {fileID: 21300000, guid: dc647fec9e6f04a2781edadff89b6464, type: 3}
      time: 0.04
      eventEnabled: 0
      eventName: 
    name: mereena
    selectedIndex: 0
    newFramesTime: 0.05
    setFramesTime: 0.1
  - speedRatio: 1
    loop: 0
    frameToLoop: 0
    frameDatas:
    - sprite: {fileID: 21300000, guid: dd7a8abb6a55d0b4ba2ec6281c31f904, type: 3}
      time: 0.04
      eventEnabled: 0
      eventName: 
    name: mereena-angry
    selectedIndex: 0
    newFramesTime: 0.05
    setFramesTime: 0.1
  - speedRatio: 1
    loop: 0
    frameToLoop: 0
    frameDatas:
    - sprite: {fileID: 21300000, guid: cbd8cf8e1b9ada046ba890e6f0f317ff, type: 3}
      time: 0.04
      eventEnabled: 0
      eventName: 
    name: mereena-confused
    selectedIndex: 0
    newFramesTime: 0.05
    setFramesTime: 0.1
  - speedRatio: 1
    loop: 0
    frameToLoop: 0
    frameDatas:
    - sprite: {fileID: 21300000, guid: 413be4be5be79054c809c173b0dda04b, type: 3}
      time: 0.04
      eventEnabled: 0
      eventName: 
    name: mereena-confused-right
    selectedIndex: 0
    newFramesTime: 0.05
    setFramesTime: 0.1
  - speedRatio: 1
    loop: 0
    frameToLoop: 0
    frameDatas:
    - sprite: {fileID: 21300000, guid: 05e204ad84d8ccd499086090f9b63400, type: 3}
      time: 0.04
      eventEnabled: 0
      eventName: 
    name: mereena-determined
    selectedIndex: 0
    newFramesTime: 0.05
    setFramesTime: 0.1
  - speedRatio: 1
    loop: 0
    frameToLoop: 0
    frameDatas:
    - sprite: {fileID: 21300000, guid: 1a9ce03ad88d3e541a35384ea601ef03, type: 3}
      time: 0.04
      eventEnabled: 0
      eventName: 
    name: mereena-embarrassed
    selectedIndex: 0
    newFramesTime: 0.05
    setFramesTime: 0.1
  - speedRatio: 1
    loop: 0
    frameToLoop: 0
    frameDatas:
    - sprite: {fileID: 21300000, guid: e3ae6c566205150438cad1432900a356, type: 3}
      time: 0.04
      eventEnabled: 0
      eventName: 
    name: mereena-flirt
    selectedIndex: 0
    newFramesTime: 0.05
    setFramesTime: 0.1
  - speedRatio: 1
    loop: 0
    frameToLoop: 0
    frameDatas:
    - sprite: {fileID: 21300000, guid: dc647fec9e6f04a2781edadff89b6464, type: 3}
      time: 0.04
      eventEnabled: 0
      eventName: 
    name: mereena-idle
    selectedIndex: 0
    newFramesTime: 0.05
    setFramesTime: 0.1
  - speedRatio: 1
    loop: 0
    frameToLoop: 0
    frameDatas:
    - sprite: {fileID: 21300000, guid: cc9ac6281039a07459e051e77766a920, type: 3}
      time: 0.04
      eventEnabled: 0
      eventName: 
    name: mereena-joy
    selectedIndex: 0
    newFramesTime: 0.05
    setFramesTime: 0.1
  - speedRatio: 1
    loop: 0
    frameToLoop: 0
    frameDatas:
    - sprite: {fileID: 21300000, guid: 9ae9c0544b804894e99909ab8d6f1daa, type: 3}
      time: 0.04
      eventEnabled: 0
      eventName: 
    name: mereena-nervous
    selectedIndex: 0
    newFramesTime: 0.05
    setFramesTime: 0.1
  - speedRatio: 1
    loop: 0
    frameToLoop: 0
    frameDatas:
    - sprite: {fileID: 21300000, guid: f3e24019fe8cfa0438e2bec668079898, type: 3}
      time: 0.04
      eventEnabled: 0
      eventName: 
    name: mereena-sad
    selectedIndex: 0
    newFramesTime: 0.05
    setFramesTime: 0.1
  - speedRatio: 1
    loop: 0
    frameToLoop: 0
    frameDatas:
    - sprite: {fileID: 21300000, guid: 5d1651bbf9ce3404c9f77ab1da051e2a, type: 3}
      time: 0.04
      eventEnabled: 0
      eventName: 
    name: mereena-shocked
    selectedIndex: 0
    newFramesTime: 0.05
    setFramesTime: 0.1
  - speedRatio: 1
    loop: 0
    frameToLoop: 0
    frameDatas:
    - sprite: {fileID: 21300000, guid: 7a5cde0fdf1416147be0f1c55e9c4a9a, type: 3}
      time: 0.04
      eventEnabled: 0
      eventName: 
    name: merow-angry
    selectedIndex: 0
    newFramesTime: 0.05
    setFramesTime: 0.1
  - speedRatio: 1
    loop: 0
    frameToLoop: 0
    frameDatas:
    - sprite: {fileID: 21300000, guid: af6d994fd390396478364a7a76f5d31a, type: 3}
      time: 0.04
      eventEnabled: 0
      eventName: 
    name: merow-idle
    selectedIndex: 0
    newFramesTime: 0.05
    setFramesTime: 0.1
  - speedRatio: 1
    loop: 0
    frameToLoop: 0
    frameDatas:
    - sprite: {fileID: 21300000, guid: 8b3cf4024298dd04a917384a0686c513, type: 3}
      time: 0.04
      eventEnabled: 0
      eventName: 
    name: merow-sad
    selectedIndex: 0
    newFramesTime: 0.05
    setFramesTime: 0.1
  - speedRatio: 1
    loop: 0
    frameToLoop: 0
    frameDatas:
    - sprite: {fileID: 21300000, guid: dc8e001226f03be489b472fb2f85565d, type: 3}
      time: 0.04
      eventEnabled: 0
      eventName: 
    name: merow-shocked
    selectedIndex: 0
    newFramesTime: 0.05
    setFramesTime: 0.1
  - speedRatio: 1
    loop: 0
    frameToLoop: 0
    frameDatas:
    - sprite: {fileID: 21300000, guid: 4dda4c4df7cbdaf43ae90c4bb3dd4c9e, type: 3}
      time: 0.04
      eventEnabled: 0
      eventName: 
    name: parsley-angry
    selectedIndex: 0
    newFramesTime: 0.05
    setFramesTime: 0.1
  - speedRatio: 1
    loop: 0
    frameToLoop: 0
    frameDatas:
    - sprite: {fileID: 21300000, guid: 5d8016e8e81e55c4991163a9ecd3f3ce, type: 3}
      time: 0.04
      eventEnabled: 0
      eventName: 
    name: parsley-idle
    selectedIndex: 0
    newFramesTime: 0.05
    setFramesTime: 0.1
  - speedRatio: 1
    loop: 0
    frameToLoop: 0
    frameDatas:
    - sprite: {fileID: 21300000, guid: dfeacaf54f6fd97448262eec9d92b8da, type: 3}
      time: 0.04
      eventEnabled: 0
      eventName: 
    name: parsley-sad
    selectedIndex: 0
    newFramesTime: 0.05
    setFramesTime: 0.1
  - speedRatio: 1
    loop: 0
    frameToLoop: 0
    frameDatas:
    - sprite: {fileID: 21300000, guid: 1a25c46616f1fae478e31c201d654f0f, type: 3}
      time: 0.04
      eventEnabled: 0
      eventName: 
    name: parsley-shocked
    selectedIndex: 0
    newFramesTime: 0.05
    setFramesTime: 0.1
  - speedRatio: 1
    loop: 1
    frameToLoop: 0
    frameDatas:
    - sprite: {fileID: 21300000, guid: 68ced39128e77cd4abe369b0f8746053, type: 3}
      time: 0.04
      eventEnabled: 0
      eventName: 
    name: pilfer-pip-angry
    selectedIndex: 0
    newFramesTime: 0.05
    setFramesTime: 0.1
  - speedRatio: 1
    loop: 1
    frameToLoop: 0
    frameDatas:
    - sprite: {fileID: 21300000, guid: 30279d2b28d602d4da15d7656841dfac, type: 3}
      time: 0.04
      eventEnabled: 0
      eventName: 
    name: pilfer-pip-idle
    selectedIndex: 0
    newFramesTime: 0.05
    setFramesTime: 0.1
  - speedRatio: 1
    loop: 1
    frameToLoop: 0
    frameDatas:
    - sprite: {fileID: 21300000, guid: 8b59a5b3f77031e40809ed63015f9ec2, type: 3}
      time: 0.04
      eventEnabled: 0
      eventName: 
    name: pilfer-pip-nervous
    selectedIndex: 0
    newFramesTime: 0.05
    setFramesTime: 0.1
  - speedRatio: 1
    loop: 1
    frameToLoop: 0
    frameDatas:
    - sprite: {fileID: 21300000, guid: 3f65b0ece3a2185468b46608396e37b7, type: 3}
      time: 0.04
      eventEnabled: 0
      eventName: 
    name: pilfer-pip-shocked
    selectedIndex: 0
    newFramesTime: 0.05
    setFramesTime: 0.1
  - speedRatio: 1
    loop: 0
    frameToLoop: 0
    frameDatas:
    - sprite: {fileID: 21300000, guid: f1e178c7591dbdc49923184bbf51658a, type: 3}
      time: 0.04
      eventEnabled: 0
      eventName: 
    name: pink-bonnet-angry
    selectedIndex: 0
    newFramesTime: 0.05
    setFramesTime: 0.1
  - speedRatio: 1
    loop: 0
    frameToLoop: 0
    frameDatas:
    - sprite: {fileID: 21300000, guid: a4f799ee152ac9b428fce41c737559c2, type: 3}
      time: 0.04
      eventEnabled: 0
      eventName: 
    name: pink-bonnet-idle
    selectedIndex: 0
    newFramesTime: 0.05
    setFramesTime: 0.1
  - speedRatio: 1
    loop: 0
    frameToLoop: 0
    frameDatas:
    - sprite: {fileID: 21300000, guid: 17501b19d0a91324d8ed52d8a56ef886, type: 3}
      time: 0.04
      eventEnabled: 0
      eventName: 
    name: pink-bonnet-sad
    selectedIndex: 0
    newFramesTime: 0.05
    setFramesTime: 0.1
  - speedRatio: 1
    loop: 0
    frameToLoop: 0
    frameDatas:
    - sprite: {fileID: 21300000, guid: d059bf41978c3764098d3307dde90ee2, type: 3}
      time: 0.04
      eventEnabled: 0
      eventName: 
    name: pink-bonnet-shocked
    selectedIndex: 0
    newFramesTime: 0.05
    setFramesTime: 0.1
  - speedRatio: 1
    loop: 0
    frameToLoop: 0
    frameDatas:
    - sprite: {fileID: 21300000, guid: d9184851dee4b84489690d8cd83dc27f, type: 3}
      time: 0.04
      eventEnabled: 0
      eventName: 
    name: polly-angry
    selectedIndex: 0
    newFramesTime: 0.05
    setFramesTime: 0.1
  - speedRatio: 1
    loop: 0
    frameToLoop: 0
    frameDatas:
    - sprite: {fileID: 21300000, guid: b35fef13b304d764daf39d5fcd12fd8a, type: 3}
      time: 0.04
      eventEnabled: 0
      eventName: 
    name: polly-idle
    selectedIndex: 0
    newFramesTime: 0.05
    setFramesTime: 0.1
  - speedRatio: 1
    loop: 0
    frameToLoop: 0
    frameDatas:
    - sprite: {fileID: 21300000, guid: 441747059fc281d44a7ee65270c57357, type: 3}
      time: 0.04
      eventEnabled: 0
      eventName: 
    name: polly-sad
    selectedIndex: 0
    newFramesTime: 0.05
    setFramesTime: 0.1
  - speedRatio: 1
    loop: 0
    frameToLoop: 0
    frameDatas:
    - sprite: {fileID: 21300000, guid: 69064ed490bf88a4e9312bff87bdcf5e, type: 3}
      time: 0.04
      eventEnabled: 0
      eventName: 
    name: polly-shocked
    selectedIndex: 0
    newFramesTime: 0.05
    setFramesTime: 0.1
  - speedRatio: 1
    loop: 0
    frameToLoop: 0
    frameDatas:
    - sprite: {fileID: 21300000, guid: 8af888ecfafbb5b4f85af16406c96a68, type: 3}
      time: 0.04
      eventEnabled: 0
      eventName: 
    name: prince-parsley-angry
    selectedIndex: 0
    newFramesTime: 0.05
    setFramesTime: 0.1
  - speedRatio: 1
    loop: 0
    frameToLoop: 0
    frameDatas:
    - sprite: {fileID: 21300000, guid: 218d39301c364d54ca54daea660158b4, type: 3}
      time: 0.04
      eventEnabled: 0
      eventName: 
    name: prince-parsley-idle
    selectedIndex: 0
    newFramesTime: 0.05
    setFramesTime: 0.1
  - speedRatio: 1
    loop: 0
    frameToLoop: 0
    frameDatas:
    - sprite: {fileID: 21300000, guid: 70afd3935842b5642802a49aea6c9708, type: 3}
      time: 0.04
      eventEnabled: 0
      eventName: 
    name: prince-parsley-sad
    selectedIndex: 0
    newFramesTime: 0.05
    setFramesTime: 0.1
  - speedRatio: 1
    loop: 0
    frameToLoop: 0
    frameDatas:
    - sprite: {fileID: 21300000, guid: 2278a778daa87894c90a65b908939ccb, type: 3}
      time: 0.04
      eventEnabled: 0
      eventName: 
    name: prince-parsley-shocked
    selectedIndex: 0
    newFramesTime: 0.05
    setFramesTime: 0.1
  - speedRatio: 1
    loop: 0
    frameToLoop: 0
    frameDatas:
    - sprite: {fileID: 21300000, guid: a0321ee84737a684c83b6246704acb35, type: 3}
      time: 0.04
      eventEnabled: 0
      eventName: 
    name: quartermaster-sting-angry
    selectedIndex: 0
    newFramesTime: 0.05
    setFramesTime: 0.1
  - speedRatio: 1
    loop: 0
    frameToLoop: 0
    frameDatas:
    - sprite: {fileID: 21300000, guid: 3019167ccf9ca4a40900ef45ae1590e5, type: 3}
      time: 0.04
      eventEnabled: 0
      eventName: 
    name: quartermaster-sting-idle
    selectedIndex: 0
    newFramesTime: 0.05
    setFramesTime: 0.1
  - speedRatio: 1
    loop: 0
    frameToLoop: 0
    frameDatas:
    - sprite: {fileID: 21300000, guid: d4e7efe09cea9fe478f81792e4e2e873, type: 3}
      time: 0.04
      eventEnabled: 0
      eventName: 
    name: quartermaster-sting-sad
    selectedIndex: 0
    newFramesTime: 0.05
    setFramesTime: 0.1
  - speedRatio: 1
    loop: 0
    frameToLoop: 0
    frameDatas:
    - sprite: {fileID: 21300000, guid: 8738a75567f8b8d41af69e1fc4b07926, type: 3}
      time: 0.04
      eventEnabled: 0
      eventName: 
    name: quartermaster-sting-shocked
    selectedIndex: 0
    newFramesTime: 0.05
    setFramesTime: 0.1
  - speedRatio: 1
    loop: 0
    frameToLoop: 0
    frameDatas:
    - sprite: {fileID: 21300000, guid: c67116e1915d14040b59155e345869fd, type: 3}
      time: 0.04
      eventEnabled: 0
      eventName: 
    name: quill-angry
    selectedIndex: 0
    newFramesTime: 0.05
    setFramesTime: 0.1
  - speedRatio: 1
    loop: 1
    frameToLoop: 0
    frameDatas:
    - sprite: {fileID: 21300000, guid: 543598547160c8c47ae29cae533b9f96, type: 3}
      time: 0.04
      eventEnabled: 0
      eventName: 
    name: quill-bored
    selectedIndex: 0
    newFramesTime: 0.05
    setFramesTime: 0.1
  - speedRatio: 1
    loop: 0
    frameToLoop: 0
    frameDatas:
    - sprite: {fileID: 21300000, guid: e5eb32f0313a6c54cb5376bb424e5cab, type: 3}
      time: 0.04
      eventEnabled: 0
      eventName: 
    name: quill-confused
    selectedIndex: 0
    newFramesTime: 0.05
    setFramesTime: 0.1
  - speedRatio: 1
    loop: 0
    frameToLoop: 0
    frameDatas:
    - sprite: {fileID: 21300000, guid: 93b9d3b91f598be4aa270310d0c5c9a1, type: 3}
      time: 0.04
      eventEnabled: 0
      eventName: 
    name: quill-confused-right
    selectedIndex: 0
    newFramesTime: 0.05
    setFramesTime: 0.1
  - speedRatio: 1
    loop: 0
    frameToLoop: 0
    frameDatas:
    - sprite: {fileID: 21300000, guid: dbc467ddd9361c045bde009c920f851f, type: 3}
      time: 0.04
      eventEnabled: 0
      eventName: 
    name: quill-determined
    selectedIndex: 0
    newFramesTime: 0.05
    setFramesTime: 0.1
  - speedRatio: 1
    loop: 0
    frameToLoop: 0
    frameDatas:
    - sprite: {fileID: 21300000, guid: 1457b6a379afd864ca553e864369f358, type: 3}
      time: 0.04
      eventEnabled: 0
      eventName: 
    name: quill-embarrassed
    selectedIndex: 0
    newFramesTime: 0.05
    setFramesTime: 0.1
  - speedRatio: 1
    loop: 0
    frameToLoop: 0
    frameDatas:
    - sprite: {fileID: 21300000, guid: 2f9aa3e5dd230724abce4da3d85df8f0, type: 3}
      time: 0.04
      eventEnabled: 0
      eventName: 
    name: quill-flirt
    selectedIndex: 0
    newFramesTime: 0.05
    setFramesTime: 0.1
  - speedRatio: 1
    loop: 0
    frameToLoop: 0
    frameDatas:
    - sprite: {fileID: 21300000, guid: 51dbabfc2aaed46a08c1e69c7aee3325, type: 3}
      time: 0.04
      eventEnabled: 0
      eventName: 
    name: quill-idle
    selectedIndex: 0
    newFramesTime: 0.05
    setFramesTime: 0.1
  - speedRatio: 1
    loop: 0
    frameToLoop: 0
    frameDatas:
    - sprite: {fileID: 21300000, guid: b0f88f990fcc7d648ac82967fccbeaf6, type: 3}
      time: 0.04
      eventEnabled: 0
      eventName: 
    name: quill-joy
    selectedIndex: 0
    newFramesTime: 0.05
    setFramesTime: 0.1
  - speedRatio: 1
    loop: 0
    frameToLoop: 0
    frameDatas:
    - sprite: {fileID: 21300000, guid: bf3d82b56997ca847bd88c2b8cf977c8, type: 3}
      time: 0.04
      eventEnabled: 0
      eventName: 
    name: quill-nervous
    selectedIndex: 0
    newFramesTime: 0.05
    setFramesTime: 0.1
  - speedRatio: 1
    loop: 0
    frameToLoop: 0
    frameDatas:
    - sprite: {fileID: 21300000, guid: a57573dbb6a019f4fabf1f979512c51b, type: 3}
      time: 0.04
      eventEnabled: 0
      eventName: 
    name: quill-sad
    selectedIndex: 0
    newFramesTime: 0.05
    setFramesTime: 0.1
  - speedRatio: 1
    loop: 0
    frameToLoop: 0
    frameDatas:
    - sprite: {fileID: 21300000, guid: d5473e2780d2255459d31275b0941d83, type: 3}
      time: 0.04
      eventEnabled: 0
      eventName: 
    name: quill-shocked
    selectedIndex: 0
    newFramesTime: 0.05
    setFramesTime: 0.1
  - speedRatio: 1
    loop: 1
    frameToLoop: 0
    frameDatas:
    - sprite: {fileID: 21300000, guid: 2765852cd33cc5b41809325e82abeb7d, type: 3}
      time: 0.04
      eventEnabled: 0
      eventName: 
    name: quinn-angry
    selectedIndex: 0
    newFramesTime: 0.05
    setFramesTime: 0.1
  - speedRatio: 1
    loop: 1
    frameToLoop: 0
    frameDatas:
    - sprite: {fileID: 21300000, guid: 7d70eb4a9c922db4797530f088403fd9, type: 3}
      time: 0.04
      eventEnabled: 0
      eventName: 
    name: quinn-idle
    selectedIndex: 0
    newFramesTime: 0.05
    setFramesTime: 0.1
  - speedRatio: 1
    loop: 1
    frameToLoop: 0
    frameDatas:
    - sprite: {fileID: 21300000, guid: 55cdcb387f4dc504a909ff682ad5149e, type: 3}
      time: 0.04
      eventEnabled: 0
      eventName: 
    name: quinn-joy
    selectedIndex: 0
    newFramesTime: 0.05
    setFramesTime: 0.1
  - speedRatio: 1
    loop: 1
    frameToLoop: 0
    frameDatas:
    - sprite: {fileID: 21300000, guid: 814d9fcc65e667c41962825759a520c3, type: 3}
      time: 0.04
      eventEnabled: 0
      eventName: 
    name: quinn-sad
    selectedIndex: 0
    newFramesTime: 0.05
    setFramesTime: 0.1
  - speedRatio: 1
    loop: 0
    frameToLoop: 0
    frameDatas:
    - sprite: {fileID: 21300000, guid: 1aae7d6745b1b2e41b6fb9f170fdb943, type: 3}
      time: 0.04
      eventEnabled: 0
      eventName: 
    name: ransack-rupert-angry
    selectedIndex: 0
    newFramesTime: 0.05
    setFramesTime: 0.1
  - speedRatio: 1
    loop: 0
    frameToLoop: 0
    frameDatas:
    - sprite: {fileID: 21300000, guid: b0a598c3c294bb74490e5ffdf2b3282b, type: 3}
      time: 0.04
      eventEnabled: 0
      eventName: 
    name: ransack-rupert-idle
    selectedIndex: 0
    newFramesTime: 0.05
    setFramesTime: 0.1
  - speedRatio: 1
    loop: 0
    frameToLoop: 0
    frameDatas:
    - sprite: {fileID: 21300000, guid: 85c371dfd8ade6d4cbe19e67fc1df86b, type: 3}
      time: 0.04
      eventEnabled: 0
      eventName: 
    name: ransack-rupert-sad
    selectedIndex: 0
    newFramesTime: 0.05
    setFramesTime: 0.1
  - speedRatio: 1
    loop: 0
    frameToLoop: 0
    frameDatas:
    - sprite: {fileID: 21300000, guid: eedba08dc5a0ad14da0ba159305f554f, type: 3}
      time: 0.04
      eventEnabled: 0
      eventName: 
    name: ransack-rupert-shocked
    selectedIndex: 0
    newFramesTime: 0.05
    setFramesTime: 0.1
  - speedRatio: 1
    loop: 1
    frameToLoop: 0
    frameDatas:
    - sprite: {fileID: 21300000, guid: b3365f67abc593844a99a5b5d769b436, type: 3}
      time: 0.04
      eventEnabled: 0
      eventName: 
    name: razor-sho-angry
    selectedIndex: 0
    newFramesTime: 0.05
    setFramesTime: 0.1
  - speedRatio: 1
    loop: 1
    frameToLoop: 0
    frameDatas:
    - sprite: {fileID: 21300000, guid: 8ae15f54893aaed4a8a35b8ce8d9ac08, type: 3}
      time: 0.04
      eventEnabled: 0
      eventName: 
    name: razor-sho-idle
    selectedIndex: 0
    newFramesTime: 0.05
    setFramesTime: 0.1
  - speedRatio: 1
    loop: 1
    frameToLoop: 0
    frameDatas:
    - sprite: {fileID: 21300000, guid: cb87cd6d620eedf41829da75b120a6f3, type: 3}
      time: 0.04
      eventEnabled: 0
      eventName: 
    name: razor-sho-nervous
    selectedIndex: 0
    newFramesTime: 0.05
    setFramesTime: 0.1
  - speedRatio: 1
    loop: 0
    frameToLoop: 0
    frameDatas:
    - sprite: {fileID: 21300000, guid: f72a253b3744942f0bfab21d6a8478bc, type: 3}
      time: 0.04
      eventEnabled: 0
      eventName: 
    name: recroft-flirty
    selectedIndex: 0
    newFramesTime: 0.05
    setFramesTime: 0.1
  - speedRatio: 1
    loop: 0
    frameToLoop: 0
    frameDatas:
    - sprite: {fileID: 21300000, guid: 3324ed3046a224c4998572b48c7292c7, type: 3}
      time: 0.04
      eventEnabled: 0
      eventName: 
    name: redcroft-angry
    selectedIndex: 0
    newFramesTime: 0.05
    setFramesTime: 0.1
  - speedRatio: 1
    loop: 0
    frameToLoop: 0
    frameDatas:
    - sprite: {fileID: 21300000, guid: 1e9490047c35f415082f22e36f6c9b7f, type: 3}
      time: 0.04
      eventEnabled: 0
      eventName: 
    name: redcroft-confused
    selectedIndex: 0
    newFramesTime: 0.05
    setFramesTime: 0.1
  - speedRatio: 1
    loop: 0
    frameToLoop: 0
    frameDatas:
    - sprite: {fileID: 21300000, guid: 8dd602e84c933436e869b0c5921be056, type: 3}
      time: 0.04
      eventEnabled: 0
      eventName: 
    name: redcroft-confused-right
    selectedIndex: 0
    newFramesTime: 0.05
    setFramesTime: 0.1
  - speedRatio: 1
    loop: 0
    frameToLoop: 0
    frameDatas:
    - sprite: {fileID: 21300000, guid: e97cf4088fe2546f0a47db84e610439f, type: 3}
      time: 0.04
      eventEnabled: 0
      eventName: 
    name: redcroft-determined
    selectedIndex: 0
    newFramesTime: 0.05
    setFramesTime: 0.1
  - speedRatio: 1
    loop: 0
    frameToLoop: 0
    frameDatas:
    - sprite: {fileID: 21300000, guid: 1d9c88409bbf043fd914a020b0772f5a, type: 3}
      time: 0.04
      eventEnabled: 0
      eventName: 
    name: redcroft-embarrassed
    selectedIndex: 0
    newFramesTime: 0.05
    setFramesTime: 0.1
  - speedRatio: 1
    loop: 0
    frameToLoop: 0
    frameDatas:
    - sprite: {fileID: 21300000, guid: 485d7a8349f8b6e4facb45b7da4f0585, type: 3}
      time: 0.04
      eventEnabled: 0
      eventName: 
    name: redcroft-flirt
    selectedIndex: 0
    newFramesTime: 0.05
    setFramesTime: 0.1
  - speedRatio: 1
    loop: 0
    frameToLoop: 0
    frameDatas:
    - sprite: {fileID: 21300000, guid: 2c864d40f1a114844b06671e9c5c8cf5, type: 3}
      time: 0.04
      eventEnabled: 0
      eventName: 
    name: redcroft-idle
    selectedIndex: 0
    newFramesTime: 0.05
    setFramesTime: 0.1
  - speedRatio: 1
    loop: 0
    frameToLoop: 0
    frameDatas:
    - sprite: {fileID: 21300000, guid: b19f6e2b18931412a8e508c12cf40ca2, type: 3}
      time: 0.04
      eventEnabled: 0
      eventName: 
    name: redcroft-joy
    selectedIndex: 0
    newFramesTime: 0.05
    setFramesTime: 0.1
  - speedRatio: 1
    loop: 0
    frameToLoop: 0
    frameDatas:
    - sprite: {fileID: 21300000, guid: b9ebe869374244dbeb7372de2166d8f0, type: 3}
      time: 0.04
      eventEnabled: 0
      eventName: 
    name: redcroft-nervous
    selectedIndex: 0
    newFramesTime: 0.05
    setFramesTime: 0.1
  - speedRatio: 1
    loop: 0
    frameToLoop: 0
    frameDatas:
    - sprite: {fileID: 21300000, guid: 28294225711d0453d8b4ab6d7b303a67, type: 3}
      time: 0.04
      eventEnabled: 0
      eventName: 
    name: redcroft-sad
    selectedIndex: 0
    newFramesTime: 0.05
    setFramesTime: 0.1
  - speedRatio: 1
    loop: 0
    frameToLoop: 0
    frameDatas:
    - sprite: {fileID: 21300000, guid: 94b7b350f56a84a09924b23eabae22c2, type: 3}
      time: 0.04
      eventEnabled: 0
      eventName: 
    name: redcroft-shocked
    selectedIndex: 0
    newFramesTime: 0.05
    setFramesTime: 0.1
  - speedRatio: 1
    loop: 0
    frameToLoop: 0
    frameDatas:
    - sprite: {fileID: 21300000, guid: 2b7cb2f67d5b41f4580289ad505b88b8, type: 3}
      time: 0.04
      eventEnabled: 0
      eventName: 
    name: rez-angry
    selectedIndex: 0
    newFramesTime: 0.05
    setFramesTime: 0.1
  - speedRatio: 1
    loop: 0
    frameToLoop: 0
    frameDatas:
    - sprite: {fileID: 21300000, guid: 9fe5d1f5ae04abb47aef04eb81d7bd23, type: 3}
      time: 0.04
      eventEnabled: 0
      eventName: 
    name: rez-confused
    selectedIndex: 0
    newFramesTime: 0.05
    setFramesTime: 0.1
  - speedRatio: 1
    loop: 0
    frameToLoop: 0
    frameDatas:
    - sprite: {fileID: 21300000, guid: f57fe3db2d8c7f84b89485570c0b6e97, type: 3}
      time: 0.04
      eventEnabled: 0
      eventName: 
    name: rez-confused-right
    selectedIndex: 0
    newFramesTime: 0.05
    setFramesTime: 0.1
  - speedRatio: 1
    loop: 0
    frameToLoop: 0
    frameDatas:
    - sprite: {fileID: 21300000, guid: 9fe5d1f5ae04abb47aef04eb81d7bd23, type: 3}
      time: 0.04
      eventEnabled: 0
      eventName: 
    name: rez-curious
    selectedIndex: 0
    newFramesTime: 0.05
    setFramesTime: 0.1
  - speedRatio: 1
    loop: 0
    frameToLoop: 0
    frameDatas:
    - sprite: {fileID: 21300000, guid: 6bb1e655a4c6d7843abc04fe1f04d9da, type: 3}
      time: 0.04
      eventEnabled: 0
      eventName: 
    name: rez-idle
    selectedIndex: 0
    newFramesTime: 0.05
    setFramesTime: 0.1
  - speedRatio: 1
    loop: 0
    frameToLoop: 0
    frameDatas:
    - sprite: {fileID: 21300000, guid: 4b53b31737ffa7d44aa4c614cf0976e5, type: 3}
      time: 0.04
      eventEnabled: 0
      eventName: 
    name: rez-joy
    selectedIndex: 0
    newFramesTime: 0.05
    setFramesTime: 0.1
  - speedRatio: 1
    loop: 0
    frameToLoop: 0
    frameDatas:
    - sprite: {fileID: 21300000, guid: c427d2b5befbef54188c62cc9800471c, type: 3}
      time: 0.04
      eventEnabled: 0
      eventName: 
    name: rez-sad
    selectedIndex: 0
    newFramesTime: 0.05
    setFramesTime: 0.1
  - speedRatio: 1
    loop: 0
    frameToLoop: 0
    frameDatas:
    - sprite: {fileID: 21300000, guid: d4bfca3708b534c4691d7f062439629d, type: 3}
      time: 0.04
      eventEnabled: 0
      eventName: 
    name: rez-shocked
    selectedIndex: 0
    newFramesTime: 0.05
    setFramesTime: 0.1
  - speedRatio: 1
    loop: 0
    frameToLoop: 0
    frameDatas:
    - sprite: {fileID: 21300000, guid: c275c439baa134ddf889da56fd7db273, type: 3}
      time: 0.04
      eventEnabled: 0
      eventName: 
    name: rigbeak-angry
    selectedIndex: 0
    newFramesTime: 0.05
    setFramesTime: 0.1
  - speedRatio: 1
    loop: 0
    frameToLoop: 0
    frameDatas:
    - sprite: {fileID: 21300000, guid: e75e05d0f3b8b441784a1e18abd5f4d0, type: 3}
      time: 0.04
      eventEnabled: 0
      eventName: 
    name: rigbeak-idle
    selectedIndex: 0
    newFramesTime: 0.05
    setFramesTime: 0.1
  - speedRatio: 1
    loop: 0
    frameToLoop: 0
    frameDatas:
    - sprite: {fileID: 21300000, guid: a17e4a8b037214fde80e2f8377a64dcf, type: 3}
      time: 0.04
      eventEnabled: 0
      eventName: 
    name: rigbeak-sad
    selectedIndex: 0
    newFramesTime: 0.05
    setFramesTime: 0.1
  - speedRatio: 1
    loop: 0
    frameToLoop: 0
    frameDatas:
    - sprite: {fileID: 21300000, guid: 2b2f75df7aa3046559cf081d67eebc1c, type: 3}
      time: 0.04
      eventEnabled: 0
      eventName: 
    name: rigbeak-shocked
    selectedIndex: 0
    newFramesTime: 0.05
    setFramesTime: 0.1
  - speedRatio: 1
    loop: 0
    frameToLoop: 0
    frameDatas:
    - sprite: {fileID: 21300000, guid: d9921de9fd75ab04ab9a4bc7467eb04e, type: 3}
      time: 0.04
      eventEnabled: 0
      eventName: 
    name: ringmaster-thrash-angry
    selectedIndex: 0
    newFramesTime: 0.05
    setFramesTime: 0.1
  - speedRatio: 1
    loop: 0
    frameToLoop: 0
    frameDatas:
    - sprite: {fileID: 21300000, guid: e5e328cdb2f1e2d438669369cc4be271, type: 3}
      time: 0.04
      eventEnabled: 0
      eventName: 
    name: ringmaster-thrash-idle
    selectedIndex: 0
    newFramesTime: 0.05
    setFramesTime: 0.1
  - speedRatio: 1
    loop: 0
    frameToLoop: 0
    frameDatas:
    - sprite: {fileID: 21300000, guid: d7ca4c27b1ee0714dbf8ffb94c7d3004, type: 3}
      time: 0.04
      eventEnabled: 0
      eventName: 
    name: ringmaster-thrash-joy
    selectedIndex: 0
    newFramesTime: 0.05
    setFramesTime: 0.1
  - speedRatio: 1
    loop: 0
    frameToLoop: 0
    frameDatas:
    - sprite: {fileID: 21300000, guid: 9c019bd96182e4443a1e21f07199c931, type: 3}
      time: 0.04
      eventEnabled: 0
      eventName: 
    name: ringmaster-thrash-sad
    selectedIndex: 0
    newFramesTime: 0.05
    setFramesTime: 0.1
  - speedRatio: 1
    loop: 0
    frameToLoop: 0
    frameDatas:
    - sprite: {fileID: 21300000, guid: 0b6657adbe15a5c4e9b3e697936b0498, type: 3}
      time: 0.04
      eventEnabled: 0
      eventName: 
    name: ringmaster-thrash-shocked
    selectedIndex: 0
    newFramesTime: 0.05
    setFramesTime: 0.1
  - speedRatio: 1
    loop: 0
    frameToLoop: 0
    frameDatas:
    - sprite: {fileID: 21300000, guid: c1b79b021a68d054788baa85d81d1ac1, type: 3}
      time: 0.04
      eventEnabled: 0
      eventName: 
    name: ruby-ray-angry
    selectedIndex: 0
    newFramesTime: 0.05
    setFramesTime: 0.1
  - speedRatio: 1
    loop: 0
    frameToLoop: 0
    frameDatas:
    - sprite: {fileID: 21300000, guid: 4f2e2f85f129519489a699d4f0aa96e3, type: 3}
      time: 0.04
      eventEnabled: 0
      eventName: 
    name: ruby-ray-idle
    selectedIndex: 0
    newFramesTime: 0.05
    setFramesTime: 0.1
  - speedRatio: 1
    loop: 0
    frameToLoop: 0
    frameDatas:
    - sprite: {fileID: 21300000, guid: 1f05d5448dda01445a3f0809cbb8b75a, type: 3}
      time: 0.04
      eventEnabled: 0
      eventName: 
    name: ruby-ray-sad
    selectedIndex: 0
    newFramesTime: 0.05
    setFramesTime: 0.1
  - speedRatio: 1
    loop: 0
    frameToLoop: 0
    frameDatas:
    - sprite: {fileID: 21300000, guid: 1083d9c0b501a7e48983b69eb8d92237, type: 3}
      time: 0.04
      eventEnabled: 0
      eventName: 
    name: ruby-ray-shocked
    selectedIndex: 0
    newFramesTime: 0.05
    setFramesTime: 0.1
  - speedRatio: 1
    loop: 0
    frameToLoop: 0
    frameDatas:
    - sprite: {fileID: 21300000, guid: ed97851626c9efa4d8eb7e66c548b173, type: 3}
      time: 0.04
      eventEnabled: 0
      eventName: 
    name: scias-angry
    selectedIndex: 0
    newFramesTime: 0.05
    setFramesTime: 0.1
  - speedRatio: 1
    loop: 0
    frameToLoop: 0
    frameDatas:
    - sprite: {fileID: 21300000, guid: a1005f80f9e28e14f9d6ecc7b37076b0, type: 3}
      time: 0.04
      eventEnabled: 0
      eventName: 
    name: scias-idle
    selectedIndex: 0
    newFramesTime: 0.05
    setFramesTime: 0.1
  - speedRatio: 1
    loop: 0
    frameToLoop: 0
    frameDatas:
    - sprite: {fileID: 21300000, guid: a24069131150ec045ad73b6a07ad786f, type: 3}
      time: 0.04
      eventEnabled: 0
      eventName: 
    name: scias-sad
    selectedIndex: 0
    newFramesTime: 0.05
    setFramesTime: 0.1
  - speedRatio: 1
    loop: 0
    frameToLoop: 0
    frameDatas:
    - sprite: {fileID: 21300000, guid: 8d8ad2eef176e214a925f51118a41ca5, type: 3}
      time: 0.04
      eventEnabled: 0
      eventName: 
    name: scias-shocked
    selectedIndex: 0
    newFramesTime: 0.05
    setFramesTime: 0.1
  - speedRatio: 1
    loop: 0
    frameToLoop: 0
    frameDatas:
    - sprite: {fileID: 21300000, guid: 31f9372489fc948cf9f3cf8c06dff507, type: 3}
      time: 0.04
      eventEnabled: 0
      eventName: 
    name: seto-angry
    selectedIndex: 0
    newFramesTime: 0.05
    setFramesTime: 0.1
  - speedRatio: 1
    loop: 0
    frameToLoop: 0
    frameDatas:
    - sprite: {fileID: 21300000, guid: d7b51513dec144c8592edcaab20e955c, type: 3}
      time: 0.04
      eventEnabled: 0
      eventName: 
    name: seto-confused
    selectedIndex: 0
    newFramesTime: 0.05
    setFramesTime: 0.1
  - speedRatio: 1
    loop: 0
    frameToLoop: 0
    frameDatas:
    - sprite: {fileID: 21300000, guid: 00dc5bff21dc84e3d86f68305e811076, type: 3}
      time: 0.04
      eventEnabled: 0
      eventName: 
    name: seto-confused-right
    selectedIndex: 0
    newFramesTime: 0.05
    setFramesTime: 0.1
  - speedRatio: 1
    loop: 0
    frameToLoop: 0
    frameDatas:
    - sprite: {fileID: 21300000, guid: 5647d62f04ce14ca2b0c49d1b9cc7711, type: 3}
      time: 0.04
      eventEnabled: 0
      eventName: 
    name: seto-determined
    selectedIndex: 0
    newFramesTime: 0.05
    setFramesTime: 0.1
  - speedRatio: 1
    loop: 0
    frameToLoop: 0
    frameDatas:
    - sprite: {fileID: 21300000, guid: 8be0cbf8dc7e84e039b80b3d1ea82581, type: 3}
      time: 0.04
      eventEnabled: 0
      eventName: 
    name: seto-embarrassed
    selectedIndex: 0
    newFramesTime: 0.05
    setFramesTime: 0.1
  - speedRatio: 1
    loop: 0
    frameToLoop: 0
    frameDatas:
    - sprite: {fileID: 21300000, guid: 365587cc8583d2e4da0357e20e40d6f7, type: 3}
      time: 0.04
      eventEnabled: 0
      eventName: 
    name: seto-flirt
    selectedIndex: 0
    newFramesTime: 0.05
    setFramesTime: 0.1
  - speedRatio: 1
    loop: 0
    frameToLoop: 0
    frameDatas:
    - sprite: {fileID: 21300000, guid: f94c3237e60c048d39a90635748dc550, type: 3}
      time: 0.04
      eventEnabled: 0
      eventName: 
    name: seto-idle
    selectedIndex: 0
    newFramesTime: 0.05
    setFramesTime: 0.1
  - speedRatio: 1
    loop: 0
    frameToLoop: 0
    frameDatas:
    - sprite: {fileID: 21300000, guid: 6b68038586eda4740aeb1602f1815e47, type: 3}
      time: 0.04
      eventEnabled: 0
      eventName: 
    name: seto-joy
    selectedIndex: 0
    newFramesTime: 0.05
    setFramesTime: 0.1
  - speedRatio: 1
    loop: 0
    frameToLoop: 0
    frameDatas:
    - sprite: {fileID: 21300000, guid: 15f4a43ec349948228308197779cb183, type: 3}
      time: 0.04
      eventEnabled: 0
      eventName: 
    name: seto-nervous
    selectedIndex: 0
    newFramesTime: 0.05
    setFramesTime: 0.1
  - speedRatio: 1
    loop: 0
    frameToLoop: 0
    frameDatas:
    - sprite: {fileID: 21300000, guid: 016d7d70137dc4f099ed85d5367b201b, type: 3}
      time: 0.04
      eventEnabled: 0
      eventName: 
    name: seto-sad
    selectedIndex: 0
    newFramesTime: 0.05
    setFramesTime: 0.1
  - speedRatio: 1
    loop: 0
    frameToLoop: 0
    frameDatas:
    - sprite: {fileID: 21300000, guid: 7351d22f68c614eab8e111fb5cbcc222, type: 3}
      time: 0.04
      eventEnabled: 0
      eventName: 
    name: seto-shocked
    selectedIndex: 0
    newFramesTime: 0.05
    setFramesTime: 0.1
  - speedRatio: 1
    loop: 0
    frameToLoop: 0
    frameDatas:
    - sprite: {fileID: 21300000, guid: cb967bf6bdb065645833b5c280676bb5, type: 3}
      time: 0.04
      eventEnabled: 0
      eventName: 
    name: shadow-violet-angry
    selectedIndex: 0
    newFramesTime: 0.05
    setFramesTime: 0.1
  - speedRatio: 1
    loop: 0
    frameToLoop: 0
    frameDatas:
    - sprite: {fileID: 21300000, guid: 5042d9b0529ac274ab04cf1a27d85855, type: 3}
      time: 0.04
      eventEnabled: 0
      eventName: 
    name: shadow-violet-flirt
    selectedIndex: 0
    newFramesTime: 0.05
    setFramesTime: 0.1
  - speedRatio: 1
    loop: 0
    frameToLoop: 0
    frameDatas:
    - sprite: {fileID: 21300000, guid: ed348391553c4fc4785ef6262a237103, type: 3}
      time: 0.04
      eventEnabled: 0
      eventName: 
    name: shadow-violet-idle
    selectedIndex: 0
    newFramesTime: 0.05
    setFramesTime: 0.1
  - speedRatio: 1
    loop: 0
    frameToLoop: 0
    frameDatas:
    - sprite: {fileID: 21300000, guid: e6b266395fa239045bb9a56ea87f6e68, type: 3}
      time: 0.04
      eventEnabled: 0
      eventName: 
    name: shadow-violet-joy
    selectedIndex: 0
    newFramesTime: 0.05
    setFramesTime: 0.1
  - speedRatio: 1
    loop: 0
    frameToLoop: 0
    frameDatas:
    - sprite: {fileID: 21300000, guid: 1fc584500b7d78242a744478985a0d16, type: 3}
      time: 0.04
      eventEnabled: 0
      eventName: 
    name: shadow-violet-shocked
    selectedIndex: 0
    newFramesTime: 0.05
    setFramesTime: 0.1
  - speedRatio: 1
    loop: 1
    frameToLoop: 0
    frameDatas:
    - sprite: {fileID: 21300000, guid: 955447f67c0979248a211f9e19c32789, type: 3}
      time: 0.04
      eventEnabled: 0
      eventName: 
    name: tuskgarr-lox-angry
    selectedIndex: 0
    newFramesTime: 0.05
    setFramesTime: 0.1
  - speedRatio: 1
    loop: 1
    frameToLoop: 0
    frameDatas:
    - sprite: {fileID: 21300000, guid: add18fd193eed4846891c40660115c9b, type: 3}
      time: 0.04
      eventEnabled: 0
      eventName: 
    name: tuskgarr-lox-idle
    selectedIndex: 0
    newFramesTime: 0.05
    setFramesTime: 0.1
  - speedRatio: 1
    loop: 1
    frameToLoop: 0
    frameDatas:
    - sprite: {fileID: 21300000, guid: ecf232f6ca837d14985fe33c5fa54fe5, type: 3}
      time: 0.04
      eventEnabled: 0
      eventName: 
    name: tuskgarr-lox-shocked
    selectedIndex: 0
    newFramesTime: 0.05
    setFramesTime: 0.1
  - speedRatio: 1
    loop: 1
    frameToLoop: 0
    frameDatas:
    - sprite: {fileID: 21300000, guid: 8f7728f04c54f1749b0794f2f4fe7a45, type: 3}
      time: 0.04
      eventEnabled: 0
      eventName: 
    name: unhooded-zan-idle
    selectedIndex: 0
    newFramesTime: 0.05
    setFramesTime: 0.1
  - speedRatio: 1
    loop: 1
    frameToLoop: 0
    frameDatas:
    - sprite: {fileID: 21300000, guid: a0f29d1ed959a6947a82029176d65a07, type: 3}
      time: 0.04
      eventEnabled: 0
      eventName: 
    name: unhooded-zan-joy
    selectedIndex: 0
    newFramesTime: 0.05
    setFramesTime: 0.1
  - speedRatio: 1
    loop: 0
    frameToLoop: 0
    frameDatas:
    - sprite: {fileID: 21300000, guid: 284dcd4fb8670d346bbbb4cd500be47c, type: 3}
      time: 0.04
      eventEnabled: 0
      eventName: 
    name: violet-angry
    selectedIndex: 0
    newFramesTime: 0.05
    setFramesTime: 0.1
  - speedRatio: 1
    loop: 0
    frameToLoop: 0
    frameDatas:
    - sprite: {fileID: 21300000, guid: 1a3ce3b8261c48c45b97ff4668af7bac, type: 3}
      time: 0.04
      eventEnabled: 0
      eventName: 
    name: violet-confused
    selectedIndex: 0
    newFramesTime: 0.05
    setFramesTime: 0.1
  - speedRatio: 1
    loop: 0
    frameToLoop: 0
    frameDatas:
    - sprite: {fileID: 21300000, guid: 6c4f01b806dc343b896f6afd9164cc1d, type: 3}
      time: 0.04
      eventEnabled: 0
      eventName: 
    name: violet-confused-right
    selectedIndex: 0
    newFramesTime: 0.05
    setFramesTime: 0.1
  - speedRatio: 1
    loop: 0
    frameToLoop: 0
    frameDatas:
    - sprite: {fileID: 21300000, guid: f1c69c7eac5ea6a49897cf42e72f0239, type: 3}
      time: 0.04
      eventEnabled: 0
      eventName: 
    name: violet-determined
    selectedIndex: 0
    newFramesTime: 0.05
    setFramesTime: 0.1
  - speedRatio: 1
    loop: 0
    frameToLoop: 0
    frameDatas:
    - sprite: {fileID: 21300000, guid: a9eb70ed74c2ad640bfd6beacee53f72, type: 3}
      time: 0.04
      eventEnabled: 0
      eventName: 
    name: violet-embarassed
    selectedIndex: 0
    newFramesTime: 0.05
    setFramesTime: 0.1
  - speedRatio: 1
    loop: 0
    frameToLoop: 0
    frameDatas:
    - sprite: {fileID: 21300000, guid: a9eb70ed74c2ad640bfd6beacee53f72, type: 3}
      time: 0.04
      eventEnabled: 0
      eventName: 
    name: violet-embarrassed
    selectedIndex: 0
    newFramesTime: 0.05
    setFramesTime: 0.1
  - speedRatio: 1
    loop: 0
    frameToLoop: 0
    frameDatas:
    - sprite: {fileID: 21300000, guid: 420527b24510335458c7d6b4cd877117, type: 3}
      time: 0.04
      eventEnabled: 0
      eventName: 
    name: violet-flirt
    selectedIndex: 0
    newFramesTime: 0.05
    setFramesTime: 0.1
  - speedRatio: 1
    loop: 0
    frameToLoop: 0
    frameDatas:
    - sprite: {fileID: 21300000, guid: d1ad0e16eb4cd4a17a3b02b7cd19cee7, type: 3}
      time: 0.04
      eventEnabled: 0
      eventName: 
    name: violet-idle
    selectedIndex: 0
    newFramesTime: 0.05
    setFramesTime: 0.1
  - speedRatio: 1
    loop: 0
    frameToLoop: 0
    frameDatas:
    - sprite: {fileID: 21300000, guid: 727a1e030e0dd9241817135d95d93ce4, type: 3}
      time: 0.04
      eventEnabled: 0
      eventName: 
    name: violet-joy
    selectedIndex: 0
    newFramesTime: 0.05
    setFramesTime: 0.1
  - speedRatio: 1
    loop: 0
    frameToLoop: 0
    frameDatas:
    - sprite: {fileID: 21300000, guid: 8df611f8b7e5a6841ae3e8e5079a02ed, type: 3}
      time: 0.04
      eventEnabled: 0
      eventName: 
    name: violet-nervous
    selectedIndex: 0
    newFramesTime: 0.05
    setFramesTime: 0.1
  - speedRatio: 1
    loop: 0
    frameToLoop: 0
    frameDatas:
    - sprite: {fileID: 21300000, guid: 20a7427eab70e9748b8af3f6908b7bb2, type: 3}
      time: 0.04
      eventEnabled: 0
      eventName: 
    name: violet-sad
    selectedIndex: 0
    newFramesTime: 0.05
    setFramesTime: 0.1
  - speedRatio: 1
    loop: 0
    frameToLoop: 0
    frameDatas:
    - sprite: {fileID: 21300000, guid: 276034832399c4b448e8070285e60102, type: 3}
      time: 0.04
      eventEnabled: 0
      eventName: 
    name: violet-shocked
    selectedIndex: 0
    newFramesTime: 0.05
    setFramesTime: 0.1
  - speedRatio: 1
    loop: 0
    frameToLoop: 0
    frameDatas:
    - sprite: {fileID: 21300000, guid: 3b10859a6dbfdfc40aa13ff02919f42c, type: 3}
      time: 0.04
      eventEnabled: 0
      eventName: 
    name: volt-idle
    selectedIndex: 0
    newFramesTime: 0.05
    setFramesTime: 0.1
  - speedRatio: 1
    loop: 0
    frameToLoop: 0
    frameDatas:
    - sprite: {fileID: 21300000, guid: 6d006cb5b08bae1499812edd22874836, type: 3}
      time: 0.04
      eventEnabled: 0
      eventName: 
    name: volt-shocked
    selectedIndex: 0
    newFramesTime: 0.05
    setFramesTime: 0.1
  - speedRatio: 1
    loop: 1
    frameToLoop: 0
    frameDatas:
    - sprite: {fileID: 21300000, guid: 2d10456afcf2d6d44ba38f07ee6c6160, type: 3}
      time: 0.04
      eventEnabled: 0
      eventName: 
    name: wick-angry
    selectedIndex: 0
    newFramesTime: 0.05
    setFramesTime: 0.1
  - speedRatio: 1
    loop: 1
    frameToLoop: 0
    frameDatas:
    - sprite: {fileID: 21300000, guid: 8d8e913321b96654286c93f9483c1027, type: 3}
      time: 0.04
      eventEnabled: 0
      eventName: 
    name: wick-idle
    selectedIndex: 0
    newFramesTime: 0.05
    setFramesTime: 0.1
  - speedRatio: 1
    loop: 1
    frameToLoop: 0
    frameDatas:
    - sprite: {fileID: 21300000, guid: 0046159dfa18b4848bd56e8cadaf42cd, type: 3}
      time: 0.04
      eventEnabled: 0
      eventName: 
    name: wick-nervous
    selectedIndex: 0
    newFramesTime: 0.05
    setFramesTime: 0.1
  - speedRatio: 1
    loop: 0
    frameToLoop: 0
    frameDatas:
    - sprite: {fileID: 21300000, guid: 65be053dcbdc53c40a862ccd7c7ef3a8, type: 3}
      time: 0.04
      eventEnabled: 0
      eventName: 
    name: yellow-footed-poly-angry
    selectedIndex: 0
    newFramesTime: 0.05
    setFramesTime: 0.1
  - speedRatio: 1
    loop: 0
    frameToLoop: 0
    frameDatas:
    - sprite: {fileID: 21300000, guid: 568285967abd2764d82c9da418ea23cf, type: 3}
      time: 0.04
      eventEnabled: 0
      eventName: 
    name: yellow-footed-poly-idle
    selectedIndex: 0
    newFramesTime: 0.05
    setFramesTime: 0.1
  - speedRatio: 1
    loop: 0
    frameToLoop: 0
    frameDatas:
    - sprite: {fileID: 21300000, guid: 84882dee4b62b6245a480ada9980b870, type: 3}
      time: 0.04
      eventEnabled: 0
      eventName: 
    name: yellow-footed-poly-sad
    selectedIndex: 0
    newFramesTime: 0.05
    setFramesTime: 0.1
  - speedRatio: 1
    loop: 0
    frameToLoop: 0
    frameDatas:
    - sprite: {fileID: 21300000, guid: 29448dcc886455645907464a89cca02c, type: 3}
      time: 0.04
      eventEnabled: 0
      eventName: 
    name: yellow-footed-poly-shocked
    selectedIndex: 0
    newFramesTime: 0.05
    setFramesTime: 0.1
  - speedRatio: 1
    loop: 1
    frameToLoop: 0
    frameDatas:
    - sprite: {fileID: 21300000, guid: 0a49da12723e47c43bcbc018c709a6e6, type: 3}
      time: 0.04
      eventEnabled: 0
      eventName: 
    name: ziggy-stardust-angry
    selectedIndex: 0
    newFramesTime: 0.05
    setFramesTime: 0.1
  - speedRatio: 1
    loop: 1
    frameToLoop: 0
    frameDatas:
    - sprite: {fileID: 21300000, guid: 5fe0281c294205a4687ef11f966b6fff, type: 3}
      time: 0.04
      eventEnabled: 0
      eventName: 
    name: ziggy-stardust-idle
    selectedIndex: 0
    newFramesTime: 0.05
    setFramesTime: 0.1
  - speedRatio: 1
    loop: 1
    frameToLoop: 0
    frameDatas:
    - sprite: {fileID: 21300000, guid: c13bb0097ca009240ace72a5725bc83e, type: 3}
      time: 0.04
      eventEnabled: 0
      eventName: 
    name: ziggy-stardust-nervous
    selectedIndex: 0
    newFramesTime: 0.05
    setFramesTime: 0.1
