%YAML 1.1
%TAG !u! tag:unity3d.com,2011:
--- !u!114 &11400000
MonoBehaviour:
  m_ObjectHideFlags: 0
  m_CorrespondingSourceObject: {fileID: 0}
  m_PrefabInstance: {fileID: 0}
  m_PrefabAsset: {fileID: 0}
  m_GameObject: {fileID: 0}
  m_Enabled: 1
  m_EditorHideFlags: 0
  m_Script: {fileID: 11500000, guid: 34404cb99b59bb543805a55e3c469d61, type: 3}
  m_Name: power-card-bb
  m_EditorClassIdentifier: 
  editorConfirmations: 1
  animations:
  - speedRatio: 1
    loop: 1
    frameToLoop: 0
    frameDatas:
    - sprite: {fileID: 7766043300069008166, guid: ff87f4cfd965c4913b9fc0bad81a2b15,
        type: 3}
      time: 0.06
      eventEnabled: 0
      eventName: 
    - sprite: {fileID: 713772834434192085, guid: ff87f4cfd965c4913b9fc0bad81a2b15,
        type: 3}
      time: 0.06
      eventEnabled: 0
      eventName: 
    - sprite: {fileID: -4746853012865728777, guid: ff87f4cfd965c4913b9fc0bad81a2b15,
        type: 3}
      time: 0.06
      eventEnabled: 0
      eventName: 
    - sprite: {fileID: 2731984194418384413, guid: ff87f4cfd965c4913b9fc0bad81a2b15,
        type: 3}
      time: 0.06
      eventEnabled: 0
      eventName: 
    - sprite: {fileID: 7676746759996660245, guid: ff87f4cfd965c4913b9fc0bad81a2b15,
        type: 3}
      time: 0.06
      eventEnabled: 0
      eventName: 
    - sprite: {fileID: 8934319559495757992, guid: ff87f4cfd965c4913b9fc0bad81a2b15,
        type: 3}
      time: 0.06
      eventEnabled: 0
      eventName: 
    - sprite: {fileID: 8882653310031037501, guid: ff87f4cfd965c4913b9fc0bad81a2b15,
        type: 3}
      time: 0.06
      eventEnabled: 0
      eventName: 
    - sprite: {fileID: -2161782720787707009, guid: ff87f4cfd965c4913b9fc0bad81a2b15,
        type: 3}
      time: 0.06
      eventEnabled: 0
      eventName: 
    - sprite: {fileID: -993187102817436197, guid: ff87f4cfd965c4913b9fc0bad81a2b15,
        type: 3}
      time: 0.06
      eventEnabled: 0
      eventName: 
    - sprite: {fileID: 219758890596497898, guid: ff87f4cfd965c4913b9fc0bad81a2b15,
        type: 3}
      time: 0.06
      eventEnabled: 0
      eventName: 
    name: ready
    selectedIndex: 2
    newFramesTime: 0.05
    setFramesTime: 0.1
  - speedRatio: 1
    loop: 0
    frameToLoop: 0
    frameDatas:
    - sprite: {fileID: 21300000, guid: c27f5d861265d6946b1f3a0d4746a73c, type: 3}
      time: 0.04
      eventEnabled: 0
      eventName: 
    name: unavailable
    selectedIndex: 0
    newFramesTime: 0.05
    setFramesTime: 0.1
