%YAML 1.1
%TAG !u! tag:unity3d.com,2011:
--- !u!114 &11400000
MonoBehaviour:
  m_ObjectHideFlags: 0
  m_CorrespondingSourceObject: {fileID: 0}
  m_PrefabInstance: {fileID: 0}
  m_PrefabAsset: {fileID: 0}
  m_GameObject: {fileID: 0}
  m_Enabled: 1
  m_EditorHideFlags: 0
  m_Script: {fileID: 11500000, guid: 34404cb99b59bb543805a55e3c469d61, type: 3}
  m_Name: power-card-ready
  m_EditorClassIdentifier: 
  editorConfirmations: 1
  animations:
  - speedRatio: 1
    loop: 1
    frameToLoop: 0
    frameDatas:
    - sprite: {fileID: 8654864346999795840, guid: 0a1c0a6bfbec44091ab5cbd155f005b7,
        type: 3}
      time: 0.06
      eventEnabled: 0
      eventName: 
    - sprite: {fileID: -4264679216967920425, guid: 0a1c0a6bfbec44091ab5cbd155f005b7,
        type: 3}
      time: 0.06
      eventEnabled: 0
      eventName: 
    - sprite: {fileID: 7141512963259882519, guid: 0a1c0a6bfbec44091ab5cbd155f005b7,
        type: 3}
      time: 0.06
      eventEnabled: 0
      eventName: 
    - sprite: {fileID: 8213164557332030013, guid: 0a1c0a6bfbec44091ab5cbd155f005b7,
        type: 3}
      time: 0.06
      eventEnabled: 0
      eventName: 
    - sprite: {fileID: 8489645820413379319, guid: 0a1c0a6bfbec44091ab5cbd155f005b7,
        type: 3}
      time: 0.06
      eventEnabled: 0
      eventName: 
    - sprite: {fileID: -6771917754229131205, guid: 0a1c0a6bfbec44091ab5cbd155f005b7,
        type: 3}
      time: 0.06
      eventEnabled: 0
      eventName: 
    - sprite: {fileID: 2993122005348841132, guid: 0a1c0a6bfbec44091ab5cbd155f005b7,
        type: 3}
      time: 0.06
      eventEnabled: 0
      eventName: 
    - sprite: {fileID: -4274275682803004741, guid: 0a1c0a6bfbec44091ab5cbd155f005b7,
        type: 3}
      time: 0.06
      eventEnabled: 0
      eventName: 
    - sprite: {fileID: -7768478743160588615, guid: 0a1c0a6bfbec44091ab5cbd155f005b7,
        type: 3}
      time: 0.06
      eventEnabled: 0
      eventName: 
    - sprite: {fileID: 1018847590394080220, guid: 0a1c0a6bfbec44091ab5cbd155f005b7,
        type: 3}
      time: 0.06
      eventEnabled: 0
      eventName: 
    name: idle
    selectedIndex: 0
    newFramesTime: 0.05
    setFramesTime: 0.1
