%YAML 1.1
%TAG !u! tag:unity3d.com,2011:
--- !u!114 &11400000
MonoBehaviour:
  m_ObjectHideFlags: 0
  m_CorrespondingSourceObject: {fileID: 0}
  m_PrefabInstance: {fileID: 0}
  m_PrefabAsset: {fileID: 0}
  m_GameObject: {fileID: 0}
  m_Enabled: 1
  m_EditorHideFlags: 0
  m_Script: {fileID: 11500000, guid: 34404cb99b59bb543805a55e3c469d61, type: 3}
  m_Name: rain-hit-fx
  m_EditorClassIdentifier: 
  editorConfirmations: 1
  animations:
  - speedRatio: 1
    loop: 0
    frameToLoop: 0
    frameDatas:
    - sprite: {fileID: 731131097033215876, guid: 081a770122233428aa66f697bf658277,
        type: 3}
      time: 0.04
      eventEnabled: 0
      eventName: 
    - sprite: {fileID: 1012358698382900673, guid: 081a770122233428aa66f697bf658277,
        type: 3}
      time: 0.04
      eventEnabled: 0
      eventName: 
    - sprite: {fileID: -675960883602754144, guid: 081a770122233428aa66f697bf658277,
        type: 3}
      time: 0.04
      eventEnabled: 0
      eventName: 
    - sprite: {fileID: 1670614890496037726, guid: 081a770122233428aa66f697bf658277,
        type: 3}
      time: 0.04
      eventEnabled: 0
      eventName: 
    - sprite: {fileID: -6795429167007013980, guid: 081a770122233428aa66f697bf658277,
        type: 3}
      time: 0.04
      eventEnabled: 0
      eventName: 
    - sprite: {fileID: -5706680379285316852, guid: 081a770122233428aa66f697bf658277,
        type: 3}
      time: 0.04
      eventEnabled: 0
      eventName: 
    name: plop
    selectedIndex: 5
    newFramesTime: 0.05
    setFramesTime: 0.1
