%YAML 1.1
%TAG !u! tag:unity3d.com,2011:
--- !u!114 &11400000
MonoBehaviour:
  m_ObjectHideFlags: 0
  m_CorrespondingSourceObject: {fileID: 0}
  m_PrefabInstance: {fileID: 0}
  m_PrefabAsset: {fileID: 0}
  m_GameObject: {fileID: 0}
  m_Enabled: 1
  m_EditorHideFlags: 0
  m_Script: {fileID: 11500000, guid: 34404cb99b59bb543805a55e3c469d61, type: 3}
  m_Name: relic
  m_EditorClassIdentifier: 
  editorConfirmations: 1
  animations:
  - speedRatio: 1
    loop: 0
    frameToLoop: 0
    frameDatas:
    - sprite: {fileID: -5165426239455574695, guid: c768d874c482b4137a0042d639007160,
        type: 3}
      time: 0.04
      eventEnabled: 0
      eventName: 
    - sprite: {fileID: 8035396498700811466, guid: c768d874c482b4137a0042d639007160,
        type: 3}
      time: 0.04
      eventEnabled: 0
      eventName: 
    - sprite: {fileID: 1716998347978758288, guid: c768d874c482b4137a0042d639007160,
        type: 3}
      time: 0.04
      eventEnabled: 0
      eventName: 
    - sprite: {fileID: -9149826106428290036, guid: c768d874c482b4137a0042d639007160,
        type: 3}
      time: 0.04
      eventEnabled: 0
      eventName: 
    - sprite: {fileID: 7824943356889611915, guid: c768d874c482b4137a0042d639007160,
        type: 3}
      time: 0.04
      eventEnabled: 0
      eventName: 
    - sprite: {fileID: -7242333934802869201, guid: c768d874c482b4137a0042d639007160,
        type: 3}
      time: 0.04
      eventEnabled: 0
      eventName: 
    name: trigger
    selectedIndex: 0
    newFramesTime: 0.05
    setFramesTime: 0.1
