%YAML 1.1
%TAG !u! tag:unity3d.com,2011:
--- !u!114 &11400000
MonoBehaviour:
  m_ObjectHideFlags: 0
  m_CorrespondingSourceObject: {fileID: 0}
  m_PrefabInstance: {fileID: 0}
  m_PrefabAsset: {fileID: 0}
  m_GameObject: {fileID: 0}
  m_Enabled: 1
  m_EditorHideFlags: 0
  m_Script: {fileID: 11500000, guid: 34404cb99b59bb543805a55e3c469d61, type: 3}
  m_Name: reward-chest-small
  m_EditorClassIdentifier: 
  editorConfirmations: 1
  animations:
  - speedRatio: 1
    loop: 0
    frameToLoop: 0
    frameDatas:
    - sprite: {fileID: 4101188197102626825, guid: e0fc05a0aff406a4fa203bd195967b3a,
        type: 3}
      time: 0.04
      eventEnabled: 0
      eventName: 
    - sprite: {fileID: 1841620655143981718, guid: e0fc05a0aff406a4fa203bd195967b3a,
        type: 3}
      time: 0.04
      eventEnabled: 0
      eventName: 
    - sprite: {fileID: 2587579070896239467, guid: e0fc05a0aff406a4fa203bd195967b3a,
        type: 3}
      time: 0.04
      eventEnabled: 0
      eventName: 
    - sprite: {fileID: -2421148634258959250, guid: e0fc05a0aff406a4fa203bd195967b3a,
        type: 3}
      time: 0.04
      eventEnabled: 0
      eventName: 
    - sprite: {fileID: -3092943403978291527, guid: e0fc05a0aff406a4fa203bd195967b3a,
        type: 3}
      time: 0.04
      eventEnabled: 0
      eventName: 
    - sprite: {fileID: 9079527400300235835, guid: e0fc05a0aff406a4fa203bd195967b3a,
        type: 3}
      time: 0.04
      eventEnabled: 0
      eventName: 
    - sprite: {fileID: -2706659230047023231, guid: e0fc05a0aff406a4fa203bd195967b3a,
        type: 3}
      time: 0.04
      eventEnabled: 0
      eventName: 
    - sprite: {fileID: -6281448057745406404, guid: e0fc05a0aff406a4fa203bd195967b3a,
        type: 3}
      time: 0.04
      eventEnabled: 0
      eventName: 
    - sprite: {fileID: -3954875527546640103, guid: e0fc05a0aff406a4fa203bd195967b3a,
        type: 3}
      time: 0.04
      eventEnabled: 0
      eventName: 
    - sprite: {fileID: 836511134863852276, guid: e0fc05a0aff406a4fa203bd195967b3a,
        type: 3}
      time: 0.04
      eventEnabled: 0
      eventName: 
    - sprite: {fileID: 7322270030282801762, guid: e0fc05a0aff406a4fa203bd195967b3a,
        type: 3}
      time: 0.04
      eventEnabled: 0
      eventName: 
    - sprite: {fileID: -6947760925180788137, guid: e0fc05a0aff406a4fa203bd195967b3a,
        type: 3}
      time: 0.04
      eventEnabled: 0
      eventName: 
    - sprite: {fileID: -1255346680993359776, guid: e0fc05a0aff406a4fa203bd195967b3a,
        type: 3}
      time: 0.08
      eventEnabled: 0
      eventName: 
    - sprite: {fileID: -4313660611677560412, guid: e0fc05a0aff406a4fa203bd195967b3a,
        type: 3}
      time: 0.04
      eventEnabled: 0
      eventName: 
    - sprite: {fileID: -8253685583949237607, guid: e0fc05a0aff406a4fa203bd195967b3a,
        type: 3}
      time: 0.04
      eventEnabled: 0
      eventName: 
    - sprite: {fileID: -2662132334927608192, guid: e0fc05a0aff406a4fa203bd195967b3a,
        type: 3}
      time: 0.04
      eventEnabled: 0
      eventName: 
    - sprite: {fileID: -4931474578807581573, guid: e0fc05a0aff406a4fa203bd195967b3a,
        type: 3}
      time: 0.04
      eventEnabled: 0
      eventName: 
    - sprite: {fileID: 774235778537645601, guid: e0fc05a0aff406a4fa203bd195967b3a,
        type: 3}
      time: 0.04
      eventEnabled: 0
      eventName: 
    - sprite: {fileID: 2324041956146654394, guid: e0fc05a0aff406a4fa203bd195967b3a,
        type: 3}
      time: 0.04
      eventEnabled: 0
      eventName: 
    - sprite: {fileID: -2389255931217786928, guid: e0fc05a0aff406a4fa203bd195967b3a,
        type: 3}
      time: 0.3
      eventEnabled: 0
      eventName: 
    - sprite: {fileID: 5859365457282889755, guid: e0fc05a0aff406a4fa203bd195967b3a,
        type: 3}
      time: 0.04
      eventEnabled: 0
      eventName: 
    - sprite: {fileID: 5918128799090588341, guid: e0fc05a0aff406a4fa203bd195967b3a,
        type: 3}
      time: 0.04
      eventEnabled: 0
      eventName: 
    - sprite: {fileID: 6274017275553549235, guid: e0fc05a0aff406a4fa203bd195967b3a,
        type: 3}
      time: 0.04
      eventEnabled: 0
      eventName: 
    - sprite: {fileID: -7854557579501532108, guid: e0fc05a0aff406a4fa203bd195967b3a,
        type: 3}
      time: 0.04
      eventEnabled: 0
      eventName: 
    - sprite: {fileID: -300026205639731709, guid: e0fc05a0aff406a4fa203bd195967b3a,
        type: 3}
      time: 0.04
      eventEnabled: 0
      eventName: 
    - sprite: {fileID: 2675803387274274543, guid: e0fc05a0aff406a4fa203bd195967b3a,
        type: 3}
      time: 0.04
      eventEnabled: 0
      eventName: 
    - sprite: {fileID: -5405204519622018577, guid: e0fc05a0aff406a4fa203bd195967b3a,
        type: 3}
      time: 0.04
      eventEnabled: 0
      eventName: 
    - sprite: {fileID: 8310758380341656634, guid: e0fc05a0aff406a4fa203bd195967b3a,
        type: 3}
      time: 0.04
      eventEnabled: 0
      eventName: 
    - sprite: {fileID: -120464862924847360, guid: e0fc05a0aff406a4fa203bd195967b3a,
        type: 3}
      time: 0.04
      eventEnabled: 0
      eventName: 
    - sprite: {fileID: -7064496209717216796, guid: e0fc05a0aff406a4fa203bd195967b3a,
        type: 3}
      time: 0.04
      eventEnabled: 0
      eventName: 
    - sprite: {fileID: 8960983908238602940, guid: e0fc05a0aff406a4fa203bd195967b3a,
        type: 3}
      time: 0.04
      eventEnabled: 0
      eventName: 
    - sprite: {fileID: -8062621791911686602, guid: e0fc05a0aff406a4fa203bd195967b3a,
        type: 3}
      time: 0.04
      eventEnabled: 0
      eventName: 
    - sprite: {fileID: 7305518479550441463, guid: e0fc05a0aff406a4fa203bd195967b3a,
        type: 3}
      time: 0.04
      eventEnabled: 0
      eventName: 
    - sprite: {fileID: 988035605059715771, guid: e0fc05a0aff406a4fa203bd195967b3a,
        type: 3}
      time: 0.04
      eventEnabled: 0
      eventName: 
    - sprite: {fileID: -391494852458555188, guid: e0fc05a0aff406a4fa203bd195967b3a,
        type: 3}
      time: 0.04
      eventEnabled: 0
      eventName: 
    - sprite: {fileID: 1080397963539886736, guid: e0fc05a0aff406a4fa203bd195967b3a,
        type: 3}
      time: 0.04
      eventEnabled: 0
      eventName: 
    - sprite: {fileID: -8178448246774626058, guid: e0fc05a0aff406a4fa203bd195967b3a,
        type: 3}
      time: 0.04
      eventEnabled: 0
      eventName: 
    - sprite: {fileID: 7211430024477805264, guid: e0fc05a0aff406a4fa203bd195967b3a,
        type: 3}
      time: 0.04
      eventEnabled: 0
      eventName: 
    - sprite: {fileID: -7358014815940315671, guid: e0fc05a0aff406a4fa203bd195967b3a,
        type: 3}
      time: 0.16
      eventEnabled: 0
      eventName: 
    - sprite: {fileID: -3765627111307261828, guid: e0fc05a0aff406a4fa203bd195967b3a,
        type: 3}
      time: 0.04
      eventEnabled: 0
      eventName: 
    - sprite: {fileID: -2977978394925492624, guid: e0fc05a0aff406a4fa203bd195967b3a,
        type: 3}
      time: 0.04
      eventEnabled: 0
      eventName: 
    - sprite: {fileID: -1929267437710916499, guid: e0fc05a0aff406a4fa203bd195967b3a,
        type: 3}
      time: 0.04
      eventEnabled: 0
      eventName: 
    name: ingredients
    selectedIndex: 27
    newFramesTime: 0.05
    setFramesTime: 0.1
  - speedRatio: 1
    loop: 0
    frameToLoop: 0
    frameDatas:
    - sprite: {fileID: -6185888101856017231, guid: c33df8203a940b44f97079391565932c,
        type: 3}
      time: 0.04
      eventEnabled: 0
      eventName: 
    - sprite: {fileID: 1197491632931795335, guid: c33df8203a940b44f97079391565932c,
        type: 3}
      time: 0.04
      eventEnabled: 0
      eventName: 
    - sprite: {fileID: 8339791708804242272, guid: c33df8203a940b44f97079391565932c,
        type: 3}
      time: 0.04
      eventEnabled: 0
      eventName: 
    - sprite: {fileID: 7204746835713543475, guid: c33df8203a940b44f97079391565932c,
        type: 3}
      time: 0.04
      eventEnabled: 0
      eventName: 
    - sprite: {fileID: -6578829948329687025, guid: c33df8203a940b44f97079391565932c,
        type: 3}
      time: 0.04
      eventEnabled: 0
      eventName: 
    - sprite: {fileID: 4249083358122090650, guid: c33df8203a940b44f97079391565932c,
        type: 3}
      time: 0.04
      eventEnabled: 0
      eventName: 
    - sprite: {fileID: -5679783404641513943, guid: c33df8203a940b44f97079391565932c,
        type: 3}
      time: 0.04
      eventEnabled: 0
      eventName: 
    - sprite: {fileID: -637924867993006443, guid: c33df8203a940b44f97079391565932c,
        type: 3}
      time: 0.04
      eventEnabled: 0
      eventName: 
    - sprite: {fileID: -7126424148201078946, guid: c33df8203a940b44f97079391565932c,
        type: 3}
      time: 0.04
      eventEnabled: 0
      eventName: 
    - sprite: {fileID: 6955446236929054280, guid: c33df8203a940b44f97079391565932c,
        type: 3}
      time: 0.04
      eventEnabled: 0
      eventName: 
    - sprite: {fileID: -888530083183636716, guid: c33df8203a940b44f97079391565932c,
        type: 3}
      time: 0.04
      eventEnabled: 0
      eventName: 
    - sprite: {fileID: 1009434158725696751, guid: c33df8203a940b44f97079391565932c,
        type: 3}
      time: 0.04
      eventEnabled: 0
      eventName: 
    - sprite: {fileID: 8987503601652913301, guid: c33df8203a940b44f97079391565932c,
        type: 3}
      time: 0.08
      eventEnabled: 0
      eventName: 
    - sprite: {fileID: 2818673379448372309, guid: c33df8203a940b44f97079391565932c,
        type: 3}
      time: 0.04
      eventEnabled: 0
      eventName: 
    - sprite: {fileID: 7257474507794713801, guid: c33df8203a940b44f97079391565932c,
        type: 3}
      time: 0.04
      eventEnabled: 0
      eventName: 
    - sprite: {fileID: -122066271493283255, guid: c33df8203a940b44f97079391565932c,
        type: 3}
      time: 0.04
      eventEnabled: 0
      eventName: 
    - sprite: {fileID: -9065344515568738105, guid: c33df8203a940b44f97079391565932c,
        type: 3}
      time: 0.04
      eventEnabled: 0
      eventName: 
    - sprite: {fileID: -4453567863571014862, guid: c33df8203a940b44f97079391565932c,
        type: 3}
      time: 0.04
      eventEnabled: 0
      eventName: 
    - sprite: {fileID: 3010123406322289328, guid: c33df8203a940b44f97079391565932c,
        type: 3}
      time: 0.04
      eventEnabled: 0
      eventName: 
    - sprite: {fileID: 2432966958977558859, guid: c33df8203a940b44f97079391565932c,
        type: 3}
      time: 0.3
      eventEnabled: 0
      eventName: 
    - sprite: {fileID: 5423632357051898694, guid: c33df8203a940b44f97079391565932c,
        type: 3}
      time: 0.04
      eventEnabled: 0
      eventName: 
    - sprite: {fileID: 3702404005453731155, guid: c33df8203a940b44f97079391565932c,
        type: 3}
      time: 0.04
      eventEnabled: 0
      eventName: 
    - sprite: {fileID: 1473782958504216809, guid: c33df8203a940b44f97079391565932c,
        type: 3}
      time: 0.04
      eventEnabled: 0
      eventName: 
    - sprite: {fileID: -1502515336250772031, guid: c33df8203a940b44f97079391565932c,
        type: 3}
      time: 0.04
      eventEnabled: 0
      eventName: 
    - sprite: {fileID: 2054841476618317889, guid: c33df8203a940b44f97079391565932c,
        type: 3}
      time: 0.04
      eventEnabled: 0
      eventName: 
    - sprite: {fileID: -5913951901669359364, guid: c33df8203a940b44f97079391565932c,
        type: 3}
      time: 0.04
      eventEnabled: 0
      eventName: 
    - sprite: {fileID: -3167157042973588096, guid: c33df8203a940b44f97079391565932c,
        type: 3}
      time: 0.04
      eventEnabled: 0
      eventName: 
    - sprite: {fileID: 6752839639789017145, guid: c33df8203a940b44f97079391565932c,
        type: 3}
      time: 0.04
      eventEnabled: 0
      eventName: 
    - sprite: {fileID: 3178467245579580670, guid: c33df8203a940b44f97079391565932c,
        type: 3}
      time: 0.04
      eventEnabled: 0
      eventName: 
    - sprite: {fileID: -5473831455474238133, guid: c33df8203a940b44f97079391565932c,
        type: 3}
      time: 0.04
      eventEnabled: 0
      eventName: 
    - sprite: {fileID: -7541969042660107182, guid: c33df8203a940b44f97079391565932c,
        type: 3}
      time: 0.04
      eventEnabled: 0
      eventName: 
    - sprite: {fileID: 981485118249014666, guid: c33df8203a940b44f97079391565932c,
        type: 3}
      time: 0.04
      eventEnabled: 0
      eventName: 
    - sprite: {fileID: 2580296978878605970, guid: c33df8203a940b44f97079391565932c,
        type: 3}
      time: 0.04
      eventEnabled: 0
      eventName: 
    - sprite: {fileID: -3214946455275348684, guid: c33df8203a940b44f97079391565932c,
        type: 3}
      time: 0.04
      eventEnabled: 0
      eventName: 
    - sprite: {fileID: -169890269326265553, guid: c33df8203a940b44f97079391565932c,
        type: 3}
      time: 0.04
      eventEnabled: 0
      eventName: 
    - sprite: {fileID: -2057903789852823151, guid: c33df8203a940b44f97079391565932c,
        type: 3}
      time: 0.04
      eventEnabled: 0
      eventName: 
    - sprite: {fileID: -2386364061414316847, guid: c33df8203a940b44f97079391565932c,
        type: 3}
      time: 0.04
      eventEnabled: 0
      eventName: 
    - sprite: {fileID: 2965948608577329400, guid: c33df8203a940b44f97079391565932c,
        type: 3}
      time: 0.04
      eventEnabled: 0
      eventName: 
    - sprite: {fileID: -8733854261005298103, guid: c33df8203a940b44f97079391565932c,
        type: 3}
      time: 0.16
      eventEnabled: 0
      eventName: 
    - sprite: {fileID: 6927350298731921502, guid: c33df8203a940b44f97079391565932c,
        type: 3}
      time: 0.04
      eventEnabled: 0
      eventName: 
    - sprite: {fileID: -5078243206120024960, guid: c33df8203a940b44f97079391565932c,
        type: 3}
      time: 0.04
      eventEnabled: 0
      eventName: 
    - sprite: {fileID: 7183112046796059398, guid: c33df8203a940b44f97079391565932c,
        type: 3}
      time: 0.04
      eventEnabled: 0
      eventName: 
    name: recipe
    selectedIndex: 27
    newFramesTime: 0.05
    setFramesTime: 0.1
  - speedRatio: 1
    loop: 0
    frameToLoop: 0
    frameDatas:
    - sprite: {fileID: -2038655486994971627, guid: 350f04dac591f4244bfdd60db834a501,
        type: 3}
      time: 0.04
      eventEnabled: 0
      eventName: 
    - sprite: {fileID: 5029121777694577606, guid: 350f04dac591f4244bfdd60db834a501,
        type: 3}
      time: 0.04
      eventEnabled: 0
      eventName: 
    - sprite: {fileID: -2686355522457057410, guid: 350f04dac591f4244bfdd60db834a501,
        type: 3}
      time: 0.04
      eventEnabled: 0
      eventName: 
    - sprite: {fileID: -7171288073337302682, guid: 350f04dac591f4244bfdd60db834a501,
        type: 3}
      time: 0.04
      eventEnabled: 0
      eventName: 
    - sprite: {fileID: 5536045946216679338, guid: 350f04dac591f4244bfdd60db834a501,
        type: 3}
      time: 0.04
      eventEnabled: 0
      eventName: 
    - sprite: {fileID: 7762051678593136901, guid: 350f04dac591f4244bfdd60db834a501,
        type: 3}
      time: 0.04
      eventEnabled: 0
      eventName: 
    - sprite: {fileID: 2043958425112502764, guid: 350f04dac591f4244bfdd60db834a501,
        type: 3}
      time: 0.04
      eventEnabled: 0
      eventName: 
    - sprite: {fileID: -3604880665140762355, guid: 350f04dac591f4244bfdd60db834a501,
        type: 3}
      time: 0.04
      eventEnabled: 0
      eventName: 
    - sprite: {fileID: 1594112626602119854, guid: 350f04dac591f4244bfdd60db834a501,
        type: 3}
      time: 0.04
      eventEnabled: 0
      eventName: 
    - sprite: {fileID: 1914796375713087096, guid: 350f04dac591f4244bfdd60db834a501,
        type: 3}
      time: 0.04
      eventEnabled: 0
      eventName: 
    - sprite: {fileID: 8208606859854937654, guid: 350f04dac591f4244bfdd60db834a501,
        type: 3}
      time: 0.04
      eventEnabled: 0
      eventName: 
    - sprite: {fileID: -3219775266627982184, guid: 350f04dac591f4244bfdd60db834a501,
        type: 3}
      time: 0.04
      eventEnabled: 0
      eventName: 
    - sprite: {fileID: 546350338762018740, guid: 350f04dac591f4244bfdd60db834a501,
        type: 3}
      time: 0.08
      eventEnabled: 0
      eventName: 
    - sprite: {fileID: -1480239961643972199, guid: 350f04dac591f4244bfdd60db834a501,
        type: 3}
      time: 0.04
      eventEnabled: 0
      eventName: 
    - sprite: {fileID: 5010332279370311417, guid: 350f04dac591f4244bfdd60db834a501,
        type: 3}
      time: 0.04
      eventEnabled: 0
      eventName: 
    - sprite: {fileID: -5627295214499278899, guid: 350f04dac591f4244bfdd60db834a501,
        type: 3}
      time: 0.04
      eventEnabled: 0
      eventName: 
    - sprite: {fileID: -4937641768174213675, guid: 350f04dac591f4244bfdd60db834a501,
        type: 3}
      time: 0.04
      eventEnabled: 0
      eventName: 
    - sprite: {fileID: 128956205264550793, guid: 350f04dac591f4244bfdd60db834a501,
        type: 3}
      time: 0.04
      eventEnabled: 0
      eventName: 
    - sprite: {fileID: 5330463648223269163, guid: 350f04dac591f4244bfdd60db834a501,
        type: 3}
      time: 0.04
      eventEnabled: 0
      eventName: 
    - sprite: {fileID: -2088232009465479896, guid: 350f04dac591f4244bfdd60db834a501,
        type: 3}
      time: 0.3
      eventEnabled: 0
      eventName: 
    - sprite: {fileID: 3218673824393102387, guid: 350f04dac591f4244bfdd60db834a501,
        type: 3}
      time: 0.04
      eventEnabled: 0
      eventName: 
    - sprite: {fileID: -8677477933580399761, guid: 350f04dac591f4244bfdd60db834a501,
        type: 3}
      time: 0.04
      eventEnabled: 0
      eventName: 
    - sprite: {fileID: -7512823837370429586, guid: 350f04dac591f4244bfdd60db834a501,
        type: 3}
      time: 0.04
      eventEnabled: 0
      eventName: 
    - sprite: {fileID: 8414879738497010648, guid: 350f04dac591f4244bfdd60db834a501,
        type: 3}
      time: 0.04
      eventEnabled: 0
      eventName: 
    - sprite: {fileID: 360454992134787342, guid: 350f04dac591f4244bfdd60db834a501,
        type: 3}
      time: 0.04
      eventEnabled: 0
      eventName: 
    - sprite: {fileID: -611458352488800201, guid: 350f04dac591f4244bfdd60db834a501,
        type: 3}
      time: 0.04
      eventEnabled: 0
      eventName: 
    - sprite: {fileID: -2459576597327303426, guid: 350f04dac591f4244bfdd60db834a501,
        type: 3}
      time: 0.04
      eventEnabled: 0
      eventName: 
    - sprite: {fileID: 1318100723890048133, guid: 350f04dac591f4244bfdd60db834a501,
        type: 3}
      time: 0.04
      eventEnabled: 0
      eventName: 
    - sprite: {fileID: 4582340183813557952, guid: 350f04dac591f4244bfdd60db834a501,
        type: 3}
      time: 0.04
      eventEnabled: 0
      eventName: 
    - sprite: {fileID: -6466912141427671371, guid: 350f04dac591f4244bfdd60db834a501,
        type: 3}
      time: 0.04
      eventEnabled: 0
      eventName: 
    - sprite: {fileID: -2978021249878977417, guid: 350f04dac591f4244bfdd60db834a501,
        type: 3}
      time: 0.04
      eventEnabled: 0
      eventName: 
    - sprite: {fileID: 2880123818499294753, guid: 350f04dac591f4244bfdd60db834a501,
        type: 3}
      time: 0.04
      eventEnabled: 0
      eventName: 
    - sprite: {fileID: 8597879719353827059, guid: 350f04dac591f4244bfdd60db834a501,
        type: 3}
      time: 0.04
      eventEnabled: 0
      eventName: 
    - sprite: {fileID: 6747011740645444438, guid: 350f04dac591f4244bfdd60db834a501,
        type: 3}
      time: 0.04
      eventEnabled: 0
      eventName: 
    - sprite: {fileID: -4859519957642909629, guid: 350f04dac591f4244bfdd60db834a501,
        type: 3}
      time: 0.04
      eventEnabled: 0
      eventName: 
    - sprite: {fileID: -2066077139664340662, guid: 350f04dac591f4244bfdd60db834a501,
        type: 3}
      time: 0.04
      eventEnabled: 0
      eventName: 
    - sprite: {fileID: 1078500709756380520, guid: 350f04dac591f4244bfdd60db834a501,
        type: 3}
      time: 0.04
      eventEnabled: 0
      eventName: 
    - sprite: {fileID: -4469507677966104850, guid: 350f04dac591f4244bfdd60db834a501,
        type: 3}
      time: 0.04
      eventEnabled: 0
      eventName: 
    - sprite: {fileID: -6215407271880123616, guid: 350f04dac591f4244bfdd60db834a501,
        type: 3}
      time: 0.16
      eventEnabled: 0
      eventName: 
    - sprite: {fileID: 7186211607583350934, guid: 350f04dac591f4244bfdd60db834a501,
        type: 3}
      time: 0.04
      eventEnabled: 0
      eventName: 
    - sprite: {fileID: -2596586860213364843, guid: 350f04dac591f4244bfdd60db834a501,
        type: 3}
      time: 0.04
      eventEnabled: 0
      eventName: 
    - sprite: {fileID: 75667284873630716, guid: 350f04dac591f4244bfdd60db834a501,
        type: 3}
      time: 0.04
      eventEnabled: 0
      eventName: 
    name: relic
    selectedIndex: 27
    newFramesTime: 0.05
    setFramesTime: 0.1
  - speedRatio: 1
    loop: 0
    frameToLoop: 0
    frameDatas:
    - sprite: {fileID: -3824335063066167987, guid: 84eb906f328dd4c48a528c5bc6143a35,
        type: 3}
      time: 0.04
      eventEnabled: 0
      eventName: 
    - sprite: {fileID: 5671272565906838902, guid: 84eb906f328dd4c48a528c5bc6143a35,
        type: 3}
      time: 0.04
      eventEnabled: 0
      eventName: 
    - sprite: {fileID: -4614596525504745343, guid: 84eb906f328dd4c48a528c5bc6143a35,
        type: 3}
      time: 0.04
      eventEnabled: 0
      eventName: 
    - sprite: {fileID: -970926454976155762, guid: 84eb906f328dd4c48a528c5bc6143a35,
        type: 3}
      time: 0.04
      eventEnabled: 0
      eventName: 
    - sprite: {fileID: -6217149989005948828, guid: 84eb906f328dd4c48a528c5bc6143a35,
        type: 3}
      time: 0.04
      eventEnabled: 0
      eventName: 
    - sprite: {fileID: -6814483143154044553, guid: 84eb906f328dd4c48a528c5bc6143a35,
        type: 3}
      time: 0.04
      eventEnabled: 0
      eventName: 
    - sprite: {fileID: -1860754179271896267, guid: 84eb906f328dd4c48a528c5bc6143a35,
        type: 3}
      time: 0.04
      eventEnabled: 0
      eventName: 
    - sprite: {fileID: 5524053576176207081, guid: 84eb906f328dd4c48a528c5bc6143a35,
        type: 3}
      time: 0.04
      eventEnabled: 0
      eventName: 
    - sprite: {fileID: 29289618673627024, guid: 84eb906f328dd4c48a528c5bc6143a35,
        type: 3}
      time: 0.04
      eventEnabled: 0
      eventName: 
    - sprite: {fileID: 5333897153340756090, guid: 84eb906f328dd4c48a528c5bc6143a35,
        type: 3}
      time: 0.04
      eventEnabled: 0
      eventName: 
    - sprite: {fileID: 7728322652981293004, guid: 84eb906f328dd4c48a528c5bc6143a35,
        type: 3}
      time: 0.04
      eventEnabled: 0
      eventName: 
    - sprite: {fileID: -1792701155767910589, guid: 84eb906f328dd4c48a528c5bc6143a35,
        type: 3}
      time: 0.04
      eventEnabled: 0
      eventName: 
    - sprite: {fileID: -9064697211644213696, guid: 84eb906f328dd4c48a528c5bc6143a35,
        type: 3}
      time: 0.08
      eventEnabled: 0
      eventName: 
    - sprite: {fileID: -1505689284418073443, guid: 84eb906f328dd4c48a528c5bc6143a35,
        type: 3}
      time: 0.04
      eventEnabled: 0
      eventName: 
    - sprite: {fileID: 3990904966589768068, guid: 84eb906f328dd4c48a528c5bc6143a35,
        type: 3}
      time: 0.04
      eventEnabled: 0
      eventName: 
    - sprite: {fileID: 8444126603524858646, guid: 84eb906f328dd4c48a528c5bc6143a35,
        type: 3}
      time: 0.04
      eventEnabled: 0
      eventName: 
    - sprite: {fileID: 5591413439791476160, guid: 84eb906f328dd4c48a528c5bc6143a35,
        type: 3}
      time: 0.04
      eventEnabled: 0
      eventName: 
    - sprite: {fileID: 1070997110201991611, guid: 84eb906f328dd4c48a528c5bc6143a35,
        type: 3}
      time: 0.04
      eventEnabled: 0
      eventName: 
    - sprite: {fileID: -293829981811861363, guid: 84eb906f328dd4c48a528c5bc6143a35,
        type: 3}
      time: 0.04
      eventEnabled: 0
      eventName: 
    - sprite: {fileID: -8044091657691555893, guid: 84eb906f328dd4c48a528c5bc6143a35,
        type: 3}
      time: 0.3
      eventEnabled: 0
      eventName: 
    - sprite: {fileID: -672201742033732111, guid: 84eb906f328dd4c48a528c5bc6143a35,
        type: 3}
      time: 0.04
      eventEnabled: 0
      eventName: 
    - sprite: {fileID: 8520331931527166701, guid: 84eb906f328dd4c48a528c5bc6143a35,
        type: 3}
      time: 0.04
      eventEnabled: 0
      eventName: 
    - sprite: {fileID: 3854503226474939978, guid: 84eb906f328dd4c48a528c5bc6143a35,
        type: 3}
      time: 0.04
      eventEnabled: 0
      eventName: 
    - sprite: {fileID: 658716606204368246, guid: 84eb906f328dd4c48a528c5bc6143a35,
        type: 3}
      time: 0.04
      eventEnabled: 0
      eventName: 
    - sprite: {fileID: 2042835001766148390, guid: 84eb906f328dd4c48a528c5bc6143a35,
        type: 3}
      time: 0.04
      eventEnabled: 0
      eventName: 
    - sprite: {fileID: -9180203311489199369, guid: 84eb906f328dd4c48a528c5bc6143a35,
        type: 3}
      time: 0.04
      eventEnabled: 0
      eventName: 
    - sprite: {fileID: 775029509464052663, guid: 84eb906f328dd4c48a528c5bc6143a35,
        type: 3}
      time: 0.04
      eventEnabled: 0
      eventName: 
    - sprite: {fileID: 3450537017062508126, guid: 84eb906f328dd4c48a528c5bc6143a35,
        type: 3}
      time: 0.04
      eventEnabled: 0
      eventName: 
    - sprite: {fileID: 3022091069288780754, guid: 84eb906f328dd4c48a528c5bc6143a35,
        type: 3}
      time: 0.04
      eventEnabled: 0
      eventName: 
    - sprite: {fileID: 8538581860775224389, guid: 84eb906f328dd4c48a528c5bc6143a35,
        type: 3}
      time: 0.04
      eventEnabled: 0
      eventName: 
    - sprite: {fileID: 7132569979846372719, guid: 84eb906f328dd4c48a528c5bc6143a35,
        type: 3}
      time: 0.04
      eventEnabled: 0
      eventName: 
    - sprite: {fileID: 8929350744671165622, guid: 84eb906f328dd4c48a528c5bc6143a35,
        type: 3}
      time: 0.04
      eventEnabled: 0
      eventName: 
    - sprite: {fileID: 7573590382673500820, guid: 84eb906f328dd4c48a528c5bc6143a35,
        type: 3}
      time: 0.04
      eventEnabled: 0
      eventName: 
    - sprite: {fileID: 5902348115937063495, guid: 84eb906f328dd4c48a528c5bc6143a35,
        type: 3}
      time: 0.04
      eventEnabled: 0
      eventName: 
    - sprite: {fileID: -6996981442329265884, guid: 84eb906f328dd4c48a528c5bc6143a35,
        type: 3}
      time: 0.04
      eventEnabled: 0
      eventName: 
    - sprite: {fileID: -923429977733378330, guid: 84eb906f328dd4c48a528c5bc6143a35,
        type: 3}
      time: 0.04
      eventEnabled: 0
      eventName: 
    - sprite: {fileID: 7816592267729635236, guid: 84eb906f328dd4c48a528c5bc6143a35,
        type: 3}
      time: 0.04
      eventEnabled: 0
      eventName: 
    - sprite: {fileID: -6396633981575024144, guid: 84eb906f328dd4c48a528c5bc6143a35,
        type: 3}
      time: 0.04
      eventEnabled: 0
      eventName: 
    - sprite: {fileID: -5398493804997718724, guid: 84eb906f328dd4c48a528c5bc6143a35,
        type: 3}
      time: 0.16
      eventEnabled: 0
      eventName: 
    - sprite: {fileID: -4327908305037268733, guid: 84eb906f328dd4c48a528c5bc6143a35,
        type: 3}
      time: 0.04
      eventEnabled: 0
      eventName: 
    - sprite: {fileID: 1848372008139543451, guid: 84eb906f328dd4c48a528c5bc6143a35,
        type: 3}
      time: 0.04
      eventEnabled: 0
      eventName: 
    - sprite: {fileID: -5659931183135274267, guid: 84eb906f328dd4c48a528c5bc6143a35,
        type: 3}
      time: 0.04
      eventEnabled: 0
      eventName: 
    name: standard
    selectedIndex: 27
    newFramesTime: 0.05
    setFramesTime: 0.1
