%YAML 1.1
%TAG !u! tag:unity3d.com,2011:
--- !u!114 &11400000
MonoBehaviour:
  m_ObjectHideFlags: 0
  m_CorrespondingSourceObject: {fileID: 0}
  m_PrefabInstance: {fileID: 0}
  m_PrefabAsset: {fileID: 0}
  m_GameObject: {fileID: 0}
  m_Enabled: 1
  m_EditorHideFlags: 0
  m_Script: {fileID: 11500000, guid: 34404cb99b59bb543805a55e3c469d61, type: 3}
  m_Name: rotten-spore
  m_EditorClassIdentifier: 
  editorConfirmations: 1
  animations:
  - speedRatio: 1
    loop: 0
    frameToLoop: 0
    frameDatas:
    - sprite: {fileID: 2774383373279247916, guid: fa3fd10150a9b4a098608fce013564f4,
        type: 3}
      time: 0.04
      eventEnabled: 0
      eventName: 
    - sprite: {fileID: -2198037045351772460, guid: fa3fd10150a9b4a098608fce013564f4,
        type: 3}
      time: 0.04
      eventEnabled: 0
      eventName: 
    - sprite: {fileID: -5243730211882408942, guid: fa3fd10150a9b4a098608fce013564f4,
        type: 3}
      time: 0.04
      eventEnabled: 0
      eventName: 
    - sprite: {fileID: 6437055115963427516, guid: fa3fd10150a9b4a098608fce013564f4,
        type: 3}
      time: 0.04
      eventEnabled: 0
      eventName: 
    - sprite: {fileID: 2328349424993937188, guid: fa3fd10150a9b4a098608fce013564f4,
        type: 3}
      time: 0.04
      eventEnabled: 0
      eventName: 
    - sprite: {fileID: -8593001471016050907, guid: fa3fd10150a9b4a098608fce013564f4,
        type: 3}
      time: 0.04
      eventEnabled: 0
      eventName: 
    - sprite: {fileID: 5972617170586917604, guid: fa3fd10150a9b4a098608fce013564f4,
        type: 3}
      time: 0.04
      eventEnabled: 0
      eventName: 
    - sprite: {fileID: -213402786077900964, guid: fa3fd10150a9b4a098608fce013564f4,
        type: 3}
      time: 0.04
      eventEnabled: 0
      eventName: 
    - sprite: {fileID: -4785645224357948396, guid: fa3fd10150a9b4a098608fce013564f4,
        type: 3}
      time: 0.04
      eventEnabled: 0
      eventName: 
    - sprite: {fileID: -3174270465770247430, guid: fa3fd10150a9b4a098608fce013564f4,
        type: 3}
      time: 0.04
      eventEnabled: 0
      eventName: 
    - sprite: {fileID: -7012633541068857049, guid: fa3fd10150a9b4a098608fce013564f4,
        type: 3}
      time: 0.04
      eventEnabled: 0
      eventName: 
    - sprite: {fileID: -5584580250891798570, guid: fa3fd10150a9b4a098608fce013564f4,
        type: 3}
      time: 0.04
      eventEnabled: 0
      eventName: 
    - sprite: {fileID: 7679017851868805100, guid: fa3fd10150a9b4a098608fce013564f4,
        type: 3}
      time: 0.04
      eventEnabled: 0
      eventName: 
    - sprite: {fileID: 789506449208945964, guid: fa3fd10150a9b4a098608fce013564f4,
        type: 3}
      time: 0.04
      eventEnabled: 0
      eventName: 
    - sprite: {fileID: 8591972240675729859, guid: fa3fd10150a9b4a098608fce013564f4,
        type: 3}
      time: 0.04
      eventEnabled: 0
      eventName: 
    - sprite: {fileID: -3480336252487819723, guid: fa3fd10150a9b4a098608fce013564f4,
        type: 3}
      time: 0.04
      eventEnabled: 0
      eventName: 
    - sprite: {fileID: -6625961522142375948, guid: fa3fd10150a9b4a098608fce013564f4,
        type: 3}
      time: 0.04
      eventEnabled: 0
      eventName: 
    - sprite: {fileID: 7217434555362972172, guid: fa3fd10150a9b4a098608fce013564f4,
        type: 3}
      time: 0.04
      eventEnabled: 0
      eventName: 
    - sprite: {fileID: -5797675002563779528, guid: fa3fd10150a9b4a098608fce013564f4,
        type: 3}
      time: 0.04
      eventEnabled: 0
      eventName: 
    - sprite: {fileID: 370708171371022619, guid: fa3fd10150a9b4a098608fce013564f4,
        type: 3}
      time: 0.04
      eventEnabled: 0
      eventName: 
    - sprite: {fileID: 2225627091074623717, guid: fa3fd10150a9b4a098608fce013564f4,
        type: 3}
      time: 0.04
      eventEnabled: 0
      eventName: 
    - sprite: {fileID: -3872056875419266269, guid: fa3fd10150a9b4a098608fce013564f4,
        type: 3}
      time: 0.04
      eventEnabled: 0
      eventName: 
    - sprite: {fileID: 8148778044940607896, guid: fa3fd10150a9b4a098608fce013564f4,
        type: 3}
      time: 0.04
      eventEnabled: 0
      eventName: 
    - sprite: {fileID: -6312259495307758260, guid: fa3fd10150a9b4a098608fce013564f4,
        type: 3}
      time: 0.04
      eventEnabled: 0
      eventName: 
    - sprite: {fileID: -1222751722527321002, guid: fa3fd10150a9b4a098608fce013564f4,
        type: 3}
      time: 0.04
      eventEnabled: 0
      eventName: 
    - sprite: {fileID: -5911146070663727820, guid: fa3fd10150a9b4a098608fce013564f4,
        type: 3}
      time: 0.04
      eventEnabled: 0
      eventName: 
    - sprite: {fileID: 5504710451449273133, guid: fa3fd10150a9b4a098608fce013564f4,
        type: 3}
      time: 0.04
      eventEnabled: 0
      eventName: 
    - sprite: {fileID: 5200178823765142094, guid: fa3fd10150a9b4a098608fce013564f4,
        type: 3}
      time: 0.04
      eventEnabled: 0
      eventName: 
    - sprite: {fileID: -2332881642202652592, guid: fa3fd10150a9b4a098608fce013564f4,
        type: 3}
      time: 0.04
      eventEnabled: 0
      eventName: 
    - sprite: {fileID: 2836141486675170518, guid: fa3fd10150a9b4a098608fce013564f4,
        type: 3}
      time: 0.04
      eventEnabled: 0
      eventName: 
    - sprite: {fileID: 3981778622470467013, guid: fa3fd10150a9b4a098608fce013564f4,
        type: 3}
      time: 0.04
      eventEnabled: 0
      eventName: 
    - sprite: {fileID: 4508389810413874398, guid: fa3fd10150a9b4a098608fce013564f4,
        type: 3}
      time: 0.04
      eventEnabled: 0
      eventName: 
    - sprite: {fileID: 2667584596334604051, guid: fa3fd10150a9b4a098608fce013564f4,
        type: 3}
      time: 0.04
      eventEnabled: 0
      eventName: 
    - sprite: {fileID: -4676291901146078041, guid: fa3fd10150a9b4a098608fce013564f4,
        type: 3}
      time: 0.04
      eventEnabled: 0
      eventName: 
    - sprite: {fileID: -879850779081453232, guid: fa3fd10150a9b4a098608fce013564f4,
        type: 3}
      time: 0.04
      eventEnabled: 0
      eventName: 
    - sprite: {fileID: 21300000, guid: fd49ac06ab59f472699a83cd9ae6e5e3, type: 3}
      time: 0.05
      eventEnabled: 0
      eventName: 
    name: spawn
    selectedIndex: 35
    newFramesTime: 0.05
    setFramesTime: 0.1
