%YAML 1.1
%TAG !u! tag:unity3d.com,2011:
--- !u!114 &11400000
MonoBehaviour:
  m_ObjectHideFlags: 0
  m_CorrespondingSourceObject: {fileID: 0}
  m_PrefabInstance: {fileID: 0}
  m_PrefabAsset: {fileID: 0}
  m_GameObject: {fileID: 0}
  m_Enabled: 1
  m_EditorHideFlags: 0
  m_Script: {fileID: 11500000, guid: 34404cb99b59bb543805a55e3c469d61, type: 3}
  m_Name: sacrificial-stage-dagger
  m_EditorClassIdentifier: 
  editorConfirmations: 1
  animations:
  - speedRatio: 1
    loop: 0
    frameToLoop: 0
    frameDatas:
    - sprite: {fileID: 3439694919843303660, guid: 2779591390f9e7c4591d7db9d19fcfe7,
        type: 3}
      time: 0.04
      eventEnabled: 0
      eventName: 
    - sprite: {fileID: 5349219546709113707, guid: 2779591390f9e7c4591d7db9d19fcfe7,
        type: 3}
      time: 0.04
      eventEnabled: 0
      eventName: 
    - sprite: {fileID: 4339339742008947007, guid: 2779591390f9e7c4591d7db9d19fcfe7,
        type: 3}
      time: 0.08
      eventEnabled: 0
      eventName: 
    - sprite: {fileID: -3325390551609283068, guid: 2779591390f9e7c4591d7db9d19fcfe7,
        type: 3}
      time: 0.04
      eventEnabled: 0
      eventName: 
    - sprite: {fileID: 2542885340963821712, guid: 2779591390f9e7c4591d7db9d19fcfe7,
        type: 3}
      time: 0.04
      eventEnabled: 0
      eventName: 
    - sprite: {fileID: -724263464353445049, guid: 2779591390f9e7c4591d7db9d19fcfe7,
        type: 3}
      time: 0.04
      eventEnabled: 0
      eventName: 
    - sprite: {fileID: -6293261536224813035, guid: 2779591390f9e7c4591d7db9d19fcfe7,
        type: 3}
      time: 0.04
      eventEnabled: 0
      eventName: 
    - sprite: {fileID: -702732322942120702, guid: 2779591390f9e7c4591d7db9d19fcfe7,
        type: 3}
      time: 0.04
      eventEnabled: 0
      eventName: 
    - sprite: {fileID: 7185291590941330445, guid: 2779591390f9e7c4591d7db9d19fcfe7,
        type: 3}
      time: 0.04
      eventEnabled: 0
      eventName: 
    - sprite: {fileID: 4895476857072110211, guid: 2779591390f9e7c4591d7db9d19fcfe7,
        type: 3}
      time: 0.04
      eventEnabled: 0
      eventName: 
    - sprite: {fileID: -218856883187477235, guid: 2779591390f9e7c4591d7db9d19fcfe7,
        type: 3}
      time: 0.04
      eventEnabled: 0
      eventName: 
    - sprite: {fileID: -3920917974750614049, guid: 2779591390f9e7c4591d7db9d19fcfe7,
        type: 3}
      time: 0.04
      eventEnabled: 0
      eventName: 
    - sprite: {fileID: -2352305464460553832, guid: 2779591390f9e7c4591d7db9d19fcfe7,
        type: 3}
      time: 0.04
      eventEnabled: 0
      eventName: 
    - sprite: {fileID: -7930169348909685695, guid: 2779591390f9e7c4591d7db9d19fcfe7,
        type: 3}
      time: 0.04
      eventEnabled: 0
      eventName: 
    - sprite: {fileID: 1547218438574961363, guid: 2779591390f9e7c4591d7db9d19fcfe7,
        type: 3}
      time: 0.04
      eventEnabled: 0
      eventName: 
    - sprite: {fileID: -3636632782158167750, guid: 2779591390f9e7c4591d7db9d19fcfe7,
        type: 3}
      time: 0.04
      eventEnabled: 0
      eventName: 
    - sprite: {fileID: -3273626262916792796, guid: 2779591390f9e7c4591d7db9d19fcfe7,
        type: 3}
      time: 0.04
      eventEnabled: 0
      eventName: 
    - sprite: {fileID: -3444712904928260191, guid: 2779591390f9e7c4591d7db9d19fcfe7,
        type: 3}
      time: 0.04
      eventEnabled: 0
      eventName: 
    - sprite: {fileID: 199400622148934537, guid: 2779591390f9e7c4591d7db9d19fcfe7,
        type: 3}
      time: 0.04
      eventEnabled: 0
      eventName: 
    - sprite: {fileID: 1526020465609424295, guid: 2779591390f9e7c4591d7db9d19fcfe7,
        type: 3}
      time: 0.04
      eventEnabled: 0
      eventName: 
    - sprite: {fileID: 8024207599695264195, guid: 2779591390f9e7c4591d7db9d19fcfe7,
        type: 3}
      time: 0.04
      eventEnabled: 0
      eventName: 
    - sprite: {fileID: 3142244620993628638, guid: 2779591390f9e7c4591d7db9d19fcfe7,
        type: 3}
      time: 0.04
      eventEnabled: 0
      eventName: 
    name: stab
    selectedIndex: 0
    newFramesTime: 0.05
    setFramesTime: 0.1
