%YAML 1.1
%TAG !u! tag:unity3d.com,2011:
--- !u!114 &11400000
MonoBehaviour:
  m_ObjectHideFlags: 0
  m_CorrespondingSourceObject: {fileID: 0}
  m_PrefabInstance: {fileID: 0}
  m_PrefabAsset: {fileID: 0}
  m_GameObject: {fileID: 0}
  m_Enabled: 1
  m_EditorHideFlags: 0
  m_Script: {fileID: 11500000, guid: 34404cb99b59bb543805a55e3c469d61, type: 3}
  m_Name: shop-portrait
  m_EditorClassIdentifier: 
  editorConfirmations: 1
  animations:
  - speedRatio: 1
    loop: 1
    frameToLoop: 0
    frameDatas:
    - sprite: {fileID: 2063219410589525631, guid: 88bb9eac32614ee4d93ef1fae5b26db6,
        type: 3}
      time: 19.92
      eventEnabled: 0
      eventName: 
    - sprite: {fileID: 160476123361560415, guid: 88bb9eac32614ee4d93ef1fae5b26db6,
        type: 3}
      time: 0.1
      eventEnabled: 0
      eventName: 
    - sprite: {fileID: -423607812265085992, guid: 88bb9eac32614ee4d93ef1fae5b26db6,
        type: 3}
      time: 0.1
      eventEnabled: 0
      eventName: 
    - sprite: {fileID: -2138935322649790692, guid: 88bb9eac32614ee4d93ef1fae5b26db6,
        type: 3}
      time: 0.1
      eventEnabled: 0
      eventName: 
    - sprite: {fileID: -2493977927103512126, guid: 88bb9eac32614ee4d93ef1fae5b26db6,
        type: 3}
      time: 0.1
      eventEnabled: 0
      eventName: 
    - sprite: {fileID: -4835086324545672568, guid: 88bb9eac32614ee4d93ef1fae5b26db6,
        type: 3}
      time: 0.1
      eventEnabled: 0
      eventName: 
    - sprite: {fileID: 4022255019856761356, guid: 88bb9eac32614ee4d93ef1fae5b26db6,
        type: 3}
      time: 2
      eventEnabled: 0
      eventName: 
    - sprite: {fileID: -945391055931129842, guid: 88bb9eac32614ee4d93ef1fae5b26db6,
        type: 3}
      time: 0.1
      eventEnabled: 0
      eventName: 
    - sprite: {fileID: 4125852352089537665, guid: 88bb9eac32614ee4d93ef1fae5b26db6,
        type: 3}
      time: 0.1
      eventEnabled: 0
      eventName: 
    - sprite: {fileID: 3779211308843269806, guid: 88bb9eac32614ee4d93ef1fae5b26db6,
        type: 3}
      time: 0.1
      eventEnabled: 0
      eventName: 
    - sprite: {fileID: -3374420218637037383, guid: 88bb9eac32614ee4d93ef1fae5b26db6,
        type: 3}
      time: 0.1
      eventEnabled: 0
      eventName: 
    - sprite: {fileID: 449427081115290823, guid: 88bb9eac32614ee4d93ef1fae5b26db6,
        type: 3}
      time: 0.1
      eventEnabled: 0
      eventName: 
    name: cardinella
    selectedIndex: 6
    newFramesTime: 0.08
    setFramesTime: 0.1
  - speedRatio: 1
    loop: 1
    frameToLoop: 0
    frameDatas:
    - sprite: {fileID: 6511501320825342354, guid: 3e1e24c1fcedd854994e335cd0422b87,
        type: 3}
      time: 19.92
      eventEnabled: 0
      eventName: 
    - sprite: {fileID: 2735563670250003829, guid: 3e1e24c1fcedd854994e335cd0422b87,
        type: 3}
      time: 0.08
      eventEnabled: 0
      eventName: 
    - sprite: {fileID: -6515436754062128128, guid: 3e1e24c1fcedd854994e335cd0422b87,
        type: 3}
      time: 0.08
      eventEnabled: 0
      eventName: 
    - sprite: {fileID: 7308390624697954007, guid: 3e1e24c1fcedd854994e335cd0422b87,
        type: 3}
      time: 0.08
      eventEnabled: 0
      eventName: 
    - sprite: {fileID: 3933407032739360066, guid: 3e1e24c1fcedd854994e335cd0422b87,
        type: 3}
      time: 0.08
      eventEnabled: 0
      eventName: 
    - sprite: {fileID: 6656431019030583737, guid: 3e1e24c1fcedd854994e335cd0422b87,
        type: 3}
      time: 0.08
      eventEnabled: 0
      eventName: 
    - sprite: {fileID: -5707471293349665028, guid: 3e1e24c1fcedd854994e335cd0422b87,
        type: 3}
      time: 0.08
      eventEnabled: 0
      eventName: 
    - sprite: {fileID: 9209240348243362018, guid: 3e1e24c1fcedd854994e335cd0422b87,
        type: 3}
      time: 0.08
      eventEnabled: 0
      eventName: 
    - sprite: {fileID: 6127545994296879285, guid: 3e1e24c1fcedd854994e335cd0422b87,
        type: 3}
      time: 0.08
      eventEnabled: 0
      eventName: 
    - sprite: {fileID: 4055627726488370322, guid: 3e1e24c1fcedd854994e335cd0422b87,
        type: 3}
      time: 0.08
      eventEnabled: 0
      eventName: 
    - sprite: {fileID: 4587524270785920836, guid: 3e1e24c1fcedd854994e335cd0422b87,
        type: 3}
      time: 0.08
      eventEnabled: 0
      eventName: 
    - sprite: {fileID: -1295627467285391780, guid: 3e1e24c1fcedd854994e335cd0422b87,
        type: 3}
      time: 0.08
      eventEnabled: 0
      eventName: 
    name: scais
    selectedIndex: 6
    newFramesTime: 0.08
    setFramesTime: 0.1
