%YAML 1.1
%TAG !u! tag:unity3d.com,2011:
--- !u!114 &11400000
MonoBehaviour:
  m_ObjectHideFlags: 0
  m_CorrespondingSourceObject: {fileID: 0}
  m_PrefabInstance: {fileID: 0}
  m_PrefabAsset: {fileID: 0}
  m_GameObject: {fileID: 0}
  m_Enabled: 1
  m_EditorHideFlags: 0
  m_Script: {fileID: 11500000, guid: 34404cb99b59bb543805a55e3c469d61, type: 3}
  m_Name: sign-here
  m_EditorClassIdentifier: 
  editorConfirmations: 1
  animations:
  - speedRatio: 1
    loop: 0
    frameToLoop: 0
    frameDatas:
    - sprite: {fileID: -1215617366944878349, guid: 36943766ea67e8c4182fe9344e49fa77,
        type: 3}
      time: 0.04
      eventEnabled: 0
      eventName: 
    - sprite: {fileID: 6141065675433078189, guid: 36943766ea67e8c4182fe9344e49fa77,
        type: 3}
      time: 0.04
      eventEnabled: 0
      eventName: 
    - sprite: {fileID: 1165350706316793377, guid: 36943766ea67e8c4182fe9344e49fa77,
        type: 3}
      time: 0.04
      eventEnabled: 0
      eventName: 
    name: despawn
    selectedIndex: 0
    newFramesTime: 0.05
    setFramesTime: 0.1
  - speedRatio: 1
    loop: 0
    frameToLoop: 0
    frameDatas:
    - sprite: {fileID: -3118076274630037206, guid: d3d8b81850b3fb2478565c5277eca241,
        type: 3}
      time: 0.04
      eventEnabled: 0
      eventName: 
    - sprite: {fileID: -8225322589137396367, guid: d3d8b81850b3fb2478565c5277eca241,
        type: 3}
      time: 0.04
      eventEnabled: 0
      eventName: 
    - sprite: {fileID: 1045698587136489957, guid: d3d8b81850b3fb2478565c5277eca241,
        type: 3}
      time: 0.04
      eventEnabled: 0
      eventName: 
    - sprite: {fileID: -1013428024732432079, guid: d3d8b81850b3fb2478565c5277eca241,
        type: 3}
      time: 0.24
      eventEnabled: 0
      eventName: 
    - sprite: {fileID: -8662175486718257176, guid: d3d8b81850b3fb2478565c5277eca241,
        type: 3}
      time: 0.04
      eventEnabled: 0
      eventName: 
    - sprite: {fileID: 3710628143954621730, guid: d3d8b81850b3fb2478565c5277eca241,
        type: 3}
      time: 0.04
      eventEnabled: 0
      eventName: 
    - sprite: {fileID: 5724476892712154519, guid: d3d8b81850b3fb2478565c5277eca241,
        type: 3}
      time: 0.04
      eventEnabled: 0
      eventName: 
    - sprite: {fileID: 7052667390310885369, guid: d3d8b81850b3fb2478565c5277eca241,
        type: 3}
      time: 0.04
      eventEnabled: 0
      eventName: 
    - sprite: {fileID: 3018657619005353353, guid: d3d8b81850b3fb2478565c5277eca241,
        type: 3}
      time: 0.04
      eventEnabled: 0
      eventName: 
    - sprite: {fileID: -7287071878249299612, guid: d3d8b81850b3fb2478565c5277eca241,
        type: 3}
      time: 0.04
      eventEnabled: 0
      eventName: 
    - sprite: {fileID: 2522347402467808384, guid: d3d8b81850b3fb2478565c5277eca241,
        type: 3}
      time: 0.04
      eventEnabled: 0
      eventName: 
    - sprite: {fileID: -7961540151881031165, guid: d3d8b81850b3fb2478565c5277eca241,
        type: 3}
      time: 0.04
      eventEnabled: 0
      eventName: 
    - sprite: {fileID: 1908025064558196928, guid: d3d8b81850b3fb2478565c5277eca241,
        type: 3}
      time: 0.04
      eventEnabled: 0
      eventName: 
    - sprite: {fileID: -936880054255596404, guid: d3d8b81850b3fb2478565c5277eca241,
        type: 3}
      time: 0.72
      eventEnabled: 0
      eventName: 
    name: spawn
    selectedIndex: 3
    newFramesTime: 0.05
    setFramesTime: 0.1
