%YAML 1.1
%TAG !u! tag:unity3d.com,2011:
--- !u!114 &11400000
MonoBehaviour:
  m_ObjectHideFlags: 0
  m_CorrespondingSourceObject: {fileID: 0}
  m_PrefabInstance: {fileID: 0}
  m_PrefabAsset: {fileID: 0}
  m_GameObject: {fileID: 0}
  m_Enabled: 1
  m_EditorHideFlags: 0
  m_Script: {fileID: 11500000, guid: 34404cb99b59bb543805a55e3c469d61, type: 3}
  m_Name: silence-bubble
  m_EditorClassIdentifier: 
  editorConfirmations: 1
  animations:
  - speedRatio: 1
    loop: 1
    frameToLoop: 0
    frameDatas:
    - sprite: {fileID: -8043595871190556132, guid: 0c4d2a4a61aed439dbd0525436cd1779,
        type: 3}
      time: 0.06
      eventEnabled: 0
      eventName: 
    - sprite: {fileID: -5533636740177284963, guid: 0c4d2a4a61aed439dbd0525436cd1779,
        type: 3}
      time: 0.03
      eventEnabled: 0
      eventName: 
    - sprite: {fileID: -4655073934876109863, guid: 0c4d2a4a61aed439dbd0525436cd1779,
        type: 3}
      time: 0.03
      eventEnabled: 0
      eventName: 
    - sprite: {fileID: -6780825113378659711, guid: 0c4d2a4a61aed439dbd0525436cd1779,
        type: 3}
      time: 0.03
      eventEnabled: 0
      eventName: 
    - sprite: {fileID: -4230455221776962797, guid: 0c4d2a4a61aed439dbd0525436cd1779,
        type: 3}
      time: 0.03
      eventEnabled: 0
      eventName: 
    name: despawn
    selectedIndex: 0
    newFramesTime: 0.05
    setFramesTime: 0.1
  - speedRatio: 1
    loop: 1
    frameToLoop: 0
    frameDatas:
    - sprite: {fileID: 769121995913599000, guid: 4904088faf4a74cb98317dec16fd4ae3,
        type: 3}
      time: 0
      eventEnabled: 0
      eventName: 
    name: idle
    selectedIndex: 0
    newFramesTime: 0.05
    setFramesTime: 0.1
  - speedRatio: 1
    loop: 1
    frameToLoop: 0
    frameDatas:
    - sprite: {fileID: -1503522582896532466, guid: f0314690cb5d946ac9de9314f850793b,
        type: 3}
      time: 0.06
      eventEnabled: 0
      eventName: 
    - sprite: {fileID: 6326818787273667852, guid: f0314690cb5d946ac9de9314f850793b,
        type: 3}
      time: 0.06
      eventEnabled: 0
      eventName: 
    - sprite: {fileID: 5977762702383131438, guid: f0314690cb5d946ac9de9314f850793b,
        type: 3}
      time: 0.06
      eventEnabled: 0
      eventName: 
    - sprite: {fileID: 6388156903384897202, guid: f0314690cb5d946ac9de9314f850793b,
        type: 3}
      time: 0.06
      eventEnabled: 0
      eventName: 
    - sprite: {fileID: 8003068178268426338, guid: f0314690cb5d946ac9de9314f850793b,
        type: 3}
      time: 0.06
      eventEnabled: 0
      eventName: 
    - sprite: {fileID: 5926149036419239235, guid: f0314690cb5d946ac9de9314f850793b,
        type: 3}
      time: 0.06
      eventEnabled: 0
      eventName: 
    name: spawn
    selectedIndex: 0
    newFramesTime: 0.05
    setFramesTime: 0.1
