%YAML 1.1
%TAG !u! tag:unity3d.com,2011:
--- !u!114 &11400000
MonoBehaviour:
  m_ObjectHideFlags: 0
  m_CorrespondingSourceObject: {fileID: 0}
  m_PrefabInstance: {fileID: 0}
  m_PrefabAsset: {fileID: 0}
  m_GameObject: {fileID: 0}
  m_Enabled: 1
  m_EditorHideFlags: 0
  m_Script: {fileID: 11500000, guid: 34404cb99b59bb543805a55e3c469d61, type: 3}
  m_Name: spell-frame
  m_EditorClassIdentifier: 
  editorConfirmations: 1
  animations:
  - speedRatio: 1
    loop: 1
    frameToLoop: 0
    frameDatas:
    - sprite: {fileID: -4034457780600151578, guid: bdb1108c8da3240f986510315eea3039,
        type: 3}
      time: 0.36
      eventEnabled: 0
      eventName: 
    - sprite: {fileID: -8455069749754027820, guid: bdb1108c8da3240f986510315eea3039,
        type: 3}
      time: 0.06
      eventEnabled: 0
      eventName: 
    - sprite: {fileID: 4837698013265556073, guid: bdb1108c8da3240f986510315eea3039,
        type: 3}
      time: 0.06
      eventEnabled: 0
      eventName: 
    - sprite: {fileID: -5282537172474012264, guid: bdb1108c8da3240f986510315eea3039,
        type: 3}
      time: 0.06
      eventEnabled: 0
      eventName: 
    - sprite: {fileID: 4408916277853843132, guid: bdb1108c8da3240f986510315eea3039,
        type: 3}
      time: 0.06
      eventEnabled: 0
      eventName: 
    - sprite: {fileID: 7914894874575959723, guid: bdb1108c8da3240f986510315eea3039,
        type: 3}
      time: 0.36
      eventEnabled: 0
      eventName: 
    - sprite: {fileID: -8765383682923036887, guid: bdb1108c8da3240f986510315eea3039,
        type: 3}
      time: 0.06
      eventEnabled: 0
      eventName: 
    - sprite: {fileID: 1795914974223047387, guid: bdb1108c8da3240f986510315eea3039,
        type: 3}
      time: 0.06
      eventEnabled: 0
      eventName: 
    - sprite: {fileID: -5844146276464390098, guid: bdb1108c8da3240f986510315eea3039,
        type: 3}
      time: 0.06
      eventEnabled: 0
      eventName: 
    - sprite: {fileID: 7225169663266428568, guid: bdb1108c8da3240f986510315eea3039,
        type: 3}
      time: 0.06
      eventEnabled: 0
      eventName: 
    name: idle
    selectedIndex: 0
    newFramesTime: 0.05
    setFramesTime: 0.1
