%YAML 1.1
%TAG !u! tag:unity3d.com,2011:
--- !u!114 &11400000
MonoBehaviour:
  m_ObjectHideFlags: 0
  m_CorrespondingSourceObject: {fileID: 0}
  m_PrefabInstance: {fileID: 0}
  m_PrefabAsset: {fileID: 0}
  m_GameObject: {fileID: 0}
  m_Enabled: 1
  m_EditorHideFlags: 0
  m_Script: {fileID: 11500000, guid: 34404cb99b59bb543805a55e3c469d61, type: 3}
  m_Name: star-twinkle-3
  m_EditorClassIdentifier: 
  editorConfirmations: 1
  animations:
  - speedRatio: 1
    loop: 0
    frameToLoop: 0
    frameDatas:
    - sprite: {fileID: -6876481973371487079, guid: d1438a42d1583964697cb024859936c0,
        type: 3}
      time: 0.06
      eventEnabled: 0
      eventName: 
    - sprite: {fileID: -603340916183175971, guid: d1438a42d1583964697cb024859936c0,
        type: 3}
      time: 0.06
      eventEnabled: 0
      eventName: 
    - sprite: {fileID: -2007806653478349838, guid: d1438a42d1583964697cb024859936c0,
        type: 3}
      time: 0.06
      eventEnabled: 0
      eventName: 
    - sprite: {fileID: -525644841466519621, guid: d1438a42d1583964697cb024859936c0,
        type: 3}
      time: 0.3
      eventEnabled: 0
      eventName: 
    - sprite: {fileID: 3902072206246878817, guid: d1438a42d1583964697cb024859936c0,
        type: 3}
      time: 0.06
      eventEnabled: 0
      eventName: 
    - sprite: {fileID: -6753295793153992662, guid: d1438a42d1583964697cb024859936c0,
        type: 3}
      time: 0.06
      eventEnabled: 0
      eventName: 
    - sprite: {fileID: 8323251292170944844, guid: d1438a42d1583964697cb024859936c0,
        type: 3}
      time: 0.06
      eventEnabled: 0
      eventName: 
    name: twinkle
    selectedIndex: 6
    newFramesTime: 0.05
    setFramesTime: 0.1
