%YAML 1.1
%TAG !u! tag:unity3d.com,2011:
--- !u!114 &11400000
MonoBehaviour:
  m_ObjectHideFlags: 0
  m_CorrespondingSourceObject: {fileID: 0}
  m_PrefabInstance: {fileID: 0}
  m_PrefabAsset: {fileID: 0}
  m_GameObject: {fileID: 0}
  m_Enabled: 1
  m_EditorHideFlags: 0
  m_Script: {fileID: 11500000, guid: 34404cb99b59bb543805a55e3c469d61, type: 3}
  m_Name: tako-boy
  m_EditorClassIdentifier: 
  editorConfirmations: 1
  animations:
  - speedRatio: 1
    loop: 1
    frameToLoop: 0
    frameDatas:
    - sprite: {fileID: 21300000, guid: b76ca3601c3f14ad8b396183c5b70bc2, type: 3}
      time: 0.04
      eventEnabled: 0
      eventName: 
    - sprite: {fileID: 21300002, guid: b76ca3601c3f14ad8b396183c5b70bc2, type: 3}
      time: 0.04
      eventEnabled: 0
      eventName: 
    - sprite: {fileID: 21300004, guid: b76ca3601c3f14ad8b396183c5b70bc2, type: 3}
      time: 0.04
      eventEnabled: 0
      eventName: 
    - sprite: {fileID: 21300006, guid: b76ca3601c3f14ad8b396183c5b70bc2, type: 3}
      time: 0.04
      eventEnabled: 0
      eventName: 
    - sprite: {fileID: 21300008, guid: b76ca3601c3f14ad8b396183c5b70bc2, type: 3}
      time: 0.04
      eventEnabled: 0
      eventName: 
    - sprite: {fileID: 21300010, guid: b76ca3601c3f14ad8b396183c5b70bc2, type: 3}
      time: 0.04
      eventEnabled: 0
      eventName: 
    - sprite: {fileID: 21300012, guid: b76ca3601c3f14ad8b396183c5b70bc2, type: 3}
      time: 0.04
      eventEnabled: 0
      eventName: 
    - sprite: {fileID: 21300014, guid: b76ca3601c3f14ad8b396183c5b70bc2, type: 3}
      time: 0.04
      eventEnabled: 0
      eventName: 
    - sprite: {fileID: 21300016, guid: b76ca3601c3f14ad8b396183c5b70bc2, type: 3}
      time: 0.04
      eventEnabled: 0
      eventName: 
    - sprite: {fileID: 21300018, guid: b76ca3601c3f14ad8b396183c5b70bc2, type: 3}
      time: 0.04
      eventEnabled: 0
      eventName: 
    - sprite: {fileID: 21300020, guid: b76ca3601c3f14ad8b396183c5b70bc2, type: 3}
      time: 0.04
      eventEnabled: 0
      eventName: 
    - sprite: {fileID: 21300022, guid: b76ca3601c3f14ad8b396183c5b70bc2, type: 3}
      time: 0.04
      eventEnabled: 0
      eventName: 
    - sprite: {fileID: 21300024, guid: b76ca3601c3f14ad8b396183c5b70bc2, type: 3}
      time: 0.04
      eventEnabled: 0
      eventName: 
    - sprite: {fileID: 21300026, guid: b76ca3601c3f14ad8b396183c5b70bc2, type: 3}
      time: 0.04
      eventEnabled: 0
      eventName: 
    - sprite: {fileID: 21300028, guid: b76ca3601c3f14ad8b396183c5b70bc2, type: 3}
      time: 0.04
      eventEnabled: 0
      eventName: 
    name: idle
    selectedIndex: 0
    newFramesTime: 0.05
    setFramesTime: 0.1
