%YAML 1.1
%TAG !u! tag:unity3d.com,2011:
--- !u!114 &11400000
MonoBehaviour:
  m_ObjectHideFlags: 0
  m_CorrespondingSourceObject: {fileID: 0}
  m_PrefabInstance: {fileID: 0}
  m_PrefabAsset: {fileID: 0}
  m_GameObject: {fileID: 0}
  m_Enabled: 1
  m_EditorHideFlags: 0
  m_Script: {fileID: 11500000, guid: 34404cb99b59bb543805a55e3c469d61, type: 3}
  m_Name: transform
  m_EditorClassIdentifier: 
  editorConfirmations: 1
  animations:
  - speedRatio: 1
    loop: 0
    frameToLoop: 0
    frameDatas:
    - sprite: {fileID: -8045888303582858954, guid: b6dab6e33c4b64075a9d1848cbfa5c7b,
        type: 3}
      time: 0.04
      eventEnabled: 0
      eventName: 
    - sprite: {fileID: 157478018301894584, guid: b6dab6e33c4b64075a9d1848cbfa5c7b,
        type: 3}
      time: 0.04
      eventEnabled: 0
      eventName: 
    - sprite: {fileID: -6731429091865040413, guid: b6dab6e33c4b64075a9d1848cbfa5c7b,
        type: 3}
      time: 0.04
      eventEnabled: 0
      eventName: 
    - sprite: {fileID: -6739360154986171517, guid: b6dab6e33c4b64075a9d1848cbfa5c7b,
        type: 3}
      time: 0.04
      eventEnabled: 0
      eventName: 
    - sprite: {fileID: 3124643064580936988, guid: b6dab6e33c4b64075a9d1848cbfa5c7b,
        type: 3}
      time: 0.04
      eventEnabled: 0
      eventName: 
    - sprite: {fileID: 2398447222679693714, guid: b6dab6e33c4b64075a9d1848cbfa5c7b,
        type: 3}
      time: 0.04
      eventEnabled: 0
      eventName: 
    - sprite: {fileID: -7034041926423825694, guid: b6dab6e33c4b64075a9d1848cbfa5c7b,
        type: 3}
      time: 0.04
      eventEnabled: 0
      eventName: 
    - sprite: {fileID: 2885941327641330858, guid: b6dab6e33c4b64075a9d1848cbfa5c7b,
        type: 3}
      time: 0.04
      eventEnabled: 0
      eventName: 
    - sprite: {fileID: 3752856608500205459, guid: b6dab6e33c4b64075a9d1848cbfa5c7b,
        type: 3}
      time: 0.04
      eventEnabled: 0
      eventName: 
    - sprite: {fileID: 2150950282948816716, guid: b6dab6e33c4b64075a9d1848cbfa5c7b,
        type: 3}
      time: 0.04
      eventEnabled: 0
      eventName: 
    - sprite: {fileID: 648793810784469046, guid: b6dab6e33c4b64075a9d1848cbfa5c7b,
        type: 3}
      time: 0.04
      eventEnabled: 0
      eventName: 
    - sprite: {fileID: -6293314521697535922, guid: b6dab6e33c4b64075a9d1848cbfa5c7b,
        type: 3}
      time: 0.04
      eventEnabled: 0
      eventName: 
    - sprite: {fileID: 7773708743036772649, guid: b6dab6e33c4b64075a9d1848cbfa5c7b,
        type: 3}
      time: 0.04
      eventEnabled: 0
      eventName: 
    - sprite: {fileID: 6536639185888088094, guid: b6dab6e33c4b64075a9d1848cbfa5c7b,
        type: 3}
      time: 0.04
      eventEnabled: 0
      eventName: 
    - sprite: {fileID: 21300000, guid: fd49ac06ab59f472699a83cd9ae6e5e3, type: 3}
      time: 0.05
      eventEnabled: 0
      eventName: 
    name: poof
    selectedIndex: 14
    newFramesTime: 0.05
    setFramesTime: 0.1
