%YAML 1.1
%TAG !u! tag:unity3d.com,2011:
--- !u!114 &11400000
MonoBehaviour:
  m_ObjectHideFlags: 0
  m_CorrespondingSourceObject: {fileID: 0}
  m_PrefabInstance: {fileID: 0}
  m_PrefabAsset: {fileID: 0}
  m_GameObject: {fileID: 0}
  m_Enabled: 1
  m_EditorHideFlags: 0
  m_Script: {fileID: 11500000, guid: 34404cb99b59bb543805a55e3c469d61, type: 3}
  m_Name: type-filter-icon
  m_EditorClassIdentifier: 
  editorConfirmations: 1
  animations:
  - speedRatio: 1
    loop: 0
    frameToLoop: 0
    frameDatas:
    - sprite: {fileID: 21300000, guid: 296389c5cb19e4c50bc175f8956696e4, type: 3}
      time: 0.04
      eventEnabled: 0
      eventName: 
    name: all
    selectedIndex: 0
    newFramesTime: 0.05
    setFramesTime: 0.1
  - speedRatio: 1
    loop: 0
    frameToLoop: 0
    frameDatas:
    - sprite: {fileID: 21300000, guid: 58b787a66ee324af79438cb2dabcd709, type: 3}
      time: 0.04
      eventEnabled: 0
      eventName: 
    name: minion
    selectedIndex: 0
    newFramesTime: 0.05
    setFramesTime: 0.1
  - speedRatio: 1
    loop: 0
    frameToLoop: 0
    frameDatas:
    - sprite: {fileID: 21300000, guid: 8076cf01ba1ba46fe83b7995670eff52, type: 3}
      time: 0.04
      eventEnabled: 0
      eventName: 
    name: arcane
    selectedIndex: 0
    newFramesTime: 0.05
    setFramesTime: 0.1
  - speedRatio: 1
    loop: 0
    frameToLoop: 0
    frameDatas:
    - sprite: {fileID: 21300000, guid: a7c657a132b0c43fb860b69e5622d6a7, type: 3}
      time: 0.04
      eventEnabled: 0
      eventName: 
    name: melee
    selectedIndex: 0
    newFramesTime: 0.05
    setFramesTime: 0.1
  - speedRatio: 1
    loop: 0
    frameToLoop: 0
    frameDatas:
    - sprite: {fileID: 21300000, guid: 3610b82971ed14a01b6bf5deafe40f3b, type: 3}
      time: 0.04
      eventEnabled: 0
      eventName: 
    name: ranged
    selectedIndex: 0
    newFramesTime: 0.05
    setFramesTime: 0.1
  - speedRatio: 1
    loop: 0
    frameToLoop: 0
    frameDatas:
    - sprite: {fileID: 21300000, guid: e41eabbec6202406d8f4a4032f64028c, type: 3}
      time: 0.04
      eventEnabled: 0
      eventName: 
    name: power
    selectedIndex: 0
    newFramesTime: 0.05
    setFramesTime: 0.1
  - speedRatio: 1
    loop: 0
    frameToLoop: 0
    frameDatas:
    - sprite: {fileID: 21300000, guid: e2f666c6768994291b3c89bb171f9927, type: 3}
      time: 0.04
      eventEnabled: 0
      eventName: 
    name: spell
    selectedIndex: 0
    newFramesTime: 0.05
    setFramesTime: 0.1
  - speedRatio: 1
    loop: 0
    frameToLoop: 0
    frameDatas:
    - sprite: {fileID: 21300000, guid: 25b626ec780814dd9b2d40b3192de813, type: 3}
      time: 0.04
      eventEnabled: 0
      eventName: 
    name: trick
    selectedIndex: 0
    newFramesTime: 0.05
    setFramesTime: 0.1
  - speedRatio: 1
    loop: 0
    frameToLoop: 0
    frameDatas:
    - sprite: {fileID: 21300000, guid: ed0b5b2739366d84e9760562f095d249, type: 3}
      time: 0.04
      eventEnabled: 0
      eventName: 
    name: ace
    selectedIndex: 0
    newFramesTime: 0.05
    setFramesTime: 0.1
  - speedRatio: 1
    loop: 0
    frameToLoop: 0
    frameDatas:
    - sprite: {fileID: 21300000, guid: 3610b82971ed14a01b6bf5deafe40f3b, type: 3}
      time: 0.04
      eventEnabled: 0
      eventName: 
    name: minion-ranged
    selectedIndex: 0
    newFramesTime: 0.05
    setFramesTime: 0.1
  - speedRatio: 1
    loop: 0
    frameToLoop: 0
    frameDatas:
    - sprite: {fileID: 21300000, guid: 6de6953adaf47b343a9efaf47ae7c43d, type: 3}
      time: 0.04
      eventEnabled: 0
      eventName: 
    name: elder-relic
    selectedIndex: 0
    newFramesTime: 0.05
    setFramesTime: 0.1
  - speedRatio: 1
    loop: 0
    frameToLoop: 0
    frameDatas:
    - sprite: {fileID: 21300000, guid: a7c657a132b0c43fb860b69e5622d6a7, type: 3}
      time: 0.04
      eventEnabled: 0
      eventName: 
    name: minion-melee
    selectedIndex: 0
    newFramesTime: 0.05
    setFramesTime: 0.1
  - speedRatio: 1
    loop: 0
    frameToLoop: 0
    frameDatas:
    - sprite: {fileID: 21300000, guid: 316084199c12510459560a2d6ea0bcac, type: 3}
      time: 0.04
      eventEnabled: 0
      eventName: 
    name: blitz-burst
    selectedIndex: 0
    newFramesTime: 0.05
    setFramesTime: 0.1
  - speedRatio: 1
    loop: 0
    frameToLoop: 0
    frameDatas:
    - sprite: {fileID: 21300000, guid: 8076cf01ba1ba46fe83b7995670eff52, type: 3}
      time: 0.04
      eventEnabled: 0
      eventName: 
    name: minion-arcane
    selectedIndex: 0
    newFramesTime: 0.05
    setFramesTime: 0.1
  - speedRatio: 1
    loop: 0
    frameToLoop: 0
    frameDatas:
    - sprite: {fileID: 21300000, guid: 14ead98867e00d646a91822a13d6e271, type: 3}
      time: 0.04
      eventEnabled: 0
      eventName: 
    name: relic
    selectedIndex: 0
    newFramesTime: 0.05
    setFramesTime: 0.1
