%YAML 1.1
%TAG !u! tag:unity3d.com,2011:
--- !u!114 &11400000
MonoBehaviour:
  m_ObjectHideFlags: 0
  m_CorrespondingSourceObject: {fileID: 0}
  m_PrefabInstance: {fileID: 0}
  m_PrefabAsset: {fileID: 0}
  m_GameObject: {fileID: 0}
  m_Enabled: 1
  m_EditorHideFlags: 0
  m_Script: {fileID: 11500000, guid: 34404cb99b59bb543805a55e3c469d61, type: 3}
  m_Name: vital-birth
  m_EditorClassIdentifier: 
  editorConfirmations: 1
  animations:
  - speedRatio: 1
    loop: 0
    frameToLoop: 0
    frameDatas:
    - sprite: {fileID: -7221531962599711477, guid: f3847701327fe46468bc8aae0a23e8dd,
        type: 3}
      time: 0.04
      eventEnabled: 0
      eventName: 
    - sprite: {fileID: 157608799772525638, guid: f3847701327fe46468bc8aae0a23e8dd,
        type: 3}
      time: 0.04
      eventEnabled: 0
      eventName: 
    - sprite: {fileID: -4088663691167415967, guid: f3847701327fe46468bc8aae0a23e8dd,
        type: 3}
      time: 0.04
      eventEnabled: 0
      eventName: 
    - sprite: {fileID: 3165762602700543663, guid: f3847701327fe46468bc8aae0a23e8dd,
        type: 3}
      time: 0.04
      eventEnabled: 0
      eventName: 
    - sprite: {fileID: 2662057897718097986, guid: f3847701327fe46468bc8aae0a23e8dd,
        type: 3}
      time: 0.04
      eventEnabled: 0
      eventName: 
    - sprite: {fileID: 6987987427469871302, guid: f3847701327fe46468bc8aae0a23e8dd,
        type: 3}
      time: 0.04
      eventEnabled: 0
      eventName: 
    - sprite: {fileID: -7037212816267541354, guid: f3847701327fe46468bc8aae0a23e8dd,
        type: 3}
      time: 0.04
      eventEnabled: 0
      eventName: 
    - sprite: {fileID: -6056132159455463535, guid: f3847701327fe46468bc8aae0a23e8dd,
        type: 3}
      time: 0.04
      eventEnabled: 0
      eventName: 
    - sprite: {fileID: -2996892201337355854, guid: f3847701327fe46468bc8aae0a23e8dd,
        type: 3}
      time: 0.04
      eventEnabled: 0
      eventName: 
    - sprite: {fileID: 6768085312769303549, guid: f3847701327fe46468bc8aae0a23e8dd,
        type: 3}
      time: 0.04
      eventEnabled: 0
      eventName: 
    - sprite: {fileID: -8433896793994893965, guid: f3847701327fe46468bc8aae0a23e8dd,
        type: 3}
      time: 0.04
      eventEnabled: 0
      eventName: 
    - sprite: {fileID: 406223618416427489, guid: f3847701327fe46468bc8aae0a23e8dd,
        type: 3}
      time: 0.04
      eventEnabled: 0
      eventName: 
    - sprite: {fileID: -2280114660131050689, guid: f3847701327fe46468bc8aae0a23e8dd,
        type: 3}
      time: 0.04
      eventEnabled: 0
      eventName: 
    - sprite: {fileID: -3803710075488426491, guid: f3847701327fe46468bc8aae0a23e8dd,
        type: 3}
      time: 0.04
      eventEnabled: 0
      eventName: 
    - sprite: {fileID: 1374481490056304215, guid: f3847701327fe46468bc8aae0a23e8dd,
        type: 3}
      time: 0.04
      eventEnabled: 0
      eventName: 
    - sprite: {fileID: 7597188011752309421, guid: f3847701327fe46468bc8aae0a23e8dd,
        type: 3}
      time: 0.04
      eventEnabled: 0
      eventName: 
    - sprite: {fileID: -4926936873044994159, guid: f3847701327fe46468bc8aae0a23e8dd,
        type: 3}
      time: 0.04
      eventEnabled: 0
      eventName: 
    - sprite: {fileID: -8658236372829865541, guid: f3847701327fe46468bc8aae0a23e8dd,
        type: 3}
      time: 0.04
      eventEnabled: 0
      eventName: 
    - sprite: {fileID: 6392553837068073496, guid: f3847701327fe46468bc8aae0a23e8dd,
        type: 3}
      time: 0.04
      eventEnabled: 0
      eventName: 
    - sprite: {fileID: 5365101481316630957, guid: f3847701327fe46468bc8aae0a23e8dd,
        type: 3}
      time: 0.04
      eventEnabled: 0
      eventName: 
    - sprite: {fileID: 2392221669641833889, guid: f3847701327fe46468bc8aae0a23e8dd,
        type: 3}
      time: 0.04
      eventEnabled: 0
      eventName: 
    - sprite: {fileID: -8121496891416923435, guid: f3847701327fe46468bc8aae0a23e8dd,
        type: 3}
      time: 0.04
      eventEnabled: 0
      eventName: 
    - sprite: {fileID: 7669076790809714714, guid: f3847701327fe46468bc8aae0a23e8dd,
        type: 3}
      time: 0.04
      eventEnabled: 0
      eventName: 
    - sprite: {fileID: -2242757022879328618, guid: f3847701327fe46468bc8aae0a23e8dd,
        type: 3}
      time: 0.04
      eventEnabled: 0
      eventName: 
    - sprite: {fileID: 3023579069358484435, guid: f3847701327fe46468bc8aae0a23e8dd,
        type: 3}
      time: 0.04
      eventEnabled: 0
      eventName: 
    - sprite: {fileID: 7617152390348471424, guid: f3847701327fe46468bc8aae0a23e8dd,
        type: 3}
      time: 0.04
      eventEnabled: 0
      eventName: 
    - sprite: {fileID: 2122023573863945126, guid: f3847701327fe46468bc8aae0a23e8dd,
        type: 3}
      time: 0.04
      eventEnabled: 0
      eventName: 
    - sprite: {fileID: 8231171245191117041, guid: f3847701327fe46468bc8aae0a23e8dd,
        type: 3}
      time: 0.04
      eventEnabled: 0
      eventName: 
    - sprite: {fileID: 3907898486662773710, guid: f3847701327fe46468bc8aae0a23e8dd,
        type: 3}
      time: 0.04
      eventEnabled: 0
      eventName: 
    - sprite: {fileID: -7388415647996796712, guid: f3847701327fe46468bc8aae0a23e8dd,
        type: 3}
      time: 0.04
      eventEnabled: 0
      eventName: 
    - sprite: {fileID: -1433907443307144510, guid: f3847701327fe46468bc8aae0a23e8dd,
        type: 3}
      time: 0.04
      eventEnabled: 0
      eventName: 
    - sprite: {fileID: 458630284241176772, guid: f3847701327fe46468bc8aae0a23e8dd,
        type: 3}
      time: 0.04
      eventEnabled: 0
      eventName: 
    - sprite: {fileID: -3231367586971068691, guid: f3847701327fe46468bc8aae0a23e8dd,
        type: 3}
      time: 0.04
      eventEnabled: 0
      eventName: 
    - sprite: {fileID: -3972523272589679355, guid: f3847701327fe46468bc8aae0a23e8dd,
        type: 3}
      time: 0.04
      eventEnabled: 0
      eventName: 
    - sprite: {fileID: -1281041166611543145, guid: f3847701327fe46468bc8aae0a23e8dd,
        type: 3}
      time: 0.04
      eventEnabled: 0
      eventName: 
    - sprite: {fileID: 21300000, guid: fd49ac06ab59f472699a83cd9ae6e5e3, type: 3}
      time: 0.05
      eventEnabled: 0
      eventName: 
    name: spawn
    selectedIndex: 35
    newFramesTime: 0.05
    setFramesTime: 0.1
