%YAML 1.1
%TAG !u! tag:unity3d.com,2011:
--- !u!114 &11400000
MonoBehaviour:
  m_ObjectHideFlags: 0
  m_CorrespondingSourceObject: {fileID: 0}
  m_PrefabInstance: {fileID: 0}
  m_PrefabAsset: {fileID: 0}
  m_GameObject: {fileID: 0}
  m_Enabled: 1
  m_EditorHideFlags: 0
  m_Script: {fileID: 11500000, guid: 34404cb99b59bb543805a55e3c469d61, type: 3}
  m_Name: void-seeker
  m_EditorClassIdentifier: 
  editorConfirmations: 1
  animations:
  - speedRatio: 1
    loop: 1
    frameToLoop: 0
    frameDatas:
    - sprite: {fileID: -6985135127097467749, guid: 35ea4cb48a3a440609abcac59db11c84,
        type: 3}
      time: 0.04
      eventEnabled: 0
      eventName: 
    - sprite: {fileID: -9086944088734404972, guid: 35ea4cb48a3a440609abcac59db11c84,
        type: 3}
      time: 0.04
      eventEnabled: 0
      eventName: 
    - sprite: {fileID: 1511857581844186065, guid: 35ea4cb48a3a440609abcac59db11c84,
        type: 3}
      time: 0.04
      eventEnabled: 0
      eventName: 
    - sprite: {fileID: 164608956836688039, guid: 35ea4cb48a3a440609abcac59db11c84,
        type: 3}
      time: 0.04
      eventEnabled: 0
      eventName: 
    - sprite: {fileID: 2817733941857488405, guid: 35ea4cb48a3a440609abcac59db11c84,
        type: 3}
      time: 0.04
      eventEnabled: 0
      eventName: 
    - sprite: {fileID: 2319167891450403781, guid: 35ea4cb48a3a440609abcac59db11c84,
        type: 3}
      time: 0.12
      eventEnabled: 0
      eventName: 
    - sprite: {fileID: -3861465210236680470, guid: 35ea4cb48a3a440609abcac59db11c84,
        type: 3}
      time: 0.04
      eventEnabled: 0
      eventName: 
    - sprite: {fileID: -1014476152140010194, guid: 35ea4cb48a3a440609abcac59db11c84,
        type: 3}
      time: 0.04
      eventEnabled: 0
      eventName: 
    - sprite: {fileID: 8268663552067179048, guid: 35ea4cb48a3a440609abcac59db11c84,
        type: 3}
      time: 0.04
      eventEnabled: 0
      eventName: 
    - sprite: {fileID: 5263159540264238281, guid: 35ea4cb48a3a440609abcac59db11c84,
        type: 3}
      time: 0.04
      eventEnabled: 0
      eventName: 
    - sprite: {fileID: 4323185932429308161, guid: 35ea4cb48a3a440609abcac59db11c84,
        type: 3}
      time: 0.04
      eventEnabled: 0
      eventName: 
    - sprite: {fileID: 1117945764798451002, guid: 35ea4cb48a3a440609abcac59db11c84,
        type: 3}
      time: 0.04
      eventEnabled: 0
      eventName: 
    - sprite: {fileID: -6343414506589525429, guid: 35ea4cb48a3a440609abcac59db11c84,
        type: 3}
      time: 0.04
      eventEnabled: 0
      eventName: 
    name: portal-spawn
    selectedIndex: 0
    newFramesTime: 0.05
    setFramesTime: 0.1
  - speedRatio: 1
    loop: 1
    frameToLoop: 0
    frameDatas:
    - sprite: {fileID: -1894117146111184666, guid: bcd638ccdc5044cc2afa79ae6516efcc,
        type: 3}
      time: 0.04
      eventEnabled: 0
      eventName: 
    - sprite: {fileID: 1712285828688014142, guid: bcd638ccdc5044cc2afa79ae6516efcc,
        type: 3}
      time: 0.04
      eventEnabled: 0
      eventName: 
    - sprite: {fileID: -1377033526612566996, guid: bcd638ccdc5044cc2afa79ae6516efcc,
        type: 3}
      time: 0.04
      eventEnabled: 0
      eventName: 
    - sprite: {fileID: -5587722159780690797, guid: bcd638ccdc5044cc2afa79ae6516efcc,
        type: 3}
      time: 0.04
      eventEnabled: 0
      eventName: 
    - sprite: {fileID: -402971331574019029, guid: bcd638ccdc5044cc2afa79ae6516efcc,
        type: 3}
      time: 0.04
      eventEnabled: 0
      eventName: 
    - sprite: {fileID: -8873181844110847339, guid: bcd638ccdc5044cc2afa79ae6516efcc,
        type: 3}
      time: 0.04
      eventEnabled: 0
      eventName: 
    - sprite: {fileID: 6175360175047801634, guid: bcd638ccdc5044cc2afa79ae6516efcc,
        type: 3}
      time: 0.04
      eventEnabled: 0
      eventName: 
    - sprite: {fileID: 7446533204639315852, guid: bcd638ccdc5044cc2afa79ae6516efcc,
        type: 3}
      time: 0.04
      eventEnabled: 0
      eventName: 
    - sprite: {fileID: -6939804452831680014, guid: bcd638ccdc5044cc2afa79ae6516efcc,
        type: 3}
      time: 0.04
      eventEnabled: 0
      eventName: 
    - sprite: {fileID: -2054596148086404469, guid: bcd638ccdc5044cc2afa79ae6516efcc,
        type: 3}
      time: 0.04
      eventEnabled: 0
      eventName: 
    - sprite: {fileID: -7597219369780147998, guid: bcd638ccdc5044cc2afa79ae6516efcc,
        type: 3}
      time: 0.04
      eventEnabled: 0
      eventName: 
    - sprite: {fileID: 8796717200716099097, guid: bcd638ccdc5044cc2afa79ae6516efcc,
        type: 3}
      time: 0.04
      eventEnabled: 0
      eventName: 
    name: portal-idle
    selectedIndex: 0
    newFramesTime: 0.05
    setFramesTime: 0.1
