%YAML 1.1
%TAG !u! tag:unity3d.com,2011:
--- !u!114 &11400000
MonoBehaviour:
  m_ObjectHideFlags: 0
  m_CorrespondingSourceObject: {fileID: 0}
  m_PrefabInstance: {fileID: 0}
  m_PrefabAsset: {fileID: 0}
  m_GameObject: {fileID: 0}
  m_Enabled: 1
  m_EditorHideFlags: 0
  m_Script: {fileID: 11500000, guid: 34404cb99b59bb543805a55e3c469d61, type: 3}
  m_Name: wait-bubble
  m_EditorClassIdentifier: 
  editorConfirmations: 1
  animations:
  - speedRatio: 1
    loop: 0
    frameToLoop: 0
    frameDatas:
    - sprite: {fileID: 8932339367753598683, guid: 23bf7f024381f4b6ba5661ae8eab8b20,
        type: 3}
      time: 0.04
      eventEnabled: 0
      eventName: 
    - sprite: {fileID: -8028390211420545787, guid: 23bf7f024381f4b6ba5661ae8eab8b20,
        type: 3}
      time: 0.04
      eventEnabled: 0
      eventName: 
    - sprite: {fileID: 8314631283560998271, guid: 23bf7f024381f4b6ba5661ae8eab8b20,
        type: 3}
      time: 0.04
      eventEnabled: 0
      eventName: 
    name: despawn
    selectedIndex: 0
    newFramesTime: 0.05
    setFramesTime: 0.1
  - speedRatio: 1
    loop: 1
    frameToLoop: 0
    frameDatas:
    - sprite: {fileID: 2695701086645730778, guid: b542bb2afed4d4656b4a5e15fe708a6c,
        type: 3}
      time: 0.3
      eventEnabled: 0
      eventName: 
    - sprite: {fileID: -2181905985742569025, guid: b542bb2afed4d4656b4a5e15fe708a6c,
        type: 3}
      time: 0.06
      eventEnabled: 0
      eventName: 
    - sprite: {fileID: 985909943095820940, guid: b542bb2afed4d4656b4a5e15fe708a6c,
        type: 3}
      time: 0.06
      eventEnabled: 0
      eventName: 
    - sprite: {fileID: -4559508158218098645, guid: b542bb2afed4d4656b4a5e15fe708a6c,
        type: 3}
      time: 0.6
      eventEnabled: 0
      eventName: 
    - sprite: {fileID: 7613165342387307379, guid: b542bb2afed4d4656b4a5e15fe708a6c,
        type: 3}
      time: 0.06
      eventEnabled: 0
      eventName: 
    - sprite: {fileID: -2518596985646311048, guid: b542bb2afed4d4656b4a5e15fe708a6c,
        type: 3}
      time: 0.06
      eventEnabled: 0
      eventName: 
    name: idle
    selectedIndex: 0
    newFramesTime: 0.05
    setFramesTime: 0.1
  - speedRatio: 1
    loop: 0
    frameToLoop: 0
    frameDatas:
    - sprite: {fileID: -9137067643123034898, guid: 559ec1aab09bd4912b07c4a77fc57b87,
        type: 3}
      time: 0.04
      eventEnabled: 0
      eventName: 
    - sprite: {fileID: 3665711197001930824, guid: 559ec1aab09bd4912b07c4a77fc57b87,
        type: 3}
      time: 0.04
      eventEnabled: 0
      eventName: 
    - sprite: {fileID: 7558927367232106723, guid: 559ec1aab09bd4912b07c4a77fc57b87,
        type: 3}
      time: 0.04
      eventEnabled: 0
      eventName: 
    name: spawn
    selectedIndex: 0
    newFramesTime: 0.05
    setFramesTime: 0.1
