%YAML 1.1
%TAG !u! tag:unity3d.com,2011:
--- !u!114 &11400000
MonoBehaviour:
  m_ObjectHideFlags: 0
  m_CorrespondingSourceObject: {fileID: 0}
  m_PrefabInstance: {fileID: 0}
  m_PrefabAsset: {fileID: 0}
  m_GameObject: {fileID: 0}
  m_Enabled: 1
  m_EditorHideFlags: 0
  m_Script: {fileID: 11500000, guid: 34404cb99b59bb543805a55e3c469d61, type: 3}
  m_Name: zc-class-icon
  m_EditorClassIdentifier: 
  editorConfirmations: 1
  animations:
  - speedRatio: 1
    loop: 1
    frameToLoop: 0
    frameDatas:
    - sprite: {fileID: 21300000, guid: fdf2f7829ba104ec6a2cbed877fae205, type: 3}
      time: 0.06
      eventEnabled: 0
      eventName: 
    name: beast
    selectedIndex: 0
    newFramesTime: 0.05
    setFramesTime: 0.1
  - speedRatio: 1
    loop: 1
    frameToLoop: 0
    frameDatas:
    - sprite: {fileID: 21300000, guid: b4c1c6b927010412f89de6b443ca018d, type: 3}
      time: 0.06
      eventEnabled: 0
      eventName: 
    name: champion
    selectedIndex: 0
    newFramesTime: 0.05
    setFramesTime: 0.1
  - speedRatio: 1
    loop: 1
    frameToLoop: 0
    frameDatas:
    - sprite: {fileID: 21300000, guid: 36e903f50227347bf97fc988f4356853, type: 3}
      time: 0.06
      eventEnabled: 0
      eventName: 
    name: demon
    selectedIndex: 0
    newFramesTime: 0.05
    setFramesTime: 0.1
  - speedRatio: 1
    loop: 1
    frameToLoop: 0
    frameDatas:
    - sprite: {fileID: 21300000, guid: 4d627efec171e4b37a3901cda6732e40, type: 3}
      time: 0.06
      eventEnabled: 0
      eventName: 
    name: dragon
    selectedIndex: 0
    newFramesTime: 0.05
    setFramesTime: 0.1
  - speedRatio: 1
    loop: 1
    frameToLoop: 0
    frameDatas:
    - sprite: {fileID: 21300000, guid: 063535dbffe624530a8bbb18a1fdc665, type: 3}
      time: 0.06
      eventEnabled: 0
      eventName: 
    name: elemental
    selectedIndex: 0
    newFramesTime: 0.05
    setFramesTime: 0.1
  - speedRatio: 1
    loop: 1
    frameToLoop: 0
    frameDatas:
    - sprite: {fileID: 21300000, guid: eb386b886f38043989900b5cd8145ace, type: 3}
      time: 0.06
      eventEnabled: 0
      eventName: 
    name: golem
    selectedIndex: 0
    newFramesTime: 0.05
    setFramesTime: 0.1
  - speedRatio: 1
    loop: 1
    frameToLoop: 0
    frameDatas:
    - sprite: {fileID: 21300000, guid: b19d8ec64bdf941eca47b8a3f90d7059, type: 3}
      time: 0.06
      eventEnabled: 0
      eventName: 
    name: mage
    selectedIndex: 0
    newFramesTime: 0.05
    setFramesTime: 0.1
  - speedRatio: 1
    loop: 1
    frameToLoop: 0
    frameDatas:
    - sprite: {fileID: 21300000, guid: 11639d14bca764bb383909befbc4b3b4, type: 3}
      time: 0.06
      eventEnabled: 0
      eventName: 
    name: pirate
    selectedIndex: 0
    newFramesTime: 0.05
    setFramesTime: 0.1
  - speedRatio: 1
    loop: 1
    frameToLoop: 0
    frameDatas:
    - sprite: {fileID: 21300000, guid: 044e0d857d224491a84a1353187c436d, type: 3}
      time: 0.06
      eventEnabled: 0
      eventName: 
    name: wildling
    selectedIndex: 0
    newFramesTime: 0.05
    setFramesTime: 0.1
