%YAML 1.1
%TAG !u! tag:unity3d.com,2011:
--- !u!114 &11400000
MonoBehaviour:
  m_ObjectHideFlags: 0
  m_CorrespondingSourceObject: {fileID: 0}
  m_PrefabInstance: {fileID: 0}
  m_PrefabAsset: {fileID: 0}
  m_GameObject: {fileID: 0}
  m_Enabled: 1
  m_EditorHideFlags: 0
  m_Script: {fileID: 11500000, guid: 34404cb99b59bb543805a55e3c469d61, type: 3}
  m_Name: zc-rarity-icon
  m_EditorClassIdentifier: 
  editorConfirmations: 1
  animations:
  - speedRatio: 1
    loop: 0
    frameToLoop: 0
    frameDatas:
    - sprite: {fileID: 21300000, guid: 527015221313943258fed9041e038b23, type: 3}
      time: 0.06
      eventEnabled: 0
      eventName: 
    name: common
    selectedIndex: 0
    newFramesTime: 0.05
    setFramesTime: 0.1
  - speedRatio: 1
    loop: 0
    frameToLoop: 0
    frameDatas:
    - sprite: {fileID: 21300000, guid: b594a530c72b547c08ed877bf87e9982, type: 3}
      time: 0.06
      eventEnabled: 0
      eventName: 
    name: legendary
    selectedIndex: 0
    newFramesTime: 0.05
    setFramesTime: 0.1
  - speedRatio: 1
    loop: 0
    frameToLoop: 0
    frameDatas:
    - sprite: {fileID: 21300000, guid: 456a07fc3c65546f1aa867c6c539ed44, type: 3}
      time: 0.06
      eventEnabled: 0
      eventName: 
    name: mythic
    selectedIndex: 0
    newFramesTime: 0.05
    setFramesTime: 0.1
  - speedRatio: 1
    loop: 0
    frameToLoop: 0
    frameDatas:
    - sprite: {fileID: 21300000, guid: 5ea20eece6694461fa15dc27b8a340f3, type: 3}
      time: 0.06
      eventEnabled: 0
      eventName: 
    name: rare
    selectedIndex: 0
    newFramesTime: 0.05
    setFramesTime: 0.1
