%YAML 1.1
%TAG !u! tag:unity3d.com,2011:
--- !u!114 &11400000
MonoBehaviour:
  m_ObjectHideFlags: 0
  m_CorrespondingSourceObject: {fileID: 0}
  m_PrefabInstance: {fileID: 0}
  m_PrefabAsset: {fileID: 0}
  m_GameObject: {fileID: 0}
  m_Enabled: 1
  m_EditorHideFlags: 0
  m_Script: {fileID: 11500000, guid: 34404cb99b59bb543805a55e3c469d61, type: 3}
  m_Name: zoom-card-jelly-transform
  m_EditorClassIdentifier: 
  editorConfirmations: 1
  animations:
  - speedRatio: 1
    loop: 0
    frameToLoop: 0
    frameDatas:
    - sprite: {fileID: -1499877519445290482, guid: feccf0ca1df444d989f02df7323360f5,
        type: 3}
      time: 0.04
      eventEnabled: 0
      eventName: 
    - sprite: {fileID: -1060350403249546388, guid: feccf0ca1df444d989f02df7323360f5,
        type: 3}
      time: 0.04
      eventEnabled: 0
      eventName: 
    - sprite: {fileID: -4805818398022299660, guid: feccf0ca1df444d989f02df7323360f5,
        type: 3}
      time: 0.04
      eventEnabled: 0
      eventName: 
    - sprite: {fileID: 489863328568309163, guid: feccf0ca1df444d989f02df7323360f5,
        type: 3}
      time: 0.04
      eventEnabled: 0
      eventName: 
    - sprite: {fileID: -7918813123645876012, guid: feccf0ca1df444d989f02df7323360f5,
        type: 3}
      time: 0.04
      eventEnabled: 0
      eventName: 
    - sprite: {fileID: -2370513992678250900, guid: feccf0ca1df444d989f02df7323360f5,
        type: 3}
      time: 0.04
      eventEnabled: 0
      eventName: 
    - sprite: {fileID: -2338564179731099546, guid: feccf0ca1df444d989f02df7323360f5,
        type: 3}
      time: 0.3
      eventEnabled: 0
      eventName: 
    name: minion
    selectedIndex: 6
    newFramesTime: 0.05
    setFramesTime: 0.1
  - speedRatio: 1
    loop: 0
    frameToLoop: 0
    frameDatas:
    - sprite: {fileID: 1728669611416373532, guid: 47d43aa0f2d4542f2b427b46d7e5b238,
        type: 3}
      time: 0.04
      eventEnabled: 0
      eventName: 
    - sprite: {fileID: -6076791766439398003, guid: 47d43aa0f2d4542f2b427b46d7e5b238,
        type: 3}
      time: 0.04
      eventEnabled: 0
      eventName: 
    - sprite: {fileID: -2354881272995015250, guid: 47d43aa0f2d4542f2b427b46d7e5b238,
        type: 3}
      time: 0.04
      eventEnabled: 0
      eventName: 
    - sprite: {fileID: 6881383427465693935, guid: 47d43aa0f2d4542f2b427b46d7e5b238,
        type: 3}
      time: 0.04
      eventEnabled: 0
      eventName: 
    - sprite: {fileID: 5456318184919744184, guid: 47d43aa0f2d4542f2b427b46d7e5b238,
        type: 3}
      time: 0.04
      eventEnabled: 0
      eventName: 
    - sprite: {fileID: -2711033704645188123, guid: 47d43aa0f2d4542f2b427b46d7e5b238,
        type: 3}
      time: 0.04
      eventEnabled: 0
      eventName: 
    - sprite: {fileID: 7807876547851969473, guid: 47d43aa0f2d4542f2b427b46d7e5b238,
        type: 3}
      time: 0.3
      eventEnabled: 0
      eventName: 
    name: spell
    selectedIndex: 6
    newFramesTime: 0.05
    setFramesTime: 0.1
  - speedRatio: 1
    loop: 0
    frameToLoop: 0
    frameDatas:
    - sprite: {fileID: -6280282131060500033, guid: 4a51de4aa80a84799914dc61537a1934,
        type: 3}
      time: 0.04
      eventEnabled: 0
      eventName: 
    - sprite: {fileID: -3459007186662040440, guid: 4a51de4aa80a84799914dc61537a1934,
        type: 3}
      time: 0.04
      eventEnabled: 0
      eventName: 
    - sprite: {fileID: 6431624912592397262, guid: 4a51de4aa80a84799914dc61537a1934,
        type: 3}
      time: 0.04
      eventEnabled: 0
      eventName: 
    - sprite: {fileID: 2629419453215381899, guid: 4a51de4aa80a84799914dc61537a1934,
        type: 3}
      time: 0.04
      eventEnabled: 0
      eventName: 
    - sprite: {fileID: 2274397549738647554, guid: 4a51de4aa80a84799914dc61537a1934,
        type: 3}
      time: 0.04
      eventEnabled: 0
      eventName: 
    - sprite: {fileID: 4535849525117856288, guid: 4a51de4aa80a84799914dc61537a1934,
        type: 3}
      time: 0.04
      eventEnabled: 0
      eventName: 
    - sprite: {fileID: 1784126247235991154, guid: 4a51de4aa80a84799914dc61537a1934,
        type: 3}
      time: 0.3
      eventEnabled: 0
      eventName: 
    name: trick
    selectedIndex: 6
    newFramesTime: 0.05
    setFramesTime: 0.1
