%YAML 1.1
%TAG !u! tag:unity3d.com,2011:
--- !u!114 &11400000
MonoBehaviour:
  m_ObjectHideFlags: 0
  m_CorrespondingSourceObject: {fileID: 0}
  m_PrefabInstance: {fileID: 0}
  m_PrefabAsset: {fileID: 0}
  m_GameObject: {fileID: 0}
  m_Enabled: 1
  m_EditorHideFlags: 0
  m_Script: {fileID: 11500000, guid: bbb281ee3bf0b054c82ac2347e9e782c, type: 3}
  m_Name: Default Local Group
  m_EditorClassIdentifier: 
  m_GroupName: Default Local Group
  m_Data:
    m_SerializedData: []
  m_GUID: f4b54e711467541caa06299593dfe905
  m_SerializeEntries:
  - m_GUID: 0b47c84d15e814661a0403932d361d24
    m_Address: AbilityIcon
    m_ReadOnly: 0
    m_SerializedLabels: []
    m_MainAsset: {fileID: 0}
    m_TargetAsset: {fileID: 0}
  - m_GUID: 0b6653b83808c469daa4cc15da8243d4
    m_Address: player-emblem@violet
    m_ReadOnly: 0
    m_SerializedLabels: []
    m_MainAsset: {fileID: 0}
    m_TargetAsset: {fileID: 0}
  - m_GUID: 0c126977f00924691b2747c9d9e029b4
    m_Address: SpellTargetEffect
    m_ReadOnly: 0
    m_SerializedLabels: []
    m_MainAsset: {fileID: 0}
    m_TargetAsset: {fileID: 0}
  - m_GUID: 16adba8d5c4a241dcb2d53ca446d5653
    m_Address: MultiplayerLobbyScreen
    m_ReadOnly: 0
    m_SerializedLabels: []
    m_MainAsset: {fileID: 0}
    m_TargetAsset: {fileID: 0}
  - m_GUID: 2d10dd968ad2148148992dc054407d96
    m_Address: CardUseEffect
    m_ReadOnly: 0
    m_SerializedLabels: []
    m_MainAsset: {fileID: 0}
    m_TargetAsset: {fileID: 0}
  - m_GUID: 2e105a7674d944f5aa73b32a209b9f30
    m_Address: Card_Zoomed
    m_ReadOnly: 0
    m_SerializedLabels: []
    m_MainAsset: {fileID: 0}
    m_TargetAsset: {fileID: 0}
  - m_GUID: 32e01bef9c167457393920cd40a13f81
    m_Address: VsScreen
    m_ReadOnly: 0
    m_SerializedLabels: []
    m_MainAsset: {fileID: 0}
    m_TargetAsset: {fileID: 0}
  - m_GUID: 3a79ca0a60bf341aa9f98ccb29f6a922
    m_Address: AccountScreen
    m_ReadOnly: 0
    m_SerializedLabels: []
    m_MainAsset: {fileID: 0}
    m_TargetAsset: {fileID: 0}
  - m_GUID: 3aa253b3406b04264a172313a7bc2ef5
    m_Address: PlayerStatsWindow
    m_ReadOnly: 0
    m_SerializedLabels: []
    m_MainAsset: {fileID: 0}
    m_TargetAsset: {fileID: 0}
  - m_GUID: 3eb2b764f2a68483793c5a5a81b7b469
    m_Address: RewardChestDragIcon
    m_ReadOnly: 0
    m_SerializedLabels: []
    m_MainAsset: {fileID: 0}
    m_TargetAsset: {fileID: 0}
  - m_GUID: 3fe3d3871396b43e9bff2e6b124b389f
    m_Address: ChestTokenWindow
    m_ReadOnly: 0
    m_SerializedLabels: []
    m_MainAsset: {fileID: 0}
    m_TargetAsset: {fileID: 0}
  - m_GUID: 414ebab7a372f4d68b04c32f82221701
    m_Address: player-emblem@mereena
    m_ReadOnly: 0
    m_SerializedLabels: []
    m_MainAsset: {fileID: 0}
    m_TargetAsset: {fileID: 0}
  - m_GUID: 4686c498feae84614a0c6acc84483a93
    m_Address: MinionSpawnEffect
    m_ReadOnly: 0
    m_SerializedLabels: []
    m_MainAsset: {fileID: 0}
    m_TargetAsset: {fileID: 0}
  - m_GUID: 49be77358b2704285bab3811775aca54
    m_Address: skeleton-emblem
    m_ReadOnly: 0
    m_SerializedLabels: []
    m_MainAsset: {fileID: 0}
    m_TargetAsset: {fileID: 0}
  - m_GUID: 4b691a49ae31e493f838b44790c502c9
    m_Address: AttackEffect
    m_ReadOnly: 0
    m_SerializedLabels: []
    m_MainAsset: {fileID: 0}
    m_TargetAsset: {fileID: 0}
  - m_GUID: 5ca9e361e78344a28a514b1d01f6c4ed
    m_Address: player-emblem@quill
    m_ReadOnly: 0
    m_SerializedLabels: []
    m_MainAsset: {fileID: 0}
    m_TargetAsset: {fileID: 0}
  - m_GUID: 613fe0c54c07e4ba99c23a245a9fcaf3
    m_Address: Card_Board
    m_ReadOnly: 0
    m_SerializedLabels: []
    m_MainAsset: {fileID: 0}
    m_TargetAsset: {fileID: 0}
  - m_GUID: 758bd1c2823b8475e803da4aebfdff8b
    m_Address: Card_DeckView
    m_ReadOnly: 0
    m_SerializedLabels: []
    m_MainAsset: {fileID: 0}
    m_TargetAsset: {fileID: 0}
  - m_GUID: 873002a42ce4d4c81b17c8854dc6af16
    m_Address: SpinBladeVfx
    m_ReadOnly: 0
    m_SerializedLabels: []
    m_MainAsset: {fileID: 0}
    m_TargetAsset: {fileID: 0}
  - m_GUID: 92c880bfe6e154830b8fdf84829bacba
    m_Address: default-player-emblem
    m_ReadOnly: 0
    m_SerializedLabels: []
    m_MainAsset: {fileID: 0}
    m_TargetAsset: {fileID: 0}
  - m_GUID: 9519c51ff5ed146f9b4f7719f297c007
    m_Address: ScreenNavigationPopup
    m_ReadOnly: 0
    m_SerializedLabels: []
    m_MainAsset: {fileID: 0}
    m_TargetAsset: {fileID: 0}
  - m_GUID: 983696a329b5343ee8910a3ec8f681da
    m_Address: DamageEffect
    m_ReadOnly: 0
    m_SerializedLabels: []
    m_MainAsset: {fileID: 0}
    m_TargetAsset: {fileID: 0}
  - m_GUID: a33986418c3c940cf88dd10c101eceac
    m_Address: Tooltip
    m_ReadOnly: 0
    m_SerializedLabels: []
    m_MainAsset: {fileID: 0}
    m_TargetAsset: {fileID: 0}
  - m_GUID: a591ec1e1cec74ab8824bdda94c7547d
    m_Address: GameplayScreen
    m_ReadOnly: 0
    m_SerializedLabels: []
    m_MainAsset: {fileID: 0}
    m_TargetAsset: {fileID: 0}
  - m_GUID: acdf8885ebf3044919fb5104db8169b7
    m_Address: violet-portrait-cropped
    m_ReadOnly: 0
    m_SerializedLabels: []
    m_MainAsset: {fileID: 0}
    m_TargetAsset: {fileID: 0}
  - m_GUID: c17ed28e47aaf4adeb9671f68f00368f
    m_Address: Card_Standard
    m_ReadOnly: 0
    m_SerializedLabels: []
    m_MainAsset: {fileID: 0}
    m_TargetAsset: {fileID: 0}
  - m_GUID: c4fe7cfb5afa04fe08912c3505c6e7ea
    m_Address: GenericAbilityEffect
    m_ReadOnly: 0
    m_SerializedLabels: []
    m_MainAsset: {fileID: 0}
    m_TargetAsset: {fileID: 0}
  - m_GUID: ce645bd56b0fe4ff3aea5b6af11d295a
    m_Address: BattlecryEffect
    m_ReadOnly: 0
    m_SerializedLabels: []
    m_MainAsset: {fileID: 0}
    m_TargetAsset: {fileID: 0}
  - m_GUID: d05a1b4d5e4dc40c89587f073dc346f4
    m_Address: DeathEffect
    m_ReadOnly: 0
    m_SerializedLabels: []
    m_MainAsset: {fileID: 0}
    m_TargetAsset: {fileID: 0}
  - m_GUID: dafafd8120126407ebab5cd52f9106ee
    m_Address: RewardScreen
    m_ReadOnly: 0
    m_SerializedLabels: []
    m_MainAsset: {fileID: 0}
    m_TargetAsset: {fileID: 0}
  - m_GUID: db66c4515356a42a9ba22ca4af598c19
    m_Address: DeckViewItem
    m_ReadOnly: 0
    m_SerializedLabels: []
    m_MainAsset: {fileID: 0}
    m_TargetAsset: {fileID: 0}
  - m_GUID: e04b5505ca37c41a59ad897cf81ebafe
    m_Address: DeckView
    m_ReadOnly: 0
    m_SerializedLabels: []
    m_MainAsset: {fileID: 0}
    m_TargetAsset: {fileID: 0}
  - m_GUID: ea15870c48e704e539fcf7d01a79f3a0
    m_Address: player-emblem@seto
    m_ReadOnly: 0
    m_SerializedLabels: []
    m_MainAsset: {fileID: 0}
    m_TargetAsset: {fileID: 0}
  - m_GUID: f2480241a6b2c4fe892454db86f02ac5
    m_Address: TitleScreen
    m_ReadOnly: 0
    m_SerializedLabels: []
    m_MainAsset: {fileID: 0}
    m_TargetAsset: {fileID: 0}
  - m_GUID: ab75498043a32481b9d237cdc9860227
    m_Address: cards-atlas
    m_ReadOnly: 0
    m_SerializedLabels: []
    m_MainAsset: {fileID: 0}
    m_TargetAsset: {fileID: 0}
  - m_GUID: fb126f5e0c80c49eb931b6848544a12d
    m_Address: redcroft-emblem
    m_ReadOnly: 0
    m_SerializedLabels: []
    m_MainAsset: {fileID: 0}
    m_TargetAsset: {fileID: 0}
  - m_GUID: ffe06f812dfc14b169b45dfa751d32b4
    m_Address: MulliganCrossEffect
    m_ReadOnly: 0
    m_SerializedLabels: []
    m_MainAsset: {fileID: 0}
    m_TargetAsset: {fileID: 0}
  - m_GUID: 10e673ca8e5eb410b86d68448dfc1ab9
    m_Address: GrantArmorEffect
    m_ReadOnly: 0
    m_SerializedLabels: []
    m_MainAsset: {fileID: 0}
    m_TargetAsset: {fileID: 0}
  - m_GUID: 89b02d11fa2134e54977c7498b27ce6d
    m_Address: EliminateEffect
    m_ReadOnly: 0
    m_SerializedLabels: []
    m_MainAsset: {fileID: 0}
    m_TargetAsset: {fileID: 0}
  - m_GUID: 0f568ed1ec0a247dfbcaeb6e0326c207
    m_Address: BloodSummonEffect
    m_ReadOnly: 0
    m_SerializedLabels: []
    m_MainAsset: {fileID: 0}
    m_TargetAsset: {fileID: 0}
  - m_GUID: fd477a3e3b05f4fe5b4745f1275b2ab6
    m_Address: Title
    m_ReadOnly: 0
    m_SerializedLabels: []
    m_MainAsset: {fileID: 0}
    m_TargetAsset: {fileID: 0}
  - m_GUID: 94f7c44df66ac43b68c1380db8941ee0
    m_Address: GameLobby
    m_ReadOnly: 0
    m_SerializedLabels: []
    m_MainAsset: {fileID: 0}
    m_TargetAsset: {fileID: 0}
  - m_GUID: 81d712be7b0074833b9ca964c5f755aa
    m_Address: Game
    m_ReadOnly: 0
    m_SerializedLabels: []
    m_MainAsset: {fileID: 0}
    m_TargetAsset: {fileID: 0}
  - m_GUID: ad4cbc80356a048039f4ef223fe1a337
    m_Address: DeckViewer
    m_ReadOnly: 0
    m_SerializedLabels: []
    m_MainAsset: {fileID: 0}
    m_TargetAsset: {fileID: 0}
  - m_GUID: 3ec918e5bc436473ab4e725411fa8aa3
    m_Address: Collection
    m_ReadOnly: 0
    m_SerializedLabels: []
    m_MainAsset: {fileID: 0}
    m_TargetAsset: {fileID: 0}
  - m_GUID: 576241d55ad3547f8861ff4ea76d00b4
    m_Address: FablesMap
    m_ReadOnly: 0
    m_SerializedLabels: []
    m_MainAsset: {fileID: 0}
    m_TargetAsset: {fileID: 0}
  - m_GUID: 07d79c0954d744833b25e825f7ce23e0
    m_Address: Tools
    m_ReadOnly: 0
    m_SerializedLabels: []
    m_MainAsset: {fileID: 0}
    m_TargetAsset: {fileID: 0}
  - m_GUID: 9a4005e42502d4e6bbe4620b6ef3608e
    m_Address: CutsceneLocation-Beach
    m_ReadOnly: 0
    m_SerializedLabels: []
    m_MainAsset: {fileID: 0}
    m_TargetAsset: {fileID: 0}
  - m_GUID: 258aba78f63d1488c89967dff8a71365
    m_Address: Paths/RedcroftPaths
    m_ReadOnly: 0
    m_SerializedLabels: []
    m_MainAsset: {fileID: 0}
    m_TargetAsset: {fileID: 0}
  - m_GUID: b904ad55fd8fd4f74a5ac28f410491cc
    m_Address: CardTransformEffect
    m_ReadOnly: 0
    m_SerializedLabels: []
    m_MainAsset: {fileID: 0}
    m_TargetAsset: {fileID: 0}
  - m_GUID: d0f4c8169522e4359818e7dd598b9ae8
    m_Address: ToughEffect
    m_ReadOnly: 0
    m_SerializedLabels: []
    m_MainAsset: {fileID: 0}
    m_TargetAsset: {fileID: 0}
  - m_GUID: 2eba63eca18c04d0f949a16a3cd1dbe0
    m_Address: BarrierEffect
    m_ReadOnly: 0
    m_SerializedLabels: []
    m_MainAsset: {fileID: 0}
    m_TargetAsset: {fileID: 0}
  - m_GUID: 1c093abe7d7af472fab8dd7ab84e5bce
    m_Address: WhipDamageEffect
    m_ReadOnly: 0
    m_SerializedLabels: []
    m_MainAsset: {fileID: 0}
    m_TargetAsset: {fileID: 0}
  - m_GUID: 705e5f5284f614e80a9bcd53f4a6e2ac
    m_Address: ModifyHealthAndPowerEffect
    m_ReadOnly: 0
    m_SerializedLabels: []
    m_MainAsset: {fileID: 0}
    m_TargetAsset: {fileID: 0}
  - m_GUID: 786bff1e25e704839991914eb66dceca
    m_Address: SlashDamageEffect
    m_ReadOnly: 0
    m_SerializedLabels: []
    m_MainAsset: {fileID: 0}
    m_TargetAsset: {fileID: 0}
  - m_GUID: a438bdde447a849fb849b9dfdd56cec0
    m_Address: SlimeSummonEffect
    m_ReadOnly: 0
    m_SerializedLabels: []
    m_MainAsset: {fileID: 0}
    m_TargetAsset: {fileID: 0}
  - m_GUID: d2f95ed2d1d744e0cad601d6cfcb8553
    m_Address: GreenSummonEffect
    m_ReadOnly: 0
    m_SerializedLabels: []
    m_MainAsset: {fileID: 0}
    m_TargetAsset: {fileID: 0}
  - m_GUID: 64bd3434fad6c4271a6c3c7fbbed5cc4
    m_Address: WorldMap
    m_ReadOnly: 0
    m_SerializedLabels: []
    m_MainAsset: {fileID: 0}
    m_TargetAsset: {fileID: 0}
  - m_GUID: bde6ead6b8cd04bbba5220ac1637613f
    m_Address: CutsceneLocation-SunsetValley
    m_ReadOnly: 0
    m_SerializedLabels: []
    m_MainAsset: {fileID: 0}
    m_TargetAsset: {fileID: 0}
  - m_GUID: 1bbe166e5926e47f988939b30fe34a1f
    m_Address: MainMenu
    m_ReadOnly: 0
    m_SerializedLabels: []
    m_MainAsset: {fileID: 0}
    m_TargetAsset: {fileID: 0}
  - m_GUID: 5bf67656fedec40f9890d5d34c6d4b2e
    m_Address: ThornsEffect
    m_ReadOnly: 0
    m_SerializedLabels: []
    m_MainAsset: {fileID: 0}
    m_TargetAsset: {fileID: 0}
  - m_GUID: fb0e4cb3fa058464cb1c78ee41e35647
    m_Address: FrostShotEffect
    m_ReadOnly: 0
    m_SerializedLabels: []
    m_MainAsset: {fileID: 0}
    m_TargetAsset: {fileID: 0}
  - m_GUID: 957d1eedc42684a96ae8be90b54fcf74
    m_Address: FreezeEffect
    m_ReadOnly: 0
    m_SerializedLabels: []
    m_MainAsset: {fileID: 0}
    m_TargetAsset: {fileID: 0}
  - m_GUID: 4b8c2f236d39a418cbdd14b3a85bdf14
    m_Address: FableCharacterSelect
    m_ReadOnly: 0
    m_SerializedLabels: []
    m_MainAsset: {fileID: 0}
    m_TargetAsset: {fileID: 0}
  - m_GUID: 8787fad4b19f3416db0ccef9969e468b
    m_Address: CardCollectionComponents
    m_ReadOnly: 0
    m_SerializedLabels: []
    m_MainAsset: {fileID: 0}
    m_TargetAsset: {fileID: 0}
  - m_GUID: 7e4c5b69028b04e449549598b5d64fdc
    m_Address: CardScrappedEffect
    m_ReadOnly: 0
    m_SerializedLabels: []
    m_MainAsset: {fileID: 0}
    m_TargetAsset: {fileID: 0}
  - m_GUID: b539e5354b7784685a2df77c65c32044
    m_Address: SubCardEffect_Standard
    m_ReadOnly: 0
    m_SerializedLabels: []
    m_MainAsset: {fileID: 0}
    m_TargetAsset: {fileID: 0}
  - m_GUID: 4d628d218287f488081aaa3876a3f67d
    m_Address: SubCardEffect_Zoomed
    m_ReadOnly: 0
    m_SerializedLabels: []
    m_MainAsset: {fileID: 0}
    m_TargetAsset: {fileID: 0}
  - m_GUID: 8064552e4ff06435d93abd35aa1b325a
    m_Address: Cutscene
    m_ReadOnly: 0
    m_SerializedLabels: []
    m_MainAsset: {fileID: 0}
    m_TargetAsset: {fileID: 0}
  - m_GUID: 5ecedc8e68ac145049e967be1187c512
    m_Address: FlyingEffect
    m_ReadOnly: 0
    m_SerializedLabels: []
    m_MainAsset: {fileID: 0}
    m_TargetAsset: {fileID: 0}
  - m_GUID: ae54f5f31f24145d089ea6b34915ab65
    m_Address: SummonEffect
    m_ReadOnly: 0
    m_SerializedLabels: []
    m_MainAsset: {fileID: 0}
    m_TargetAsset: {fileID: 0}
  - m_GUID: 2c4d6a0c1fcbd4de293398b548c3eae7
    m_Address: SummonFlyingMinionsFromOffscreenEffect
    m_ReadOnly: 0
    m_SerializedLabels: []
    m_MainAsset: {fileID: 0}
    m_TargetAsset: {fileID: 0}
  - m_GUID: e3a969d04645d4ffc80763b983679a3d
    m_Address: CannonAttackEffect
    m_ReadOnly: 0
    m_SerializedLabels: []
    m_MainAsset: {fileID: 0}
    m_TargetAsset: {fileID: 0}
  - m_GUID: f0658fc5afcff4af0900a93cd8b2dc74
    m_Address: DeathrattleEffect
    m_ReadOnly: 0
    m_SerializedLabels: []
    m_MainAsset: {fileID: 0}
    m_TargetAsset: {fileID: 0}
  - m_GUID: c224620b85a984a1b88a92400384bfc2
    m_Address: FireSummonEffect
    m_ReadOnly: 0
    m_SerializedLabels: []
    m_MainAsset: {fileID: 0}
    m_TargetAsset: {fileID: 0}
  - m_GUID: 976c960dab3c34133bf9f45e7e620fff
    m_Address: DeathExplodeEffect
    m_ReadOnly: 0
    m_SerializedLabels: []
    m_MainAsset: {fileID: 0}
    m_TargetAsset: {fileID: 0}
  - m_GUID: 0632b17f0316e4db99b06ec6a7d8c446
    m_Address: ShipwreckBoardEffect
    m_ReadOnly: 0
    m_SerializedLabels: []
    m_MainAsset: {fileID: 0}
    m_TargetAsset: {fileID: 0}
  - m_GUID: 22237defc74f149a3bd39e8b21884041
    m_Address: KnifeDamageEffect
    m_ReadOnly: 0
    m_SerializedLabels: []
    m_MainAsset: {fileID: 0}
    m_TargetAsset: {fileID: 0}
  - m_GUID: ebb3494ca3f824043b6ab3cd1638acdf
    m_Address: RainingKnivesBoardEffect
    m_ReadOnly: 0
    m_SerializedLabels: []
    m_MainAsset: {fileID: 0}
    m_TargetAsset: {fileID: 0}
  - m_GUID: 2a730b04c1ce74a71ba4f313d530d121
    m_Address: Assets/Source/Audio/SFX/Battle_PoisonAttack-Shoot01.wav
    m_ReadOnly: 0
    m_SerializedLabels: []
    m_MainAsset: {fileID: 0}
    m_TargetAsset: {fileID: 0}
  - m_GUID: 3e468ae3cd8a64500a1e3c3e8193f4d9
    m_Address: Assets/Source/Audio/SFX/Battle_PhysAttack01.wav
    m_ReadOnly: 0
    m_SerializedLabels: []
    m_MainAsset: {fileID: 0}
    m_TargetAsset: {fileID: 0}
  - m_GUID: 91de1e70d0dac4a5da6c07c6b19ffff1
    m_Address: Assets/Source/Audio/SFX/HeroPower-SpinBlade_Slash.wav
    m_ReadOnly: 0
    m_SerializedLabels: []
    m_MainAsset: {fileID: 0}
    m_TargetAsset: {fileID: 0}
  - m_GUID: 6d634a4d66a724ee1b10ecf293222779
    m_Address: Assets/Source/Audio/SFX/UI-DeckBuilding_PickCard-Click.wav
    m_ReadOnly: 0
    m_SerializedLabels: []
    m_MainAsset: {fileID: 0}
    m_TargetAsset: {fileID: 0}
  - m_GUID: 6b40c8240487f4e0aa2c06de7614f42f
    m_Address: Assets/Source/Audio/SFX/UI-StartingHand.wav
    m_ReadOnly: 0
    m_SerializedLabels: []
    m_MainAsset: {fileID: 0}
    m_TargetAsset: {fileID: 0}
  - m_GUID: 2a9470caf4c684a16881402f4f10bb77
    m_Address: Assets/Source/Audio/SFX/Battle_GenericAttack-Charge.wav
    m_ReadOnly: 0
    m_SerializedLabels: []
    m_MainAsset: {fileID: 0}
    m_TargetAsset: {fileID: 0}
  - m_GUID: e656a67cbb63b4c6580d36512503fba9
    m_Address: Assets/Source/Audio/SFX/Battle_ArrowAttack01.wav
    m_ReadOnly: 0
    m_SerializedLabels: []
    m_MainAsset: {fileID: 0}
    m_TargetAsset: {fileID: 0}
  - m_GUID: ffec64e688276477ab6b6b01a21e3585
    m_Address: Assets/Source/Audio/SFX/Battle_PoisonAttack-Hit01.wav
    m_ReadOnly: 0
    m_SerializedLabels: []
    m_MainAsset: {fileID: 0}
    m_TargetAsset: {fileID: 0}
  - m_GUID: cab5178fea91647d889d577166bdee29
    m_Address: Assets/Source/Audio/SFX/Battle_FireballAttack01.wav
    m_ReadOnly: 0
    m_SerializedLabels: []
    m_MainAsset: {fileID: 0}
    m_TargetAsset: {fileID: 0}
  - m_GUID: 90b0cc8fa6f1b46308368867a88bffde
    m_Address: Assets/Source/Audio/SFX/UI-ColiseumStart-NoFX.wav
    m_ReadOnly: 0
    m_SerializedLabels: []
    m_MainAsset: {fileID: 0}
    m_TargetAsset: {fileID: 0}
  - m_GUID: ffdcfeb4a878f4249b6b41cc4e89611b
    m_Address: Assets/Source/Audio/SFX/HeroPower-SpinBlade_Intro.wav
    m_ReadOnly: 0
    m_SerializedLabels: []
    m_MainAsset: {fileID: 0}
    m_TargetAsset: {fileID: 0}
  - m_GUID: bf6af93e3ab0c490bb50ba7517a34253
    m_Address: Assets/Source/Audio/SFX/UI-ColiseumStart-FxOnly.wav
    m_ReadOnly: 0
    m_SerializedLabels: []
    m_MainAsset: {fileID: 0}
    m_TargetAsset: {fileID: 0}
  - m_GUID: c14a77fba196846b1842c4e4a68eb181
    m_Address: Assets/Source/Audio/SFX/MapTiles-Fall.wav
    m_ReadOnly: 0
    m_SerializedLabels: []
    m_MainAsset: {fileID: 0}
    m_TargetAsset: {fileID: 0}
  - m_GUID: 07bb1f4e6c36248ba93cb67d30500e66
    m_Address: Assets/Source/Audio/SFX/UI-Text_Next.wav
    m_ReadOnly: 0
    m_SerializedLabels: []
    m_MainAsset: {fileID: 0}
    m_TargetAsset: {fileID: 0}
  - m_GUID: cc94a0499b5c94ed3a616ec4f8660317
    m_Address: Assets/Source/Audio/SFX/TerrainTile-Poof.wav
    m_ReadOnly: 0
    m_SerializedLabels: []
    m_MainAsset: {fileID: 0}
    m_TargetAsset: {fileID: 0}
  - m_GUID: e16e38e3ce502467486ca3c3da5a9ab3
    m_Address: Assets/Source/Audio/SFX/UI-Battle_RevealCard.wav
    m_ReadOnly: 0
    m_SerializedLabels: []
    m_MainAsset: {fileID: 0}
    m_TargetAsset: {fileID: 0}
  - m_GUID: ad73b3412a05f4929a8a81cdad0556e1
    m_Address: Assets/Source/Audio/SFX/BattleStart-PositionCards.wav
    m_ReadOnly: 0
    m_SerializedLabels: []
    m_MainAsset: {fileID: 0}
    m_TargetAsset: {fileID: 0}
  - m_GUID: 7f253e2da37634672876eebb03fd975b
    m_Address: Assets/Source/Audio/SFX/Battle_Whoosh-Physical 01.wav
    m_ReadOnly: 0
    m_SerializedLabels: []
    m_MainAsset: {fileID: 0}
    m_TargetAsset: {fileID: 0}
  - m_GUID: f2aa79188d4364278945a4db909053d0
    m_Address: Assets/Source/Audio/SFX/IceAttack-Ready01.wav
    m_ReadOnly: 0
    m_SerializedLabels: []
    m_MainAsset: {fileID: 0}
    m_TargetAsset: {fileID: 0}
  - m_GUID: a16a9908e7f5149fd83a69adf2bd5500
    m_Address: Assets/Source/Audio/SFX/UI-BattlePhaseShift.wav
    m_ReadOnly: 0
    m_SerializedLabels: []
    m_MainAsset: {fileID: 0}
    m_TargetAsset: {fileID: 0}
  - m_GUID: 34f5376e7f4a940b9af833efb8eac70d
    m_Address: Assets/Source/Audio/SFX/UI-DeckBuilding_PlaceCard-NoFX.wav
    m_ReadOnly: 0
    m_SerializedLabels: []
    m_MainAsset: {fileID: 0}
    m_TargetAsset: {fileID: 0}
  - m_GUID: 8486722927e534dccb8bd625738c6b0a
    m_Address: Assets/Source/Audio/SFX/Text-Letter.wav
    m_ReadOnly: 0
    m_SerializedLabels: []
    m_MainAsset: {fileID: 0}
    m_TargetAsset: {fileID: 0}
  - m_GUID: 6c815a762dd8d445ba56eac07c995863
    m_Address: Assets/Source/Audio/SFX/HeroAbility-Flash.wav
    m_ReadOnly: 0
    m_SerializedLabels: []
    m_MainAsset: {fileID: 0}
    m_TargetAsset: {fileID: 0}
  - m_GUID: 52998265577814374ad296d528af8001
    m_Address: Assets/Source/Audio/SFX/Card-Place.wav
    m_ReadOnly: 0
    m_SerializedLabels: []
    m_MainAsset: {fileID: 0}
    m_TargetAsset: {fileID: 0}
  - m_GUID: 7a29e7bba388c462b9d1ad644756cc19
    m_Address: Assets/Source/Audio/SFX/UI-BlitzPhase.wav
    m_ReadOnly: 0
    m_SerializedLabels: []
    m_MainAsset: {fileID: 0}
    m_TargetAsset: {fileID: 0}
  - m_GUID: 81065aeb051164cf3a9513595cd79d11
    m_Address: Assets/Source/Audio/SFX/UI-StartingHand-RevealCards.wav
    m_ReadOnly: 0
    m_SerializedLabels: []
    m_MainAsset: {fileID: 0}
    m_TargetAsset: {fileID: 0}
  - m_GUID: 3b5d9d2ef43e84c9a98ab3ec050f35a6
    m_Address: Assets/Source/Audio/SFX/UI-ColiseumStart.wav
    m_ReadOnly: 0
    m_SerializedLabels: []
    m_MainAsset: {fileID: 0}
    m_TargetAsset: {fileID: 0}
  - m_GUID: 0b475ac4fff7f45fbb70e3a1b54295cc
    m_Address: Assets/Source/Audio/SFX/Battle_WhipAttack_NoWhoosh.wav
    m_ReadOnly: 0
    m_SerializedLabels: []
    m_MainAsset: {fileID: 0}
    m_TargetAsset: {fileID: 0}
  - m_GUID: 1fe243b45f6d946dbb4043a9747452a3
    m_Address: Assets/Source/Audio/SFX/SpawnCard-BuildupOnly.wav
    m_ReadOnly: 0
    m_SerializedLabels: []
    m_MainAsset: {fileID: 0}
    m_TargetAsset: {fileID: 0}
  - m_GUID: 1bccd95ecf67a4c3ca384408d37a671f
    m_Address: Assets/Source/Audio/SFX/HeroAbility-EyeSpark.wav
    m_ReadOnly: 0
    m_SerializedLabels: []
    m_MainAsset: {fileID: 0}
    m_TargetAsset: {fileID: 0}
  - m_GUID: 89ecc087557ae4eae9eba1ef8c469892
    m_Address: Assets/Source/Audio/SFX/UI-DeckBuilding_PlaceCard.wav
    m_ReadOnly: 0
    m_SerializedLabels: []
    m_MainAsset: {fileID: 0}
    m_TargetAsset: {fileID: 0}
  - m_GUID: bfde26f788dc24e59965962d20f1a04c
    m_Address: Assets/Source/Audio/SFX/IceAttack-Charge01.wav
    m_ReadOnly: 0
    m_SerializedLabels: []
    m_MainAsset: {fileID: 0}
    m_TargetAsset: {fileID: 0}
  - m_GUID: b3a4dbfed51a24dbca9929b6df8abc82
    m_Address: Assets/Source/Audio/SFX/UI-SingleClick.wav
    m_ReadOnly: 0
    m_SerializedLabels: []
    m_MainAsset: {fileID: 0}
    m_TargetAsset: {fileID: 0}
  - m_GUID: 7d3ecf646d4ee46648aebb75ba162731
    m_Address: Assets/Source/Audio/SFX/UI-DeckBuilding_PlaceCard-Click.wav
    m_ReadOnly: 0
    m_SerializedLabels: []
    m_MainAsset: {fileID: 0}
    m_TargetAsset: {fileID: 0}
  - m_GUID: aac6357d8127148d6b4e05444aad2742
    m_Address: Assets/Source/Audio/SFX/Battle_ShieldAbility01.wav
    m_ReadOnly: 0
    m_SerializedLabels: []
    m_MainAsset: {fileID: 0}
    m_TargetAsset: {fileID: 0}
  - m_GUID: 2a3af623509a24896811763d55950c05
    m_Address: Assets/Source/Audio/SFX/UI-ButtonFlip.wav
    m_ReadOnly: 0
    m_SerializedLabels: []
    m_MainAsset: {fileID: 0}
    m_TargetAsset: {fileID: 0}
  - m_GUID: 152d0325fe1fb4cd2bae748d86a2db38
    m_Address: Assets/Source/Audio/SFX/UI-Selection_Click.wav
    m_ReadOnly: 0
    m_SerializedLabels: []
    m_MainAsset: {fileID: 0}
    m_TargetAsset: {fileID: 0}
  - m_GUID: d214211959bb54cbaae5a79110976373
    m_Address: Assets/Source/Audio/SFX/BattleStart-RevealCards.wav
    m_ReadOnly: 0
    m_SerializedLabels: []
    m_MainAsset: {fileID: 0}
    m_TargetAsset: {fileID: 0}
  - m_GUID: bb1e72ea8fda948e683751231a5f85a0
    m_Address: Assets/Source/Audio/SFX/UI-ColiseumStart-Click.wav
    m_ReadOnly: 0
    m_SerializedLabels: []
    m_MainAsset: {fileID: 0}
    m_TargetAsset: {fileID: 0}
  - m_GUID: 37b25c5124bb74262b1eab7c527573a4
    m_Address: Assets/Source/Audio/SFX/UI-Text_Next_Click.wav
    m_ReadOnly: 0
    m_SerializedLabels: []
    m_MainAsset: {fileID: 0}
    m_TargetAsset: {fileID: 0}
  - m_GUID: 12e1378675c5c49a3b657244ff0d2d36
    m_Address: Assets/Source/Audio/SFX/Battle_SlashingAttack01.wav
    m_ReadOnly: 0
    m_SerializedLabels: []
    m_MainAsset: {fileID: 0}
    m_TargetAsset: {fileID: 0}
  - m_GUID: 045dbaf28d0424164b46b4650a4bd2f6
    m_Address: Assets/Source/Audio/SFX/Battle_WhipAttack_Whoosh.wav
    m_ReadOnly: 0
    m_SerializedLabels: []
    m_MainAsset: {fileID: 0}
    m_TargetAsset: {fileID: 0}
  - m_GUID: e80fbc6f70a474bdebad9687b4e847df
    m_Address: Assets/Source/Audio/SFX/IceAttack-Release01.wav
    m_ReadOnly: 0
    m_SerializedLabels: []
    m_MainAsset: {fileID: 0}
    m_TargetAsset: {fileID: 0}
  - m_GUID: ceadfee99605c4485a4c57543a3ffa90
    m_Address: Assets/Source/Audio/SFX/Card-Spawn.wav
    m_ReadOnly: 0
    m_SerializedLabels: []
    m_MainAsset: {fileID: 0}
    m_TargetAsset: {fileID: 0}
  - m_GUID: 5aa6b1d221fae472c9e5c572771026ab
    m_Address: Assets/Source/Audio/SFX/HeroPower-SpinBlade_Spinning.wav
    m_ReadOnly: 0
    m_SerializedLabels: []
    m_MainAsset: {fileID: 0}
    m_TargetAsset: {fileID: 0}
  - m_GUID: cacc38dbac0f34c029b378069bbd2464
    m_Address: Assets/Source/Audio/SFX/Battle_Whoosh-Physical 02.wav
    m_ReadOnly: 0
    m_SerializedLabels: []
    m_MainAsset: {fileID: 0}
    m_TargetAsset: {fileID: 0}
  - m_GUID: 4fe1fd3fae2ba44f4bf85b0afd36911e
    m_Address: Assets/Source/Audio/SFX/BattleStart-PositionHeroes.wav
    m_ReadOnly: 0
    m_SerializedLabels: []
    m_MainAsset: {fileID: 0}
    m_TargetAsset: {fileID: 0}
  - m_GUID: 2b593e20f5f4c4f6882217198a37205d
    m_Address: Assets/Source/Audio/SFX/SpecialTile_Fall.wav
    m_ReadOnly: 0
    m_SerializedLabels: []
    m_MainAsset: {fileID: 0}
    m_TargetAsset: {fileID: 0}
  - m_GUID: f2981ff5a051b436fafdf64ae02c2d15
    m_Address: Assets/Source/Audio/SFX/Hero_Appear-Whoosh.wav
    m_ReadOnly: 0
    m_SerializedLabels: []
    m_MainAsset: {fileID: 0}
    m_TargetAsset: {fileID: 0}
  - m_GUID: d0fb485dbc3664d2fb836163260111b6
    m_Address: Assets/Source/Audio/SFX/UI-Selection.wav
    m_ReadOnly: 0
    m_SerializedLabels: []
    m_MainAsset: {fileID: 0}
    m_TargetAsset: {fileID: 0}
  - m_GUID: 08b8195622c734771acce4c4852118e2
    m_Address: Assets/Source/Audio/SFX/Text-LetterB.wav
    m_ReadOnly: 0
    m_SerializedLabels: []
    m_MainAsset: {fileID: 0}
    m_TargetAsset: {fileID: 0}
  - m_GUID: 1f060db34ee894ad4841bccf32fd4124
    m_Address: Assets/Source/Audio/SFX/UI-DeckBuilding_PickCard.wav
    m_ReadOnly: 0
    m_SerializedLabels: []
    m_MainAsset: {fileID: 0}
    m_TargetAsset: {fileID: 0}
  - m_GUID: 0085207d366d64267b4e7b0c15ba5422
    m_Address: Assets/Source/Audio/SFX/UI-DeckBuilding_PlaceCard-FxOnly.wav
    m_ReadOnly: 0
    m_SerializedLabels: []
    m_MainAsset: {fileID: 0}
    m_TargetAsset: {fileID: 0}
  - m_GUID: e38ffd204f0384f5b83d600731ed6949
    m_Address: Assets/Source/Audio/SFX/BattleStart-ShowCard.wav
    m_ReadOnly: 0
    m_SerializedLabels: []
    m_MainAsset: {fileID: 0}
    m_TargetAsset: {fileID: 0}
  - m_GUID: 25681b2c9d8ae49fc80f27904a9fa4ff
    m_Address: Assets/Source/Audio/SFX/UI-DeckBuilding_PlaceCard-NoFX-Click.wav
    m_ReadOnly: 0
    m_SerializedLabels: []
    m_MainAsset: {fileID: 0}
    m_TargetAsset: {fileID: 0}
  - m_GUID: 903ea442fbe8f4f4aa61556934405d52
    m_Address: Assets/Source/Audio/SFX/UI-Battle_NewCard.wav
    m_ReadOnly: 0
    m_SerializedLabels: []
    m_MainAsset: {fileID: 0}
    m_TargetAsset: {fileID: 0}
  - m_GUID: ae301226a228a4556975d87d5109f65d
    m_Address: Assets/Source/Audio/SFX/Card-Defeated.wav
    m_ReadOnly: 0
    m_SerializedLabels: []
    m_MainAsset: {fileID: 0}
    m_TargetAsset: {fileID: 0}
  - m_GUID: 9555cff35629e4a2e9580168cd31d9a3
    m_Address: Assets/Source/Audio/SFX/Battle_PoisonAttack-SpawnBlob.wav
    m_ReadOnly: 0
    m_SerializedLabels: []
    m_MainAsset: {fileID: 0}
    m_TargetAsset: {fileID: 0}
  - m_GUID: 6ce52d049a21a45a3b5a8e83314ba2d0
    m_Address: Assets/Source/Audio/Music/Cutscene-Determined.wav
    m_ReadOnly: 0
    m_SerializedLabels: []
    m_MainAsset: {fileID: 0}
    m_TargetAsset: {fileID: 0}
  - m_GUID: 8da50ec375b254c99aa2384ab47abbde
    m_Address: Assets/Source/Audio/Music/SouthronSeas-Loop.wav
    m_ReadOnly: 0
    m_SerializedLabels: []
    m_MainAsset: {fileID: 0}
    m_TargetAsset: {fileID: 0}
  - m_GUID: e238e3949ddf4447c8b45754c86b25c4
    m_Address: Assets/Source/Audio/Music/Select-Fable.wav
    m_ReadOnly: 0
    m_SerializedLabels: []
    m_MainAsset: {fileID: 0}
    m_TargetAsset: {fileID: 0}
  - m_GUID: 8f8221bbdd8df45cdba74d9421e3ed1a
    m_Address: Assets/Source/Audio/Music/Cutscene-Sentimental-Loop.wav
    m_ReadOnly: 0
    m_SerializedLabels: []
    m_MainAsset: {fileID: 0}
    m_TargetAsset: {fileID: 0}
  - m_GUID: a8b9e426256ea4f2091ceb829e5d1e01
    m_Address: Assets/Source/Audio/Music/Cutscene-Danger_Loop.wav
    m_ReadOnly: 0
    m_SerializedLabels: []
    m_MainAsset: {fileID: 0}
    m_TargetAsset: {fileID: 0}
  - m_GUID: cbf8cdc92692a44b7b310b6801ee523e
    m_Address: Assets/Source/Audio/Music/Cutscene-Sentimental-Intro.wav
    m_ReadOnly: 0
    m_SerializedLabels: []
    m_MainAsset: {fileID: 0}
    m_TargetAsset: {fileID: 0}
  - m_GUID: cea74753a7ddf4038a3f5fae63639aca
    m_Address: Assets/Source/Audio/Music/Cutscene-Danger_Intro.wav
    m_ReadOnly: 0
    m_SerializedLabels: []
    m_MainAsset: {fileID: 0}
    m_TargetAsset: {fileID: 0}
  - m_GUID: ab9e017ecc79741248e8ec9925476a92
    m_Address: Assets/Source/Audio/Music/SwindlersWharf-Intro.wav
    m_ReadOnly: 0
    m_SerializedLabels: []
    m_MainAsset: {fileID: 0}
    m_TargetAsset: {fileID: 0}
  - m_GUID: aa2b479982b94401cb1a43ba79330eec
    m_Address: Assets/Source/Audio/Music/CharaTheme-Violet-Loop.wav
    m_ReadOnly: 0
    m_SerializedLabels: []
    m_MainAsset: {fileID: 0}
    m_TargetAsset: {fileID: 0}
  - m_GUID: 7b4f7aabde9b44c118961257af09b5ae
    m_Address: Assets/Source/Audio/Music/Scias_s-Shop-Loop.wav
    m_ReadOnly: 0
    m_SerializedLabels: []
    m_MainAsset: {fileID: 0}
    m_TargetAsset: {fileID: 0}
  - m_GUID: 20b24553f461e47d18bf2415fc3df9c8
    m_Address: Assets/Source/Audio/Music/CharaTheme-Redcroft-Intro.wav
    m_ReadOnly: 0
    m_SerializedLabels: []
    m_MainAsset: {fileID: 0}
    m_TargetAsset: {fileID: 0}
  - m_GUID: ca3484a859c8341d2bc9fad6a3adc6f8
    m_Address: Assets/Source/Audio/Music/Cutscene-Goofy.wav
    m_ReadOnly: 0
    m_SerializedLabels: []
    m_MainAsset: {fileID: 0}
    m_TargetAsset: {fileID: 0}
  - m_GUID: 5b78c477dcca5451a91ac298c6d52dde
    m_Address: Assets/Source/Audio/Music/SwindlersWharf-Loop.wav
    m_ReadOnly: 0
    m_SerializedLabels: []
    m_MainAsset: {fileID: 0}
    m_TargetAsset: {fileID: 0}
  - m_GUID: 38a1eb745612b4b8e87b00735709b459
    m_Address: Assets/Source/Audio/Music/MainMenu.wav
    m_ReadOnly: 0
    m_SerializedLabels: []
    m_MainAsset: {fileID: 0}
    m_TargetAsset: {fileID: 0}
  - m_GUID: 9919517edf4f440969bd25755b21d5fe
    m_Address: Assets/Source/Audio/Music/Select-Character.wav
    m_ReadOnly: 0
    m_SerializedLabels: []
    m_MainAsset: {fileID: 0}
    m_TargetAsset: {fileID: 0}
  - m_GUID: 23ddc9516f7e34cdf90e3551d156be9b
    m_Address: Assets/Source/Audio/Music/Scias_s-Shop-Intro.wav
    m_ReadOnly: 0
    m_SerializedLabels: []
    m_MainAsset: {fileID: 0}
    m_TargetAsset: {fileID: 0}
  - m_GUID: b2c47dde2d8b949679942b09d9266d38
    m_Address: Assets/Source/Audio/Music/Cutscene-Tragic.wav
    m_ReadOnly: 0
    m_SerializedLabels: []
    m_MainAsset: {fileID: 0}
    m_TargetAsset: {fileID: 0}
  - m_GUID: 3cf03030400bd45dc8acecc74c7c843e
    m_Address: Assets/Source/Audio/Music/Cutscene-SeriousConvo_Intro.wav
    m_ReadOnly: 0
    m_SerializedLabels: []
    m_MainAsset: {fileID: 0}
    m_TargetAsset: {fileID: 0}
  - m_GUID: a322fa656fe754185b3946bb8ab41353
    m_Address: Assets/Source/Audio/Music/SouthronSeas-Intro.wav
    m_ReadOnly: 0
    m_SerializedLabels: []
    m_MainAsset: {fileID: 0}
    m_TargetAsset: {fileID: 0}
  - m_GUID: d3126720f491c4f70bc9a5480368d1ab
    m_Address: Assets/Source/Audio/Music/CharaTheme-Redcroft-Loop.wav
    m_ReadOnly: 0
    m_SerializedLabels: []
    m_MainAsset: {fileID: 0}
    m_TargetAsset: {fileID: 0}
  - m_GUID: d97230d2debdb4d91a1824e2b5eb1261
    m_Address: Assets/Source/Audio/Music/CharaTheme-Violet-Intro.wav
    m_ReadOnly: 0
    m_SerializedLabels: []
    m_MainAsset: {fileID: 0}
    m_TargetAsset: {fileID: 0}
  - m_GUID: 7c291a7141a9044e282d8065932c8d1a
    m_Address: Assets/Source/Audio/Music/Cutscene-SeriousConvo_Loop.wav
    m_ReadOnly: 0
    m_SerializedLabels: []
    m_MainAsset: {fileID: 0}
    m_TargetAsset: {fileID: 0}
  - m_GUID: ec8ff212eade84e7a82c6539274ec977
    m_Address: CutsceneLocation-Farmland
    m_ReadOnly: 0
    m_SerializedLabels: []
    m_MainAsset: {fileID: 0}
    m_TargetAsset: {fileID: 0}
  - m_GUID: 8f1f5f35f2448411db746a1c5d46c0a7
    m_Address: CutsceneLocation-Forest
    m_ReadOnly: 0
    m_SerializedLabels: []
    m_MainAsset: {fileID: 0}
    m_TargetAsset: {fileID: 0}
  - m_GUID: 77984e242f790456aaa05951b282532e
    m_Address: CutsceneLocation-Mountains
    m_ReadOnly: 0
    m_SerializedLabels: []
    m_MainAsset: {fileID: 0}
    m_TargetAsset: {fileID: 0}
  - m_GUID: 18149c65f5b05e5428e31e7291801cfa
    m_Address: Assets/Source/Audio/SFX/Key_Pickup.wav
    m_ReadOnly: 0
    m_SerializedLabels: []
    m_MainAsset: {fileID: 0}
    m_TargetAsset: {fileID: 0}
  - m_GUID: 004f3cd1e6453485ab53feac39a95cee
    m_Address: CutsceneLocation-Dragons_Belly
    m_ReadOnly: 0
    m_SerializedLabels: []
    m_MainAsset: {fileID: 0}
    m_TargetAsset: {fileID: 0}
  - m_GUID: 51982f7e088320c4eac72f604a6fa9b5
    m_Address: Assets/Source/Audio/Music/HardMode_DinetteOfDoom.wav
    m_ReadOnly: 0
    m_SerializedLabels: []
    m_MainAsset: {fileID: 0}
    m_TargetAsset: {fileID: 0}
  - m_GUID: bcde1ffdc41434fbe9ea8521b0edca8a
    m_Address: CutsceneLocation-Island_Beach
    m_ReadOnly: 0
    m_SerializedLabels: []
    m_MainAsset: {fileID: 0}
    m_TargetAsset: {fileID: 0}
  - m_GUID: 729429efb07f9e9478304c53664e53d8
    m_Address: Assets/Source/Audio/Music/Cutscene-Friendship.wav
    m_ReadOnly: 0
    m_SerializedLabels: []
    m_MainAsset: {fileID: 0}
    m_TargetAsset: {fileID: 0}
  - m_GUID: d77ff647dd2dc44caa33403787dfabe5
    m_Address: CutsceneLocation-Ship_Day
    m_ReadOnly: 0
    m_SerializedLabels: []
    m_MainAsset: {fileID: 0}
    m_TargetAsset: {fileID: 0}
  - m_GUID: 3797a3e1ee516435997c6020d4e3bb8a
    m_Address: CutsceneLocation-Ship_Storm
    m_ReadOnly: 0
    m_SerializedLabels: []
    m_MainAsset: {fileID: 0}
    m_TargetAsset: {fileID: 0}
  - m_GUID: 4f86bb6187caf430ab40bce01c432f83
    m_Address: CutsceneLocation-Swindlers_Wharf
    m_ReadOnly: 0
    m_SerializedLabels: []
    m_MainAsset: {fileID: 0}
    m_TargetAsset: {fileID: 0}
  - m_GUID: 7f9dd1fc7b7585746be77c34c2210918
    m_Address: Assets/Source/Audio/SFX/CutsceneSFX-Determination.wav
    m_ReadOnly: 0
    m_SerializedLabels: []
    m_MainAsset: {fileID: 0}
    m_TargetAsset: {fileID: 0}
  - m_GUID: 0ff22e4b6ce39734eb3e0d00ab1761b4
    m_Address: Assets/Source/Audio/SFX/CutsceneSFX-Question.wav
    m_ReadOnly: 0
    m_SerializedLabels: []
    m_MainAsset: {fileID: 0}
    m_TargetAsset: {fileID: 0}
  - m_GUID: ac39c134dc4a2df4e8f8b747b7ac9de8
    m_Address: Assets/Source/Audio/SFX/CutsceneSFX-Smack2.wav
    m_ReadOnly: 0
    m_SerializedLabels: []
    m_MainAsset: {fileID: 0}
    m_TargetAsset: {fileID: 0}
  - m_GUID: e0341403bf515074e802c60a28bb7334
    m_Address: Assets/Source/Audio/SFX/CutsceneSFX-Smack1.wav
    m_ReadOnly: 0
    m_SerializedLabels: []
    m_MainAsset: {fileID: 0}
    m_TargetAsset: {fileID: 0}
  - m_GUID: 09718b2c2d127524cb3c921fae982416
    m_Address: Assets/Source/Audio/SFX/CutsceneSFX-Ding.wav
    m_ReadOnly: 0
    m_SerializedLabels: []
    m_MainAsset: {fileID: 0}
    m_TargetAsset: {fileID: 0}
  - m_GUID: 662ce765532d729439dd75937d263a95
    m_Address: Assets/Source/Audio/VA/Abraxas/cs-abraxas-angry-1.wav
    m_ReadOnly: 0
    m_SerializedLabels: []
    m_MainAsset: {fileID: 0}
    m_TargetAsset: {fileID: 0}
  - m_GUID: 495ea9dd401bcad4895994dd87258416
    m_Address: Assets/Source/Audio/VA/Abraxas/cs-abraxas-yes-1.wav
    m_ReadOnly: 0
    m_SerializedLabels: []
    m_MainAsset: {fileID: 0}
    m_TargetAsset: {fileID: 0}
  - m_GUID: 5db5e43f30794ca48bda42162acb35b9
    m_Address: Assets/Source/Audio/VA/Redcroft/cs-redcroft-aye-2.wav
    m_ReadOnly: 0
    m_SerializedLabels: []
    m_MainAsset: {fileID: 0}
    m_TargetAsset: {fileID: 0}
  - m_GUID: 1abbb6c167ad06c4d9d90bf0073adf54
    m_Address: Assets/Source/Audio/VA/Abraxas/cs-abraxas-sigh-1.wav
    m_ReadOnly: 0
    m_SerializedLabels: []
    m_MainAsset: {fileID: 0}
    m_TargetAsset: {fileID: 0}
  - m_GUID: 62bf6807d7402834e92efca17cef219a
    m_Address: Assets/Source/Audio/VA/Redcroft/cs-redcroft-laugh-2.wav
    m_ReadOnly: 0
    m_SerializedLabels: []
    m_MainAsset: {fileID: 0}
    m_TargetAsset: {fileID: 0}
  - m_GUID: 0607c30ae1817c645b8f28982fad1af2
    m_Address: Assets/Source/Audio/VA/Redcroft/cs-redcroft-angry-3.wav
    m_ReadOnly: 0
    m_SerializedLabels: []
    m_MainAsset: {fileID: 0}
    m_TargetAsset: {fileID: 0}
  - m_GUID: fc2bea16e042e914cbed4a288801f213
    m_Address: Assets/Source/Audio/VA/Abraxas/cs-abraxas-fool-1.wav
    m_ReadOnly: 0
    m_SerializedLabels: []
    m_MainAsset: {fileID: 0}
    m_TargetAsset: {fileID: 0}
  - m_GUID: fe5df2136fd7dc54c8e9ea1e8c0f171f
    m_Address: Assets/Source/Audio/VA/Redcroft/cs-redcroft-angry-1.wav
    m_ReadOnly: 0
    m_SerializedLabels: []
    m_MainAsset: {fileID: 0}
    m_TargetAsset: {fileID: 0}
  - m_GUID: a8a4fe6b319f6eb469c1e2db5ee51c73
    m_Address: Assets/Source/Audio/VA/Redcroft/cs-redcroft-laugh-3.wav
    m_ReadOnly: 0
    m_SerializedLabels: []
    m_MainAsset: {fileID: 0}
    m_TargetAsset: {fileID: 0}
  - m_GUID: 1143adff99d88ee49b0ddad5fdb6a0eb
    m_Address: Assets/Source/Audio/VA/Redcroft/cs-redcroft-aye-1.wav
    m_ReadOnly: 0
    m_SerializedLabels: []
    m_MainAsset: {fileID: 0}
    m_TargetAsset: {fileID: 0}
  - m_GUID: 91443e8039b7fb74fa9d75d129f5b950
    m_Address: Assets/Source/Audio/VA/Redcroft/cs-redcroft-shocked-1.wav
    m_ReadOnly: 0
    m_SerializedLabels: []
    m_MainAsset: {fileID: 0}
    m_TargetAsset: {fileID: 0}
  - m_GUID: 9edefc65e3a969249a0a9c778bf42e5b
    m_Address: Assets/Source/Audio/VA/Redcroft/cs-redcroft-determined-1.wav
    m_ReadOnly: 0
    m_SerializedLabels: []
    m_MainAsset: {fileID: 0}
    m_TargetAsset: {fileID: 0}
  - m_GUID: f96b23d5abcb6ad46ba63a73a01290f8
    m_Address: Assets/Source/Audio/VA/Rigbeak/cs-rigbeak-bwak-1.wav
    m_ReadOnly: 0
    m_SerializedLabels: []
    m_MainAsset: {fileID: 0}
    m_TargetAsset: {fileID: 0}
  - m_GUID: 3ef9f620c885f8d4c94505c8927f395b
    m_Address: Assets/Source/Audio/VA/Redcroft/cs-redcroft-laugh-1.wav
    m_ReadOnly: 0
    m_SerializedLabels: []
    m_MainAsset: {fileID: 0}
    m_TargetAsset: {fileID: 0}
  - m_GUID: 9a1302b4588ffd6419ac04f3404538ad
    m_Address: Assets/Source/Audio/VA/Abraxas/cs-abraxas-what-1.wav
    m_ReadOnly: 0
    m_SerializedLabels: []
    m_MainAsset: {fileID: 0}
    m_TargetAsset: {fileID: 0}
  - m_GUID: 63ded2f1c87c8b044aaaa321b9d60399
    m_Address: Assets/Source/Audio/VA/Abraxas/cs-abraxas-scoff-1.wav
    m_ReadOnly: 0
    m_SerializedLabels: []
    m_MainAsset: {fileID: 0}
    m_TargetAsset: {fileID: 0}
  - m_GUID: 48338498b62c2ea498298babb260aa70
    m_Address: Assets/Source/Audio/VA/Redcroft/cs-redcroft-angry-2.wav
    m_ReadOnly: 0
    m_SerializedLabels: []
    m_MainAsset: {fileID: 0}
    m_TargetAsset: {fileID: 0}
  - m_GUID: e9169dd3d38ce65408d700f94910d0ce
    m_Address: Assets/Source/Audio/VA/Redcroft/cs-redcroft-shocked-3.wav
    m_ReadOnly: 0
    m_SerializedLabels: []
    m_MainAsset: {fileID: 0}
    m_TargetAsset: {fileID: 0}
  - m_GUID: 3a5339ba3e9dd7045848c15e8b9806d9
    m_Address: Assets/Source/Audio/VA/Redcroft/cs-redcroft-curious-1.wav
    m_ReadOnly: 0
    m_SerializedLabels: []
    m_MainAsset: {fileID: 0}
    m_TargetAsset: {fileID: 0}
  - m_GUID: 317bd90ff3a829b47897c8907e30f297
    m_Address: Assets/Source/Audio/VA/Redcroft/cs-redcroft-shocked-2.wav
    m_ReadOnly: 0
    m_SerializedLabels: []
    m_MainAsset: {fileID: 0}
    m_TargetAsset: {fileID: 0}
  - m_GUID: 2db862452e0aaab4abb25d70ead2836a
    m_Address: Assets/Source/Audio/VA/Redcroft/cs-redcroft-scoff-1.wav
    m_ReadOnly: 0
    m_SerializedLabels: []
    m_MainAsset: {fileID: 0}
    m_TargetAsset: {fileID: 0}
  - m_GUID: 1a5327467f9fe584b84a5c96cc8803ad
    m_Address: Assets/Source/Audio/VA/Rigbeak/cs-rigbeak-croak-1.wav
    m_ReadOnly: 0
    m_SerializedLabels: []
    m_MainAsset: {fileID: 0}
    m_TargetAsset: {fileID: 0}
  - m_GUID: 1b7583809ef2cd644a5b5ba32d5a03a6
    m_Address: Assets/Source/Audio/VA/Redcroft/cs-redcroft-ahoy-1.wav
    m_ReadOnly: 0
    m_SerializedLabels: []
    m_MainAsset: {fileID: 0}
    m_TargetAsset: {fileID: 0}
  - m_GUID: b5b0efd1462cc53449eed620f1c12aef
    m_Address: Assets/Source/Audio/SFX/CutsceneSFX-Smack3.wav
    m_ReadOnly: 0
    m_SerializedLabels: []
    m_MainAsset: {fileID: 0}
    m_TargetAsset: {fileID: 0}
  - m_GUID: 3d0c891c30a0be0428e09cb65ddef7fd
    m_Address: Assets/Source/Audio/VA/Abraxas/cs-abraxas-stomach-1.wav
    m_ReadOnly: 0
    m_SerializedLabels: []
    m_MainAsset: {fileID: 0}
    m_TargetAsset: {fileID: 0}
  - m_GUID: 892a94daacc5ed546930c734b60021c2
    m_Address: Assets/Source/Audio/Ambience/AMB-tavern-ambience-2.wav
    m_ReadOnly: 0
    m_SerializedLabels: []
    m_MainAsset: {fileID: 0}
    m_TargetAsset: {fileID: 0}
  - m_GUID: 9f92b38181b73e149bc24e2632b10c0e
    m_Address: Assets/Source/Audio/Ambience/AMB-cave-ambience-1.wav
    m_ReadOnly: 0
    m_SerializedLabels: []
    m_MainAsset: {fileID: 0}
    m_TargetAsset: {fileID: 0}
  - m_GUID: 3a41f3afc16b39c46a7dd6d52b8797ea
    m_Address: Assets/Source/Audio/Ambience/AMB-swindlers-wharf-ambience.wav
    m_ReadOnly: 0
    m_SerializedLabels: []
    m_MainAsset: {fileID: 0}
    m_TargetAsset: {fileID: 0}
  - m_GUID: 2a65fd01ac4eeec43a580ec25276a5d8
    m_Address: Assets/Source/Audio/Ambience/AMB-beach-ambience-2.wav
    m_ReadOnly: 0
    m_SerializedLabels: []
    m_MainAsset: {fileID: 0}
    m_TargetAsset: {fileID: 0}
  - m_GUID: d85fcf0111cd72d468d0ee491933428c
    m_Address: Assets/Source/Audio/Ambience/AMB-island-jungle-ambience.wav
    m_ReadOnly: 0
    m_SerializedLabels: []
    m_MainAsset: {fileID: 0}
    m_TargetAsset: {fileID: 0}
  - m_GUID: f8bee5a055d1f5249906b08ca3574357
    m_Address: Assets/Source/Audio/Ambience/AMB-tavern-ambience-1.wav
    m_ReadOnly: 0
    m_SerializedLabels: []
    m_MainAsset: {fileID: 0}
    m_TargetAsset: {fileID: 0}
  - m_GUID: 3d7e0ab0acdb47b49a4534380cb68448
    m_Address: Assets/Source/Audio/Ambience/AMB-storm-ambience-1.wav
    m_ReadOnly: 0
    m_SerializedLabels: []
    m_MainAsset: {fileID: 0}
    m_TargetAsset: {fileID: 0}
  - m_GUID: d6d117bff51478b4292df22eae1582dd
    m_Address: Assets/Source/Audio/Ambience/AMB-town-ambience-1.wav
    m_ReadOnly: 0
    m_SerializedLabels: []
    m_MainAsset: {fileID: 0}
    m_TargetAsset: {fileID: 0}
  - m_GUID: fe38cb14135d0254b89040de3ad05cf3
    m_Address: Assets/Source/Audio/Ambience/AMB-ship-ambience-1.wav
    m_ReadOnly: 0
    m_SerializedLabels: []
    m_MainAsset: {fileID: 0}
    m_TargetAsset: {fileID: 0}
  - m_GUID: 13d11f04e316b5a47b128b0787900d15
    m_Address: Assets/Source/Audio/Ambience/AMB-beach-ambience-1.wav
    m_ReadOnly: 0
    m_SerializedLabels: []
    m_MainAsset: {fileID: 0}
    m_TargetAsset: {fileID: 0}
  - m_GUID: f4f5c2c56b1f74962b64c1003c66f853
    m_Address: CutsceneLocation-Tavern
    m_ReadOnly: 0
    m_SerializedLabels: []
    m_MainAsset: {fileID: 0}
    m_TargetAsset: {fileID: 0}
  - m_GUID: c7070054c8f16fd49ba04dfe1abd8172
    m_Address: Assets/Source/Audio/SFX/Text-LetterC.wav
    m_ReadOnly: 0
    m_SerializedLabels: []
    m_MainAsset: {fileID: 0}
    m_TargetAsset: {fileID: 0}
  - m_GUID: 603b26d6eb6014f0fa6e995a7bd0c98e
    m_Address: LevelGrid
    m_ReadOnly: 0
    m_SerializedLabels: []
    m_MainAsset: {fileID: 0}
    m_TargetAsset: {fileID: 0}
  - m_GUID: f77ee02686de2574ea4ae02c0526b705
    m_Address: RecipeViewer
    m_ReadOnly: 0
    m_SerializedLabels: []
    m_MainAsset: {fileID: 0}
    m_TargetAsset: {fileID: 0}
  - m_GUID: dde5b9278ec3e43c197eb48e1c32703b
    m_Address: SummoningSicknessEffect
    m_ReadOnly: 0
    m_SerializedLabels: []
    m_MainAsset: {fileID: 0}
    m_TargetAsset: {fileID: 0}
  - m_GUID: 6a27e03178ef22f49b8f98fbce41b344
    m_Address: OptionsWindow
    m_ReadOnly: 0
    m_SerializedLabels: []
    m_MainAsset: {fileID: 0}
    m_TargetAsset: {fileID: 0}
  - m_GUID: b8e1b01a89076824187e84f71e1332ab
    m_Address: Assets/Source/Audio/Music/ChapterBoss-Intro.wav
    m_ReadOnly: 0
    m_SerializedLabels: []
    m_MainAsset: {fileID: 0}
    m_TargetAsset: {fileID: 0}
  - m_GUID: 6f56f96ab7ef9594381c25ec3cb9159b
    m_Address: Assets/Source/Audio/Music/ChapterBoss-Loop.wav
    m_ReadOnly: 0
    m_SerializedLabels: []
    m_MainAsset: {fileID: 0}
    m_TargetAsset: {fileID: 0}
  - m_GUID: 700b044c41fbb2a4b9bdc23e4a2151e6
    m_Address: Assets/Source/Audio/Music/CharaBattleTheme-Redcroft_Intro.wav
    m_ReadOnly: 0
    m_SerializedLabels: []
    m_MainAsset: {fileID: 0}
    m_TargetAsset: {fileID: 0}
  - m_GUID: 7c84de25adfa68440a3763bf452717b2
    m_Address: Assets/Source/Audio/Music/CharaBattleTheme-Violet_Intro.wav
    m_ReadOnly: 0
    m_SerializedLabels: []
    m_MainAsset: {fileID: 0}
    m_TargetAsset: {fileID: 0}
  - m_GUID: 4f87957243a094c44b0446c08ea86413
    m_Address: Assets/Source/Audio/Music/CharaBattleTheme-Violet_Loop.wav
    m_ReadOnly: 0
    m_SerializedLabels: []
    m_MainAsset: {fileID: 0}
    m_TargetAsset: {fileID: 0}
  - m_GUID: d51f15fab8d72194e838f5687efdc31f
    m_Address: Assets/Source/Audio/Music/CharaBattleTheme-Redcroft_Loop.wav
    m_ReadOnly: 0
    m_SerializedLabels: []
    m_MainAsset: {fileID: 0}
    m_TargetAsset: {fileID: 0}
  - m_GUID: bcce3609e419a504fa0106e8e625e50f
    m_Address: Assets/Source/Audio/Music/DragonsBelly-Intro.wav
    m_ReadOnly: 0
    m_SerializedLabels: []
    m_MainAsset: {fileID: 0}
    m_TargetAsset: {fileID: 0}
  - m_GUID: f06cca72ddbaec247a929e95869316ab
    m_Address: Assets/Source/Audio/Music/DragonsBelly-Loop.wav
    m_ReadOnly: 0
    m_SerializedLabels: []
    m_MainAsset: {fileID: 0}
    m_TargetAsset: {fileID: 0}
  - m_GUID: 5e3552bf06354814c8e65008b9691b9b
    m_Address: Assets/Source/Audio/Music/SouthronSeas-Battle-Loop.wav
    m_ReadOnly: 0
    m_SerializedLabels: []
    m_MainAsset: {fileID: 0}
    m_TargetAsset: {fileID: 0}
  - m_GUID: 827114aec365b8641aba0350792aebda
    m_Address: Assets/Source/Audio/Music/SouthronSeas-Battle-Intro.wav
    m_ReadOnly: 0
    m_SerializedLabels: []
    m_MainAsset: {fileID: 0}
    m_TargetAsset: {fileID: 0}
  - m_GUID: 884a232fe4321dd4398c5af84c1743ac
    m_Address: Assets/Source/Audio/Music/SwindlersWharf-Battle-Intro.wav
    m_ReadOnly: 0
    m_SerializedLabels: []
    m_MainAsset: {fileID: 0}
    m_TargetAsset: {fileID: 0}
  - m_GUID: 17786f83997f40446830302cc2a11d2b
    m_Address: Assets/Source/Audio/Music/SwindlersWharf-Battle-Loop.wav
    m_ReadOnly: 0
    m_SerializedLabels: []
    m_MainAsset: {fileID: 0}
    m_TargetAsset: {fileID: 0}
  - m_GUID: e02ff613e5b5e7249920eec50099e09b
    m_Address: Assets/Source/Audio/Music/Jingle-BattleStart.wav
    m_ReadOnly: 0
    m_SerializedLabels: []
    m_MainAsset: {fileID: 0}
    m_TargetAsset: {fileID: 0}
  - m_GUID: 51af79d891305ca4493820dc5fbeb6cb
    m_Address: Assets/Source/Audio/Music/Jingle-Defeat.wav
    m_ReadOnly: 0
    m_SerializedLabels: []
    m_MainAsset: {fileID: 0}
    m_TargetAsset: {fileID: 0}
  - m_GUID: f55a9890c38945f41b972b6d89ad6833
    m_Address: Assets/Source/Audio/Music/Jingle-PowerCard-Redcroft.wav
    m_ReadOnly: 0
    m_SerializedLabels: []
    m_MainAsset: {fileID: 0}
    m_TargetAsset: {fileID: 0}
  - m_GUID: 6a1db72c28e5cde4084f65846d73edea
    m_Address: Assets/Source/Audio/Music/Jingle-Victory.wav
    m_ReadOnly: 0
    m_SerializedLabels: []
    m_MainAsset: {fileID: 0}
    m_TargetAsset: {fileID: 0}
  - m_GUID: 808f2603eb3498b42b46514b1f38e30f
    m_Address: Assets/Source/Audio/Music/DragonsBelly-Battle_Loop.wav
    m_ReadOnly: 0
    m_SerializedLabels: []
    m_MainAsset: {fileID: 0}
    m_TargetAsset: {fileID: 0}
  - m_GUID: fe8cdd508f0b7764f975b76635d33a21
    m_Address: Assets/Source/Audio/Music/DragonsBelly-Battle_Intro.wav
    m_ReadOnly: 0
    m_SerializedLabels: []
    m_MainAsset: {fileID: 0}
    m_TargetAsset: {fileID: 0}
  - m_GUID: c73e0fe19a0d31e4dac6201b8716fae1
    m_Address: Assets/Source/Audio/Music/MidBoss-Loop.wav
    m_ReadOnly: 0
    m_SerializedLabels: []
    m_MainAsset: {fileID: 0}
    m_TargetAsset: {fileID: 0}
  - m_GUID: b3c847af20871af41a0562e7028255f0
    m_Address: Assets/Source/Audio/Music/MidBoss-Intro.wav
    m_ReadOnly: 0
    m_SerializedLabels: []
    m_MainAsset: {fileID: 0}
    m_TargetAsset: {fileID: 0}
  - m_GUID: d0deda4039b8042c39b5e02a8ad80e1d
    m_Address: CardObtainedEffect
    m_ReadOnly: 0
    m_SerializedLabels: []
    m_MainAsset: {fileID: 0}
    m_TargetAsset: {fileID: 0}
  - m_GUID: 122bcf793e280b749bcfed664b5fe252
    m_Address: Assets/Source/Audio/SFX/TMP-UI-ClickGrab.wav
    m_ReadOnly: 0
    m_SerializedLabels: []
    m_MainAsset: {fileID: 0}
    m_TargetAsset: {fileID: 0}
  - m_GUID: 8ae3a39515ef5a1409f6b57ff2bd5f5e
    m_Address: Assets/Source/Audio/SFX/TMP-UI-SelectLockedItem.wav
    m_ReadOnly: 0
    m_SerializedLabels: []
    m_MainAsset: {fileID: 0}
    m_TargetAsset: {fileID: 0}
  - m_GUID: 58a689016eee8654caf9a7ffe2357e07
    m_Address: Assets/Source/Audio/SFX/TMP-Key_Pickup.wav
    m_ReadOnly: 0
    m_SerializedLabels: []
    m_MainAsset: {fileID: 0}
    m_TargetAsset: {fileID: 0}
  - m_GUID: 40e1bd6c72c84f64599b774f1623ccee
    m_Address: Assets/Source/Audio/SFX/TMP-UI-ClickDrop.wav
    m_ReadOnly: 0
    m_SerializedLabels: []
    m_MainAsset: {fileID: 0}
    m_TargetAsset: {fileID: 0}
  - m_GUID: 5ea2aab96bef04d86a19f162b6a82225
    m_Address: Assets/Source/Audio/SFX/TMP-Footstep.wav
    m_ReadOnly: 0
    m_SerializedLabels: []
    m_MainAsset: {fileID: 0}
    m_TargetAsset: {fileID: 0}
  - m_GUID: cb534aaf5e4a9b04fa2b9ccbb2271a42
    m_Address: Assets/Source/Audio/SFX/CB-Logo - BlitzSequence.wav
    m_ReadOnly: 0
    m_SerializedLabels: []
    m_MainAsset: {fileID: 0}
    m_TargetAsset: {fileID: 0}
  - m_GUID: cc7e251584483473e92c875662922c84
    m_Address: Assets/Source/Audio/SFX/TMP-Footsteps2.wav
    m_ReadOnly: 0
    m_SerializedLabels: []
    m_MainAsset: {fileID: 0}
    m_TargetAsset: {fileID: 0}
  - m_GUID: af57f5ac6964041419cd34f40dd0dc8f
    m_Address: Assets/Source/Audio/SFX/CB-Logo - CrossSpawn.wav
    m_ReadOnly: 0
    m_SerializedLabels: []
    m_MainAsset: {fileID: 0}
    m_TargetAsset: {fileID: 0}
  - m_GUID: ef7ec21c2a7fc4aaa83efdd90bd37d29
    m_Address: Assets/Source/Audio/SFX/TMP-JumpLand2.wav
    m_ReadOnly: 0
    m_SerializedLabels: []
    m_MainAsset: {fileID: 0}
    m_TargetAsset: {fileID: 0}
  - m_GUID: 81e05353c1ee94c4894bdf8d459e6ec8
    m_Address: Assets/Source/Audio/SFX/CB-Logo - Daggers-Arrows.wav
    m_ReadOnly: 0
    m_SerializedLabels: []
    m_MainAsset: {fileID: 0}
    m_TargetAsset: {fileID: 0}
  - m_GUID: 90e97ce85deec4aa3814794622a22fea
    m_Address: Assets/Source/Audio/SFX/TMP-Jump.wav
    m_ReadOnly: 0
    m_SerializedLabels: []
    m_MainAsset: {fileID: 0}
    m_TargetAsset: {fileID: 0}
  - m_GUID: 19a6566b01fbbda42a71692b22f62f1a
    m_Address: Assets/Source/Audio/SFX/CB-Logo - Entrance-Exit Whoosh.wav
    m_ReadOnly: 0
    m_SerializedLabels: []
    m_MainAsset: {fileID: 0}
    m_TargetAsset: {fileID: 0}
  - m_GUID: 7119ba4e35aaa49c7bfff839ab642829
    m_Address: Assets/Source/Audio/SFX/TMP-JumpLand.wav
    m_ReadOnly: 0
    m_SerializedLabels: []
    m_MainAsset: {fileID: 0}
    m_TargetAsset: {fileID: 0}
  - m_GUID: f732af98a6e354340beea416af1d298a
    m_Address: Assets/Source/Audio/SFX/CB-Logo - Whole Sequence.wav
    m_ReadOnly: 0
    m_SerializedLabels: []
    m_MainAsset: {fileID: 0}
    m_TargetAsset: {fileID: 0}
  - m_GUID: b4538d54c2d4837439ab9b984df2c723
    m_Address: Assets/Source/Audio/SFX/CB-Logo - Whole Sequence_NoCharacterWhooshes.wav
    m_ReadOnly: 0
    m_SerializedLabels: []
    m_MainAsset: {fileID: 0}
    m_TargetAsset: {fileID: 0}
  - m_GUID: 1bac96597671c9b4f9b724da9f02a957
    m_Address: Assets/Source/Audio/SFX/CB-Logo - X Slashes.wav
    m_ReadOnly: 0
    m_SerializedLabels: []
    m_MainAsset: {fileID: 0}
    m_TargetAsset: {fileID: 0}
  - m_GUID: c82c06ece8c6c1844accd60fd912eb68
    m_Address: Assets/Source/Audio/Music/TitleScreen.wav
    m_ReadOnly: 0
    m_SerializedLabels: []
    m_MainAsset: {fileID: 0}
    m_TargetAsset: {fileID: 0}
  - m_GUID: fa0e12f077ec83746983345074c255d8
    m_Address: Assets/Source/Audio/Music/Battle Results-Loop.wav
    m_ReadOnly: 0
    m_SerializedLabels: []
    m_MainAsset: {fileID: 0}
    m_TargetAsset: {fileID: 0}
  - m_GUID: 624203a86fa61c14d8f7f753e3eedefc
    m_Address: Assets/Source/Audio/Music/Battle Results-Intro.wav
    m_ReadOnly: 0
    m_SerializedLabels: []
    m_MainAsset: {fileID: 0}
    m_TargetAsset: {fileID: 0}
  - m_GUID: 2d110be263ee2c84a8a3b968a0815efd
    m_Address: Assets/Source/Audio/Ambience/AMB-night-ambience-1.wav
    m_ReadOnly: 0
    m_SerializedLabels: []
    m_MainAsset: {fileID: 0}
    m_TargetAsset: {fileID: 0}
  - m_GUID: ec34618d4686e1543bd37412ad2671bb
    m_Address: Assets/Source/Audio/Ambience/AMB-daytime-ambience-1.wav
    m_ReadOnly: 0
    m_SerializedLabels: []
    m_MainAsset: {fileID: 0}
    m_TargetAsset: {fileID: 0}
  - m_GUID: 61e817dd0bac6b8488306fb5bd35ede2
    m_Address: Assets/Source/Audio/Music/Dragons Belly Island-Intro.wav
    m_ReadOnly: 0
    m_SerializedLabels: []
    m_MainAsset: {fileID: 0}
    m_TargetAsset: {fileID: 0}
  - m_GUID: c0514dc495136ee48bb615f359c8c47c
    m_Address: Assets/Source/Audio/Music/Dragons Belly Island-Loop.wav
    m_ReadOnly: 0
    m_SerializedLabels: []
    m_MainAsset: {fileID: 0}
    m_TargetAsset: {fileID: 0}
  - m_GUID: b781ee5a96a484d16bf9ca84b39219a6
    m_Address: MatchFinished
    m_ReadOnly: 0
    m_SerializedLabels: []
    m_MainAsset: {fileID: 0}
    m_TargetAsset: {fileID: 0}
  - m_GUID: d93e6cf064a03584a881d674a588d614
    m_Address: Assets/Source/Audio/Music/Dragons Belly Island Battle - Intro.wav
    m_ReadOnly: 0
    m_SerializedLabels: []
    m_MainAsset: {fileID: 0}
    m_TargetAsset: {fileID: 0}
  - m_GUID: 79b9a6289047038468a6cbd1b88bf9b9
    m_Address: Assets/Source/Audio/Music/Dragons Belly Island Battle - Loop.wav
    m_ReadOnly: 0
    m_SerializedLabels: []
    m_MainAsset: {fileID: 0}
    m_TargetAsset: {fileID: 0}
  - m_GUID: ab3776c914d5c8544bba3f7df3bca1db
    m_Address: ChapterFinished
    m_ReadOnly: 0
    m_SerializedLabels: []
    m_MainAsset: {fileID: 0}
    m_TargetAsset: {fileID: 0}
  - m_GUID: 5c9e5611e868b194fab4fc4a47dbdc6a
    m_Address: ManaMeld
    m_ReadOnly: 0
    m_SerializedLabels: []
    m_MainAsset: {fileID: 0}
    m_TargetAsset: {fileID: 0}
  - m_GUID: 2c0d8d2e7d8764a069d1966e6fa6f1a6
    m_Address: animations/card
    m_ReadOnly: 0
    m_SerializedLabels:
    - animation-asset
    m_MainAsset: {fileID: 0}
    m_TargetAsset: {fileID: 0}
  - m_GUID: 95b885121d0824a2e9fbb98719880cc1
    m_Address: animations/cannonball
    m_ReadOnly: 0
    m_SerializedLabels:
    - animation-asset
    m_MainAsset: {fileID: 0}
    m_TargetAsset: {fileID: 0}
  - m_GUID: e48c489570224164e921c228d2de01ae
    m_Address: CardControlsEffect_Zoomed
    m_ReadOnly: 0
    m_SerializedLabels: []
    m_MainAsset: {fileID: 0}
    m_TargetAsset: {fileID: 0}
  - m_GUID: eaa01b72be3870f4e9e641e3df313035
    m_Address: CardControlsEffect_Standard
    m_ReadOnly: 0
    m_SerializedLabels: []
    m_MainAsset: {fileID: 0}
    m_TargetAsset: {fileID: 0}
  - m_GUID: 399c13b70fa3e49d6abac422fe0d022c
    m_Address: RiffEffect
    m_ReadOnly: 0
    m_SerializedLabels: []
    m_MainAsset: {fileID: 0}
    m_TargetAsset: {fileID: 0}
  - m_GUID: c63243e10f63c47a7b6f56b209a655e0
    m_Address: GolemBuildEffect
    m_ReadOnly: 0
    m_SerializedLabels: []
    m_MainAsset: {fileID: 0}
    m_TargetAsset: {fileID: 0}
  - m_GUID: cc702515dfd5947348a877582077a7d4
    m_Address: SilenceEffect
    m_ReadOnly: 0
    m_SerializedLabels: []
    m_MainAsset: {fileID: 0}
    m_TargetAsset: {fileID: 0}
  - m_GUID: ccc2a4297527e4a5bab8d6522eee57d3
    m_Address: DiscardEffect
    m_ReadOnly: 0
    m_SerializedLabels: []
    m_MainAsset: {fileID: 0}
    m_TargetAsset: {fileID: 0}
  - m_GUID: 09eef6066ef97479cbee77cc4885ff44
    m_Address: TrapCardEffect
    m_ReadOnly: 0
    m_SerializedLabels: []
    m_MainAsset: {fileID: 0}
    m_TargetAsset: {fileID: 0}
  - m_GUID: eb68ce3bfc22c8e4fb662831c4b96f1b
    m_Address: ManaMeldCollectionRecipe
    m_ReadOnly: 0
    m_SerializedLabels: []
    m_MainAsset: {fileID: 0}
    m_TargetAsset: {fileID: 0}
  - m_GUID: 365d1d1c04240449aa3b2482c79a8e4c
    m_Address: FocusEffectStandard
    m_ReadOnly: 0
    m_SerializedLabels: []
    m_MainAsset: {fileID: 0}
    m_TargetAsset: {fileID: 0}
  - m_GUID: 97c54941fb3bc68488c6a4551c5ff9e9
    m_Address: FocusEffectZoomed
    m_ReadOnly: 0
    m_SerializedLabels: []
    m_MainAsset: {fileID: 0}
    m_TargetAsset: {fileID: 0}
  - m_GUID: 3c1ec535f8470b24f8d1a13256d4bd37
    m_Address: GlareEffect
    m_ReadOnly: 0
    m_SerializedLabels: []
    m_MainAsset: {fileID: 0}
    m_TargetAsset: {fileID: 0}
  - m_GUID: 7b77d28e8bcb7664eba351acb3e6e022
    m_Address: SacrificialStageEffect
    m_ReadOnly: 0
    m_SerializedLabels: []
    m_MainAsset: {fileID: 0}
    m_TargetAsset: {fileID: 0}
  - m_GUID: e8528ffde7d5b3b4b8c167eb56f75215
    m_Address: RecruitmentEffect
    m_ReadOnly: 0
    m_SerializedLabels: []
    m_MainAsset: {fileID: 0}
    m_TargetAsset: {fileID: 0}
  - m_GUID: 2432dd05f428e7a4b8c54259d0ad0480
    m_Address: SignHereEffect
    m_ReadOnly: 0
    m_SerializedLabels: []
    m_MainAsset: {fileID: 0}
    m_TargetAsset: {fileID: 0}
  - m_GUID: ca6fd24e84e837e40873b4ec8d138fed
    m_Address: ComboSlashEffect
    m_ReadOnly: 0
    m_SerializedLabels: []
    m_MainAsset: {fileID: 0}
    m_TargetAsset: {fileID: 0}
  - m_GUID: e0dd27bb4f0b24662b944ac9a336666c
    m_Address: VoidSlashBoardEffect
    m_ReadOnly: 0
    m_SerializedLabels: []
    m_MainAsset: {fileID: 0}
    m_TargetAsset: {fileID: 0}
  - m_GUID: 3be67d1547c5cc9498b6a58940f3753c
    m_Address: EruptionEffect
    m_ReadOnly: 0
    m_SerializedLabels: []
    m_MainAsset: {fileID: 0}
    m_TargetAsset: {fileID: 0}
  - m_GUID: c7bae62f9d699254cb80af49bce7fe6e
    m_Address: SoulSummonEffect
    m_ReadOnly: 0
    m_SerializedLabels: []
    m_MainAsset: {fileID: 0}
    m_TargetAsset: {fileID: 0}
  - m_GUID: f6f2f6538bcd43449b4933d06fbb2072
    m_Address: OvergrowSummonEffect
    m_ReadOnly: 0
    m_SerializedLabels: []
    m_MainAsset: {fileID: 0}
    m_TargetAsset: {fileID: 0}
  - m_GUID: 4021b155d777baf47ba7f276e57382ff
    m_Address: HellfireEffect
    m_ReadOnly: 0
    m_SerializedLabels: []
    m_MainAsset: {fileID: 0}
    m_TargetAsset: {fileID: 0}
  - m_GUID: 03ab2babeb685674ca87fe4bc000411b
    m_Address: HellfireBoardEffect
    m_ReadOnly: 0
    m_SerializedLabels: []
    m_MainAsset: {fileID: 0}
    m_TargetAsset: {fileID: 0}
  - m_GUID: e15bacc121135d748add191b364c6f16
    m_Address: WarCryEffect
    m_ReadOnly: 0
    m_SerializedLabels: []
    m_MainAsset: {fileID: 0}
    m_TargetAsset: {fileID: 0}
  - m_GUID: 1a178848f093d2c40acf82d07d0ffd26
    m_Address: BladeBombBarrelEffect
    m_ReadOnly: 0
    m_SerializedLabels: []
    m_MainAsset: {fileID: 0}
    m_TargetAsset: {fileID: 0}
  - m_GUID: 8199901c715fdd541beb55fd5c33a1f8
    m_Address: BladeBombProjectileEffect
    m_ReadOnly: 0
    m_SerializedLabels: []
    m_MainAsset: {fileID: 0}
    m_TargetAsset: {fileID: 0}
  - m_GUID: d0078553be1765d4b9afc4140da15a52
    m_Address: LiquidGoldEffect
    m_ReadOnly: 0
    m_SerializedLabels: []
    m_MainAsset: {fileID: 0}
    m_TargetAsset: {fileID: 0}
  - m_GUID: 3c2a60dbb4955d941b50d1284030cd5f
    m_Address: LIquidGoldProjectileEffect
    m_ReadOnly: 0
    m_SerializedLabels: []
    m_MainAsset: {fileID: 0}
    m_TargetAsset: {fileID: 0}
  - m_GUID: cb822a79c90fae44e9cc7ec66d33fb0b
    m_Address: PlunderEffect
    m_ReadOnly: 0
    m_SerializedLabels: []
    m_MainAsset: {fileID: 0}
    m_TargetAsset: {fileID: 0}
  - m_GUID: 01af887580d751c4b8398615d2a5533f
    m_Address: Assets/Source/Animation/focus-spark-large.asset
    m_ReadOnly: 0
    m_SerializedLabels: []
    m_MainAsset: {fileID: 0}
    m_TargetAsset: {fileID: 0}
  - m_GUID: 25c1ff3367dba40469e796c8d41254b5
    m_Address: CannonBall
    m_ReadOnly: 0
    m_SerializedLabels: []
    m_MainAsset: {fileID: 0}
    m_TargetAsset: {fileID: 0}
  - m_GUID: 028266d39b10ff346935396a30449df0
    m_Address: CannonBallSummonEffect
    m_ReadOnly: 0
    m_SerializedLabels: []
    m_MainAsset: {fileID: 0}
    m_TargetAsset: {fileID: 0}
  - m_GUID: 82fff0b29f2257d44b0f741af1e6786d
    m_Address: PyreCannonEffect
    m_ReadOnly: 0
    m_SerializedLabels: []
    m_MainAsset: {fileID: 0}
    m_TargetAsset: {fileID: 0}
  - m_GUID: a087408aba4c1374993b77e2be450d50
    m_Address: PyreCannonEffectProjectile
    m_ReadOnly: 0
    m_SerializedLabels: []
    m_MainAsset: {fileID: 0}
    m_TargetAsset: {fileID: 0}
  - m_GUID: c7ab1237a5d7d4a74aa904a7fbc01659
    m_Address: TargetingEffect
    m_ReadOnly: 0
    m_SerializedLabels: []
    m_MainAsset: {fileID: 0}
    m_TargetAsset: {fileID: 0}
  - m_GUID: 4a5ed7a745ed90447b0694d0e2ee182f
    m_Address: LifestealEffect
    m_ReadOnly: 0
    m_SerializedLabels: []
    m_MainAsset: {fileID: 0}
    m_TargetAsset: {fileID: 0}
  - m_GUID: 844f122c7671c694fad60f2e3b02adfc
    m_Address: CutsceneLocation-ManaMines
    m_ReadOnly: 0
    m_SerializedLabels: []
    m_MainAsset: {fileID: 0}
    m_TargetAsset: {fileID: 0}
  - m_GUID: 4f041bee58b95f64aa65d7876be33224
    m_Address: CutsceneLocation-SeaspoutPier
    m_ReadOnly: 0
    m_SerializedLabels: []
    m_MainAsset: {fileID: 0}
    m_TargetAsset: {fileID: 0}
  - m_GUID: d3aacaaa4ba93ca42824ed969616b095
    m_Address: CutsceneLocation-StarscapePlains
    m_ReadOnly: 0
    m_SerializedLabels: []
    m_MainAsset: {fileID: 0}
    m_TargetAsset: {fileID: 0}
  - m_GUID: eb131d6bd0ccc054fb31d46deb8e9868
    m_Address: BurstStrikeEffect
    m_ReadOnly: 0
    m_SerializedLabels: []
    m_MainAsset: {fileID: 0}
    m_TargetAsset: {fileID: 0}
  - m_GUID: a6f787a7c0b26d04da9145898c9c435d
    m_Address: BurstStrikeProjectileEffect
    m_ReadOnly: 0
    m_SerializedLabels: []
    m_MainAsset: {fileID: 0}
    m_TargetAsset: {fileID: 0}
  - m_GUID: d6dd2fb6c71648c4d885c191c956fd89
    m_Address: BananaBuffEffect
    m_ReadOnly: 0
    m_SerializedLabels: []
    m_MainAsset: {fileID: 0}
    m_TargetAsset: {fileID: 0}
  - m_GUID: 19f890e4caec2694eb7dc892cba461d6
    m_Address: CutsceneLocation-GlimmerglowCasino
    m_ReadOnly: 0
    m_SerializedLabels: []
    m_MainAsset: {fileID: 0}
    m_TargetAsset: {fileID: 0}
  - m_GUID: e577a1c6478543d49ac589a2bf58fa29
    m_Address: ChillWindEffect
    m_ReadOnly: 0
    m_SerializedLabels: []
    m_MainAsset: {fileID: 0}
    m_TargetAsset: {fileID: 0}
  - m_GUID: 7c3612358ef27da46b5ec3db4d40726b
    m_Address: CutsceneLocation-MingmogulManor
    m_ReadOnly: 0
    m_SerializedLabels: []
    m_MainAsset: {fileID: 0}
    m_TargetAsset: {fileID: 0}
  - m_GUID: 801b6d70c95ebe448aa4e937114e3fa7
    m_Address: CutsceneLocation-RubbishRoad
    m_ReadOnly: 0
    m_SerializedLabels: []
    m_MainAsset: {fileID: 0}
    m_TargetAsset: {fileID: 0}
  - m_GUID: 836d14cb670a6a04a9d30e5b1b4c8255
    m_Address: DualstrikeEffect
    m_ReadOnly: 0
    m_SerializedLabels: []
    m_MainAsset: {fileID: 0}
    m_TargetAsset: {fileID: 0}
  - m_GUID: 0817fa30f5ea01b42a85636a5d6278b4
    m_Address: DoubleCrossEffect
    m_ReadOnly: 0
    m_SerializedLabels: []
    m_MainAsset: {fileID: 0}
    m_TargetAsset: {fileID: 0}
  - m_GUID: 44d567895903db747984d910a4af1e52
    m_Address: CutsceneLocation-CrookedKeep
    m_ReadOnly: 0
    m_SerializedLabels: []
    m_MainAsset: {fileID: 0}
    m_TargetAsset: {fileID: 0}
  - m_GUID: b54bf6c5bc566fc49ab3f43abc761d52
    m_Address: BrigadeTrapEffect
    m_ReadOnly: 0
    m_SerializedLabels: []
    m_MainAsset: {fileID: 0}
    m_TargetAsset: {fileID: 0}
  - m_GUID: 38e175f98efa94189a2ac46efe0efb5e
    m_Address: BombEffect
    m_ReadOnly: 0
    m_SerializedLabels: []
    m_MainAsset: {fileID: 0}
    m_TargetAsset: {fileID: 0}
  - m_GUID: f8aca6dc5ad4cf7409cd43899f3d6ab4
    m_Address: GuardEffect
    m_ReadOnly: 0
    m_SerializedLabels: []
    m_MainAsset: {fileID: 0}
    m_TargetAsset: {fileID: 0}
  - m_GUID: 4c35cb54c16754ee1b6fcf0d43d8b88c
    m_Address: DraconicDiveAreaEffect
    m_ReadOnly: 0
    m_SerializedLabels: []
    m_MainAsset: {fileID: 0}
    m_TargetAsset: {fileID: 0}
  - m_GUID: 828a990acfc5bd942b8226fc23432bbd
    m_Address: FireballAreaEffect
    m_ReadOnly: 0
    m_SerializedLabels: []
    m_MainAsset: {fileID: 0}
    m_TargetAsset: {fileID: 0}
  - m_GUID: 39832f530a9a23544b993af10b275921
    m_Address: DraconicFireballAreaEffect
    m_ReadOnly: 0
    m_SerializedLabels: []
    m_MainAsset: {fileID: 0}
    m_TargetAsset: {fileID: 0}
  - m_GUID: aa51387c529fbfb45b80bcd5a3742da9
    m_Address: PyroShotEffect
    m_ReadOnly: 0
    m_SerializedLabels: []
    m_MainAsset: {fileID: 0}
    m_TargetAsset: {fileID: 0}
  - m_GUID: b59ffd283510f8a40adfd1c1769f471d
    m_Address: FragileManaEffect
    m_ReadOnly: 0
    m_SerializedLabels: []
    m_MainAsset: {fileID: 0}
    m_TargetAsset: {fileID: 0}
  - m_GUID: 2248e3a91c1089f4aa4910b136f2fddd
    m_Address: FragileManaProjectileEffect
    m_ReadOnly: 0
    m_SerializedLabels: []
    m_MainAsset: {fileID: 0}
    m_TargetAsset: {fileID: 0}
  - m_GUID: c55f28139d9874d1c95531f3b2ecc1a5
    m_Address: BlizzardEffect
    m_ReadOnly: 0
    m_SerializedLabels: []
    m_MainAsset: {fileID: 0}
    m_TargetAsset: {fileID: 0}
  - m_GUID: 52341a13512794a88be544e780181983
    m_Address: PoisonPuffEffect
    m_ReadOnly: 0
    m_SerializedLabels: []
    m_MainAsset: {fileID: 0}
    m_TargetAsset: {fileID: 0}
  - m_GUID: 4ef312610e2f24a67ad5e687375eff55
    m_Address: GiveFrostAbilityEffect
    m_ReadOnly: 0
    m_SerializedLabels: []
    m_MainAsset: {fileID: 0}
    m_TargetAsset: {fileID: 0}
  - m_GUID: 8bdbbd4763daa431bac680081968f47e
    m_Address: TransformPoofEffect
    m_ReadOnly: 0
    m_SerializedLabels: []
    m_MainAsset: {fileID: 0}
    m_TargetAsset: {fileID: 0}
  - m_GUID: be02649758fa64e7eaa3e087069056f7
    m_Address: BiteEffect
    m_ReadOnly: 0
    m_SerializedLabels: []
    m_MainAsset: {fileID: 0}
    m_TargetAsset: {fileID: 0}
  - m_GUID: 10ff9ae01cc214029a51b8db223b60e5
    m_Address: UseCardEffect
    m_ReadOnly: 0
    m_SerializedLabels: []
    m_MainAsset: {fileID: 0}
    m_TargetAsset: {fileID: 0}
  - m_GUID: f19f1d1be9c07439ba2e4a495254523d
    m_Address: CannonEffect
    m_ReadOnly: 0
    m_SerializedLabels: []
    m_MainAsset: {fileID: 0}
    m_TargetAsset: {fileID: 0}
  - m_GUID: e93b223a812fd452ab0ae9dcffdda8bb
    m_Address: FleetingEffect
    m_ReadOnly: 0
    m_SerializedLabels: []
    m_MainAsset: {fileID: 0}
    m_TargetAsset: {fileID: 0}
  - m_GUID: ca6d21ac94c1f47cabe83fadfad56caa
    m_Address: tutorial-images/en/temp-tutorial-image
    m_ReadOnly: 0
    m_SerializedLabels: []
    m_MainAsset: {fileID: 0}
    m_TargetAsset: {fileID: 0}
  - m_GUID: c2fc79cce94b24630bbfb63c5b08df9a
    m_Address: TutorialPopup
    m_ReadOnly: 0
    m_SerializedLabels: []
    m_MainAsset: {fileID: 0}
    m_TargetAsset: {fileID: 0}
  - m_GUID: be43a1c57e1efcc49a7aa964b2bd7e7d
    m_Address: CardLocationHoverEffect
    m_ReadOnly: 0
    m_SerializedLabels: []
    m_MainAsset: {fileID: 0}
    m_TargetAsset: {fileID: 0}
  - m_GUID: 338b48ff100d6450dbc7e1064a0e208e
    m_Address: tutorial-images/en/temp-tutorial-image-2
    m_ReadOnly: 0
    m_SerializedLabels: []
    m_MainAsset: {fileID: 0}
    m_TargetAsset: {fileID: 0}
  - m_GUID: fdf75572dd2fa42d290f5078a292e210
    m_Address: AddPuffCapToDeck
    m_ReadOnly: 0
    m_SerializedLabels: []
    m_MainAsset: {fileID: 0}
    m_TargetAsset: {fileID: 0}
  - m_GUID: 604d5df8cbdaa46f2aa634d18028de16
    m_Address: PuffCannonEffect
    m_ReadOnly: 0
    m_SerializedLabels: []
    m_MainAsset: {fileID: 0}
    m_TargetAsset: {fileID: 0}
  - m_GUID: 1a2a405cc48b747238215a534ad1c84b
    m_Address: BottleProjectileEffect
    m_ReadOnly: 0
    m_SerializedLabels: []
    m_MainAsset: {fileID: 0}
    m_TargetAsset: {fileID: 0}
  - m_GUID: 96e05f9eef89a46c7b9bc195e7a252d1
    m_Address: PoisonEffect
    m_ReadOnly: 0
    m_SerializedLabels: []
    m_MainAsset: {fileID: 0}
    m_TargetAsset: {fileID: 0}
  - m_GUID: 05880117e234d4ed0bccae36e9863ad9
    m_Address: RedwingCannonEffect
    m_ReadOnly: 0
    m_SerializedLabels: []
    m_MainAsset: {fileID: 0}
    m_TargetAsset: {fileID: 0}
  - m_GUID: 2b6af059887894599a58c9c9e2676554
    m_Address: ToadstoolToot
    m_ReadOnly: 0
    m_SerializedLabels: []
    m_MainAsset: {fileID: 0}
    m_TargetAsset: {fileID: 0}
  - m_GUID: df2f0f7a5601b44e2abdd57bc3b65573
    m_Address: EruptionWorldEffect
    m_ReadOnly: 0
    m_SerializedLabels: []
    m_MainAsset: {fileID: 0}
    m_TargetAsset: {fileID: 0}
  m_ReadOnly: 0
  m_Settings: {fileID: 11400000, guid: 53c76aea1816f4cdeb2d22725b3b0be0, type: 2}
  m_SchemaSet:
    m_Schemas:
    - {fileID: 11400000, guid: 122c2acf805da4fbe8e631edaf43e817, type: 2}
    - {fileID: 11400000, guid: 73e9decc534484caebb2433a93b701fb, type: 2}
