%YAML 1.1
%TAG !u! tag:unity3d.com,2011:
--- !u!114 &11400000
MonoBehaviour:
  m_ObjectHideFlags: 0
  m_CorrespondingSourceObject: {fileID: 0}
  m_PrefabInstance: {fileID: 0}
  m_PrefabAsset: {fileID: 0}
  m_GameObject: {fileID: 0}
  m_Enabled: 1
  m_EditorHideFlags: 0
  m_Script: {fileID: 11500000, guid: 093286084a3d1994a9c28281a1c38b1d, type: 3}
  m_Name: PlayFabSharedSettings
  m_EditorClassIdentifier: 
  TitleId: 466C1
  DeveloperSecretKey: 161YEEI93IWNYHWW9E6PBNDU3BJS48D39DKF8XD1NPX8W6MGGE
  ProductionEnvironmentUrl: 
  RequestType: 2
  AdvertisingIdType: 
  AdvertisingIdValue: 
  DisableAdvertising: 0
  DisableDeviceInfo: 0
  DisableFocusTimeCollection: 0
  RequestTimeout: 2000
  RequestKeepAlive: 1
  CompressApiData: 1
  LogLevel: 12
  LoggerHost: 
  LoggerPort: 0
  EnableRealTimeLogging: 0
  LogCapLimit: 30
