%YAML 1.1
%TAG !u! tag:unity3d.com,2011:
--- !u!21 &-2502181525709508554
Material:
  serializedVersion: 6
  m_ObjectHideFlags: 1
  m_CorrespondingSourceObject: {fileID: 0}
  m_PrefabInstance: {fileID: 0}
  m_PrefabAsset: {fileID: 0}
  m_Name: TextMeshPro/Sprite
  m_Shader: {fileID: 4800000, guid: cf81c85f95fe47e1a27f6ae460cf182c, type: 3}
  m_ShaderKeywords: 
  m_LightmapFlags: 4
  m_EnableInstancingVariants: 0
  m_DoubleSidedGI: 0
  m_CustomRenderQueue: -1
  stringTagMap: {}
  disabledShaderPasses: []
  m_SavedProperties:
    serializedVersion: 3
    m_TexEnvs:
    - _MainTex:
        m_Texture: {fileID: 2800000, guid: 47015175b589c41b1b6915714a002beb, type: 3}
        m_Scale: {x: 1, y: 1}
        m_Offset: {x: 0, y: 0}
    m_Floats:
    - _ColorMask: 15
    - _Stencil: 0
    - _StencilComp: 8
    - _StencilOp: 0
    - _StencilReadMask: 255
    - _StencilWriteMask: 255
    - _UseUIAlphaClip: 0
    m_Colors:
    - _ClipRect: {r: -32767, g: -32767, b: 32767, a: 32767}
    - _Color: {r: 1, g: 1, b: 1, a: 1}
  m_BuildTextureStacks: []
--- !u!114 &11400000
MonoBehaviour:
  m_ObjectHideFlags: 0
  m_CorrespondingSourceObject: {fileID: 0}
  m_PrefabInstance: {fileID: 0}
  m_PrefabAsset: {fileID: 0}
  m_GameObject: {fileID: 0}
  m_Enabled: 1
  m_EditorHideFlags: 0
  m_Script: {fileID: 11500000, guid: 84a92b25f83d49b9bc132d206b370281, type: 3}
  m_Name: multi-card-icon-numbers-Mythic-a_8x8
  m_EditorClassIdentifier: 
  hashCode: 1062300815
  material: {fileID: -2502181525709508554}
  materialHashCode: 0
  m_Version: 1.1.0
  m_FaceInfo:
    m_FaceIndex: 0
    m_FamilyName: 
    m_StyleName: 
    m_PointSize: 0
    m_Scale: 0
    m_LineHeight: 0
    m_AscentLine: 0
    m_CapLine: 0
    m_MeanLine: 0
    m_Baseline: 0
    m_DescentLine: 0
    m_SuperscriptOffset: 0
    m_SuperscriptSize: 0
    m_SubscriptOffset: 0
    m_SubscriptSize: 0
    m_UnderlineOffset: 0
    m_UnderlineThickness: 0
    m_StrikethroughOffset: 0
    m_StrikethroughThickness: 0
    m_TabWidth: 0
  spriteSheet: {fileID: 2800000, guid: 47015175b589c41b1b6915714a002beb, type: 3}
  m_SpriteCharacterTable:
  - m_ElementType: 2
    m_Unicode: 65534
    m_GlyphIndex: 0
    m_Scale: 1
    m_Name: multi-card-icon-numbers-Mythic-a_8x8_0
    m_HashCode: 1499382784
  - m_ElementType: 2
    m_Unicode: 65534
    m_GlyphIndex: 1
    m_Scale: 1
    m_Name: multi-card-icon-numbers-Mythic-a_8x8_1
    m_HashCode: 1499382785
  - m_ElementType: 2
    m_Unicode: 65534
    m_GlyphIndex: 2
    m_Scale: 1
    m_Name: multi-card-icon-numbers-Mythic-a_8x8_2
    m_HashCode: 1499382786
  - m_ElementType: 2
    m_Unicode: 65534
    m_GlyphIndex: 3
    m_Scale: 1
    m_Name: multi-card-icon-numbers-Mythic-a_8x8_3
    m_HashCode: 1499382787
  - m_ElementType: 2
    m_Unicode: 65534
    m_GlyphIndex: 4
    m_Scale: 1
    m_Name: multi-card-icon-numbers-Mythic-a_8x8_4
    m_HashCode: 1499382788
  - m_ElementType: 2
    m_Unicode: 65534
    m_GlyphIndex: 5
    m_Scale: 1
    m_Name: multi-card-icon-numbers-Mythic-a_8x8_5
    m_HashCode: 1499382789
  - m_ElementType: 2
    m_Unicode: 65534
    m_GlyphIndex: 6
    m_Scale: 1
    m_Name: multi-card-icon-numbers-Mythic-a_8x8_6
    m_HashCode: 1499382790
  - m_ElementType: 2
    m_Unicode: 65534
    m_GlyphIndex: 7
    m_Scale: 1
    m_Name: multi-card-icon-numbers-Mythic-a_8x8_7
    m_HashCode: 1499382791
  - m_ElementType: 2
    m_Unicode: 65534
    m_GlyphIndex: 8
    m_Scale: 1
    m_Name: multi-card-icon-numbers-Mythic-a_8x8_8
    m_HashCode: 1499382792
  - m_ElementType: 2
    m_Unicode: 65534
    m_GlyphIndex: 9
    m_Scale: 1
    m_Name: multi-card-icon-numbers-Mythic-a_8x8_9
    m_HashCode: 1499382793
  - m_ElementType: 2
    m_Unicode: 65534
    m_GlyphIndex: 10
    m_Scale: 1
    m_Name: multi-card-icon-numbers-Mythic-a_8x8_10
    m_HashCode: -2059975663
  m_SpriteGlyphTable:
  - m_Index: 0
    m_Metrics:
      m_Width: 8
      m_Height: 8
      m_HorizontalBearingX: -4
      m_HorizontalBearingY: 4
      m_HorizontalAdvance: 8
    m_GlyphRect:
      m_X: 0
      m_Y: 0
      m_Width: 8
      m_Height: 8
    m_Scale: 1
    m_AtlasIndex: 0
    sprite: {fileID: 6444740924639462720, guid: 47015175b589c41b1b6915714a002beb,
      type: 3}
  - m_Index: 1
    m_Metrics:
      m_Width: 8
      m_Height: 8
      m_HorizontalBearingX: -4
      m_HorizontalBearingY: 4
      m_HorizontalAdvance: 8
    m_GlyphRect:
      m_X: 8
      m_Y: 0
      m_Width: 8
      m_Height: 8
    m_Scale: 1
    m_AtlasIndex: 0
    sprite: {fileID: 727712728777904697, guid: 47015175b589c41b1b6915714a002beb, type: 3}
  - m_Index: 2
    m_Metrics:
      m_Width: 8
      m_Height: 8
      m_HorizontalBearingX: -4
      m_HorizontalBearingY: 4
      m_HorizontalAdvance: 8
    m_GlyphRect:
      m_X: 16
      m_Y: 0
      m_Width: 8
      m_Height: 8
    m_Scale: 1
    m_AtlasIndex: 0
    sprite: {fileID: -7832892766570918103, guid: 47015175b589c41b1b6915714a002beb,
      type: 3}
  - m_Index: 3
    m_Metrics:
      m_Width: 8
      m_Height: 8
      m_HorizontalBearingX: -4
      m_HorizontalBearingY: 4
      m_HorizontalAdvance: 8
    m_GlyphRect:
      m_X: 24
      m_Y: 0
      m_Width: 8
      m_Height: 8
    m_Scale: 1
    m_AtlasIndex: 0
    sprite: {fileID: -6723179445219394851, guid: 47015175b589c41b1b6915714a002beb,
      type: 3}
  - m_Index: 4
    m_Metrics:
      m_Width: 8
      m_Height: 8
      m_HorizontalBearingX: -4
      m_HorizontalBearingY: 4
      m_HorizontalAdvance: 8
    m_GlyphRect:
      m_X: 32
      m_Y: 0
      m_Width: 8
      m_Height: 8
    m_Scale: 1
    m_AtlasIndex: 0
    sprite: {fileID: -9023870414668517487, guid: 47015175b589c41b1b6915714a002beb,
      type: 3}
  - m_Index: 5
    m_Metrics:
      m_Width: 8
      m_Height: 8
      m_HorizontalBearingX: -4
      m_HorizontalBearingY: 4
      m_HorizontalAdvance: 8
    m_GlyphRect:
      m_X: 40
      m_Y: 0
      m_Width: 8
      m_Height: 8
    m_Scale: 1
    m_AtlasIndex: 0
    sprite: {fileID: 4411299731321170204, guid: 47015175b589c41b1b6915714a002beb,
      type: 3}
  - m_Index: 6
    m_Metrics:
      m_Width: 8
      m_Height: 8
      m_HorizontalBearingX: -4
      m_HorizontalBearingY: 4
      m_HorizontalAdvance: 8
    m_GlyphRect:
      m_X: 48
      m_Y: 0
      m_Width: 8
      m_Height: 8
    m_Scale: 1
    m_AtlasIndex: 0
    sprite: {fileID: 3050534147114950019, guid: 47015175b589c41b1b6915714a002beb,
      type: 3}
  - m_Index: 7
    m_Metrics:
      m_Width: 8
      m_Height: 8
      m_HorizontalBearingX: -4
      m_HorizontalBearingY: 4
      m_HorizontalAdvance: 8
    m_GlyphRect:
      m_X: 56
      m_Y: 0
      m_Width: 8
      m_Height: 8
    m_Scale: 1
    m_AtlasIndex: 0
    sprite: {fileID: -2944185780770534942, guid: 47015175b589c41b1b6915714a002beb,
      type: 3}
  - m_Index: 8
    m_Metrics:
      m_Width: 8
      m_Height: 8
      m_HorizontalBearingX: -4
      m_HorizontalBearingY: 4
      m_HorizontalAdvance: 8
    m_GlyphRect:
      m_X: 64
      m_Y: 0
      m_Width: 8
      m_Height: 8
    m_Scale: 1
    m_AtlasIndex: 0
    sprite: {fileID: -2804092718917777502, guid: 47015175b589c41b1b6915714a002beb,
      type: 3}
  - m_Index: 9
    m_Metrics:
      m_Width: 8
      m_Height: 8
      m_HorizontalBearingX: -4
      m_HorizontalBearingY: 4
      m_HorizontalAdvance: 8
    m_GlyphRect:
      m_X: 72
      m_Y: 0
      m_Width: 8
      m_Height: 8
    m_Scale: 1
    m_AtlasIndex: 0
    sprite: {fileID: -1038733708666214381, guid: 47015175b589c41b1b6915714a002beb,
      type: 3}
  - m_Index: 10
    m_Metrics:
      m_Width: 8
      m_Height: 8
      m_HorizontalBearingX: -4
      m_HorizontalBearingY: 4
      m_HorizontalAdvance: 8
    m_GlyphRect:
      m_X: 80
      m_Y: 0
      m_Width: 8
      m_Height: 8
    m_Scale: 1
    m_AtlasIndex: 0
    sprite: {fileID: 848828320061995319, guid: 47015175b589c41b1b6915714a002beb, type: 3}
  spriteInfoList: []
  fallbackSpriteAssets: []
