%YAML 1.1
%TAG !u! tag:unity3d.com,2011:
--- !u!114 &11400000
MonoBehaviour:
  m_ObjectHideFlags: 0
  m_CorrespondingSourceObject: {fileID: 0}
  m_PrefabInstance: {fileID: 0}
  m_PrefabAsset: {fileID: 0}
  m_GameObject: {fileID: 0}
  m_Enabled: 1
  m_EditorHideFlags: 0
  m_Script: {fileID: 11500000, guid: 402ed9de97f248e498c3d46ecc8e8ab5, type: 3}
  m_Name: DeckRecipeDatabase
  m_EditorClassIdentifier: 
  deckRecipes:
  - Uid: 4bee95d1-1924-41c8-8f67-9d014a19ab85-b3e0683e-b4af-4300-af36-46c1ef1b7df2-
    collectable: 1
    deckType: 1
    archetype: redcroft-starter
    archetypeDisplayName: Redcroft Starter
    deckData:
      uid: ac920cad-09f3-4593-8826-058d0705c09a-b3e0683e-b4af-4300-af36-46c1ef1b7df2-
      name: Redcroft Starter
      info: 
      hero: Redcroft
      cards:
      - id: PirateRecruit
        count: 8
      - id: Grog
        count: 4
      - id: ShipCannon
        count: 4
      - id: SpinBlade
        count: 4
      - id: Rigbeak
        count: 2
      - id: CutlassSwine
        count: 2
      - id: AdmiralBrass
        count: 2
      - id: SeaFaringApe
        count: 4
      faction: 2
      cardBackUid: Standard_Back_001
    overview: A pirate deck perfect for tenderfooted new recruits!
    howToPlayGuide: Play PIRATE minions to overwhelm your opponents.
    mainCards:
    - id: PirateRecruit
      count: 1
    - id: ShipCannon
      count: 1
    - id: AdmiralBrass
      count: 1
    - id: SeaFaringApe
      count: 1
  - Uid: bf621704-32a0-44cf-b9e7-76c6958cc47a-ccd1c957-2934-4f83-b884-8cf44311d69b-
    collectable: 1
    deckType: 0
    archetype: pirate-party
    archetypeDisplayName: Pirate Party
    deckData:
      uid: 8344e780-0aef-49f0-8dc2-f0ee8f7bf521-ccd1c957-2934-4f83-b884-8cf44311d69b-
      name: Pirate Party I
      info: 
      hero: 
      cards:
      - id: PirateRecruit
        count: 2
      - id: Grog
        count: 4
      - id: Buccaneer
        count: 4
      - id: ShipCannon
        count: 4
      - id: Rigbeak
        count: 2
      - id: BrownTooth
        count: 4
      - id: CutlassSwine
        count: 2
      - id: Blunderbuss
        count: 2
      - id: AdmiralBrass
        count: 2
      - id: SeaFaringApe
        count: 4
      faction: 2
      cardBackUid: Standard_Back_001
    overview: Raid and plunder your opponent with a fearsome <color=#684054>PIRATE</color>
      crew! Raise the sails and set your cannons ablaze in this sea-faring aggro
      deck! Keep your first mate <color=#684054>ADMIRAL BRASS</color> at the ready
      to finish off your opponent!
    howToPlayGuide: "Always mulligan for cheap <color=#54869d>PIRATES</color> like
      <color=#e5ecb1>PIRATE RECRUIT, BROWN TOOTH, CUTLASS SWINE</color> and <color=#e5ecb1>FLINTHOOK.</color>\n\nTry
      to ignore as many of your opponent's minions as possible, and instead prioritize
      dealing damage to the opponent's hero directly.\n\nCombos like <color=#e5ecb1>FLINTHOOK</color>
      + playing various other <color=#54869d>PIRATES</color> in <color=#7e9727>1
      turn</color> can quickly overwhelm the opponent. \n\nFinally, use <color=#e5ecb1>ADMIRAL
      BRASS</color> in combination with your <color=#54869d>PIRATE</color> crew as
      a win condition.\n\n<color=#e5ecb1>BROWN TOOTH's</color> addition to this deck
      adds a great way to get more <color=#54869d>PIRATE</color> minions that will
      synergize with your lethal combos."
    mainCards:
    - id: Buccaneer
      count: 1
    - id: Rigbeak
      count: 1
    - id: CutlassSwine
      count: 1
    - id: AdmiralBrass
      count: 1
  - Uid: d81a5f3d-4f98-407a-aeb1-5d327090f614-070c6b33-fece-44cd-ada9-7da4264f5df2-
    collectable: 1
    deckType: 2
    archetype: blood-boil
    archetypeDisplayName: Blood Boil
    deckData:
      uid: dcde020b-539c-4fdf-9b18-cdc6fbc961a8-070c6b33-fece-44cd-ada9-7da4264f5df2-
      name: Blood Boil I
      info: 
      hero: Redcroft
      cards:
      - id: SpinBlade
        count: 4
      - id: Buccaneer
        count: 4
      - id: WhipGrunt
        count: 4
      - id: RallyGuy
        count: 4
      - id: RageBerserker
        count: 2
      - id: ArmorFairy
        count: 4
      - id: BrutalTyrant
        count: 4
      - id: RottenSlime
        count: 4
      faction: 2
      cardBackUid: Standard_Back_001
    overview: "Blood, brutes, and berserkers! Take control of your opponent\u2019s
      board with efficient minion removal, with combos like <color=#684054>SPIN BLADE
      & ELIMINATE.</color> Gain armor with <color=#684054>ARMOR FAIRY</color> to
      outlast your opponent and finish them off with an unstoppable, boosted <color=#684054>BERSERKER!</color>"
    howToPlayGuide: "Controlling and stalling the board is key to winning with this
      deck. You'll want to stay ahead of your opponent and let them exhaust their
      deck before going on the offensive. \n\nTry and mulligan for early removal
      and armor gain in the form of <color=#e5ecb1>SPIN BLADE</color> and <color=#e5ecb1>ARMOR
      FAIRY.</color> If you can, building a big board for <color=#e5ecb1>ARMOR FAIRY</color>
      with <color=#e5ecb1>PIRATE RECRUITS</color> can give you enough stall for the
      entire game.\n\nBigger threats can be taken down with a <color=#e5ecb1>SPIN
      BLADE</color> and <color=#e5ecb1>ELIMINATE</color> combo. Since this deck requires
      a lot of combo pieces, you'll want to get a lot of value out of <color=#e5ecb1>SUPPLY
      SHIP.</color>\n\nFinish off your opponent using tools like <color=#e5ecb1>BERSERKER</color>
      who get bigger every turn he's in play. But careful not to lose him, he's essential
      to your success!\n\nDuplicating a <color=#e5ecb1>BERSERKER</color> using <color=#e5ecb1>BLOOD
      SUMMON</color> could provide the burst damage you need to win!"
    mainCards:
    - id: SpinBlade
      count: 1
    - id: RallyGuy
      count: 1
    - id: RageBerserker
      count: 1
    - id: BrutalTyrant
      count: 1
  - Uid: fa18839c-139b-4e23-84b2-e281bb9b5cb6-070c6b33-fece-44cd-ada9-7da4264f5df2-
    collectable: 1
    deckType: 2
    archetype: bombs-away
    archetypeDisplayName: Bombs Away
    deckData:
      uid: ab39a21f-7eb6-4843-bab3-ae7bb898479a-070c6b33-fece-44cd-ada9-7da4264f5df2-
      name: Bombs Away I
      info: 
      hero: Redcroft
      cards:
      - id: Grog
        count: 4
      - id: Buccaneer
        count: 2
      - id: ArmorFairy
        count: 4
      - id: JollyBomber
        count: 4
      - id: SpinBlade
        count: 4
      - id: GunpowderPelican
        count: 4
      - id: CutlassSwine
        count: 2
      - id: BattleMagePrestor
        count: 2
      - id: Fortify
        count: 4
      faction: 2
      cardBackUid: Standard_Back_001
    overview: "Blast your way to victory with this highly explosive deck! Stack your
      opponent\u2019s deck with <color=#684054>BOMBS</color> using <color=#684054>JOLLY
      BOMBER & BOOM BIRD</color> and watch as they self-destruct themselves into
      an early grave!\n"
    howToPlayGuide: 'This fairly straightforward deck requires you to keep up with
      your opponent''s minions by blocking any incoming damage while also gaining
      armor. Use <color=#e5ecb1>ARMOR FAIRY</color> for reliable armor gain.


      Using
      <color=#e5ecb1>JOLLY BOMBER</color> and <color=#e5ecb1>BOOM BIRD,</color> start
      accumulating <color=#e5ecb1>BOMBS</color> in your opponent''s deck. Keep up
      the pressure, and they''ll damage themselves enough to win!


      <color=#e5ecb1>BOOM
      BIRD</color> is your most reliable source of <color=#e5ecb1>BOMB</color> additions,
      so you''ll need to play her in the back row behind another <color=#7e9727>MELEE
      minion</color> for protection. Losing her may make it difficult to add enough
      <color=#e5ecb1>BOMBs</color> to the opponent''s deck to win.'
    mainCards:
    - id: JollyBomber
      count: 1
    - id: GunpowderPelican
      count: 1
    - id: BattleMagePrestor
      count: 1
    - id: Fortify
      count: 1
  - Uid: 9323d041-0a17-4d76-9dd5-a947758b0f65-5ed4e4b0-98a3-4c1f-9673-a471dcda54c6-
    collectable: 1
    deckType: 3
    archetype: 
    archetypeDisplayName: Cannon Barrage
    deckData:
      uid: 3dc4956d-ff6e-4475-91bb-186b2e964542-5ed4e4b0-98a3-4c1f-9673-a471dcda54c6-
      name: Cannon Barrage I
      info: 
      hero: Redcroft
      cards:
      - id: PyreWisp
        count: 6
      - id: Buccaneer
        count: 4
      - id: Grog
        count: 2
      - id: ShipCannon
        count: 4
      - id: Cannoneer
        count: 4
      - id: Rigbeak
        count: 2
      - id: Blunderbuss
        count: 4
      - id: SmeltingCannon
        count: 2
      - id: Musket,CannonGeneral
        count: 2
      faction: 2
      cardBackUid: Standard_Back_001
    overview: 
    howToPlayGuide: '- Cannons deal 2 pyro damage on their own, usually making for
      great chip damage but not enough to end games.

      - Cycle Pyre Wisps (have
      them die) increasing their Pyro Damage boost to make Cannons a real threat.

      -
      Use Frizzle Cauldrons to keep summoning Pyre Wisps, this is also a great way
      to defend until you have enough wisps die.

      - You can get each cannon
      dealing something like 12+ damage destroying your opponent''s board or dealing
      lethal damage.

      - You have a limited number of cannons so be wary of
      using them early without any pryo damage boosts.

      - Cannoneers are a
      great way to get multiple procs from cannons since he''s a priate and his effect
      fires cannons.

      - Musket instantly creates 2 cannons and fires them,
      if you have sufficent pyro damage boosts, this can be a really strong win condition.

      -
      You can also use Musket to just get more cannons out or stabilize.'
    mainCards:
    - id: PyreWisp
      count: 1
    - id: ShipCannon
      count: 1
    - id: Cannoneer
      count: 1
    - id: Musket,CannonGeneral
      count: 1
  - Uid: 9296d515-4fe4-47cd-b51d-97bef8b0046c-070c6b33-fece-44cd-ada9-7da4264f5df2-
    collectable: 1
    deckType: 0
    archetype: pirate-party
    archetypeDisplayName: Pirate Party
    deckData:
      uid: d631456c-aa4e-4868-8105-878acf2a894b-070c6b33-fece-44cd-ada9-7da4264f5df2-
      name: Pirate Party II
      info: 
      hero: Redcroft
      cards:
      - id: RedwingRaid
        count: 1
      - id: Grog
        count: 4
      - id: Buccaneer
        count: 4
      - id: Rigbeak
        count: 2
      - id: JollyBomber
        count: 4
      - id: RaidPlunder
        count: 2
      - id: CutlassSwine
        count: 2
      - id: Blunderbuss
        count: 2
      - id: ThePeddler
        count: 4
      - id: AdmiralBrass
        count: 2
      - id: GunpowderPelican
        count: 3
      faction: 2
      cardBackUid: Standard_Back_001
    overview: Raid and plunder your opponent with a fearsome <color=#684054>PIRATE</color>
      crew! Raise the sails and set your cannons ablaze in this sea-faring aggro
      deck! Keep your first mate <color=#684054>ADMIRAL BRASS</color> at the ready
      to finish off your opponent!
    howToPlayGuide: 'Always mulligan for cheap PIRATES like PIRATE RECRUIT, BROWN
      TOOTH, CUTLASS SWINE and FLINTHOOK.


      Try to ignore as many of your opponent''s
      minions as possible, and instead prioritize dealing damage to the opponent''s
      hero directly.


      Combos like FLINTHOOK + playing various other PIRATES
      in 1 turn can quickly overwhelm the opponent.


      If you combo with this
      while activating your BLITZ BURST, you can almost guarentee a win!


      If
      the above combo fails to work, you can play ADMIRAL BRASS with at least 2 PIRATES
      on the board dealing 8 damage right away!


      BROWN TOOTH''s addition to
      this deck adds a great way to get more PIRATE minions that will synergize with
      your lethal combos.'
    mainCards:
    - id: Rigbeak
      count: 1
    - id: CutlassSwine
      count: 1
    - id: ThePeddler
      count: 1
    - id: AdmiralBrass
      count: 1
  - Uid: 154e3614-4f43-4949-b18c-7a6546e290e2-5ed4e4b0-98a3-4c1f-9673-a471dcda54c6-
    collectable: 1
    deckType: 2
    archetype: 
    archetypeDisplayName: Blood Boil
    deckData:
      uid: c7fc5758-51ea-4a80-876b-535bc985952c-5ed4e4b0-98a3-4c1f-9673-a471dcda54c6-
      name: Blood Boil II
      info: 
      hero: Redcroft
      cards:
      - id: BloodCrusade
        count: 1
      - id: VitalBirth
        count: 2
      - id: SpinBlade
        count: 2
      - id: Buccaneer
        count: 2
      - id: WhipGrunt
        count: 2
      - id: SlumberDragon
        count: 2
      - id: SupplyShip
        count: 1
      - id: RallyGuy
        count: 4
      - id: RageBerserker
        count: 2
      - id: ArmorFairy
        count: 4
      - id: BrutalTyrant
        count: 4
      - id: RottenSlime
        count: 2
      - id: WorldTournament
        count: 2
      faction: 2
      cardBackUid: Standard_Back_001
    overview: "Blood, brutes, and berserkers! Take control of your opponent\u2019s
      board with efficient minion removal, with combos like <color=#684054>SPIN BLADE
      & ELIMINATE.</color> Gain armor with <color=#684054>ARMOR FAIRY</color> to
      outlast your opponent and finish them off with an unstoppable, boosted <color=#684054>BERSERKER!</color>"
    howToPlayGuide: "Controlling and stalling the board is key to winning with this
      deck. You'll want to stay ahead of your opponent and let them exhaust their
      deck before going on the offensive. \n\nTry and mulligan for early removal
      and armor gain in the form of <color=#e5ecb1>SPIN BLADE</color> and <color=#e5ecb1>ARMOR
      FAIRY.</color> If you can, building a big board for <color=#e5ecb1>ARMOR FAIRY</color>
      with <color=#e5ecb1>PIRATE RECRUITS</color> can give you enough stall for the
      entire game.\n\nBigger threats can be taken down with a <color=#e5ecb1>SPIN
      BLADE</color> and <color=#e5ecb1>ELIMINATE</color> combo. Since this deck requires
      a lot of combo pieces, you'll want to get a lot of value out of <color=#e5ecb1>SUPPLY
      SHIP.</color>\n\nFinish off your opponent using tools like <color=#e5ecb1>BERSERKER</color>
      who get bigger every turn he's in play. But careful not to lose him, he's essential
      to your success!\n\nDuplicating a <color=#e5ecb1>BERSERKER</color> using <color=#e5ecb1>BLOOD
      SUMMON</color> could provide the burst damage you need to win!"
    mainCards:
    - id: VitalBirth
      count: 2
    - id: RallyGuy
      count: 4
    - id: RageBerserker
      count: 2
    - id: WorldTournament
      count: 1
  - Uid: 270f9196-7e62-44e3-8fa5-14005db5da28-1cd47650-4324-4b61-b5ee-497d9dc1121e-
    collectable: 1
    deckType: 2
    archetype: bombs-away
    archetypeDisplayName: Bombs Away
    deckData:
      uid: e1b58c80-4dc1-4c54-9d98-fe9a91c843c5-1cd47650-4324-4b61-b5ee-497d9dc1121e-
      name: Bombs Away II
      info: 
      hero: Redcroft
      cards:
      - id: ArmorFairy
        count: 4
      - id: SpinBlade
        count: 4
      - id: JollyBomber
        count: 4
      - id: GunpowderPelican
        count: 3
      - id: AdmiralBrass
        count: 1
      - id: CutlassSwine
        count: 2
      - id: Eliminate
        count: 3
      - id: BombToss
        count: 1
      - id: PirateRecruit
        count: 6
      - id: BombBlade
        count: 1
      - id: RallyGuy
        count: 1
      faction: 2
      cardBackUid: Standard_Back_001
    overview: "Blast your way to victory with this highly explosive deck! Stack your
      opponent\u2019s deck with <color=#684054>BOMBS</color> using <color=#684054>JOLLY
      BOMBER & BOOM BIRD</color> and watch as they self-destruct themselves into
      an early grave!"
    howToPlayGuide: 'This is a fairly straightforward deck, you''ll need to keep
      up with your opponent''s minions by blocking any incoming damage while also
      gaining armor, use <color=#e5ecb1>ARMOR FAIRY</color> for reliable armor gain.


      Using
      <color=#e5ecb1>JOLLY BOMBER</color> and <color=#e5ecb1>BOOM BIRD,</color> start
      accumulating <color=#e5ecb1>BOMBs</color> in your opponent''s deck. Eventually,
      if you can keep adding them, they''ll take enough damage for you to win.


      <color=#e5ecb1>BOOM
      BIRD</color> is your most reliable source of <color=#e5ecb1>BOMB</color> additions,
      so you''ll need to play her in the back row behind another <color=#7e9727>Melee
      minion.</color> If you lose her, you may not be able to get enough <color=#e5ecb1>BOMBs</color>
      in the deck to defeat your opponent.


      The addition of <color=#e5ecb1>BOMB
      BLADE</color> and <color=#e5ecb1>BOSS TOSS</color> gives you increased removal
      options and more ways to add <color=#e5ecb1>BOMBs</color> to your opponent''s
      deck!'
    mainCards:
    - id: BombBlade
      count: 1
    - id: JollyBomber
      count: 1
    - id: GunpowderPelican
      count: 1
  - Uid: a76879d0-4c2d-4f70-89fb-3ea485248dd4-5ed4e4b0-98a3-4c1f-9673-a471dcda54c6-
    collectable: 1
    deckType: 3
    archetype: 
    archetypeDisplayName: Cannon Barrage
    deckData:
      uid: 141eae82-5563-4dd6-8589-0b35b40939db-5ed4e4b0-98a3-4c1f-9673-a471dcda54c6-
      name: Cannon Barrage II
      info: 
      hero: Redcroft
      cards: []
      faction: 2
      cardBackUid: Standard_Back_001
    overview: 
    howToPlayGuide: 
    mainCards: []
  - Uid: 0aafe2bf-a162-40b9-9045-7a98ff6dfd42-ecd8df2e-ffae-4dd4-9870-383a7d98179e-
    collectable: 1
    deckType: 1
    archetype: violet-starter
    archetypeDisplayName: Violet Starter
    deckData:
      uid: c96a5ac0-8ddd-416c-ad96-424d53365c65-ecd8df2e-ffae-4dd4-9870-383a7d98179e-
      name: Violet Starter
      info: 
      hero: Violet
      cards:
      - id: BandWorshiper
        count: 8
      - id: CrowdSurfer
        count: 8
      - id: SerpentSong
        count: 8
      - id: BacklineManager
        count: 2
      - id: Groupies
        count: 4
      faction: 6
      cardBackUid: Standard_Back_001
    overview: A starter deck for any aspiring pop star.
    howToPlayGuide: '<color=#e7d99a>GROUPIES & CROWD SURFERS</color> are the key
      to success with this deck! Always getting value out of your <color=#e7d99a>CROWD
      SURFER</color> by using its <color=#d96cea>Riff</color> is extremely important.
      Protecting your <color=#e7d99a>GROUPIES</color> with <color=#e7d99a>CROWD SURFERS</color>
      allows for consistent damage!



      On <color=#c24cb3>5 mana,</color> you
      can play <color=#e7d99a>MOSH PIT</color> -- transforming any surviving <color=#e7d99a>GROUPIES</color>
      into stronger <color=#e7d99a>DEVILCORE GROUPIES!

      </color>



      Play
      <color=#e7d99a>LORENZA </color>when you have <color=#c24cb3>4 mana</color>
      to summon <color=#e7d99a>GROUPIES</color> with <color=#ff8629>Barrier,</color>
      giving them additional damage protection. These <color=#e7d99a>GROUPIES</color>
      are likely to survive until your next turn, where you can take full advantage
      of <color=#54869d>MOSH PIT!</color>



      <color=#e7d99a>STELLA''S</color>
      <color=#e651c1>Lifesteal</color> is a great way to get some HP back mid-game
      if you''ve fallen behind.'
    mainCards:
    - id: CrowdSurfer
      count: 1
    - id: BandWorshiper
      count: 1
    - id: BacklineManager
      count: 1
    - id: SerpentSong
      count: 1
  - Uid: fee44f1c-7788-4573-9adf-51c6e1e812bf-ecd8df2e-ffae-4dd4-9870-383a7d98179e-
    collectable: 1
    deckType: 0
    archetype: frantic-fandom
    archetypeDisplayName: Frantic Fandom
    deckData:
      uid: 98f44a0a-4fab-40dc-bfc6-b096acf83c3e-ecd8df2e-ffae-4dd4-9870-383a7d98179e-
      name: Frantic Fandom I
      info: 
      hero: Violet
      cards:
      - id: BandWorshiper
        count: 8
      - id: CrowdSurfer
        count: 4
      - id: SerpentSong
        count: 4
      - id: SavvySalesman
        count: 4
      - id: MetalHorns
        count: 4
      - id: BacklineManager
        count: 1
      - id: DevilcoreZealot
        count: 1
      - id: RiskyGambler
        count: 3
      - id: Groupies
        count: 1
      faction: 6
      cardBackUid: Standard_Back_001
    overview: Put on a spectacular show and overwhelm your opponent with the aid
      of your adoring fans, the die-hard <color=#684054>GROUPIES!</color>
    howToPlayGuide: "Overrun your opponent with <color=#e7d99a>GROUPIE</color> minions!
      With <color=#f082a6>2 HP,</color> they survive longer against many early-game
      minions whilst protecting your Hero from damage. \r\n\r\nProtect your <color=#e7d99a>GROUPIES</color>
      by playing <color=#e7d99a>CROWD SURFERS</color> in front of them -- and prioritize
      activating their <color=#d96cea>Riffs</color> by playing cheap Spell Cards
      like <color=#e7d99a>SERPENT SONG.</color>\r\n\r\n<color=#e7d99a>HOOPLA</color>
      provides excellent value if they can stick around for <color=#7E9727>2 or more
      turns!</color> Usually playing them in the front-row is ideal, keeping the
      back-row open for more <color=#e7d99a>GROUPIES.</color>\r\n\r\n<color=#e7d99a>DEVILCORE
      ZEALOT</color> can help clear a small board or provide enough damage to finish
      your opponent! Optimize his <color=#c06054>Battlecry</color> by having 3 or
      more <color=#e7d99a>GROUPIES</color> on the board when he's played for big
      damage."
    mainCards:
    - id: BandWorshiper
      count: 1
    - id: SavvySalesman
      count: 1
    - id: BacklineManager
      count: 1
    - id: Groupies
      count: 1
  - Uid: 25d2edb9-605f-4419-8094-297d7a6d4acb-ecd8df2e-ffae-4dd4-9870-383a7d98179e-
    collectable: 1
    deckType: 3
    archetype: superstar-shout
    archetypeDisplayName: Superstar Shout
    deckData:
      uid: ef9540f0-5690-4c12-a293-88ca853273c9-ecd8df2e-ffae-4dd4-9870-383a7d98179e-
      name: Superstar Shout I
      info: 
      hero: Violet
      cards:
      - id: BandWorshiper
        count: 4
      - id: CrowdSurfer
        count: 2
      - id: ConcertCraze
        count: 4
      - id: SerpentSong
        count: 8
      - id: RegisRibit
        count: 1
      - id: AncientLullaby
        count: 4
      - id: PowerChord
        count: 2
      - id: Encore
        count: 2
      - id: Stellmaw
        count: 2
      - id: BrimstoneEruption
        count: 1
      faction: 6
      cardBackUid: Standard_Back_001
    overview: Deadly Draconic magic is yours to control through the power of song!
      Play powerful spells to destroy your opponent's minions! Stomp your opponent
      in the late-game with powerful combos like <color=#684054>CONCERT CRAZE</color>
      or chaining multiple <color=#684054>SERPENT SONG</color> spells!
    howToPlayGuide: "Patience is a requirement to play this deck successfully. In
      the early-game, play damage spells to keep the board clear as to not be overwhelmed
      by your opponent's minions. \r\n\r\nPlay <color=#e7d99a>SERPENT SONGs</color>
      for repeat damage, chaining them by <color=#e16647>Redeeming</color> another
      each time it's played. Always Redeeming <color=#e7d99a>SERPENT SONG</color>
      is recommended in the early-game.\r\n\r\n<color=#e7d99a>ANCIENT LULLABY</color>
      is a great way to counter decks that utilize buffing mechanics thanks to its
      powerful <color=#d9cde5>Silence</color> effect.\r\n\r\nDuring the mid-game,
      try to stablize by using <color=#e651c1>Lifesteal</color> cards like <color=#e7d99a>POWER
      CHORD</color> and <color=#e7d99a>STELLA.</color> Use these in combination with
      cards that increase Draconic</color> damage for even greater healing!\r\n\r\nRunning
      low on resources? Play <color=#e7d99a>ENCORE</color> to draw more Spell Cards!
      \r\n\r\nWhen desperate, play <color=#e7d99a>ERUPTION</color> for massive damage
      across the board.  But be careful -- you'll be hurt, too!"
    mainCards:
    - id: ConcertCraze
      count: 1
    - id: SerpentSong
      count: 1
    - id: AncientLullaby
      count: 1
    - id: BrimstoneEruption
      count: 1
  - Uid: 03a343d6-b306-4181-b4ab-6df0ff7e01ba-ecd8df2e-ffae-4dd4-9870-383a7d98179e-
    collectable: 1
    deckType: 1
    archetype: draconic-demise
    archetypeDisplayName: Draconic Demise
    deckData:
      uid: 73479ec8-58d3-488f-9604-f204583640d1-ecd8df2e-ffae-4dd4-9870-383a7d98179e-
      name: Draconic Demise I
      info: 
      hero: Violet
      cards:
      - id: BandWorshiper
        count: 4
      - id: EmberEgg
        count: 4
      - id: BloodOath
        count: 4
      - id: DemonicBasist
        count: 2
      - id: RegisRibit
        count: 1
      - id: HotSlime
        count: 8
      - id: VoidSeeker
        count: 4
      - id: CloneCurator
        count: 2
      - id: MistmancerJinn
        count: 1
      faction: 6
      cardBackUid: Standard_Back_001
    overview: Wield the most sinister form of Draconic magic -- death! Swarm the
      board with <color=#e23c3c>Deathrattle</color> units, always opting to block
      your opponent's minions over direct damage. <color=#684054>KIL</color> allows
      you to resurrect some of your most powerful minions.
    howToPlayGuide: "Play <color=#e7d99a>VOID ANCIENT</color> and <color=#e7d99a>HOT
      SLIME,</color> using their <color=#e23c3c>Deathrattle</color> to damage the
      opponent's Hero directly. Because this deck deals so much damage with its abundance
      of <color=#e23c3c>Deathrattle</color> minions, you can generally opt for a
      defensive playstyle, focusing on blocking Hero damage.\r\n\r\nGetting maximum
      value out of your <color=#e7d99a>BEACH BONES</color> is vital to victory; never
      play them into a <color=#e23c3c>Deathrattle</color> that won't trigger direct
      damage to the opponent. \r\n\r\n<color=#e7d99a>CLONE CURATORS</color> are a
      great way to get more <color=#e7d99a>VOID ANCIENTS</color> or <color=#e7d99a>HOT
      SLIMES</color> into your deck, providing more opportunities for late-game damage
      output.\r\n\r\n<color=#e7d99a>KIL</color> is a powerful addition to this deck,
      usually securing the win with good timing. Aim for 2 <color=#e7d99a>KILs</color>
      in your deck, opting to play one of them mid-game to stabilize. Aim for at
      least 2 to 3 <color=#e23c3c>Deathrattle</color> minions re-summoned from your
      first <color=#e7d99a>KIL</color> play. Your second <color=#e7d99a>KIL</color>
      should be played as a late-game finisher -- and only when you feel confident
      it will fill the board with re-summoned minions!\r\n\r\nIf your resources are
      scarce, cards like <color=#e7d99a>BLOOD OATH</color> can provide card draw
      for little cost. Using <color=#e7d99a>BLOOD OATH</color> to get another <color=#e23c3c>Deathrattle</color>
      minion in the pool before playing <color=#e7d99a>KIL</color> is a great strategy.\r\n\r\nFinally,
      <color=#e7d99a>MISTMANCER's</color> powerful doubling effect can be used in
      tandem with your <color=#e23c3c>Deathrattles</color> to deal massive damage
      in the mid-game. It also allows for summoning double the number of minions
      with your earlier <color=#e7d99a>KIL</color> play!"
    mainCards:
    - id: VoidSeeker
      count: 1
    - id: DemonicBasist
      count: 1
    - id: RegisRibit
      count: 1
    - id: MistmancerJinn
      count: 1
  - Uid: 1041b983-241a-492a-8a3b-9d51ca903167-ecd8df2e-ffae-4dd4-9870-383a7d98179e-
    collectable: 1
    deckType: 1
    archetype: ancient-flux
    archetypeDisplayName: Ancient Flux
    deckData:
      uid: f5f6205c-b141-4d88-b981-184727ceb617-ecd8df2e-ffae-4dd4-9870-383a7d98179e-
      name: Ancient Flux I
      info: 
      hero: Violet
      cards:
      - id: RebirthTotem
        count: 2
      - id: PowerTome
        count: 2
      - id: BandWorshiper
        count: 4
      - id: CrowdSurfer
        count: 4
      - id: AncientScholar
        count: 4
      - id: DemonicBlast
        count: 4
      - id: SoulskinAncient
        count: 4
      - id: AncientLullaby
        count: 2
      - id: Ghoulfin
        count: 2
      - id: AncientMatron
        count: 2
      faction: 6
      cardBackUid: Standard_Back_001
    overview: Powerful creatures are at your disposal through the <color=#7E9727>Discarding</color>
      of cards! Smartly strategizing around <color=#863bc4>FLUX</color> reduces the
      risk of <color=#7E9727>Discarded</color> cards being lost! Tear opponents apart
      with <color=#684054>SOULSKIN ANCIENT</color> and his boosted stats by <color=#7E9727>Discarding!</color>
    howToPlayGuide: 'Aim to mulligan for an early <color=#e7d99a>ANCIENT MATRON</color>
      or <color=#e7d99a>SOULSKIN ANCIENT,</color> as these minions are your 2 staple
      cards.



      <color=#e7d99a>ANCIENT MATRON</color> can build your board
      out quickly, dealing with minor early-game threats by way of the <color=#e7d99a>TINY
      ANCIENTS</color> she summons. This strategy has the side-effect of buffing
      your <color=#e7d99a>ANCIENT MATRON</color> for the late-game!



      Playing
      <color=#e7d99a>SOULSKIN ANCIENT</color> without any <color=#7E9727>Discard</color>
      effects is extremely risky. Try to combo his play with a <color=#7E9727>Discard</color>
      effect, boosting his stats that same turn to maximize value. Keep your <color=#e7d99a>SOULSKIN
      ANCIENT</color> alive by placing him in your back row, protected by other minions!



      <color=#e7d99a>GHOULFIN</color>
      is a powerful mid-game stabilizer thanks to his <color=#e651c1>Lifesteal.</color>
      Consider keeping him during the <color=#7E9727>Mulligan Phase,</color> as this
      deck has limited healing options.'
    mainCards:
    - id: RebirthTotem
      count: 1
    - id: SoulskinAncient
      count: 1
    - id: AncientMatron
      count: 1
    - id: Ghoulfin
      count: 1
  - Uid: 41f6096f-2f4a-4453-b505-42d0636944ce-ecd8df2e-ffae-4dd4-9870-383a7d98179e-
    collectable: 1
    deckType: 0
    archetype: frantic-fandom
    archetypeDisplayName: Frantic Fandom
    deckData:
      uid: d2650f7e-beb5-4930-8b5a-867be22817a8-ecd8df2e-ffae-4dd4-9870-383a7d98179e-
      name: Frantic Fandom II
      info: 
      hero: Violet
      cards:
      - id: StageDive
        count: 1
      - id: BandWorshiper
        count: 4
      - id: SavvySalesman
        count: 4
      - id: MetalHorns
        count: 5
      - id: DevilcoreZealot
        count: 4
      - id: RocktheHalls
        count: 4
      - id: BacklineManager
        count: 2
      - id: DevilcoreDance
        count: 1
      - id: Groupies
        count: 2
      - id: Rez
        count: 1
      - id: WhamBamJam
        count: 2
      faction: 6
      cardBackUid: Standard_Back_001
    overview: A stronger version of <color=#8b6355>Frantic Fandom!</color> Use your
      <color=#e88d1b>Blitz Burst</color> and additional key cards finish off tougher
      opponents!
    howToPlayGuide: "Overrun your opponent with <color=#e7d99a>GROUPIE</color> minions!
      With <color=#f082a6>2 HP,</color> they survive longer against many early-game
      minions whilst protecting your Hero from damage. \r\n\r\nMore <color=#e7d99a>DEVILCORE
      ZEALOTS</color> are at your disposal to help deal early damage or clear boards
      in the mid-game. Use <color=#e7d99a>METAL HORNS</color> to draw <color=#e7d99a>DEVILCORE
      ZEALOTS</color> and instantly summon <color=#e7d99a>GROUPIES</color> on the
      field!\r\n\r\n<color=#e7d99a>DEVILCORE DANCE</color> transforms all future
      summoned <color=#e7d99a>GROUPIES</color> into powerful <color=#e7d99a>DEVILCORE
      GROUPIES</color> -- for the rest of the match! Playing this card on <color=#7E9727>turn
      5</color> will maximize its value; however, due to its high cost, think carefully
      before doing so as you may be open to big losses.\r\n\r\n<color=#e7d99a>WHAM
      BAM JAM</color> summons three random <color=#54869d>DEMONBORNE</color> minions.
      With a bit of luck, these minions will be strong enough to win you the game!
      And the more <color=#e7d99a>GROUPIES</color> destroyed during the match, the
      cheaper the card is to play.\r\n\r\n<color=#e7d99a>REZ</color> is incredibly
      strong. Playing her in an open lane nets you a whopping <color=#7E9727>14 damage</color>
      thanks to her <color=#1bc0bc>Dual Strike.</color> She can also swing the board
      by granting <color=#e7d99a>GROUPIES</color> or <color=#e7d99a>DEVILCORE GROUPIES</color>
      <color=#1bc0bc>Dual Strike,</color> too!"
    mainCards:
    - id: BandWorshiper
      count: 1
    - id: DevilcoreZealot
      count: 1
    - id: DevilcoreDance
      count: 1
    - id: Rez
      count: 1
  - Uid: 54a81944-d264-4576-9418-f1dde52de4e2-ecd8df2e-ffae-4dd4-9870-383a7d98179e-
    collectable: 1
    deckType: 3
    archetype: superstar-shout
    archetypeDisplayName: Superstar Shout
    deckData:
      uid: c458dfc1-5086-4049-b5dc-371497f621d6-ecd8df2e-ffae-4dd4-9870-383a7d98179e-
      name: Superstar Shout II
      info: 
      hero: Violet
      cards:
      - id: BeatDrop
        count: 1
      - id: DragonTotem
        count: 2
      - id: BandWorshiper
        count: 4
      - id: BloodOath
        count: 2
      - id: MetalHorns
        count: 2
      - id: HellFire
        count: 2
      - id: SerpentSong
        count: 2
      - id: AncientLullaby
        count: 2
      - id: VoidSeeker
        count: 2
      - id: VioletDragon
        count: 2
      - id: LillyLulls
        count: 2
      - id: PowerChord
        count: 4
      - id: RegisRibit
        count: 2
      - id: PowerTome
        count: 1
      faction: 6
      cardBackUid: Standard_Back_001
    overview: Deadly Draconic magic is yours to control through the power of song!
      Play powerful spells to destroy your opponent's minions! Stomp your opponent
      in the late-game with powerful combos like <color=#684054>CONCERT CRAZE</color>
      or chaining multiple <color=#684054>SERPENT SONG</color> spells!
    howToPlayGuide: "Patience is a requirement to play this deck successfully. In
      the early-game, play damage spells to keep the board clear as to not be overwhelmed
      by your opponent's minions. \r\n\r\nPlay <color=#e7d99a>SERPENT SONGs</color>
      for repeat damage, chaining them by <color=#e16647>Redeeming</color> another
      each time it's played. Always Redeeming <color=#e7d99a>SERPENT SONG</color>
      is recommended in the early-game.\r\n\r\n<color=#e7d99a>ANCIENT LULLABY</color>
      is a great way to counter decks that utilize buffing mechanics thanks to its
      powerful <color=#d9cde5>Silence</color> effect.\r\n\r\nDuring the mid-game,
      try to stablize by using <color=#e651c1>Lifesteal</color> cards like <color=#e7d99a>POWER
      CHORD</color> and <color=#e7d99a>STELLA.</color> Use these in combination with
      cards that increase Draconic</color> damage for even greater healing!\r\n\r\nRunning
      low on resources? Play <color=#e7d99a>ENCORE</color> to draw more Spell Cards!
      \r\n\r\nWhen desperate, play <color=#e7d99a>ERUPTION</color> for massive damage
      across the board.  But be careful -- you'll be hurt, too!"
    mainCards:
    - id: SerpentSong
      count: 1
    - id: MetalHorns
      count: 1
    - id: RegisRibit
      count: 1
    - id: PowerChord
      count: 1
  - Uid: 17c726ef-0072-4a29-b88a-416681701f9a-ecd8df2e-ffae-4dd4-9870-383a7d98179e-
    collectable: 1
    deckType: 1
    archetype: draconic-demise
    archetypeDisplayName: Draconic Demise
    deckData:
      uid: d8276ade-c73f-49b7-861d-6f2d13da2fe2-ecd8df2e-ffae-4dd4-9870-383a7d98179e-
      name: Draconic Demise II
      info: 
      hero: Violet
      cards:
      - id: BandWorshiper
        count: 4
      - id: AncientScholar
        count: 4
      - id: BrozeskinAncient
        count: 2
      - id: HellFire
        count: 2
      - id: DemonPact
        count: 1
      - id: SerpentSong
        count: 2
      - id: VioletDragon
        count: 2
      - id: VoidSeeker
        count: 2
      - id: AncientCommander
        count: 4
      - id: LillyLulls
        count: 2
      - id: HotSlime
        count: 4
      - id: Ghoulfin
        count: 1
      faction: 6
      cardBackUid: Standard_Back_001
    overview: Wield the most sinister form of Draconic magic -- death! Swarm the
      board with <color=#e23c3c>Deathrattle</color> units, always opting to block
      your opponent's minions over direct damage. <color=#684054>KIL</color> allows
      you to resurrect some of your most powerful minions.
    howToPlayGuide: "Play <color=#e7d99a>VOID ANCIENT</color> and <color=#e7d99a>HOT
      SLIME,</color> using their <color=#e23c3c>Deathrattle</color> to damage the
      opponent's Hero directly. Because this deck deals so much damage with its abundance
      of <color=#e23c3c>Deathrattle</color> minions, you can generally opt for a
      defensive playstyle, focusing on blocking Hero damage.\r\n\r\nGetting maximum
      value out of your <color=#e7d99a>BEACH BONES</color> is vital to victory; never
      play them into a <color=#e23c3c>Deathrattle</color> that won't trigger direct
      damage to the opponent. \r\n\r\n<color=#e7d99a>CLONE CURATORS</color> are a
      great way to get more <color=#e7d99a>VOID ANCIENTS</color> or <color=#e7d99a>HOT
      SLIMES</color> into your deck, providing more opportunities for late-game damage
      output.\r\n\r\n<color=#e7d99a>KIL</color> is a powerful addition to this deck,
      usually securing the win with good timing. Aim for 2 <color=#e7d99a>KILs</color>
      in your deck, opting to play one of them mid-game to stabilize. Aim for at
      least 2 to 3 <color=#e23c3c>Deathrattle</color> minions re-summoned from your
      first <color=#e7d99a>KIL</color> play. Your second <color=#e7d99a>KIL</color>
      should be played as a late-game finisher -- and only when you feel confident
      it will fill the board with re-summoned minions!\r\n\r\nIf your resources are
      scarce, cards like <color=#e7d99a>BLOOD OATH</color> can provide card draw
      for little cost. Using <color=#e7d99a>BLOOD OATH</color> to get another <color=#e23c3c>Deathrattle</color>
      minion in the pool before playing <color=#e7d99a>KIL</color> is a great strategy.\r\n\r\nFinally,
      <color=#e7d99a>MISTMANCER's</color> powerful doubling effect can be used in
      tandem with your <color=#e23c3c>Deathrattles</color> to deal massive damage
      in the mid-game. It also allows for summoning double the number of minions
      with your earlier <color=#e7d99a>KIL</color> play!"
    mainCards:
    - id: AncientScholar
      count: 1
    - id: DemonPact
      count: 1
    - id: VoidSeeker
      count: 1
    - id: Ghoulfin
      count: 1
  - Uid: 70b29111-5213-4da8-b7d7-0052dde65718-ecd8df2e-ffae-4dd4-9870-383a7d98179e-
    collectable: 1
    deckType: 1
    archetype: ancient-flux
    archetypeDisplayName: Ancient Flux
    deckData:
      uid: a3fc3930-cf3f-4738-8608-b0511f81b086-ecd8df2e-ffae-4dd4-9870-383a7d98179e-
      name: Ancient Flux II
      info: 
      hero: Violet
      cards:
      - id: SiphonMarrow
        count: 1
      - id: RebirthTotem
        count: 4
      - id: PowerTome
        count: 2
      - id: AncientScholar
        count: 4
      - id: DemonicBlast
        count: 4
      - id: SoulskinAncient
        count: 4
      - id: MoltenskinAncient
        count: 2
      - id: AncientCommander
        count: 2
      - id: VioletDragon
        count: 1
      - id: Ghoulfin
        count: 2
      - id: LillyLulls
        count: 1
      - id: AncientMatron
        count: 2
      - id: Victor
        count: 1
      faction: 6
      cardBackUid: Standard_Back_001
    overview: Powerful creatures are at your disposal through the <color=#7E9727>Discarding</color>
      of cards! Smartly strategizing around <color=#863bc4>FLUX</color> reduces the
      risk of <color=#7E9727>Discarded</color> cards being lost! Tear opponents apart
      with <color=#684054>SOULSKIN ANCIENT</color> and his boosted stats by <color=#7E9727>Discarding!</color>
    howToPlayGuide: 'Aim to mulligan for an early <color=#e7d99a>ANCIENT MATRON</color>
      or <color=#e7d99a>SOULSKIN ANCIENT,</color> as these minions are your 2 staple
      cards.



      <color=#e7d99a>ANCIENT MATRON</color> can build your board
      out quickly, dealing with minor early-game threats by way of the <color=#e7d99a>TINY
      ANCIENTS</color> she summons. This strategy has the side-effect of buffing
      your <color=#e7d99a>ANCIENT MATRON</color> for the late-game!



      Playing
      <color=#e7d99a>SOULSKIN ANCIENT</color> without any <color=#7E9727>Discard</color>
      effects is extremely risky. Try to combo his play with a <color=#7E9727>Discard</color>
      effect, boosting his stats that same turn to maximize value. Keep your <color=#e7d99a>SOULSKIN
      ANCIENT</color> alive by placing him in your back row, protected by other minions!



      <color=#e7d99a>GHOULFIN</color>
      is a powerful mid-game stabilizer thanks to his <color=#e651c1>Lifesteal.</color>
      Consider keeping him during the <color=#7E9727>Mulligan Phase,</color> as this
      deck has limited healing options.'
    mainCards:
    - id: PowerTome
      count: 1
    - id: SoulskinAncient
      count: 1
    - id: Ghoulfin
      count: 1
    - id: Victor
      count: 1
  - Uid: 6af6090d-8be6-4ee9-ba5c-9d228cab9eab-e72b0a0b-52bf-4092-9ec4-40c579e11bf8-
    collectable: 1
    deckType: 1
    archetype: quill-starter
    archetypeDisplayName: Quill Starter
    deckData:
      uid: cc9cfa46-89f0-4537-be10-7bd6b7dcf0b4-e72b0a0b-52bf-4092-9ec4-40c579e11bf8-
      name: Quill Starter
      info: 
      hero: Quill
      cards:
      - id: TinyThief
        count: 8
      - id: SaltyRogue
        count: 8
      - id: WimsicleTelescope
        count: 2
      - id: QuickStab
        count: 4
      - id: RansackRupert
        count: 2
      - id: RainingKnives
        count: 4
      - id: Gizmo
        count: 2
      faction: 4
      cardBackUid: Standard_Back_001
    overview: "A starter deck built for the budding thief!\r"
    howToPlayGuide: 'Rely on <color=#e5ecb1>STAB ''N GRAB</color> to <color=#e23c3c>Redeem</color>
      useful cards from your opponent''s deck. Play <color=#e5ecb1>RAINING KNIVES</color>
      to clear your opponent''s minions from the battlefield if you start to feel
      overwhelmed.



      Use lower cost minions to survive until <color=#e5ecb1>GIZMO</color>
      can be played -- and utilize his <color=#e23c3c>Redeem</color> to grab some
      clutch cards! And if he doesn''t net you anything worthwhile, his strength
      should be enough to finish the job!



      Play your trap card, <color=#e5ecb1>GIZMO
      PROVISIONS,</color> to keep minions alive with <color=#e23c3c>Barrier</color>
      and boosted stats!'
    mainCards:
    - id: TinyThief
      count: 1
    - id: WimsicleTelescope
      count: 1
    - id: QuickStab
      count: 1
    - id: Gizmo
      count: 1
  - Uid: b04c5872-089b-4229-9b14-826895d38314-95d19b7a-005b-4c26-91f3-7e1ee75d5907-
    collectable: 1
    deckType: 1
    archetype: bolt-bruiser
    archetypeDisplayName: Bolt Buster
    deckData:
      uid: 393d288c-28e3-4354-8bad-5d85dc16e458-95d19b7a-005b-4c26-91f3-7e1ee75d5907-
      name: Bolt Buster I
      info: 
      hero: Quill
      cards:
      - id: JunkBot
        count: 8
      - id: SaltyRogue
        count: 2
      - id: WimsicleTelescope
        count: 2
      - id: QuickStab
        count: 4
      - id: RansackRupert
        count: 2
      - id: Guts
        count: 4
      - id: Tinkertron
        count: 2
      - id: RainingKnives
        count: 4
      - id: Gizmo
        count: 2
      faction: 4
      cardBackUid: Standard_Back_001
    overview: Tinker with upgradeable <color=#684054>GOLEMS</color> with this cutting-edge
      deck! The highly buff-able <color=#684054>GUTS BOT</color> will decimate your
      enemies with the proper modifications!
    howToPlayGuide: 'The key to victory is boosting <color=#e7d99a>GUTS BOT</color>
      until he destroys your opponent. Prioritize getting one or more <color=#e7d99a>GUTS
      BOTS</color> minions into your hand. Mulligan all other cards if necessary!



      Keeping
      <color=#e7d99a>GUTS BOT</color> alive once played is essential. Play <color=#e7d99a>JUNK
      BOTS</color> or <color=#e7d99a>TINKERTRONS</color> to cheaply buff <color=#e7d99a>GUTS
      BOT,</color> preferably in the same turn. This drastically increases his survivability,
      as he''ll instantly gain +1/+1 for each <color=#54869d>GOLEM</color> minion
      added to the field.



      Playing <color=#e7d99a>JUNK BOTS</color> will
      net you blueprints, such as <color=#e7d99a>SHIELD BLUEPRINT</color> or <color=#e7d99a>LIFESTEAL
      BLUEPRINT.</color> These are excellent for further buffing <color=#e7d99a>GUTS
      BOT</color> and keeping him in the game!



      With a buffed up <color=#e7d99a>GUTS
      BOT,</color> attacking empty columns is key, allowing for big hero damage.



      Try
      placing <color=#e7d99a>GIZMO PROVISIONS</color> traps to further protect <color=#e7d99a>GUTS
      BOT</color> -- especially if your opponent is playing a deck with heavy minion
      focus.'
    mainCards:
    - id: JunkBot
      count: 1
    - id: Tinkertron
      count: 1
    - id: Guts
      count: 1
    - id: WimsicleTelescope
      count: 1
  - Uid: 4eb72a73-becf-4f84-bbd2-49f45016e320-95d19b7a-005b-4c26-91f3-7e1ee75d5907-
    collectable: 1
    deckType: 2
    archetype: ransack-rogue
    archetypeDisplayName: Ransack Rogue
    deckData:
      uid: 5cec3c36-f761-49be-a34d-86932c25d6e3-95d19b7a-005b-4c26-91f3-7e1ee75d5907-
      name: Ransack Rogue I
      info: 
      hero: Quill
      cards:
      - id: TinyThief
        count: 2
      - id: Swipe
        count: 4
      - id: Lineup
        count: 1
      - id: AmbushBrigade
        count: 2
      - id: QuickStab
        count: 4
      - id: RansackRupert
        count: 2
      - id: Ransack
        count: 4
      - id: RainingKnives
        count: 4
      - id: ShieldScout
        count: 2
      - id: BuddingPickpocket
        count: 2
      - id: Gizmo
        count: 2
      - id: Milma
        count: 1
      faction: 4
      cardBackUid: Standard_Back_001
    overview: The perfect deck for a dashing rogue! Use your opponent's strategy
      against them by pilfering copies of their own cards! <color=#684054>Redeem</color>
      cards from all other factions and play the powerful <color=#684054>WICK</color>
      at a reduced cost for big damage!
    howToPlayGuide: 'This playful control deck requires keen game sense. You''ll
      be grabbing copies of your opponent''s cards, so it''s important to understand
      their deck''s synergies.



      Guarantee value from <color=#e5ecb1>STAB
      ''N GRAB</color> by making sure its <color=#e23c3c>Plunder</color> ability
      is triggering, as you''ll only <color=#e23c3c>Redeem</color> a card from their
      deck if the target is destroyed! And when playing <color=#e5ecb1>RANSACK,</color>
      make sure your opponent has at least 2 cards in their hand before spending
      that valuable mana.



      Playing <color=#e5ecb1>MEMBERSHIP CARDS</color>
      or <color=#e5ecb1>SWIPES</color> are key to getting <color=#e5ecb1>WICK</color>
      onto the field as early as possible. Her high damage and <color=#e23c3c>Dual
      Strike</color> are a force to be reckoned with! The lower the cost of the cards
      you <color=#e23c3c>Redeem,</color> the more cards you can play each turn, further
      decreasing <color=#e5ecb1>WICK''S</color> mana cost.'
    mainCards:
    - id: Swipe
      count: 1
    - id: QuickStab
      count: 1
    - id: Ransack
      count: 1
    - id: Milma
      count: 1
  - Uid: f142cc74-291e-4995-88e6-91a1590b262d-95d19b7a-005b-4c26-91f3-7e1ee75d5907-
    collectable: 1
    deckType: 3
    archetype: glimmer-glow
    archetypeDisplayName: Glimmer Glow
    deckData:
      uid: a6df2456-6d7b-4518-81f6-de82e41b6837-95d19b7a-005b-4c26-91f3-7e1ee75d5907-
      name: Glimmer Glow I
      info: 
      hero: Quill
      cards:
      - id: Doubloon
        count: 2
      - id: TinyThief
        count: 3
      - id: RansackRupert
        count: 2
      - id: QuickStab
        count: 4
      - id: OddJob
        count: 4
      - id: ZiggyStardust
        count: 1
      - id: Tinkertron
        count: 4
      - id: RainingKnives
        count: 4
      - id: GoldenManaShard
        count: 4
      - id: Eve
        count: 2
      faction: 4
      cardBackUid: Standard_Back_001
    overview: "Love gold? Flaunt your wealth with this <color=#684054>DOUBLOON</color>\r\nfocused
      deck! The deadly assassin <color=#684054>EVE</color>\r\n will cut your opponent
      to ribbons if combo'd properly!"
    howToPlayGuide: 'Your win condition relies on utilizing <color=#e5ecb1>EVE,</color>
      <color=#e5ecb1>SHINY LOOT,</color> and <color=#e5ecb1>DOUBLOONS</color> --
      all in a single turn. This combo is essential to deal the damage needed to
      swiftly win the game. Be careful, as spending these resources too early or
      in the wrong order will most likely result in an abrupt loss.



      Play
      an <color=#e5ecb1>S-RANK BOUNTY</color> to <color=#e23c3c>Redeem</color> <color=#e5ecb1>EVE</color>
      if you''re struggling with drawing her.



      Preparing for the finishing
      combo by playing <color=#e5ecb1>SHINY LOOT</color> ahead of time is a sound
      strategy, too.



      <color=#e5ecb1>ZIGGY STARDUST,</color> the casino king
      himself, can provide an alternative win condition if he''s played alongside
      a pile of <color=#e5ecb1>DOUBLOONS!</color> With every spell played while he''s
      active on the field, a random enemy will take 3 damage!'
    mainCards:
    - id: Doubloon
      count: 1
    - id: ZiggyStardust
      count: 1
    - id: GoldenManaShard
      count: 1
    - id: Eve
      count: 1
  - Uid: 730deacb-3cc4-4d4c-b968-23cd55bbd01f-124892ae-fe61-4a89-81bd-e991489e7b0d-
    collectable: 1
    deckType: 2
    archetype: trap-tricks
    archetypeDisplayName: Trap Tricks
    deckData:
      uid: ea660d45-55ce-40e8-adfc-1e8dc425edbf-124892ae-fe61-4a89-81bd-e991489e7b0d-
      name: 'Trap Tricks I '
      info: 
      hero: Quill
      cards:
      - id: AmbushBrigade
        count: 2
      - id: TinyThief
        count: 4
      - id: WimsicleTelescope
        count: 2
      - id: TinkerRockets
        count: 2
      - id: BwokBeam
        count: 2
      - id: OddJob
        count: 2
      - id: QuickStab
        count: 4
      - id: MagitekScholar
        count: 4
      - id: RainingKnives
        count: 2
      - id: TrapTechnician
        count: 2
      - id: Golemancer
        count: 4
      faction: 4
      cardBackUid: Standard_Back_001
    overview: The go-to deck for any trap enthusiast! Befuddle your opponent with
      a constant onslaught of <color=#684054>traps,</color> disrupting their strategy
      at every twist and turn!
    howToPlayGuide: 'The key to victory is prolonged disruption of your opponent''s
      strategy. Lay down traps alongside minions that can benefit from trap cards''
      unique synergies.



      Clear the board with the <color=#e5ecb1>GOLEMANCER,</color>
      who damages all of your opponent''s minions while any friendly traps are waiting
      to be sprung!



      Play <color=#e5ecb1>B.W.A.K. BEAM</color> in anticipation
      of your opponent dropping powerful minions. A 1/1 <color=#e5ecb1>CLUCKIE</color>
      isn''t much of a threat! In combination with a <color=#e5ecb1>MAGITEK SCHOLAR</color>
      boosting a small army of your own minions, your opponent won''t know what hit
      them!



      As this deck lacks value generation, the <color=#e5ecb1>S-RANK
      BOUNTY</color> spell card is a vital tool in procuring minions!'
    mainCards:
    - id: BwokBeam
      count: 2
    - id: MagitekScholar
      count: 4
    - id: TrapTechnician
      count: 2
    - id: Golemancer
      count: 4
  - Uid: 7aee4236-a0c0-4acc-a9e3-4abc8777ae21-6fbe6453-362a-42c4-bbc3-08cd457c51a8-
    collectable: 1
    deckType: 1
    archetype: bolt-bruiser
    archetypeDisplayName: Bolt Buster
    deckData:
      uid: 2c59b1bc-ffc9-4f3f-925a-f923f246fcb0-6fbe6453-362a-42c4-bbc3-08cd457c51a8-
      name: Bolt Buster II
      info: 
      hero: Quill
      cards:
      - id: BoltBoost
        count: 1
      - id: JunkBot
        count: 4
      - id: Guts
        count: 4
      - id: Tinkertron
        count: 4
      - id: BwokBeam
        count: 2
      - id: TinkerRockets
        count: 2
      - id: WimsicleTelescope
        count: 2
      - id: QuickStab
        count: 4
      - id: ManaDiffuser
        count: 2
      - id: Torpedo
        count: 2
      - id: Gizmo
        count: 2
      - id: GearHead
        count: 1
      faction: 4
      cardBackUid: Standard_Back_001
    overview: Tinker with upgradeable <color=#684054>GOLEMS</color> with this cutting-edge
      deck! The highly buff-able <color=#684054>GUTS BOT</color> will decimate your
      enemies with the proper modifications! Unleah the devastating <color=#684054>GEAR
      HEAD</color> at a reduced cost to overwhelm your enemies!
    howToPlayGuide: 'The key to victory is boosting <color=#e7d99a>GUTS BOT</color>
      until he destroys your opponent. Prioritize getting one or more <color=#e7d99a>GUTS
      BOTS</color> minions into your hand. Mulligan all other cards if necessary!



      Keeping
      <color=#e7d99a>GUTS BOT</color> alive once played is essential. Play <color=#e7d99a>JUNK
      BOTS</color> or <color=#e7d99a>TINKERTRONS</color> to cheaply buff <color=#e7d99a>GUTS
      BOT,</color> preferably in the same turn. This drastically increases his survivability,
      as he''ll instantly gain +1/+1 for each <color=#54869d>GOLEM</color> minion
      added to the field.



      Playing <color=#e7d99a>JUNK BOTS</color> will
      net you blueprints, such as <color=#e7d99a>SHIELD BLUEPRINT</color> or <color=#e7d99a>LIFESTEAL
      BLUEPRINT.</color> These are excellent for further buffing <color=#e7d99a>GUTS
      BOT</color> and keeping him in the game!



      With a buffed up <color=#e7d99a>GUTS
      BOT,</color> attacking empty columns is key, allowing for big hero damage.


      Try
      placing <color=#e7d99a>GIZMO PROVISIONS</color> traps to further protect <color=#e7d99a>GUTS
      BOT</color> -- especially if your opponent is playing a deck with heavy minion
      focus.


      The more friendly traps the field, the cheaper <color=#e7d99a>GEAR
      HEAD</color> costs to play -- a powerful minion to even the odds!'
    mainCards: []
  - Uid: a5554e67-a55e-47c9-9194-4ac6b2803587-124892ae-fe61-4a89-81bd-e991489e7b0d-
    collectable: 1
    deckType: 2
    archetype: ransack-rogue
    archetypeDisplayName: Ransack Rogue
    deckData:
      uid: 0ca33c39-6e4f-45f1-81f6-741308844754-124892ae-fe61-4a89-81bd-e991489e7b0d-
      name: Ransack Rogue II
      info: 
      hero: Quill
      cards:
      - id: ThickasThieves
        count: 1
      - id: AmbushBrigade
        count: 2
      - id: Lineup
        count: 2
      - id: Swipe
        count: 2
      - id: SummonerGolem
        count: 4
      - id: QuickStab
        count: 2
      - id: OddJob
        count: 2
      - id: ShieldScout
        count: 2
      - id: RainingKnives
        count: 2
      - id: BuddingPickpocket
        count: 2
      - id: GrubbyBroker
        count: 4
      - id: Gizmo
        count: 1
      - id: Milma
        count: 2
      - id: Cardshark
        count: 2
      faction: 4
      cardBackUid: Standard_Back_001
    overview: An expert rogue's favorite deck!! Use your opponent's strategy against
      them by pilfering copies of their own cards! <color=#684054>Redeem</color>
      cards from all other factions and play the powerful <color=#684054>WICK</color>
      or <color=#684054>CARDSHARK</color>  for big damage!
    howToPlayGuide: 'This playful control deck requires keen game sense. You''ll
      be grabbing copies of your opponent''s cards, so it''s important to understand
      their deck''s synergies.



      Guarantee value from <color=#e5ecb1>STAB
      ''N GRAB</color> by making sure its <color=#e23c3c>Plunder</color> ability
      is triggering, as you''ll only <color=#e23c3c>Redeem</color> a card from their
      deck if the target is destroyed! And when playing <color=#e5ecb1>RANSACK,</color>
      make sure your opponent has at least 2 cards in their hand before spending
      that valuable mana.



      Playing <color=#e5ecb1>MEMBERSHIP CARDS</color>
      or <color=#e5ecb1>SWIPES</color> are key to getting <color=#e5ecb1>WICK</color>
      onto the field as early as possible. Her high damage and <color=#e23c3c>Dual
      Strike</color> are a force to be reckoned with! The lower the cost of the cards
      you <color=#e23c3c>Redeem,</color> the more cards you can play each turn, further
      decreasing <color=#e5ecb1>WICK''S</color> mana cost and buffing <color=#e5ecb1>CARDSHARK.</color>


      <color=#e5ecb1>BRIGADE
      TRAPS</color> will be of little use when playing against <color=#e23c3c>Fortune</color>
      faction opponents. Try using cards that <color=#e23c3c>Redeem</color> from
      other factions instead, to ensure <color=#e5ecb1>WICK</color> and <color=#e5ecb1>CARDSHARK</color>
      get more value.



      <color=#e5ecb1>BRIGADE BROS</color> is a powerful
      <color=#e23c3c>Blitz Burst</color> that refills your mana, essentially giving
      you 2 turns for the price of 1 -- allowing for some devastating combos.'
    mainCards:
    - id: SummonerGolem
      count: 1
    - id: GrubbyBroker
      count: 1
    - id: Milma
      count: 1
    - id: Cardshark
      count: 1
  - Uid: 92f8029e-6eb0-4b41-aba9-7c4cea269d04-6fbe6453-362a-42c4-bbc3-08cd457c51a8-
    collectable: 1
    deckType: 3
    archetype: glimmer-glow
    archetypeDisplayName: Glimmer Glow
    deckData:
      uid: a5b29459-0ced-4490-8a9b-1c9183161ae7-6fbe6453-362a-42c4-bbc3-08cd457c51a8-
      name: Glimmer Glow II
      info: 
      hero: Quill
      cards:
      - id: GachaGacha
        count: 1
      - id: Doubloon
        count: 2
      - id: DoubleCross
        count: 2
      - id: OddJob
        count: 4
      - id: QuickStab
        count: 2
      - id: ZiggyStardust
        count: 1
      - id: GoldenManaShard
        count: 4
      - id: RainingKnives
        count: 4
      - id: GoldBot
        count: 2
      - id: SparkleFiendElda
        count: 3
      - id: HeavySwordHero
        count: 2
      - id: Eve
        count: 2
      - id: ArchdukeMingmogul
        count: 1
      faction: 4
      cardBackUid: Standard_Back_001
    overview: "Love gold? Flaunt your wealth with this <color=#684054>DOUBLOON</color>\r\nfocused
      deck! The deadly assassin <color=#684054>EVE</color>\r\n will cut your opponent
      to ribbons if combo'd properly!"
    howToPlayGuide: "Your win condition relies on utilizing <color=#e5ecb1>EVE,</color>
      <color=#e5ecb1>SHINY LOOT,</color> and <color=#e5ecb1>DOUBLOONS</color> --
      all in a single turn. This combo is essential to deal the damage needed to
      swiftly win the game. Be careful, as spending these resources too early or
      in the wrong order will most likely result in an abrupt loss.\r\n\r\nPlay an
      <color=#e5ecb1>S-RANK BOUNTY</color> to <color=#e23c3c>Redeem</color> <color=#e5ecb1>EVE</color>
      if you're struggling with drawing her.\r\n\r\nPreparing for the finishing combo
      by playing <color=#e5ecb1>SHINY LOOT</color> ahead of time is a sound strategy,
      too.\r\n\r\n<color=#e5ecb1>ZIGGY STARDUST,</color> the casino king himself,
      can provide an alternative win condition if he's played alongside a pile of
      <color=#e5ecb1>DOUBLOONS!</color> With every spell played while he's active
      on the field, a random enemy will take 3 damage!\n\nWith the addition of the
      <color=#e5ecb1>GILDED GACHA</color> <color=#e23c3c>Blitz Burst,</color> you
      can play your combo earlier! With the <color=#e5ecb1>GACHA MACHINE</color>
      on the board, use it with <color=#e5ecb1>HOLDEN</color> or <color=#e5ecb1>EVE</color>
      to trigger their effects for a low cost!\r\n\r\n<color=#e23c3c>Plunder</color>
      with <color=#e5ecb1>ELDA</color> to earn as many <color=#e5ecb1>DOUBLOONS</color>
      as possible, and then spend them throughout the match to pull off big damage
      with <color=#e5ecb1>ARCHDUKE MINGMOGUL.\r</color>\n\r\nThe initial combo is
      still important to pull off, but with the additional cards available, there's
      much more flexibility in enacting your strategy!"
    mainCards:
    - id: SparkleFiendElda
      count: 1
    - id: HeavySwordHero
      count: 1
    - id: Eve
      count: 1
    - id: ArchdukeMingmogul
      count: 1
  - Uid: 5408a19c-12b9-4f3c-8392-b73de6b51e6a-6fbe6453-362a-42c4-bbc3-08cd457c51a8-
    collectable: 1
    deckType: 2
    archetype: trap-tricks
    archetypeDisplayName: Trap Tricks
    deckData:
      uid: a4e4ac28-d612-453e-a9e2-b80e3cbc4470-6fbe6453-362a-42c4-bbc3-08cd457c51a8-
      name: Trap Tricks II
      info: 
      hero: Quill
      cards:
      - id: ScholarsLibrary
        count: 1
      - id: WimsicleTelescope
        count: 2
      - id: TinkerRockets
        count: 2
      - id: BwokBeam
        count: 2
      - id: OddJob
        count: 2
      - id: ManaDiffuser
        count: 2
      - id: PilferPip
        count: 2
      - id: TinkBuilder
        count: 2
      - id: MagitekScholar
        count: 4
      - id: RainingKnives
        count: 2
      - id: TrapTechnician
        count: 2
      - id: Golemancer
        count: 4
      - id: GearHead
        count: 2
      - id: TinkmasterOtto
        count: 1
      faction: 4
      cardBackUid: Standard_Back_001
    overview: The go-to deck for any trap enthusiast! Befuddle your opponent with
      a constant onslaught of <color=#684054>traps,</color> disrupting their strategy
      at every twist and turn!
    howToPlayGuide: "The key to victory is prolonged disruption of your opponent's
      strategy. Lay down traps alongside minions that can benefit from trap cards'
      unique synergies.\r\n\nWith plenty of traps now at your disposal, there's more
      freedom in playing them early.\n\r\nClear the board with the <color=#e5ecb1>GOLEMANCER,</color>
      who damages all of your opponent's minions while any friendly traps are waiting
      to be sprung!\r Or play the mighty <color=#e5ecb1>GEAR HEAD</color> at a majorly
      reduced cost. It pays to be prepared!\n\r\nPlay <color=#e5ecb1>B.W.A.K. BEAM</color>
      in anticipation of your opponent dropping powerful minions. A 1/1 <color=#e5ecb1>CLUCKIE</color>
      isn't much of a threat! In combination with a <color=#e5ecb1>MAGITEK SCHOLAR</color>
      boosting a small army of your own minions, your opponent won't know what hit
      them!\r\n\r\nAs this deck lacks value generation, the <color=#e5ecb1>S-RANK
      BOUNTY</color> spell card is a vital tool in procuring minions!\n\nIf all else
      fails, <color=#e5ecb1>TINKMASTER OTTO</color> is your trump card. With 3 or
      more traps on the field, he'll be granted <color=#e23c3c>Rush</color> when
      played -- allowing him to attack that same turn!"
    mainCards:
    - id: Golemancer
      count: 1
    - id: TrapTechnician
      count: 1
    - id: GearHead
      count: 1
    - id: TinkmasterOtto
      count: 1
  - Uid: fa09146a-dee4-4650-9e0c-f9cbf2bad2ae-1cd47650-4324-4b61-b5ee-497d9dc1121e-
    collectable: 0
    deckType: 0
    archetype: 
    archetypeDisplayName: 
    deckData:
      uid: 887ce855-c4f9-47d6-a478-2888519e0dab-1cd47650-4324-4b61-b5ee-497d9dc1121e-
      name: Custom War Deck
      info: 
      hero: Redcroft
      cards: []
      faction: 2
      cardBackUid: Standard_Back_001
    overview: Start with a blank deck and build it the way you want.
    howToPlayGuide: 
    mainCards: []
  - Uid: 195b8718-9bd9-46a9-9d88-679a719612b6-1cd47650-4324-4b61-b5ee-497d9dc1121e-
    collectable: 0
    deckType: 0
    archetype: 
    archetypeDisplayName: 
    deckData:
      uid: d8a146e1-44e1-4b75-88d3-240ff24b80e4-1cd47650-4324-4b61-b5ee-497d9dc1121e-
      name: Custom Chaos Deck
      info: 
      hero: Violet
      cards: []
      faction: 6
      cardBackUid: Standard_Back_001
    overview: Start with a blank deck and build it the way you want.
    howToPlayGuide: 
    mainCards: []
  - Uid: b60fafb7-0804-4bb3-b1b5-04e142056fc6-1cd47650-4324-4b61-b5ee-497d9dc1121e-
    collectable: 0
    deckType: 0
    archetype: 
    archetypeDisplayName: 
    deckData:
      uid: ffb77a21-ab1e-4bd1-b940-ed1d0ef766c7-1cd47650-4324-4b61-b5ee-497d9dc1121e-
      name: Custom Balance Deck
      info: 
      hero: Seto
      cards: []
      faction: 5
      cardBackUid: Standard_Back_001
    overview: Start with a blank deck and build it the way you want.
    howToPlayGuide: 
    mainCards: []
  - Uid: 740c0e40-eade-4622-8f6f-7cb21914d0a3-1cd47650-4324-4b61-b5ee-497d9dc1121e-
    collectable: 0
    deckType: 0
    archetype: 
    archetypeDisplayName: 
    deckData:
      uid: 6e055d5e-7dab-4fd2-b64f-56e132454ae5-1cd47650-4324-4b61-b5ee-497d9dc1121e-
      name: Custom Fortune Deck
      info: 
      hero: Quill
      cards: []
      faction: 4
      cardBackUid: Standard_Back_001
    overview: Start with a blank deck and build it the way you want.
    howToPlayGuide: 
    mainCards: []
  - Uid: fead51b8-5f47-412c-997f-9e6d535f43e6-1cd47650-4324-4b61-b5ee-497d9dc1121e-
    collectable: 0
    deckType: 0
    archetype: 
    archetypeDisplayName: 
    deckData:
      uid: a113d924-5861-4f80-a4ce-dfaf14d8f7c9-1cd47650-4324-4b61-b5ee-497d9dc1121e-
      name: Custom Nature Deck
      info: 
      hero: Mereena
      cards: []
      faction: 3
      cardBackUid: Standard_Back_001
    overview: Start with a blank deck and build it the way you want.
    howToPlayGuide: 
    mainCards: []
